^E:\PROGRAMMING\BULLET PHYSICS\BULLET3-2.83.7\SRC\CLEW\CLEW.C
/c /I"E:\PROGRAMMING\BULLET PHYSICS\BULLET3-2.83.7\SRC" /Zi /nologo /W3 /WX- /Od /Ob0 /D WIN32 /D _DEBUG /D _DEBUG /D _WIN64 /D USE_GRAPHICAL_BENCHMARK /D _CRT_SECURE_NO_WARNINGS /D _CRT_SECURE_NO_DEPRECATE /D _SCL_SECURE_NO_WARNINGS /D B3_USE_CLEW /D "CMAKE_INTDIR=\"Debug\"" /D _MBCS /Gm- /EHsc /RTC1 /MTd /GS /fp:fast /Zc:wchar_t /Zc:forScope /Zc:inline /GR /Fo"BULLET3OPENCL_CLEW.DIR\DEBUG\\" /Fd"BULLET3OPENCL_CLEW.DIR\DEBUG\BULLET3OPENCL_CLEW.PDB" /Gd /TC E:\PROGRAMMING\BULLET PHYSICS\BULLET3-2.83.7\SRC\CLEW\CLEW.C
^E:\PROGRAMMING\BULLET PHYSICS\BULLET3-2.83.7\SRC\BULLET3OPENCL\BROADPHASECOLLISION\B3GPUGRIDBROADPHASE.CPP
/c /I"E:\PROGRAMMING\BULLET PHYSICS\BULLET3-2.83.7\SRC" /Zi /nologo /W3 /WX- /Od /Ob0 /D WIN32 /D _DEBUG /D _DEBUG /D _WIN64 /D USE_GRAPHICAL_BENCHMARK /D _CRT_SECURE_NO_WARNINGS /D _CRT_SECURE_NO_DEPRECATE /D _SCL_SECURE_NO_WARNINGS /D B3_USE_CLEW /D "CMAKE_INTDIR=\"Debug\"" /D _MBCS /Gm- /EHsc /RTC1 /MTd /GS /fp:fast /Zc:wchar_t /Zc:forScope /Zc:inline /GR /Fo"BULLET3OPENCL_CLEW.DIR\DEBUG\\" /Fd"BULLET3OPENCL_CLEW.DIR\DEBUG\BULLET3OPENCL_CLEW.PDB" /Gd /TP E:\PROGRAMMING\BULLET PHYSICS\BULLET3-2.83.7\SRC\BULLET3OPENCL\BROADPHASECOLLISION\B3GPUGRIDBROADPHASE.CPP
^E:\PROGRAMMING\BULLET PHYSICS\BULLET3-2.83.7\SRC\BULLET3OPENCL\BROADPHASECOLLISION\B3GPUSAPBROADPHASE.CPP
/c /I"E:\PROGRAMMING\BULLET PHYSICS\BULLET3-2.83.7\SRC" /Zi /nologo /W3 /WX- /Od /Ob0 /D WIN32 /D _DEBUG /D _DEBUG /D _WIN64 /D USE_GRAPHICAL_BENCHMARK /D _CRT_SECURE_NO_WARNINGS /D _CRT_SECURE_NO_DEPRECATE /D _SCL_SECURE_NO_WARNINGS /D B3_USE_CLEW /D "CMAKE_INTDIR=\"Debug\"" /D _MBCS /Gm- /EHsc /RTC1 /MTd /GS /fp:fast /Zc:wchar_t /Zc:forScope /Zc:inline /GR /Fo"BULLET3OPENCL_CLEW.DIR\DEBUG\\" /Fd"BULLET3OPENCL_CLEW.DIR\DEBUG\BULLET3OPENCL_CLEW.PDB" /Gd /TP E:\PROGRAMMING\BULLET PHYSICS\BULLET3-2.83.7\SRC\BULLET3OPENCL\BROADPHASECOLLISION\B3GPUSAPBROADPHASE.CPP
^E:\PROGRAMMING\BULLET PHYSICS\BULLET3-2.83.7\SRC\BULLET3OPENCL\BROADPHASECOLLISION\B3GPUPARALLELLINEARBVHBROADPHASE.CPP
/c /I"E:\PROGRAMMING\BULLET PHYSICS\BULLET3-2.83.7\SRC" /Zi /nologo /W3 /WX- /Od /Ob0 /D WIN32 /D _DEBUG /D _DEBUG /D _WIN64 /D USE_GRAPHICAL_BENCHMARK /D _CRT_SECURE_NO_WARNINGS /D _CRT_SECURE_NO_DEPRECATE /D _SCL_SECURE_NO_WARNINGS /D B3_USE_CLEW /D "CMAKE_INTDIR=\"Debug\"" /D _MBCS /Gm- /EHsc /RTC1 /MTd /GS /fp:fast /Zc:wchar_t /Zc:forScope /Zc:inline /GR /Fo"BULLET3OPENCL_CLEW.DIR\DEBUG\\" /Fd"BULLET3OPENCL_CLEW.DIR\DEBUG\BULLET3OPENCL_CLEW.PDB" /Gd /TP E:\PROGRAMMING\BULLET PHYSICS\BULLET3-2.83.7\SRC\BULLET3OPENCL\BROADPHASECOLLISION\B3GPUPARALLELLINEARBVHBROADPHASE.CPP
^E:\PROGRAMMING\BULLET PHYSICS\BULLET3-2.83.7\SRC\BULLET3OPENCL\BROADPHASECOLLISION\B3GPUPARALLELLINEARBVH.CPP
/c /I"E:\PROGRAMMING\BULLET PHYSICS\BULLET3-2.83.7\SRC" /Zi /nologo /W3 /WX- /Od /Ob0 /D WIN32 /D _DEBUG /D _DEBUG /D _WIN64 /D USE_GRAPHICAL_BENCHMARK /D _CRT_SECURE_NO_WARNINGS /D _CRT_SECURE_NO_DEPRECATE /D _SCL_SECURE_NO_WARNINGS /D B3_USE_CLEW /D "CMAKE_INTDIR=\"Debug\"" /D _MBCS /Gm- /EHsc /RTC1 /MTd /GS /fp:fast /Zc:wchar_t /Zc:forScope /Zc:inline /GR /Fo"BULLET3OPENCL_CLEW.DIR\DEBUG\\" /Fd"BULLET3OPENCL_CLEW.DIR\DEBUG\BULLET3OPENCL_CLEW.PDB" /Gd /TP E:\PROGRAMMING\BULLET PHYSICS\BULLET3-2.83.7\SRC\BULLET3OPENCL\BROADPHASECOLLISION\B3GPUPARALLELLINEARBVH.CPP
^E:\PROGRAMMING\BULLET PHYSICS\BULLET3-2.83.7\SRC\BULLET3OPENCL\INITIALIZE\B3OPENCLUTILS.CPP
/c /I"E:\PROGRAMMING\BULLET PHYSICS\BULLET3-2.83.7\SRC" /Zi /nologo /W3 /WX- /Od /Ob0 /D WIN32 /D _DEBUG /D _DEBUG /D _WIN64 /D USE_GRAPHICAL_BENCHMARK /D _CRT_SECURE_NO_WARNINGS /D _CRT_SECURE_NO_DEPRECATE /D _SCL_SECURE_NO_WARNINGS /D B3_USE_CLEW /D "CMAKE_INTDIR=\"Debug\"" /D _MBCS /Gm- /EHsc /RTC1 /MTd /GS /fp:fast /Zc:wchar_t /Zc:forScope /Zc:inline /GR /Fo"BULLET3OPENCL_CLEW.DIR\DEBUG\\" /Fd"BULLET3OPENCL_CLEW.DIR\DEBUG\BULLET3OPENCL_CLEW.PDB" /Gd /TP E:\PROGRAMMING\BULLET PHYSICS\BULLET3-2.83.7\SRC\BULLET3OPENCL\INITIALIZE\B3OPENCLUTILS.CPP
^E:\PROGRAMMING\BULLET PHYSICS\BULLET3-2.83.7\SRC\BULLET3OPENCL\NARROWPHASECOLLISION\B3CONTACTCACHE.CPP
/c /I"E:\PROGRAMMING\BULLET PHYSICS\BULLET3-2.83.7\SRC" /Zi /nologo /W3 /WX- /Od /Ob0 /D WIN32 /D _DEBUG /D _DEBUG /D _WIN64 /D USE_GRAPHICAL_BENCHMARK /D _CRT_SECURE_NO_WARNINGS /D _CRT_SECURE_NO_DEPRECATE /D _SCL_SECURE_NO_WARNINGS /D B3_USE_CLEW /D "CMAKE_INTDIR=\"Debug\"" /D _MBCS /Gm- /EHsc /RTC1 /MTd /GS /fp:fast /Zc:wchar_t /Zc:forScope /Zc:inline /GR /Fo"BULLET3OPENCL_CLEW.DIR\DEBUG\\" /Fd"BULLET3OPENCL_CLEW.DIR\DEBUG\BULLET3OPENCL_CLEW.PDB" /Gd /TP E:\PROGRAMMING\BULLET PHYSICS\BULLET3-2.83.7\SRC\BULLET3OPENCL\NARROWPHASECOLLISION\B3CONTACTCACHE.CPP
^E:\PROGRAMMING\BULLET PHYSICS\BULLET3-2.83.7\SRC\BULLET3OPENCL\NARROWPHASECOLLISION\B3CONVEXHULLCONTACT.CPP
/c /I"E:\PROGRAMMING\BULLET PHYSICS\BULLET3-2.83.7\SRC" /Zi /nologo /W3 /WX- /Od /Ob0 /D WIN32 /D _DEBUG /D _DEBUG /D _WIN64 /D USE_GRAPHICAL_BENCHMARK /D _CRT_SECURE_NO_WARNINGS /D _CRT_SECURE_NO_DEPRECATE /D _SCL_SECURE_NO_WARNINGS /D B3_USE_CLEW /D "CMAKE_INTDIR=\"Debug\"" /D _MBCS /Gm- /EHsc /RTC1 /MTd /GS /fp:fast /Zc:wchar_t /Zc:forScope /Zc:inline /GR /Fo"BULLET3OPENCL_CLEW.DIR\DEBUG\\" /Fd"BULLET3OPENCL_CLEW.DIR\DEBUG\BULLET3OPENCL_CLEW.PDB" /Gd /TP E:\PROGRAMMING\BULLET PHYSICS\BULLET3-2.83.7\SRC\BULLET3OPENCL\NARROWPHASECOLLISION\B3CONVEXHULLCONTACT.CPP
^E:\PROGRAMMING\BULLET PHYSICS\BULLET3-2.83.7\SRC\BULLET3OPENCL\NARROWPHASECOLLISION\B3GJKEPA.CPP
/c /I"E:\PROGRAMMING\BULLET PHYSICS\BULLET3-2.83.7\SRC" /Zi /nologo /W3 /WX- /Od /Ob0 /D WIN32 /D _DEBUG /D _DEBUG /D _WIN64 /D USE_GRAPHICAL_BENCHMARK /D _CRT_SECURE_NO_WARNINGS /D _CRT_SECURE_NO_DEPRECATE /D _SCL_SECURE_NO_WARNINGS /D B3_USE_CLEW /D "CMAKE_INTDIR=\"Debug\"" /D _MBCS /Gm- /EHsc /RTC1 /MTd /GS /fp:fast /Zc:wchar_t /Zc:forScope /Zc:inline /GR /Fo"BULLET3OPENCL_CLEW.DIR\DEBUG\\" /Fd"BULLET3OPENCL_CLEW.DIR\DEBUG\BULLET3OPENCL_CLEW.PDB" /Gd /TP E:\PROGRAMMING\BULLET PHYSICS\BULLET3-2.83.7\SRC\BULLET3OPENCL\NARROWPHASECOLLISION\B3GJKEPA.CPP
^E:\PROGRAMMING\BULLET PHYSICS\BULLET3-2.83.7\SRC\BULLET3OPENCL\NARROWPHASECOLLISION\B3GJKPAIRDETECTOR.CPP
/c /I"E:\PROGRAMMING\BULLET PHYSICS\BULLET3-2.83.7\SRC" /Zi /nologo /W3 /WX- /Od /Ob0 /D WIN32 /D _DEBUG /D _DEBUG /D _WIN64 /D USE_GRAPHICAL_BENCHMARK /D _CRT_SECURE_NO_WARNINGS /D _CRT_SECURE_NO_DEPRECATE /D _SCL_SECURE_NO_WARNINGS /D B3_USE_CLEW /D "CMAKE_INTDIR=\"Debug\"" /D _MBCS /Gm- /EHsc /RTC1 /MTd /GS /fp:fast /Zc:wchar_t /Zc:forScope /Zc:inline /GR /Fo"BULLET3OPENCL_CLEW.DIR\DEBUG\\" /Fd"BULLET3OPENCL_CLEW.DIR\DEBUG\BULLET3OPENCL_CLEW.PDB" /Gd /TP E:\PROGRAMMING\BULLET PHYSICS\BULLET3-2.83.7\SRC\BULLET3OPENCL\NARROWPHASECOLLISION\B3GJKPAIRDETECTOR.CPP
^E:\PROGRAMMING\BULLET PHYSICS\BULLET3-2.83.7\SRC\BULLET3OPENCL\NARROWPHASECOLLISION\B3OPTIMIZEDBVH.CPP
/c /I"E:\PROGRAMMING\BULLET PHYSICS\BULLET3-2.83.7\SRC" /Zi /nologo /W3 /WX- /Od /Ob0 /D WIN32 /D _DEBUG /D _DEBUG /D _WIN64 /D USE_GRAPHICAL_BENCHMARK /D _CRT_SECURE_NO_WARNINGS /D _CRT_SECURE_NO_DEPRECATE /D _SCL_SECURE_NO_WARNINGS /D B3_USE_CLEW /D "CMAKE_INTDIR=\"Debug\"" /D _MBCS /Gm- /EHsc /RTC1 /MTd /GS /fp:fast /Zc:wchar_t /Zc:forScope /Zc:inline /GR /Fo"BULLET3OPENCL_CLEW.DIR\DEBUG\\" /Fd"BULLET3OPENCL_CLEW.DIR\DEBUG\BULLET3OPENCL_CLEW.PDB" /Gd /TP E:\PROGRAMMING\BULLET PHYSICS\BULLET3-2.83.7\SRC\BULLET3OPENCL\NARROWPHASECOLLISION\B3OPTIMIZEDBVH.CPP
^E:\PROGRAMMING\BULLET PHYSICS\BULLET3-2.83.7\SRC\BULLET3OPENCL\NARROWPHASECOLLISION\B3QUANTIZEDBVH.CPP
/c /I"E:\PROGRAMMING\BULLET PHYSICS\BULLET3-2.83.7\SRC" /Zi /nologo /W3 /WX- /Od /Ob0 /D WIN32 /D _DEBUG /D _DEBUG /D _WIN64 /D USE_GRAPHICAL_BENCHMARK /D _CRT_SECURE_NO_WARNINGS /D _CRT_SECURE_NO_DEPRECATE /D _SCL_SECURE_NO_WARNINGS /D B3_USE_CLEW /D "CMAKE_INTDIR=\"Debug\"" /D _MBCS /Gm- /EHsc /RTC1 /MTd /GS /fp:fast /Zc:wchar_t /Zc:forScope /Zc:inline /GR /Fo"BULLET3OPENCL_CLEW.DIR\DEBUG\\" /Fd"BULLET3OPENCL_CLEW.DIR\DEBUG\BULLET3OPENCL_CLEW.PDB" /Gd /TP E:\PROGRAMMING\BULLET PHYSICS\BULLET3-2.83.7\SRC\BULLET3OPENCL\NARROWPHASECOLLISION\B3QUANTIZEDBVH.CPP
^E:\PROGRAMMING\BULLET PHYSICS\BULLET3-2.83.7\SRC\BULLET3OPENCL\NARROWPHASECOLLISION\B3STRIDINGMESHINTERFACE.CPP
/c /I"E:\PROGRAMMING\BULLET PHYSICS\BULLET3-2.83.7\SRC" /Zi /nologo /W3 /WX- /Od /Ob0 /D WIN32 /D _DEBUG /D _DEBUG /D _WIN64 /D USE_GRAPHICAL_BENCHMARK /D _CRT_SECURE_NO_WARNINGS /D _CRT_SECURE_NO_DEPRECATE /D _SCL_SECURE_NO_WARNINGS /D B3_USE_CLEW /D "CMAKE_INTDIR=\"Debug\"" /D _MBCS /Gm- /EHsc /RTC1 /MTd /GS /fp:fast /Zc:wchar_t /Zc:forScope /Zc:inline /GR /Fo"BULLET3OPENCL_CLEW.DIR\DEBUG\\" /Fd"BULLET3OPENCL_CLEW.DIR\DEBUG\BULLET3OPENCL_CLEW.PDB" /Gd /TP E:\PROGRAMMING\BULLET PHYSICS\BULLET3-2.83.7\SRC\BULLET3OPENCL\NARROWPHASECOLLISION\B3STRIDINGMESHINTERFACE.CPP
^E:\PROGRAMMING\BULLET PHYSICS\BULLET3-2.83.7\SRC\BULLET3OPENCL\NARROWPHASECOLLISION\B3TRIANGLECALLBACK.CPP
/c /I"E:\PROGRAMMING\BULLET PHYSICS\BULLET3-2.83.7\SRC" /Zi /nologo /W3 /WX- /Od /Ob0 /D WIN32 /D _DEBUG /D _DEBUG /D _WIN64 /D USE_GRAPHICAL_BENCHMARK /D _CRT_SECURE_NO_WARNINGS /D _CRT_SECURE_NO_DEPRECATE /D _SCL_SECURE_NO_WARNINGS /D B3_USE_CLEW /D "CMAKE_INTDIR=\"Debug\"" /D _MBCS /Gm- /EHsc /RTC1 /MTd /GS /fp:fast /Zc:wchar_t /Zc:forScope /Zc:inline /GR /Fo"BULLET3OPENCL_CLEW.DIR\DEBUG\\" /Fd"BULLET3OPENCL_CLEW.DIR\DEBUG\BULLET3OPENCL_CLEW.PDB" /Gd /TP E:\PROGRAMMING\BULLET PHYSICS\BULLET3-2.83.7\SRC\BULLET3OPENCL\NARROWPHASECOLLISION\B3TRIANGLECALLBACK.CPP
^E:\PROGRAMMING\BULLET PHYSICS\BULLET3-2.83.7\SRC\BULLET3OPENCL\NARROWPHASECOLLISION\B3TRIANGLEINDEXVERTEXARRAY.CPP
/c /I"E:\PROGRAMMING\BULLET PHYSICS\BULLET3-2.83.7\SRC" /Zi /nologo /W3 /WX- /Od /Ob0 /D WIN32 /D _DEBUG /D _DEBUG /D _WIN64 /D USE_GRAPHICAL_BENCHMARK /D _CRT_SECURE_NO_WARNINGS /D _CRT_SECURE_NO_DEPRECATE /D _SCL_SECURE_NO_WARNINGS /D B3_USE_CLEW /D "CMAKE_INTDIR=\"Debug\"" /D _MBCS /Gm- /EHsc /RTC1 /MTd /GS /fp:fast /Zc:wchar_t /Zc:forScope /Zc:inline /GR /Fo"BULLET3OPENCL_CLEW.DIR\DEBUG\\" /Fd"BULLET3OPENCL_CLEW.DIR\DEBUG\BULLET3OPENCL_CLEW.PDB" /Gd /TP E:\PROGRAMMING\BULLET PHYSICS\BULLET3-2.83.7\SRC\BULLET3OPENCL\NARROWPHASECOLLISION\B3TRIANGLEINDEXVERTEXARRAY.CPP
^E:\PROGRAMMING\BULLET PHYSICS\BULLET3-2.83.7\SRC\BULLET3OPENCL\NARROWPHASECOLLISION\B3VORONOISIMPLEXSOLVER.CPP
/c /I"E:\PROGRAMMING\BULLET PHYSICS\BULLET3-2.83.7\SRC" /Zi /nologo /W3 /WX- /Od /Ob0 /D WIN32 /D _DEBUG /D _DEBUG /D _WIN64 /D USE_GRAPHICAL_BENCHMARK /D _CRT_SECURE_NO_WARNINGS /D _CRT_SECURE_NO_DEPRECATE /D _SCL_SECURE_NO_WARNINGS /D B3_USE_CLEW /D "CMAKE_INTDIR=\"Debug\"" /D _MBCS /Gm- /EHsc /RTC1 /MTd /GS /fp:fast /Zc:wchar_t /Zc:forScope /Zc:inline /GR /Fo"BULLET3OPENCL_CLEW.DIR\DEBUG\\" /Fd"BULLET3OPENCL_CLEW.DIR\DEBUG\BULLET3OPENCL_CLEW.PDB" /Gd /TP E:\PROGRAMMING\BULLET PHYSICS\BULLET3-2.83.7\SRC\BULLET3OPENCL\NARROWPHASECOLLISION\B3VORONOISIMPLEXSOLVER.CPP
^E:\PROGRAMMING\BULLET PHYSICS\BULLET3-2.83.7\SRC\BULLET3OPENCL\PARALLELPRIMITIVES\B3BOUNDSEARCHCL.CPP
/c /I"E:\PROGRAMMING\BULLET PHYSICS\BULLET3-2.83.7\SRC" /Zi /nologo /W3 /WX- /Od /Ob0 /D WIN32 /D _DEBUG /D _DEBUG /D _WIN64 /D USE_GRAPHICAL_BENCHMARK /D _CRT_SECURE_NO_WARNINGS /D _CRT_SECURE_NO_DEPRECATE /D _SCL_SECURE_NO_WARNINGS /D B3_USE_CLEW /D "CMAKE_INTDIR=\"Debug\"" /D _MBCS /Gm- /EHsc /RTC1 /MTd /GS /fp:fast /Zc:wchar_t /Zc:forScope /Zc:inline /GR /Fo"BULLET3OPENCL_CLEW.DIR\DEBUG\\" /Fd"BULLET3OPENCL_CLEW.DIR\DEBUG\BULLET3OPENCL_CLEW.PDB" /Gd /TP E:\PROGRAMMING\BULLET PHYSICS\BULLET3-2.83.7\SRC\BULLET3OPENCL\PARALLELPRIMITIVES\B3BOUNDSEARCHCL.CPP
^E:\PROGRAMMING\BULLET PHYSICS\BULLET3-2.83.7\SRC\BULLET3OPENCL\PARALLELPRIMITIVES\B3FILLCL.CPP
/c /I"E:\PROGRAMMING\BULLET PHYSICS\BULLET3-2.83.7\SRC" /Zi /nologo /W3 /WX- /Od /Ob0 /D WIN32 /D _DEBUG /D _DEBUG /D _WIN64 /D USE_GRAPHICAL_BENCHMARK /D _CRT_SECURE_NO_WARNINGS /D _CRT_SECURE_NO_DEPRECATE /D _SCL_SECURE_NO_WARNINGS /D B3_USE_CLEW /D "CMAKE_INTDIR=\"Debug\"" /D _MBCS /Gm- /EHsc /RTC1 /MTd /GS /fp:fast /Zc:wchar_t /Zc:forScope /Zc:inline /GR /Fo"BULLET3OPENCL_CLEW.DIR\DEBUG\\" /Fd"BULLET3OPENCL_CLEW.DIR\DEBUG\BULLET3OPENCL_CLEW.PDB" /Gd /TP E:\PROGRAMMING\BULLET PHYSICS\BULLET3-2.83.7\SRC\BULLET3OPENCL\PARALLELPRIMITIVES\B3FILLCL.CPP
^E:\PROGRAMMING\BULLET PHYSICS\BULLET3-2.83.7\SRC\BULLET3OPENCL\PARALLELPRIMITIVES\B3LAUNCHERCL.CPP
/c /I"E:\PROGRAMMING\BULLET PHYSICS\BULLET3-2.83.7\SRC" /Zi /nologo /W3 /WX- /Od /Ob0 /D WIN32 /D _DEBUG /D _DEBUG /D _WIN64 /D USE_GRAPHICAL_BENCHMARK /D _CRT_SECURE_NO_WARNINGS /D _CRT_SECURE_NO_DEPRECATE /D _SCL_SECURE_NO_WARNINGS /D B3_USE_CLEW /D "CMAKE_INTDIR=\"Debug\"" /D _MBCS /Gm- /EHsc /RTC1 /MTd /GS /fp:fast /Zc:wchar_t /Zc:forScope /Zc:inline /GR /Fo"BULLET3OPENCL_CLEW.DIR\DEBUG\\" /Fd"BULLET3OPENCL_CLEW.DIR\DEBUG\BULLET3OPENCL_CLEW.PDB" /Gd /TP E:\PROGRAMMING\BULLET PHYSICS\BULLET3-2.83.7\SRC\BULLET3OPENCL\PARALLELPRIMITIVES\B3LAUNCHERCL.CPP
^E:\PROGRAMMING\BULLET PHYSICS\BULLET3-2.83.7\SRC\BULLET3OPENCL\PARALLELPRIMITIVES\B3PREFIXSCANCL.CPP
/c /I"E:\PROGRAMMING\BULLET PHYSICS\BULLET3-2.83.7\SRC" /Zi /nologo /W3 /WX- /Od /Ob0 /D WIN32 /D _DEBUG /D _DEBUG /D _WIN64 /D USE_GRAPHICAL_BENCHMARK /D _CRT_SECURE_NO_WARNINGS /D _CRT_SECURE_NO_DEPRECATE /D _SCL_SECURE_NO_WARNINGS /D B3_USE_CLEW /D "CMAKE_INTDIR=\"Debug\"" /D _MBCS /Gm- /EHsc /RTC1 /MTd /GS /fp:fast /Zc:wchar_t /Zc:forScope /Zc:inline /GR /Fo"BULLET3OPENCL_CLEW.DIR\DEBUG\\" /Fd"BULLET3OPENCL_CLEW.DIR\DEBUG\BULLET3OPENCL_CLEW.PDB" /Gd /TP E:\PROGRAMMING\BULLET PHYSICS\BULLET3-2.83.7\SRC\BULLET3OPENCL\PARALLELPRIMITIVES\B3PREFIXSCANCL.CPP
^E:\PROGRAMMING\BULLET PHYSICS\BULLET3-2.83.7\SRC\BULLET3OPENCL\PARALLELPRIMITIVES\B3PREFIXSCANFLOAT4CL.CPP
/c /I"E:\PROGRAMMING\BULLET PHYSICS\BULLET3-2.83.7\SRC" /Zi /nologo /W3 /WX- /Od /Ob0 /D WIN32 /D _DEBUG /D _DEBUG /D _WIN64 /D USE_GRAPHICAL_BENCHMARK /D _CRT_SECURE_NO_WARNINGS /D _CRT_SECURE_NO_DEPRECATE /D _SCL_SECURE_NO_WARNINGS /D B3_USE_CLEW /D "CMAKE_INTDIR=\"Debug\"" /D _MBCS /Gm- /EHsc /RTC1 /MTd /GS /fp:fast /Zc:wchar_t /Zc:forScope /Zc:inline /GR /Fo"BULLET3OPENCL_CLEW.DIR\DEBUG\\" /Fd"BULLET3OPENCL_CLEW.DIR\DEBUG\BULLET3OPENCL_CLEW.PDB" /Gd /TP E:\PROGRAMMING\BULLET PHYSICS\BULLET3-2.83.7\SRC\BULLET3OPENCL\PARALLELPRIMITIVES\B3PREFIXSCANFLOAT4CL.CPP
^E:\PROGRAMMING\BULLET PHYSICS\BULLET3-2.83.7\SRC\BULLET3OPENCL\PARALLELPRIMITIVES\B3RADIXSORT32CL.CPP
/c /I"E:\PROGRAMMING\BULLET PHYSICS\BULLET3-2.83.7\SRC" /Zi /nologo /W3 /WX- /Od /Ob0 /D WIN32 /D _DEBUG /D _DEBUG /D _WIN64 /D USE_GRAPHICAL_BENCHMARK /D _CRT_SECURE_NO_WARNINGS /D _CRT_SECURE_NO_DEPRECATE /D _SCL_SECURE_NO_WARNINGS /D B3_USE_CLEW /D "CMAKE_INTDIR=\"Debug\"" /D _MBCS /Gm- /EHsc /RTC1 /MTd /GS /fp:fast /Zc:wchar_t /Zc:forScope /Zc:inline /GR /Fo"BULLET3OPENCL_CLEW.DIR\DEBUG\\" /Fd"BULLET3OPENCL_CLEW.DIR\DEBUG\BULLET3OPENCL_CLEW.PDB" /Gd /TP E:\PROGRAMMING\BULLET PHYSICS\BULLET3-2.83.7\SRC\BULLET3OPENCL\PARALLELPRIMITIVES\B3RADIXSORT32CL.CPP
^E:\PROGRAMMING\BULLET PHYSICS\BULLET3-2.83.7\SRC\BULLET3OPENCL\RAYCAST\B3GPURAYCAST.CPP
/c /I"E:\PROGRAMMING\BULLET PHYSICS\BULLET3-2.83.7\SRC" /Zi /nologo /W3 /WX- /Od /Ob0 /D WIN32 /D _DEBUG /D _DEBUG /D _WIN64 /D USE_GRAPHICAL_BENCHMARK /D _CRT_SECURE_NO_WARNINGS /D _CRT_SECURE_NO_DEPRECATE /D _SCL_SECURE_NO_WARNINGS /D B3_USE_CLEW /D "CMAKE_INTDIR=\"Debug\"" /D _MBCS /Gm- /EHsc /RTC1 /MTd /GS /fp:fast /Zc:wchar_t /Zc:forScope /Zc:inline /GR /Fo"BULLET3OPENCL_CLEW.DIR\DEBUG\\" /Fd"BULLET3OPENCL_CLEW.DIR\DEBUG\BULLET3OPENCL_CLEW.PDB" /Gd /TP E:\PROGRAMMING\BULLET PHYSICS\BULLET3-2.83.7\SRC\BULLET3OPENCL\RAYCAST\B3GPURAYCAST.CPP
^E:\PROGRAMMING\BULLET PHYSICS\BULLET3-2.83.7\SRC\BULLET3OPENCL\RIGIDBODY\B3GPUGENERICCONSTRAINT.CPP
/c /I"E:\PROGRAMMING\BULLET PHYSICS\BULLET3-2.83.7\SRC" /Zi /nologo /W3 /WX- /Od /Ob0 /D WIN32 /D _DEBUG /D _DEBUG /D _WIN64 /D USE_GRAPHICAL_BENCHMARK /D _CRT_SECURE_NO_WARNINGS /D _CRT_SECURE_NO_DEPRECATE /D _SCL_SECURE_NO_WARNINGS /D B3_USE_CLEW /D "CMAKE_INTDIR=\"Debug\"" /D _MBCS /Gm- /EHsc /RTC1 /MTd /GS /fp:fast /Zc:wchar_t /Zc:forScope /Zc:inline /GR /Fo"BULLET3OPENCL_CLEW.DIR\DEBUG\\" /Fd"BULLET3OPENCL_CLEW.DIR\DEBUG\BULLET3OPENCL_CLEW.PDB" /Gd /TP E:\PROGRAMMING\BULLET PHYSICS\BULLET3-2.83.7\SRC\BULLET3OPENCL\RIGIDBODY\B3GPUGENERICCONSTRAINT.CPP
^E:\PROGRAMMING\BULLET PHYSICS\BULLET3-2.83.7\SRC\BULLET3OPENCL\RIGIDBODY\B3GPUJACOBICONTACTSOLVER.CPP
/c /I"E:\PROGRAMMING\BULLET PHYSICS\BULLET3-2.83.7\SRC" /Zi /nologo /W3 /WX- /Od /Ob0 /D WIN32 /D _DEBUG /D _DEBUG /D _WIN64 /D USE_GRAPHICAL_BENCHMARK /D _CRT_SECURE_NO_WARNINGS /D _CRT_SECURE_NO_DEPRECATE /D _SCL_SECURE_NO_WARNINGS /D B3_USE_CLEW /D "CMAKE_INTDIR=\"Debug\"" /D _MBCS /Gm- /EHsc /RTC1 /MTd /GS /fp:fast /Zc:wchar_t /Zc:forScope /Zc:inline /GR /Fo"BULLET3OPENCL_CLEW.DIR\DEBUG\\" /Fd"BULLET3OPENCL_CLEW.DIR\DEBUG\BULLET3OPENCL_CLEW.PDB" /Gd /TP E:\PROGRAMMING\BULLET PHYSICS\BULLET3-2.83.7\SRC\BULLET3OPENCL\RIGIDBODY\B3GPUJACOBICONTACTSOLVER.CPP
^E:\PROGRAMMING\BULLET PHYSICS\BULLET3-2.83.7\SRC\BULLET3OPENCL\RIGIDBODY\B3GPUNARROWPHASE.CPP
/c /I"E:\PROGRAMMING\BULLET PHYSICS\BULLET3-2.83.7\SRC" /Zi /nologo /W3 /WX- /Od /Ob0 /D WIN32 /D _DEBUG /D _DEBUG /D _WIN64 /D USE_GRAPHICAL_BENCHMARK /D _CRT_SECURE_NO_WARNINGS /D _CRT_SECURE_NO_DEPRECATE /D _SCL_SECURE_NO_WARNINGS /D B3_USE_CLEW /D "CMAKE_INTDIR=\"Debug\"" /D _MBCS /Gm- /EHsc /RTC1 /MTd /GS /fp:fast /Zc:wchar_t /Zc:forScope /Zc:inline /GR /Fo"BULLET3OPENCL_CLEW.DIR\DEBUG\\" /Fd"BULLET3OPENCL_CLEW.DIR\DEBUG\BULLET3OPENCL_CLEW.PDB" /Gd /TP E:\PROGRAMMING\BULLET PHYSICS\BULLET3-2.83.7\SRC\BULLET3OPENCL\RIGIDBODY\B3GPUNARROWPHASE.CPP
^E:\PROGRAMMING\BULLET PHYSICS\BULLET3-2.83.7\SRC\BULLET3OPENCL\RIGIDBODY\B3GPUPGSCONSTRAINTSOLVER.CPP
/c /I"E:\PROGRAMMING\BULLET PHYSICS\BULLET3-2.83.7\SRC" /Zi /nologo /W3 /WX- /Od /Ob0 /D WIN32 /D _DEBUG /D _DEBUG /D _WIN64 /D USE_GRAPHICAL_BENCHMARK /D _CRT_SECURE_NO_WARNINGS /D _CRT_SECURE_NO_DEPRECATE /D _SCL_SECURE_NO_WARNINGS /D B3_USE_CLEW /D "CMAKE_INTDIR=\"Debug\"" /D _MBCS /Gm- /EHsc /RTC1 /MTd /GS /fp:fast /Zc:wchar_t /Zc:forScope /Zc:inline /GR /Fo"BULLET3OPENCL_CLEW.DIR\DEBUG\\" /Fd"BULLET3OPENCL_CLEW.DIR\DEBUG\BULLET3OPENCL_CLEW.PDB" /Gd /TP E:\PROGRAMMING\BULLET PHYSICS\BULLET3-2.83.7\SRC\BULLET3OPENCL\RIGIDBODY\B3GPUPGSCONSTRAINTSOLVER.CPP
^E:\PROGRAMMING\BULLET PHYSICS\BULLET3-2.83.7\SRC\BULLET3OPENCL\RIGIDBODY\B3GPUPGSCONTACTSOLVER.CPP
/c /I"E:\PROGRAMMING\BULLET PHYSICS\BULLET3-2.83.7\SRC" /Zi /nologo /W3 /WX- /Od /Ob0 /D WIN32 /D _DEBUG /D _DEBUG /D _WIN64 /D USE_GRAPHICAL_BENCHMARK /D _CRT_SECURE_NO_WARNINGS /D _CRT_SECURE_NO_DEPRECATE /D _SCL_SECURE_NO_WARNINGS /D B3_USE_CLEW /D "CMAKE_INTDIR=\"Debug\"" /D _MBCS /Gm- /EHsc /RTC1 /MTd /GS /fp:fast /Zc:wchar_t /Zc:forScope /Zc:inline /GR /Fo"BULLET3OPENCL_CLEW.DIR\DEBUG\\" /Fd"BULLET3OPENCL_CLEW.DIR\DEBUG\BULLET3OPENCL_CLEW.PDB" /Gd /TP E:\PROGRAMMING\BULLET PHYSICS\BULLET3-2.83.7\SRC\BULLET3OPENCL\RIGIDBODY\B3GPUPGSCONTACTSOLVER.CPP
^E:\PROGRAMMING\BULLET PHYSICS\BULLET3-2.83.7\SRC\BULLET3OPENCL\RIGIDBODY\B3GPURIGIDBODYPIPELINE.CPP
/c /I"E:\PROGRAMMING\BULLET PHYSICS\BULLET3-2.83.7\SRC" /Zi /nologo /W3 /WX- /Od /Ob0 /D WIN32 /D _DEBUG /D _DEBUG /D _WIN64 /D USE_GRAPHICAL_BENCHMARK /D _CRT_SECURE_NO_WARNINGS /D _CRT_SECURE_NO_DEPRECATE /D _SCL_SECURE_NO_WARNINGS /D B3_USE_CLEW /D "CMAKE_INTDIR=\"Debug\"" /D _MBCS /Gm- /EHsc /RTC1 /MTd /GS /fp:fast /Zc:wchar_t /Zc:forScope /Zc:inline /GR /Fo"BULLET3OPENCL_CLEW.DIR\DEBUG\\" /Fd"BULLET3OPENCL_CLEW.DIR\DEBUG\BULLET3OPENCL_CLEW.PDB" /Gd /TP E:\PROGRAMMING\BULLET PHYSICS\BULLET3-2.83.7\SRC\BULLET3OPENCL\RIGIDBODY\B3GPURIGIDBODYPIPELINE.CPP
^E:\PROGRAMMING\BULLET PHYSICS\BULLET3-2.83.7\SRC\BULLET3OPENCL\RIGIDBODY\B3SOLVER.CPP
/c /I"E:\PROGRAMMING\BULLET PHYSICS\BULLET3-2.83.7\SRC" /Zi /nologo /W3 /WX- /Od /Ob0 /D WIN32 /D _DEBUG /D _DEBUG /D _WIN64 /D USE_GRAPHICAL_BENCHMARK /D _CRT_SECURE_NO_WARNINGS /D _CRT_SECURE_NO_DEPRECATE /D _SCL_SECURE_NO_WARNINGS /D B3_USE_CLEW /D "CMAKE_INTDIR=\"Debug\"" /D _MBCS /Gm- /EHsc /RTC1 /MTd /GS /fp:fast /Zc:wchar_t /Zc:forScope /Zc:inline /GR /Fo"BULLET3OPENCL_CLEW.DIR\DEBUG\\" /Fd"BULLET3OPENCL_CLEW.DIR\DEBUG\BULLET3OPENCL_CLEW.PDB" /Gd /TP E:\PROGRAMMING\BULLET PHYSICS\BULLET3-2.83.7\SRC\BULLET3OPENCL\RIGIDBODY\B3SOLVER.CPP
