^E:\PROGRAMMING\BULLET PHYSICS\BULLET3-2.83.7\SRC\BULLETDYNAMICS\CHARACTER\BTKINEMATICCHARACTERCONTROLLER.CPP|E:\PROGRAMMING\BULLET PHYSICS\BULLET3-2.83.7\SRC\BULLETDYNAMICS\CONSTRAINTSOLVER\BTCONETWISTCONSTRAINT.CPP|E:\PROGRAMMING\BULLET PHYSICS\BULLET3-2.83.7\SRC\BULLETDYNAMICS\CONSTRAINTSOLVER\BTCONTACTCONSTRAINT.CPP|E:\PROGRAMMING\BULLET PHYSICS\BULLET3-2.83.7\SRC\BULLETDYNAMICS\CONSTRAINTSOLVER\BTFIXEDCONSTRAINT.CPP|E:\PROGRAMMING\BULLET PHYSICS\BULLET3-2.83.7\SRC\BULLETDYNAMICS\CONSTRAINTSOLVER\BTGEARCONSTRAINT.CPP|E:\PROGRAMMING\BULLET PHYSICS\BULLET3-2.83.7\SRC\BULLETDYNAMICS\CONSTRAINTSOLVER\BTGENERIC6DOFCONSTRAINT.CPP|E:\PROGRAMMING\BULLET PHYSICS\BULLET3-2.83.7\SRC\BULLETDYNAMICS\CONSTRAINTSOLVER\BTGENERIC6DOFSPRING2CONSTRAINT.CPP|E:\PROGRAMMING\BULLET PHYSICS\BULLET3-2.83.7\SRC\BULLETDYNAMICS\CONSTRAINTSOLVER\BTGENERIC6DOFSPRINGCONSTRAINT.CPP|E:\PROGRAMMING\BULLET PHYSICS\BULLET3-2.83.7\SRC\BULLETDYNAMICS\CONSTRAINTSOLVER\BTHINGE2CONSTRAINT.CPP|E:\PROGRAMMING\BULLET PHYSICS\BULLET3-2.83.7\SRC\BULLETDYNAMICS\CONSTRAINTSOLVER\BTHINGECONSTRAINT.CPP|E:\PROGRAMMING\BULLET PHYSICS\BULLET3-2.83.7\SRC\BULLETDYNAMICS\CONSTRAINTSOLVER\BTNNCGCONSTRAINTSOLVER.CPP|E:\PROGRAMMING\BULLET PHYSICS\BULLET3-2.83.7\SRC\BULLETDYNAMICS\CONSTRAINTSOLVER\BTPOINT2POINTCONSTRAINT.CPP|E:\PROGRAMMING\BULLET PHYSICS\BULLET3-2.83.7\SRC\BULLETDYNAMICS\CONSTRAINTSOLVER\BTSEQUENTIALIMPULSECONSTRAINTSOLVER.CPP|E:\PROGRAMMING\BULLET PHYSICS\BULLET3-2.83.7\SRC\BULLETDYNAMICS\CONSTRAINTSOLVER\BTSLIDERCONSTRAINT.CPP|E:\PROGRAMMING\BULLET PHYSICS\BULLET3-2.83.7\SRC\BULLETDYNAMICS\CONSTRAINTSOLVER\BTSOLVE2LINEARCONSTRAINT.CPP|E:\PROGRAMMING\BULLET PHYSICS\BULLET3-2.83.7\SRC\BULLETDYNAMICS\CONSTRAINTSOLVER\BTTYPEDCONSTRAINT.CPP|E:\PROGRAMMING\BULLET PHYSICS\BULLET3-2.83.7\SRC\BULLETDYNAMICS\CONSTRAINTSOLVER\BTUNIVERSALCONSTRAINT.CPP|E:\PROGRAMMING\BULLET PHYSICS\BULLET3-2.83.7\SRC\BULLETDYNAMICS\DYNAMICS\BTDISCRETEDYNAMICSWORLD.CPP|E:\PROGRAMMING\BULLET PHYSICS\BULLET3-2.83.7\SRC\BULLETDYNAMICS\DYNAMICS\BTRIGIDBODY.CPP|E:\PROGRAMMING\BULLET PHYSICS\BULLET3-2.83.7\SRC\BULLETDYNAMICS\DYNAMICS\BTSIMPLEDYNAMICSWORLD.CPP|E:\PROGRAMMING\BULLET PHYSICS\BULLET3-2.83.7\SRC\BULLETDYNAMICS\FEATHERSTONE\BTMULTIBODY.CPP|E:\PROGRAMMING\BULLET PHYSICS\BULLET3-2.83.7\SRC\BULLETDYNAMICS\FEATHERSTONE\BTMULTIBODYCONSTRAINT.CPP|E:\PROGRAMMING\BULLET PHYSICS\BULLET3-2.83.7\SRC\BULLETDYNAMICS\FEATHERSTONE\BTMULTIBODYCONSTRAINTSOLVER.CPP|E:\PROGRAMMING\BULLET PHYSICS\BULLET3-2.83.7\SRC\BULLETDYNAMICS\FEATHERSTONE\BTMULTIBODYDYNAMICSWORLD.CPP|E:\PROGRAMMING\BULLET PHYSICS\BULLET3-2.83.7\SRC\BULLETDYNAMICS\FEATHERSTONE\BTMULTIBODYJOINTLIMITCONSTRAINT.CPP|E:\PROGRAMMING\BULLET PHYSICS\BULLET3-2.83.7\SRC\BULLETDYNAMICS\FEATHERSTONE\BTMULTIBODYJOINTMOTOR.CPP|E:\PROGRAMMING\BULLET PHYSICS\BULLET3-2.83.7\SRC\BULLETDYNAMICS\FEATHERSTONE\BTMULTIBODYPOINT2POINT.CPP|E:\PROGRAMMING\BULLET PHYSICS\BULLET3-2.83.7\SRC\BULLETDYNAMICS\MLCPSOLVERS\BTDANTZIGLCP.CPP|E:\PROGRAMMING\BULLET PHYSICS\BULLET3-2.83.7\SRC\BULLETDYNAMICS\MLCPSOLVERS\BTLEMKEALGORITHM.CPP|E:\PROGRAMMING\BULLET PHYSICS\BULLET3-2.83.7\SRC\BULLETDYNAMICS\MLCPSOLVERS\BTMLCPSOLVER.CPP|E:\PROGRAMMING\BULLET PHYSICS\BULLET3-2.83.7\SRC\BULLETDYNAMICS\VEHICLE\BTRAYCASTVEHICLE.CPP|E:\PROGRAMMING\BULLET PHYSICS\BULLET3-2.83.7\SRC\BULLETDYNAMICS\VEHICLE\BTWHEELINFO.CPP
E:\PROGRAMMING\BULLET PHYSICS\BUILDS\SRC\BULLETDYNAMICS\BULLETDYNAMICS.DIR\DEBUG\BULLETDYNAMICS.PDB
E:\PROGRAMMING\BULLET PHYSICS\BUILDS\SRC\BULLETDYNAMICS\BULLETDYNAMICS.DIR\DEBUG\BTSIMPLEDYNAMICSWORLD.OBJ
E:\PROGRAMMING\BULLET PHYSICS\BUILDS\SRC\BULLETDYNAMICS\BULLETDYNAMICS.DIR\DEBUG\BTRIGIDBODY.OBJ
E:\PROGRAMMING\BULLET PHYSICS\BUILDS\SRC\BULLETDYNAMICS\BULLETDYNAMICS.DIR\DEBUG\BTDISCRETEDYNAMICSWORLD.OBJ
E:\PROGRAMMING\BULLET PHYSICS\BUILDS\SRC\BULLETDYNAMICS\BULLETDYNAMICS.DIR\DEBUG\BTUNIVERSALCONSTRAINT.OBJ
E:\PROGRAMMING\BULLET PHYSICS\BUILDS\SRC\BULLETDYNAMICS\BULLETDYNAMICS.DIR\DEBUG\BTTYPEDCONSTRAINT.OBJ
E:\PROGRAMMING\BULLET PHYSICS\BUILDS\SRC\BULLETDYNAMICS\BULLETDYNAMICS.DIR\DEBUG\BTSOLVE2LINEARCONSTRAINT.OBJ
E:\PROGRAMMING\BULLET PHYSICS\BUILDS\SRC\BULLETDYNAMICS\BULLETDYNAMICS.DIR\DEBUG\BTSLIDERCONSTRAINT.OBJ
E:\PROGRAMMING\BULLET PHYSICS\BUILDS\SRC\BULLETDYNAMICS\BULLETDYNAMICS.DIR\DEBUG\BTNNCGCONSTRAINTSOLVER.OBJ
E:\PROGRAMMING\BULLET PHYSICS\BUILDS\SRC\BULLETDYNAMICS\BULLETDYNAMICS.DIR\DEBUG\BTSEQUENTIALIMPULSECONSTRAINTSOLVER.OBJ
E:\PROGRAMMING\BULLET PHYSICS\BUILDS\SRC\BULLETDYNAMICS\BULLETDYNAMICS.DIR\DEBUG\BTPOINT2POINTCONSTRAINT.OBJ
E:\PROGRAMMING\BULLET PHYSICS\BUILDS\SRC\BULLETDYNAMICS\BULLETDYNAMICS.DIR\DEBUG\BTHINGECONSTRAINT.OBJ
E:\PROGRAMMING\BULLET PHYSICS\BUILDS\SRC\BULLETDYNAMICS\BULLETDYNAMICS.DIR\DEBUG\BTHINGE2CONSTRAINT.OBJ
E:\PROGRAMMING\BULLET PHYSICS\BUILDS\SRC\BULLETDYNAMICS\BULLETDYNAMICS.DIR\DEBUG\BTGENERIC6DOFSPRING2CONSTRAINT.OBJ
E:\PROGRAMMING\BULLET PHYSICS\BUILDS\SRC\BULLETDYNAMICS\BULLETDYNAMICS.DIR\DEBUG\BTGENERIC6DOFSPRINGCONSTRAINT.OBJ
E:\PROGRAMMING\BULLET PHYSICS\BUILDS\SRC\BULLETDYNAMICS\BULLETDYNAMICS.DIR\DEBUG\BTGENERIC6DOFCONSTRAINT.OBJ
E:\PROGRAMMING\BULLET PHYSICS\BUILDS\SRC\BULLETDYNAMICS\BULLETDYNAMICS.DIR\DEBUG\BTGEARCONSTRAINT.OBJ
E:\PROGRAMMING\BULLET PHYSICS\BUILDS\SRC\BULLETDYNAMICS\BULLETDYNAMICS.DIR\DEBUG\BTFIXEDCONSTRAINT.OBJ
E:\PROGRAMMING\BULLET PHYSICS\BUILDS\SRC\BULLETDYNAMICS\BULLETDYNAMICS.DIR\DEBUG\BTCONTACTCONSTRAINT.OBJ
E:\PROGRAMMING\BULLET PHYSICS\BUILDS\SRC\BULLETDYNAMICS\BULLETDYNAMICS.DIR\DEBUG\BTCONETWISTCONSTRAINT.OBJ
E:\PROGRAMMING\BULLET PHYSICS\BUILDS\SRC\BULLETDYNAMICS\BULLETDYNAMICS.DIR\DEBUG\BTKINEMATICCHARACTERCONTROLLER.OBJ
E:\PROGRAMMING\BULLET PHYSICS\BUILDS\SRC\BULLETDYNAMICS\BULLETDYNAMICS.DIR\DEBUG\BTLEMKEALGORITHM.OBJ
E:\PROGRAMMING\BULLET PHYSICS\BUILDS\SRC\BULLETDYNAMICS\BULLETDYNAMICS.DIR\DEBUG\BTMLCPSOLVER.OBJ
E:\PROGRAMMING\BULLET PHYSICS\BUILDS\SRC\BULLETDYNAMICS\BULLETDYNAMICS.DIR\DEBUG\BTDANTZIGLCP.OBJ
E:\PROGRAMMING\BULLET PHYSICS\BUILDS\SRC\BULLETDYNAMICS\BULLETDYNAMICS.DIR\DEBUG\BTMULTIBODYJOINTMOTOR.OBJ
E:\PROGRAMMING\BULLET PHYSICS\BUILDS\SRC\BULLETDYNAMICS\BULLETDYNAMICS.DIR\DEBUG\BTMULTIBODYPOINT2POINT.OBJ
E:\PROGRAMMING\BULLET PHYSICS\BUILDS\SRC\BULLETDYNAMICS\BULLETDYNAMICS.DIR\DEBUG\BTMULTIBODYCONSTRAINT.OBJ
E:\PROGRAMMING\BULLET PHYSICS\BUILDS\SRC\BULLETDYNAMICS\BULLETDYNAMICS.DIR\DEBUG\BTMULTIBODYJOINTLIMITCONSTRAINT.OBJ
E:\PROGRAMMING\BULLET PHYSICS\BUILDS\SRC\BULLETDYNAMICS\BULLETDYNAMICS.DIR\DEBUG\BTMULTIBODYDYNAMICSWORLD.OBJ
E:\PROGRAMMING\BULLET PHYSICS\BUILDS\SRC\BULLETDYNAMICS\BULLETDYNAMICS.DIR\DEBUG\BTMULTIBODYCONSTRAINTSOLVER.OBJ
E:\PROGRAMMING\BULLET PHYSICS\BUILDS\SRC\BULLETDYNAMICS\BULLETDYNAMICS.DIR\DEBUG\BTMULTIBODY.OBJ
E:\PROGRAMMING\BULLET PHYSICS\BUILDS\SRC\BULLETDYNAMICS\BULLETDYNAMICS.DIR\DEBUG\BTWHEELINFO.OBJ
E:\PROGRAMMING\BULLET PHYSICS\BUILDS\SRC\BULLETDYNAMICS\BULLETDYNAMICS.DIR\DEBUG\BTRAYCASTVEHICLE.OBJ
^E:\PROGRAMMING\BULLET PHYSICS\BULLET3-2.83.7\SRC\BULLETDYNAMICS\CHARACTER\BTKINEMATICCHARACTERCONTROLLER.CPP
E:\PROGRAMMING\BULLET PHYSICS\BUILDS\SRC\BULLETDYNAMICS\BULLETDYNAMICS.DIR\DEBUG\BULLETDYNAMICS.PDB
^E:\PROGRAMMING\BULLET PHYSICS\BULLET3-2.83.7\SRC\BULLETDYNAMICS\CONSTRAINTSOLVER\BTCONETWISTCONSTRAINT.CPP
E:\PROGRAMMING\BULLET PHYSICS\BUILDS\SRC\BULLETDYNAMICS\BULLETDYNAMICS.DIR\DEBUG\BULLETDYNAMICS.PDB
^E:\PROGRAMMING\BULLET PHYSICS\BULLET3-2.83.7\SRC\BULLETDYNAMICS\CONSTRAINTSOLVER\BTCONTACTCONSTRAINT.CPP
E:\PROGRAMMING\BULLET PHYSICS\BUILDS\SRC\BULLETDYNAMICS\BULLETDYNAMICS.DIR\DEBUG\BULLETDYNAMICS.PDB
^E:\PROGRAMMING\BULLET PHYSICS\BULLET3-2.83.7\SRC\BULLETDYNAMICS\CONSTRAINTSOLVER\BTFIXEDCONSTRAINT.CPP
E:\PROGRAMMING\BULLET PHYSICS\BUILDS\SRC\BULLETDYNAMICS\BULLETDYNAMICS.DIR\DEBUG\BULLETDYNAMICS.PDB
^E:\PROGRAMMING\BULLET PHYSICS\BULLET3-2.83.7\SRC\BULLETDYNAMICS\CONSTRAINTSOLVER\BTGEARCONSTRAINT.CPP
E:\PROGRAMMING\BULLET PHYSICS\BUILDS\SRC\BULLETDYNAMICS\BULLETDYNAMICS.DIR\DEBUG\BULLETDYNAMICS.PDB
^E:\PROGRAMMING\BULLET PHYSICS\BULLET3-2.83.7\SRC\BULLETDYNAMICS\CONSTRAINTSOLVER\BTGENERIC6DOFCONSTRAINT.CPP
E:\PROGRAMMING\BULLET PHYSICS\BUILDS\SRC\BULLETDYNAMICS\BULLETDYNAMICS.DIR\DEBUG\BULLETDYNAMICS.PDB
^E:\PROGRAMMING\BULLET PHYSICS\BULLET3-2.83.7\SRC\BULLETDYNAMICS\CONSTRAINTSOLVER\BTGENERIC6DOFSPRINGCONSTRAINT.CPP
E:\PROGRAMMING\BULLET PHYSICS\BUILDS\SRC\BULLETDYNAMICS\BULLETDYNAMICS.DIR\DEBUG\BULLETDYNAMICS.PDB
^E:\PROGRAMMING\BULLET PHYSICS\BULLET3-2.83.7\SRC\BULLETDYNAMICS\CONSTRAINTSOLVER\BTGENERIC6DOFSPRING2CONSTRAINT.CPP
E:\PROGRAMMING\BULLET PHYSICS\BUILDS\SRC\BULLETDYNAMICS\BULLETDYNAMICS.DIR\DEBUG\BULLETDYNAMICS.PDB
^E:\PROGRAMMING\BULLET PHYSICS\BULLET3-2.83.7\SRC\BULLETDYNAMICS\CONSTRAINTSOLVER\BTHINGE2CONSTRAINT.CPP
E:\PROGRAMMING\BULLET PHYSICS\BUILDS\SRC\BULLETDYNAMICS\BULLETDYNAMICS.DIR\DEBUG\BULLETDYNAMICS.PDB
^E:\PROGRAMMING\BULLET PHYSICS\BULLET3-2.83.7\SRC\BULLETDYNAMICS\CONSTRAINTSOLVER\BTHINGECONSTRAINT.CPP
E:\PROGRAMMING\BULLET PHYSICS\BUILDS\SRC\BULLETDYNAMICS\BULLETDYNAMICS.DIR\DEBUG\BULLETDYNAMICS.PDB
^E:\PROGRAMMING\BULLET PHYSICS\BULLET3-2.83.7\SRC\BULLETDYNAMICS\CONSTRAINTSOLVER\BTPOINT2POINTCONSTRAINT.CPP
E:\PROGRAMMING\BULLET PHYSICS\BUILDS\SRC\BULLETDYNAMICS\BULLETDYNAMICS.DIR\DEBUG\BULLETDYNAMICS.PDB
^E:\PROGRAMMING\BULLET PHYSICS\BULLET3-2.83.7\SRC\BULLETDYNAMICS\CONSTRAINTSOLVER\BTSEQUENTIALIMPULSECONSTRAINTSOLVER.CPP
E:\PROGRAMMING\BULLET PHYSICS\BUILDS\SRC\BULLETDYNAMICS\BULLETDYNAMICS.DIR\DEBUG\BULLETDYNAMICS.PDB
^E:\PROGRAMMING\BULLET PHYSICS\BULLET3-2.83.7\SRC\BULLETDYNAMICS\CONSTRAINTSOLVER\BTNNCGCONSTRAINTSOLVER.CPP
E:\PROGRAMMING\BULLET PHYSICS\BUILDS\SRC\BULLETDYNAMICS\BULLETDYNAMICS.DIR\DEBUG\BULLETDYNAMICS.PDB
^E:\PROGRAMMING\BULLET PHYSICS\BULLET3-2.83.7\SRC\BULLETDYNAMICS\CONSTRAINTSOLVER\BTSLIDERCONSTRAINT.CPP
E:\PROGRAMMING\BULLET PHYSICS\BUILDS\SRC\BULLETDYNAMICS\BULLETDYNAMICS.DIR\DEBUG\BULLETDYNAMICS.PDB
^E:\PROGRAMMING\BULLET PHYSICS\BULLET3-2.83.7\SRC\BULLETDYNAMICS\CONSTRAINTSOLVER\BTSOLVE2LINEARCONSTRAINT.CPP
E:\PROGRAMMING\BULLET PHYSICS\BUILDS\SRC\BULLETDYNAMICS\BULLETDYNAMICS.DIR\DEBUG\BULLETDYNAMICS.PDB
^E:\PROGRAMMING\BULLET PHYSICS\BULLET3-2.83.7\SRC\BULLETDYNAMICS\CONSTRAINTSOLVER\BTTYPEDCONSTRAINT.CPP
E:\PROGRAMMING\BULLET PHYSICS\BUILDS\SRC\BULLETDYNAMICS\BULLETDYNAMICS.DIR\DEBUG\BULLETDYNAMICS.PDB
^E:\PROGRAMMING\BULLET PHYSICS\BULLET3-2.83.7\SRC\BULLETDYNAMICS\CONSTRAINTSOLVER\BTUNIVERSALCONSTRAINT.CPP
E:\PROGRAMMING\BULLET PHYSICS\BUILDS\SRC\BULLETDYNAMICS\BULLETDYNAMICS.DIR\DEBUG\BULLETDYNAMICS.PDB
^E:\PROGRAMMING\BULLET PHYSICS\BULLET3-2.83.7\SRC\BULLETDYNAMICS\DYNAMICS\BTDISCRETEDYNAMICSWORLD.CPP
E:\PROGRAMMING\BULLET PHYSICS\BUILDS\SRC\BULLETDYNAMICS\BULLETDYNAMICS.DIR\DEBUG\BULLETDYNAMICS.PDB
^E:\PROGRAMMING\BULLET PHYSICS\BULLET3-2.83.7\SRC\BULLETDYNAMICS\DYNAMICS\BTRIGIDBODY.CPP
E:\PROGRAMMING\BULLET PHYSICS\BUILDS\SRC\BULLETDYNAMICS\BULLETDYNAMICS.DIR\DEBUG\BULLETDYNAMICS.PDB
^E:\PROGRAMMING\BULLET PHYSICS\BULLET3-2.83.7\SRC\BULLETDYNAMICS\DYNAMICS\BTSIMPLEDYNAMICSWORLD.CPP
E:\PROGRAMMING\BULLET PHYSICS\BUILDS\SRC\BULLETDYNAMICS\BULLETDYNAMICS.DIR\DEBUG\BULLETDYNAMICS.PDB
^E:\PROGRAMMING\BULLET PHYSICS\BULLET3-2.83.7\SRC\BULLETDYNAMICS\VEHICLE\BTRAYCASTVEHICLE.CPP
E:\PROGRAMMING\BULLET PHYSICS\BUILDS\SRC\BULLETDYNAMICS\BULLETDYNAMICS.DIR\DEBUG\BULLETDYNAMICS.PDB
^E:\PROGRAMMING\BULLET PHYSICS\BULLET3-2.83.7\SRC\BULLETDYNAMICS\VEHICLE\BTWHEELINFO.CPP
E:\PROGRAMMING\BULLET PHYSICS\BUILDS\SRC\BULLETDYNAMICS\BULLETDYNAMICS.DIR\DEBUG\BULLETDYNAMICS.PDB
^E:\PROGRAMMING\BULLET PHYSICS\BULLET3-2.83.7\SRC\BULLETDYNAMICS\FEATHERSTONE\BTMULTIBODY.CPP
E:\PROGRAMMING\BULLET PHYSICS\BUILDS\SRC\BULLETDYNAMICS\BULLETDYNAMICS.DIR\DEBUG\BULLETDYNAMICS.PDB
^E:\PROGRAMMING\BULLET PHYSICS\BULLET3-2.83.7\SRC\BULLETDYNAMICS\FEATHERSTONE\BTMULTIBODYCONSTRAINTSOLVER.CPP
E:\PROGRAMMING\BULLET PHYSICS\BUILDS\SRC\BULLETDYNAMICS\BULLETDYNAMICS.DIR\DEBUG\BULLETDYNAMICS.PDB
^E:\PROGRAMMING\BULLET PHYSICS\BULLET3-2.83.7\SRC\BULLETDYNAMICS\FEATHERSTONE\BTMULTIBODYDYNAMICSWORLD.CPP
E:\PROGRAMMING\BULLET PHYSICS\BUILDS\SRC\BULLETDYNAMICS\BULLETDYNAMICS.DIR\DEBUG\BULLETDYNAMICS.PDB
^E:\PROGRAMMING\BULLET PHYSICS\BULLET3-2.83.7\SRC\BULLETDYNAMICS\FEATHERSTONE\BTMULTIBODYJOINTLIMITCONSTRAINT.CPP
E:\PROGRAMMING\BULLET PHYSICS\BUILDS\SRC\BULLETDYNAMICS\BULLETDYNAMICS.DIR\DEBUG\BULLETDYNAMICS.PDB
^E:\PROGRAMMING\BULLET PHYSICS\BULLET3-2.83.7\SRC\BULLETDYNAMICS\FEATHERSTONE\BTMULTIBODYCONSTRAINT.CPP
E:\PROGRAMMING\BULLET PHYSICS\BUILDS\SRC\BULLETDYNAMICS\BULLETDYNAMICS.DIR\DEBUG\BULLETDYNAMICS.PDB
^E:\PROGRAMMING\BULLET PHYSICS\BULLET3-2.83.7\SRC\BULLETDYNAMICS\FEATHERSTONE\BTMULTIBODYPOINT2POINT.CPP
E:\PROGRAMMING\BULLET PHYSICS\BUILDS\SRC\BULLETDYNAMICS\BULLETDYNAMICS.DIR\DEBUG\BULLETDYNAMICS.PDB
^E:\PROGRAMMING\BULLET PHYSICS\BULLET3-2.83.7\SRC\BULLETDYNAMICS\FEATHERSTONE\BTMULTIBODYJOINTMOTOR.CPP
E:\PROGRAMMING\BULLET PHYSICS\BUILDS\SRC\BULLETDYNAMICS\BULLETDYNAMICS.DIR\DEBUG\BULLETDYNAMICS.PDB
^E:\PROGRAMMING\BULLET PHYSICS\BULLET3-2.83.7\SRC\BULLETDYNAMICS\MLCPSOLVERS\BTDANTZIGLCP.CPP
E:\PROGRAMMING\BULLET PHYSICS\BUILDS\SRC\BULLETDYNAMICS\BULLETDYNAMICS.DIR\DEBUG\BULLETDYNAMICS.PDB
^E:\PROGRAMMING\BULLET PHYSICS\BULLET3-2.83.7\SRC\BULLETDYNAMICS\MLCPSOLVERS\BTMLCPSOLVER.CPP
E:\PROGRAMMING\BULLET PHYSICS\BUILDS\SRC\BULLETDYNAMICS\BULLETDYNAMICS.DIR\DEBUG\BULLETDYNAMICS.PDB
^E:\PROGRAMMING\BULLET PHYSICS\BULLET3-2.83.7\SRC\BULLETDYNAMICS\MLCPSOLVERS\BTLEMKEALGORITHM.CPP
E:\PROGRAMMING\BULLET PHYSICS\BUILDS\SRC\BULLETDYNAMICS\BULLETDYNAMICS.DIR\DEBUG\BULLETDYNAMICS.PDB
