^E:\PROGRAMMING\BULLET PHYSICS\BULLET3-2.83.7\SRC\BULLET3DYNAMICS\B3CPURIGIDBODYPIPELINE.CPP
E:\PROGRAMMING\BULLET PHYSICS\BULLET3-2.83.7\SRC\BULLET3DYNAMICS\B3CPURIGIDBODYPIPELINE.H
E:\PROGRAMMING\BULLET PHYSICS\BULLET3-2.83.7\SRC\BULLET3COMMON\B3ALIGNEDOBJECTARRAY.H
E:\PROGRAMMING\BULLET PHYSICS\BULLET3-2.83.7\SRC\BULLET3COMMON\B3SCALAR.H
C:\PROGRAM FILES (X86)\WINDOWS KITS\10\INCLUDE\10.0.10586.0\UCRT\MATH.H
C:\PROGRAM FILES (X86)\WINDOWS KITS\10\INCLUDE\10.0.10586.0\UCRT\CORECRT.H
D:\PROGRAM\VISUAL STUDIO COM 2015\VC\INCLUDE\VCRUNTIME.H
D:\PROGRAM\VISUAL STUDIO COM 2015\VC\INCLUDE\SAL.H
D:\PROGRAM\VISUAL STUDIO COM 2015\VC\INCLUDE\CONCURRENCYSAL.H
D:\PROGRAM\VISUAL STUDIO COM 2015\VC\INCLUDE\VADEFS.H
C:\PROGRAM FILES (X86)\WINDOWS KITS\10\INCLUDE\10.0.10586.0\UCRT\STDLIB.H
C:\PROGRAM FILES (X86)\WINDOWS KITS\10\INCLUDE\10.0.10586.0\UCRT\CORECRT_MALLOC.H
C:\PROGRAM FILES (X86)\WINDOWS KITS\10\INCLUDE\10.0.10586.0\UCRT\CORECRT_SEARCH.H
C:\PROGRAM FILES (X86)\WINDOWS KITS\10\INCLUDE\10.0.10586.0\UCRT\STDDEF.H
C:\PROGRAM FILES (X86)\WINDOWS KITS\10\INCLUDE\10.0.10586.0\UCRT\CORECRT_WSTDLIB.H
D:\PROGRAM\VISUAL STUDIO COM 2015\VC\INCLUDE\LIMITS.H
C:\PROGRAM FILES (X86)\WINDOWS KITS\10\INCLUDE\10.0.10586.0\UCRT\FLOAT.H
E:\PROGRAMMING\BULLET PHYSICS\BULLET3-2.83.7\SRC\BULLET3COMMON\B3LOGGING.H
D:\PROGRAM\VISUAL STUDIO COM 2015\VC\INCLUDE\EMMINTRIN.H
D:\PROGRAM\VISUAL STUDIO COM 2015\VC\INCLUDE\XMMINTRIN.H
D:\PROGRAM\VISUAL STUDIO COM 2015\VC\INCLUDE\MMINTRIN.H
C:\PROGRAM FILES (X86)\WINDOWS KITS\10\INCLUDE\10.0.10586.0\UCRT\MALLOC.H
C:\PROGRAM FILES (X86)\WINDOWS KITS\10\INCLUDE\10.0.10586.0\UCRT\STDIO.H
C:\PROGRAM FILES (X86)\WINDOWS KITS\10\INCLUDE\10.0.10586.0\UCRT\CORECRT_WSTDIO.H
C:\PROGRAM FILES (X86)\WINDOWS KITS\10\INCLUDE\10.0.10586.0\UCRT\CORECRT_STDIO_CONFIG.H
E:\PROGRAMMING\BULLET PHYSICS\BULLET3-2.83.7\SRC\BULLET3COMMON\B3ALIGNEDALLOCATOR.H
D:\PROGRAM\VISUAL STUDIO COM 2015\VC\INCLUDE\NEW
D:\PROGRAM\VISUAL STUDIO COM 2015\VC\INCLUDE\EXCEPTION
D:\PROGRAM\VISUAL STUDIO COM 2015\VC\INCLUDE\TYPE_TRAITS
D:\PROGRAM\VISUAL STUDIO COM 2015\VC\INCLUDE\XSTDDEF
D:\PROGRAM\VISUAL STUDIO COM 2015\VC\INCLUDE\CSTDDEF
D:\PROGRAM\VISUAL STUDIO COM 2015\VC\INCLUDE\YVALS.H
D:\PROGRAM\VISUAL STUDIO COM 2015\VC\INCLUDE\XKEYCHECK.H
D:\PROGRAM\VISUAL STUDIO COM 2015\VC\INCLUDE\CRTDEFS.H
D:\PROGRAM\VISUAL STUDIO COM 2015\VC\INCLUDE\USE_ANSI.H
D:\PROGRAM\VISUAL STUDIO COM 2015\VC\INCLUDE\CSTDLIB
D:\PROGRAM\VISUAL STUDIO COM 2015\VC\INCLUDE\INITIALIZER_LIST
D:\PROGRAM\VISUAL STUDIO COM 2015\VC\INCLUDE\XTR1COMMON
D:\PROGRAM\VISUAL STUDIO COM 2015\VC\INCLUDE\VCRUNTIME_EXCEPTION.H
D:\PROGRAM\VISUAL STUDIO COM 2015\VC\INCLUDE\EH.H
C:\PROGRAM FILES (X86)\WINDOWS KITS\10\INCLUDE\10.0.10586.0\UCRT\CORECRT_TERMINATE.H
D:\PROGRAM\VISUAL STUDIO COM 2015\VC\INCLUDE\VCRUNTIME_NEW.H
E:\PROGRAMMING\BULLET PHYSICS\BULLET3-2.83.7\SRC\BULLET3COLLISION\NARROWPHASECOLLISION\B3RAYCASTINFO.H
E:\PROGRAMMING\BULLET PHYSICS\BULLET3-2.83.7\SRC\BULLET3COMMON\B3VECTOR3.H
E:\PROGRAMMING\BULLET PHYSICS\BULLET3-2.83.7\SRC\BULLET3COMMON\B3MINMAX.H
E:\PROGRAMMING\BULLET PHYSICS\BULLET3-2.83.7\SRC\BULLET3DYNAMICS\SHARED\B3INTEGRATETRANSFORMS.H
E:\PROGRAMMING\BULLET PHYSICS\BULLET3-2.83.7\SRC\BULLET3COLLISION\NARROWPHASECOLLISION\SHARED\B3RIGIDBODYDATA.H
E:\PROGRAMMING\BULLET PHYSICS\BULLET3-2.83.7\SRC\BULLET3COMMON\SHARED\B3FLOAT4.H
E:\PROGRAMMING\BULLET PHYSICS\BULLET3-2.83.7\SRC\BULLET3COMMON\SHARED\B3PLATFORMDEFINITIONS.H
E:\PROGRAMMING\BULLET PHYSICS\BULLET3-2.83.7\SRC\BULLET3COMMON\SHARED\B3QUAT.H
E:\PROGRAMMING\BULLET PHYSICS\BULLET3-2.83.7\SRC\BULLET3COMMON\B3QUATERNION.H
E:\PROGRAMMING\BULLET PHYSICS\BULLET3-2.83.7\SRC\BULLET3COMMON\B3QUADWORD.H
E:\PROGRAMMING\BULLET PHYSICS\BULLET3-2.83.7\SRC\BULLET3COMMON\B3TRANSFORM.H
E:\PROGRAMMING\BULLET PHYSICS\BULLET3-2.83.7\SRC\BULLET3COMMON\B3MATRIX3X3.H
E:\PROGRAMMING\BULLET PHYSICS\BULLET3-2.83.7\SRC\BULLET3COMMON\SHARED\B3MAT3X3.H
E:\PROGRAMMING\BULLET PHYSICS\BULLET3-2.83.7\SRC\BULLET3COLLISION\BROADPHASECOLLISION\B3DYNAMICBVHBROADPHASE.H
E:\PROGRAMMING\BULLET PHYSICS\BULLET3-2.83.7\SRC\BULLET3COLLISION\BROADPHASECOLLISION\B3DYNAMICBVH.H
E:\PROGRAMMING\BULLET PHYSICS\BULLET3-2.83.7\SRC\BULLET3GEOMETRY\B3AABBUTIL.H
C:\PROGRAM FILES (X86)\WINDOWS KITS\10\INCLUDE\10.0.10586.0\UCRT\MEMORY.H
C:\PROGRAM FILES (X86)\WINDOWS KITS\10\INCLUDE\10.0.10586.0\UCRT\CORECRT_MEMORY.H
C:\PROGRAM FILES (X86)\WINDOWS KITS\10\INCLUDE\10.0.10586.0\UCRT\CORECRT_MEMCPY_S.H
C:\PROGRAM FILES (X86)\WINDOWS KITS\10\INCLUDE\10.0.10586.0\UCRT\ERRNO.H
D:\PROGRAM\VISUAL STUDIO COM 2015\VC\INCLUDE\VCRUNTIME_STRING.H
C:\PROGRAM FILES (X86)\WINDOWS KITS\10\INCLUDE\10.0.10586.0\UCRT\STRING.H
C:\PROGRAM FILES (X86)\WINDOWS KITS\10\INCLUDE\10.0.10586.0\UCRT\CORECRT_WSTRING.H
E:\PROGRAMMING\BULLET PHYSICS\BULLET3-2.83.7\SRC\BULLET3COLLISION\BROADPHASECOLLISION\B3OVERLAPPINGPAIRCACHE.H
E:\PROGRAMMING\BULLET PHYSICS\BULLET3-2.83.7\SRC\BULLET3COMMON\SHARED\B3INT2.H
E:\PROGRAMMING\BULLET PHYSICS\BULLET3-2.83.7\SRC\BULLET3COLLISION\BROADPHASECOLLISION\B3OVERLAPPINGPAIR.H
E:\PROGRAMMING\BULLET PHYSICS\BULLET3-2.83.7\SRC\BULLET3COMMON\SHARED\B3INT4.H
E:\PROGRAMMING\BULLET PHYSICS\BULLET3-2.83.7\SRC\BULLET3COLLISION\BROADPHASECOLLISION\B3BROADPHASECALLBACK.H
E:\PROGRAMMING\BULLET PHYSICS\BULLET3-2.83.7\SRC\BULLET3COLLISION\NARROWPHASECOLLISION\B3CONFIG.H
E:\PROGRAMMING\BULLET PHYSICS\BULLET3-2.83.7\SRC\BULLET3COLLISION\NARROWPHASECOLLISION\B3CPUNARROWPHASE.H
E:\PROGRAMMING\BULLET PHYSICS\BULLET3-2.83.7\SRC\BULLET3COLLISION\NARROWPHASECOLLISION\SHARED\B3COLLIDABLE.H
E:\PROGRAMMING\BULLET PHYSICS\BULLET3-2.83.7\SRC\BULLET3COLLISION\BROADPHASECOLLISION\SHARED\B3AABB.H
E:\PROGRAMMING\BULLET PHYSICS\BULLET3-2.83.7\SRC\BULLET3COLLISION\NARROWPHASECOLLISION\SHARED\B3CONTACT4DATA.H
E:\PROGRAMMING\BULLET PHYSICS\BULLET3-2.83.7\SRC\BULLET3DYNAMICS\SHARED\B3CONTACTCONSTRAINT4.H
E:\PROGRAMMING\BULLET PHYSICS\BULLET3-2.83.7\SRC\BULLET3DYNAMICS\SHARED\B3INERTIA.H
^E:\PROGRAMMING\BULLET PHYSICS\BULLET3-2.83.7\SRC\BULLET3DYNAMICS\CONSTRAINTSOLVER\B3FIXEDCONSTRAINT.CPP
E:\PROGRAMMING\BULLET PHYSICS\BULLET3-2.83.7\SRC\BULLET3DYNAMICS\CONSTRAINTSOLVER\B3FIXEDCONSTRAINT.H
E:\PROGRAMMING\BULLET PHYSICS\BULLET3-2.83.7\SRC\BULLET3DYNAMICS\CONSTRAINTSOLVER\B3TYPEDCONSTRAINT.H
E:\PROGRAMMING\BULLET PHYSICS\BULLET3-2.83.7\SRC\BULLET3COMMON\B3SCALAR.H
C:\PROGRAM FILES (X86)\WINDOWS KITS\10\INCLUDE\10.0.10586.0\UCRT\MATH.H
C:\PROGRAM FILES (X86)\WINDOWS KITS\10\INCLUDE\10.0.10586.0\UCRT\CORECRT.H
D:\PROGRAM\VISUAL STUDIO COM 2015\VC\INCLUDE\VCRUNTIME.H
D:\PROGRAM\VISUAL STUDIO COM 2015\VC\INCLUDE\SAL.H
D:\PROGRAM\VISUAL STUDIO COM 2015\VC\INCLUDE\CONCURRENCYSAL.H
D:\PROGRAM\VISUAL STUDIO COM 2015\VC\INCLUDE\VADEFS.H
C:\PROGRAM FILES (X86)\WINDOWS KITS\10\INCLUDE\10.0.10586.0\UCRT\STDLIB.H
C:\PROGRAM FILES (X86)\WINDOWS KITS\10\INCLUDE\10.0.10586.0\UCRT\CORECRT_MALLOC.H
C:\PROGRAM FILES (X86)\WINDOWS KITS\10\INCLUDE\10.0.10586.0\UCRT\CORECRT_SEARCH.H
C:\PROGRAM FILES (X86)\WINDOWS KITS\10\INCLUDE\10.0.10586.0\UCRT\STDDEF.H
C:\PROGRAM FILES (X86)\WINDOWS KITS\10\INCLUDE\10.0.10586.0\UCRT\CORECRT_WSTDLIB.H
D:\PROGRAM\VISUAL STUDIO COM 2015\VC\INCLUDE\LIMITS.H
C:\PROGRAM FILES (X86)\WINDOWS KITS\10\INCLUDE\10.0.10586.0\UCRT\FLOAT.H
E:\PROGRAMMING\BULLET PHYSICS\BULLET3-2.83.7\SRC\BULLET3COMMON\B3LOGGING.H
D:\PROGRAM\VISUAL STUDIO COM 2015\VC\INCLUDE\EMMINTRIN.H
D:\PROGRAM\VISUAL STUDIO COM 2015\VC\INCLUDE\XMMINTRIN.H
D:\PROGRAM\VISUAL STUDIO COM 2015\VC\INCLUDE\MMINTRIN.H
C:\PROGRAM FILES (X86)\WINDOWS KITS\10\INCLUDE\10.0.10586.0\UCRT\MALLOC.H
C:\PROGRAM FILES (X86)\WINDOWS KITS\10\INCLUDE\10.0.10586.0\UCRT\STDIO.H
C:\PROGRAM FILES (X86)\WINDOWS KITS\10\INCLUDE\10.0.10586.0\UCRT\CORECRT_WSTDIO.H
C:\PROGRAM FILES (X86)\WINDOWS KITS\10\INCLUDE\10.0.10586.0\UCRT\CORECRT_STDIO_CONFIG.H
E:\PROGRAMMING\BULLET PHYSICS\BULLET3-2.83.7\SRC\BULLET3DYNAMICS\CONSTRAINTSOLVER\B3SOLVERCONSTRAINT.H
E:\PROGRAMMING\BULLET PHYSICS\BULLET3-2.83.7\SRC\BULLET3COMMON\B3VECTOR3.H
E:\PROGRAMMING\BULLET PHYSICS\BULLET3-2.83.7\SRC\BULLET3COMMON\B3MINMAX.H
E:\PROGRAMMING\BULLET PHYSICS\BULLET3-2.83.7\SRC\BULLET3COMMON\B3ALIGNEDALLOCATOR.H
E:\PROGRAMMING\BULLET PHYSICS\BULLET3-2.83.7\SRC\BULLET3COMMON\B3MATRIX3X3.H
E:\PROGRAMMING\BULLET PHYSICS\BULLET3-2.83.7\SRC\BULLET3COMMON\B3QUATERNION.H
E:\PROGRAMMING\BULLET PHYSICS\BULLET3-2.83.7\SRC\BULLET3COMMON\B3QUADWORD.H
E:\PROGRAMMING\BULLET PHYSICS\BULLET3-2.83.7\SRC\BULLET3COMMON\B3ALIGNEDOBJECTARRAY.H
D:\PROGRAM\VISUAL STUDIO COM 2015\VC\INCLUDE\NEW
D:\PROGRAM\VISUAL STUDIO COM 2015\VC\INCLUDE\EXCEPTION
D:\PROGRAM\VISUAL STUDIO COM 2015\VC\INCLUDE\TYPE_TRAITS
D:\PROGRAM\VISUAL STUDIO COM 2015\VC\INCLUDE\XSTDDEF
D:\PROGRAM\VISUAL STUDIO COM 2015\VC\INCLUDE\CSTDDEF
D:\PROGRAM\VISUAL STUDIO COM 2015\VC\INCLUDE\YVALS.H
D:\PROGRAM\VISUAL STUDIO COM 2015\VC\INCLUDE\XKEYCHECK.H
D:\PROGRAM\VISUAL STUDIO COM 2015\VC\INCLUDE\CRTDEFS.H
D:\PROGRAM\VISUAL STUDIO COM 2015\VC\INCLUDE\USE_ANSI.H
D:\PROGRAM\VISUAL STUDIO COM 2015\VC\INCLUDE\CSTDLIB
D:\PROGRAM\VISUAL STUDIO COM 2015\VC\INCLUDE\INITIALIZER_LIST
D:\PROGRAM\VISUAL STUDIO COM 2015\VC\INCLUDE\XTR1COMMON
D:\PROGRAM\VISUAL STUDIO COM 2015\VC\INCLUDE\VCRUNTIME_EXCEPTION.H
D:\PROGRAM\VISUAL STUDIO COM 2015\VC\INCLUDE\EH.H
C:\PROGRAM FILES (X86)\WINDOWS KITS\10\INCLUDE\10.0.10586.0\UCRT\CORECRT_TERMINATE.H
D:\PROGRAM\VISUAL STUDIO COM 2015\VC\INCLUDE\VCRUNTIME_NEW.H
E:\PROGRAMMING\BULLET PHYSICS\BULLET3-2.83.7\SRC\BULLET3DYNAMICS\CONSTRAINTSOLVER\B3SOLVERBODY.H
E:\PROGRAMMING\BULLET PHYSICS\BULLET3-2.83.7\SRC\BULLET3COMMON\B3TRANSFORMUTIL.H
E:\PROGRAMMING\BULLET PHYSICS\BULLET3-2.83.7\SRC\BULLET3COMMON\B3TRANSFORM.H
E:\PROGRAMMING\BULLET PHYSICS\BULLET3-2.83.7\SRC\BULLET3COLLISION\NARROWPHASECOLLISION\SHARED\B3RIGIDBODYDATA.H
E:\PROGRAMMING\BULLET PHYSICS\BULLET3-2.83.7\SRC\BULLET3COMMON\SHARED\B3FLOAT4.H
E:\PROGRAMMING\BULLET PHYSICS\BULLET3-2.83.7\SRC\BULLET3COMMON\SHARED\B3PLATFORMDEFINITIONS.H
E:\PROGRAMMING\BULLET PHYSICS\BULLET3-2.83.7\SRC\BULLET3COMMON\SHARED\B3QUAT.H
E:\PROGRAMMING\BULLET PHYSICS\BULLET3-2.83.7\SRC\BULLET3COMMON\SHARED\B3MAT3X3.H
^E:\PROGRAMMING\BULLET PHYSICS\BULLET3-2.83.7\SRC\BULLET3DYNAMICS\CONSTRAINTSOLVER\B3GENERIC6DOFCONSTRAINT.CPP
E:\PROGRAMMING\BULLET PHYSICS\BULLET3-2.83.7\SRC\BULLET3DYNAMICS\CONSTRAINTSOLVER\B3GENERIC6DOFCONSTRAINT.H
E:\PROGRAMMING\BULLET PHYSICS\BULLET3-2.83.7\SRC\BULLET3COMMON\B3VECTOR3.H
E:\PROGRAMMING\BULLET PHYSICS\BULLET3-2.83.7\SRC\BULLET3COMMON\B3SCALAR.H
C:\PROGRAM FILES (X86)\WINDOWS KITS\10\INCLUDE\10.0.10586.0\UCRT\MATH.H
C:\PROGRAM FILES (X86)\WINDOWS KITS\10\INCLUDE\10.0.10586.0\UCRT\CORECRT.H
D:\PROGRAM\VISUAL STUDIO COM 2015\VC\INCLUDE\VCRUNTIME.H
D:\PROGRAM\VISUAL STUDIO COM 2015\VC\INCLUDE\SAL.H
D:\PROGRAM\VISUAL STUDIO COM 2015\VC\INCLUDE\CONCURRENCYSAL.H
D:\PROGRAM\VISUAL STUDIO COM 2015\VC\INCLUDE\VADEFS.H
C:\PROGRAM FILES (X86)\WINDOWS KITS\10\INCLUDE\10.0.10586.0\UCRT\STDLIB.H
C:\PROGRAM FILES (X86)\WINDOWS KITS\10\INCLUDE\10.0.10586.0\UCRT\CORECRT_MALLOC.H
C:\PROGRAM FILES (X86)\WINDOWS KITS\10\INCLUDE\10.0.10586.0\UCRT\CORECRT_SEARCH.H
C:\PROGRAM FILES (X86)\WINDOWS KITS\10\INCLUDE\10.0.10586.0\UCRT\STDDEF.H
C:\PROGRAM FILES (X86)\WINDOWS KITS\10\INCLUDE\10.0.10586.0\UCRT\CORECRT_WSTDLIB.H
D:\PROGRAM\VISUAL STUDIO COM 2015\VC\INCLUDE\LIMITS.H
C:\PROGRAM FILES (X86)\WINDOWS KITS\10\INCLUDE\10.0.10586.0\UCRT\FLOAT.H
E:\PROGRAMMING\BULLET PHYSICS\BULLET3-2.83.7\SRC\BULLET3COMMON\B3LOGGING.H
D:\PROGRAM\VISUAL STUDIO COM 2015\VC\INCLUDE\EMMINTRIN.H
D:\PROGRAM\VISUAL STUDIO COM 2015\VC\INCLUDE\XMMINTRIN.H
D:\PROGRAM\VISUAL STUDIO COM 2015\VC\INCLUDE\MMINTRIN.H
C:\PROGRAM FILES (X86)\WINDOWS KITS\10\INCLUDE\10.0.10586.0\UCRT\MALLOC.H
C:\PROGRAM FILES (X86)\WINDOWS KITS\10\INCLUDE\10.0.10586.0\UCRT\STDIO.H
C:\PROGRAM FILES (X86)\WINDOWS KITS\10\INCLUDE\10.0.10586.0\UCRT\CORECRT_WSTDIO.H
C:\PROGRAM FILES (X86)\WINDOWS KITS\10\INCLUDE\10.0.10586.0\UCRT\CORECRT_STDIO_CONFIG.H
E:\PROGRAMMING\BULLET PHYSICS\BULLET3-2.83.7\SRC\BULLET3COMMON\B3MINMAX.H
E:\PROGRAMMING\BULLET PHYSICS\BULLET3-2.83.7\SRC\BULLET3COMMON\B3ALIGNEDALLOCATOR.H
E:\PROGRAMMING\BULLET PHYSICS\BULLET3-2.83.7\SRC\BULLET3DYNAMICS\CONSTRAINTSOLVER\B3JACOBIANENTRY.H
E:\PROGRAMMING\BULLET PHYSICS\BULLET3-2.83.7\SRC\BULLET3COMMON\B3MATRIX3X3.H
E:\PROGRAMMING\BULLET PHYSICS\BULLET3-2.83.7\SRC\BULLET3COMMON\B3QUATERNION.H
E:\PROGRAMMING\BULLET PHYSICS\BULLET3-2.83.7\SRC\BULLET3COMMON\B3QUADWORD.H
E:\PROGRAMMING\BULLET PHYSICS\BULLET3-2.83.7\SRC\BULLET3DYNAMICS\CONSTRAINTSOLVER\B3TYPEDCONSTRAINT.H
E:\PROGRAMMING\BULLET PHYSICS\BULLET3-2.83.7\SRC\BULLET3DYNAMICS\CONSTRAINTSOLVER\B3SOLVERCONSTRAINT.H
E:\PROGRAMMING\BULLET PHYSICS\BULLET3-2.83.7\SRC\BULLET3COMMON\B3ALIGNEDOBJECTARRAY.H
D:\PROGRAM\VISUAL STUDIO COM 2015\VC\INCLUDE\NEW
D:\PROGRAM\VISUAL STUDIO COM 2015\VC\INCLUDE\EXCEPTION
D:\PROGRAM\VISUAL STUDIO COM 2015\VC\INCLUDE\TYPE_TRAITS
D:\PROGRAM\VISUAL STUDIO COM 2015\VC\INCLUDE\XSTDDEF
D:\PROGRAM\VISUAL STUDIO COM 2015\VC\INCLUDE\CSTDDEF
D:\PROGRAM\VISUAL STUDIO COM 2015\VC\INCLUDE\YVALS.H
D:\PROGRAM\VISUAL STUDIO COM 2015\VC\INCLUDE\XKEYCHECK.H
D:\PROGRAM\VISUAL STUDIO COM 2015\VC\INCLUDE\CRTDEFS.H
D:\PROGRAM\VISUAL STUDIO COM 2015\VC\INCLUDE\USE_ANSI.H
D:\PROGRAM\VISUAL STUDIO COM 2015\VC\INCLUDE\CSTDLIB
D:\PROGRAM\VISUAL STUDIO COM 2015\VC\INCLUDE\INITIALIZER_LIST
D:\PROGRAM\VISUAL STUDIO COM 2015\VC\INCLUDE\XTR1COMMON
D:\PROGRAM\VISUAL STUDIO COM 2015\VC\INCLUDE\VCRUNTIME_EXCEPTION.H
D:\PROGRAM\VISUAL STUDIO COM 2015\VC\INCLUDE\EH.H
C:\PROGRAM FILES (X86)\WINDOWS KITS\10\INCLUDE\10.0.10586.0\UCRT\CORECRT_TERMINATE.H
D:\PROGRAM\VISUAL STUDIO COM 2015\VC\INCLUDE\VCRUNTIME_NEW.H
E:\PROGRAMMING\BULLET PHYSICS\BULLET3-2.83.7\SRC\BULLET3DYNAMICS\CONSTRAINTSOLVER\B3SOLVERBODY.H
E:\PROGRAMMING\BULLET PHYSICS\BULLET3-2.83.7\SRC\BULLET3COMMON\B3TRANSFORMUTIL.H
E:\PROGRAMMING\BULLET PHYSICS\BULLET3-2.83.7\SRC\BULLET3COMMON\B3TRANSFORM.H
E:\PROGRAMMING\BULLET PHYSICS\BULLET3-2.83.7\SRC\BULLET3COLLISION\NARROWPHASECOLLISION\SHARED\B3RIGIDBODYDATA.H
E:\PROGRAMMING\BULLET PHYSICS\BULLET3-2.83.7\SRC\BULLET3COMMON\SHARED\B3FLOAT4.H
E:\PROGRAMMING\BULLET PHYSICS\BULLET3-2.83.7\SRC\BULLET3COMMON\SHARED\B3PLATFORMDEFINITIONS.H
E:\PROGRAMMING\BULLET PHYSICS\BULLET3-2.83.7\SRC\BULLET3COMMON\SHARED\B3QUAT.H
E:\PROGRAMMING\BULLET PHYSICS\BULLET3-2.83.7\SRC\BULLET3COMMON\SHARED\B3MAT3X3.H
^E:\PROGRAMMING\BULLET PHYSICS\BULLET3-2.83.7\SRC\BULLET3DYNAMICS\CONSTRAINTSOLVER\B3PGSJACOBISOLVER.CPP
E:\PROGRAMMING\BULLET PHYSICS\BULLET3-2.83.7\SRC\BULLET3DYNAMICS\CONSTRAINTSOLVER\B3PGSJACOBISOLVER.H
E:\PROGRAMMING\BULLET PHYSICS\BULLET3-2.83.7\SRC\BULLET3DYNAMICS\CONSTRAINTSOLVER\B3TYPEDCONSTRAINT.H
E:\PROGRAMMING\BULLET PHYSICS\BULLET3-2.83.7\SRC\BULLET3COMMON\B3SCALAR.H
C:\PROGRAM FILES (X86)\WINDOWS KITS\10\INCLUDE\10.0.10586.0\UCRT\MATH.H
C:\PROGRAM FILES (X86)\WINDOWS KITS\10\INCLUDE\10.0.10586.0\UCRT\CORECRT.H
D:\PROGRAM\VISUAL STUDIO COM 2015\VC\INCLUDE\VCRUNTIME.H
D:\PROGRAM\VISUAL STUDIO COM 2015\VC\INCLUDE\SAL.H
D:\PROGRAM\VISUAL STUDIO COM 2015\VC\INCLUDE\CONCURRENCYSAL.H
D:\PROGRAM\VISUAL STUDIO COM 2015\VC\INCLUDE\VADEFS.H
C:\PROGRAM FILES (X86)\WINDOWS KITS\10\INCLUDE\10.0.10586.0\UCRT\STDLIB.H
C:\PROGRAM FILES (X86)\WINDOWS KITS\10\INCLUDE\10.0.10586.0\UCRT\CORECRT_MALLOC.H
C:\PROGRAM FILES (X86)\WINDOWS KITS\10\INCLUDE\10.0.10586.0\UCRT\CORECRT_SEARCH.H
C:\PROGRAM FILES (X86)\WINDOWS KITS\10\INCLUDE\10.0.10586.0\UCRT\STDDEF.H
C:\PROGRAM FILES (X86)\WINDOWS KITS\10\INCLUDE\10.0.10586.0\UCRT\CORECRT_WSTDLIB.H
D:\PROGRAM\VISUAL STUDIO COM 2015\VC\INCLUDE\LIMITS.H
C:\PROGRAM FILES (X86)\WINDOWS KITS\10\INCLUDE\10.0.10586.0\UCRT\FLOAT.H
E:\PROGRAMMING\BULLET PHYSICS\BULLET3-2.83.7\SRC\BULLET3COMMON\B3LOGGING.H
D:\PROGRAM\VISUAL STUDIO COM 2015\VC\INCLUDE\EMMINTRIN.H
D:\PROGRAM\VISUAL STUDIO COM 2015\VC\INCLUDE\XMMINTRIN.H
D:\PROGRAM\VISUAL STUDIO COM 2015\VC\INCLUDE\MMINTRIN.H
C:\PROGRAM FILES (X86)\WINDOWS KITS\10\INCLUDE\10.0.10586.0\UCRT\MALLOC.H
C:\PROGRAM FILES (X86)\WINDOWS KITS\10\INCLUDE\10.0.10586.0\UCRT\STDIO.H
C:\PROGRAM FILES (X86)\WINDOWS KITS\10\INCLUDE\10.0.10586.0\UCRT\CORECRT_WSTDIO.H
C:\PROGRAM FILES (X86)\WINDOWS KITS\10\INCLUDE\10.0.10586.0\UCRT\CORECRT_STDIO_CONFIG.H
E:\PROGRAMMING\BULLET PHYSICS\BULLET3-2.83.7\SRC\BULLET3DYNAMICS\CONSTRAINTSOLVER\B3SOLVERCONSTRAINT.H
E:\PROGRAMMING\BULLET PHYSICS\BULLET3-2.83.7\SRC\BULLET3COMMON\B3VECTOR3.H
E:\PROGRAMMING\BULLET PHYSICS\BULLET3-2.83.7\SRC\BULLET3COMMON\B3MINMAX.H
E:\PROGRAMMING\BULLET PHYSICS\BULLET3-2.83.7\SRC\BULLET3COMMON\B3ALIGNEDALLOCATOR.H
E:\PROGRAMMING\BULLET PHYSICS\BULLET3-2.83.7\SRC\BULLET3COMMON\B3MATRIX3X3.H
E:\PROGRAMMING\BULLET PHYSICS\BULLET3-2.83.7\SRC\BULLET3COMMON\B3QUATERNION.H
E:\PROGRAMMING\BULLET PHYSICS\BULLET3-2.83.7\SRC\BULLET3COMMON\B3QUADWORD.H
E:\PROGRAMMING\BULLET PHYSICS\BULLET3-2.83.7\SRC\BULLET3COMMON\B3ALIGNEDOBJECTARRAY.H
D:\PROGRAM\VISUAL STUDIO COM 2015\VC\INCLUDE\NEW
D:\PROGRAM\VISUAL STUDIO COM 2015\VC\INCLUDE\EXCEPTION
D:\PROGRAM\VISUAL STUDIO COM 2015\VC\INCLUDE\TYPE_TRAITS
D:\PROGRAM\VISUAL STUDIO COM 2015\VC\INCLUDE\XSTDDEF
D:\PROGRAM\VISUAL STUDIO COM 2015\VC\INCLUDE\CSTDDEF
D:\PROGRAM\VISUAL STUDIO COM 2015\VC\INCLUDE\YVALS.H
D:\PROGRAM\VISUAL STUDIO COM 2015\VC\INCLUDE\XKEYCHECK.H
D:\PROGRAM\VISUAL STUDIO COM 2015\VC\INCLUDE\CRTDEFS.H
D:\PROGRAM\VISUAL STUDIO COM 2015\VC\INCLUDE\USE_ANSI.H
D:\PROGRAM\VISUAL STUDIO COM 2015\VC\INCLUDE\CSTDLIB
D:\PROGRAM\VISUAL STUDIO COM 2015\VC\INCLUDE\INITIALIZER_LIST
D:\PROGRAM\VISUAL STUDIO COM 2015\VC\INCLUDE\XTR1COMMON
D:\PROGRAM\VISUAL STUDIO COM 2015\VC\INCLUDE\VCRUNTIME_EXCEPTION.H
D:\PROGRAM\VISUAL STUDIO COM 2015\VC\INCLUDE\EH.H
C:\PROGRAM FILES (X86)\WINDOWS KITS\10\INCLUDE\10.0.10586.0\UCRT\CORECRT_TERMINATE.H
D:\PROGRAM\VISUAL STUDIO COM 2015\VC\INCLUDE\VCRUNTIME_NEW.H
E:\PROGRAMMING\BULLET PHYSICS\BULLET3-2.83.7\SRC\BULLET3DYNAMICS\CONSTRAINTSOLVER\B3SOLVERBODY.H
E:\PROGRAMMING\BULLET PHYSICS\BULLET3-2.83.7\SRC\BULLET3COMMON\B3TRANSFORMUTIL.H
E:\PROGRAMMING\BULLET PHYSICS\BULLET3-2.83.7\SRC\BULLET3COMMON\B3TRANSFORM.H
E:\PROGRAMMING\BULLET PHYSICS\BULLET3-2.83.7\SRC\BULLET3DYNAMICS\CONSTRAINTSOLVER\B3CONTACTSOLVERINFO.H
E:\PROGRAMMING\BULLET PHYSICS\BULLET3-2.83.7\SRC\BULLET3COMMON\B3STACKALLOC.H
C:\PROGRAM FILES (X86)\WINDOWS KITS\10\INCLUDE\10.0.10586.0\UCRT\STRING.H
C:\PROGRAM FILES (X86)\WINDOWS KITS\10\INCLUDE\10.0.10586.0\UCRT\CORECRT_MEMORY.H
C:\PROGRAM FILES (X86)\WINDOWS KITS\10\INCLUDE\10.0.10586.0\UCRT\CORECRT_MEMCPY_S.H
C:\PROGRAM FILES (X86)\WINDOWS KITS\10\INCLUDE\10.0.10586.0\UCRT\ERRNO.H
D:\PROGRAM\VISUAL STUDIO COM 2015\VC\INCLUDE\VCRUNTIME_STRING.H
C:\PROGRAM FILES (X86)\WINDOWS KITS\10\INCLUDE\10.0.10586.0\UCRT\CORECRT_WSTRING.H
E:\PROGRAMMING\BULLET PHYSICS\BULLET3-2.83.7\SRC\BULLET3COLLISION\NARROWPHASECOLLISION\B3CONTACT4.H
E:\PROGRAMMING\BULLET PHYSICS\BULLET3-2.83.7\SRC\BULLET3COLLISION\NARROWPHASECOLLISION\SHARED\B3CONTACT4DATA.H
E:\PROGRAMMING\BULLET PHYSICS\BULLET3-2.83.7\SRC\BULLET3COMMON\SHARED\B3FLOAT4.H
E:\PROGRAMMING\BULLET PHYSICS\BULLET3-2.83.7\SRC\BULLET3COMMON\SHARED\B3PLATFORMDEFINITIONS.H
E:\PROGRAMMING\BULLET PHYSICS\BULLET3-2.83.7\SRC\BULLET3COLLISION\NARROWPHASECOLLISION\SHARED\B3RIGIDBODYDATA.H
E:\PROGRAMMING\BULLET PHYSICS\BULLET3-2.83.7\SRC\BULLET3COMMON\SHARED\B3QUAT.H
E:\PROGRAMMING\BULLET PHYSICS\BULLET3-2.83.7\SRC\BULLET3COMMON\SHARED\B3MAT3X3.H
^E:\PROGRAMMING\BULLET PHYSICS\BULLET3-2.83.7\SRC\BULLET3DYNAMICS\CONSTRAINTSOLVER\B3POINT2POINTCONSTRAINT.CPP
E:\PROGRAMMING\BULLET PHYSICS\BULLET3-2.83.7\SRC\BULLET3DYNAMICS\CONSTRAINTSOLVER\B3POINT2POINTCONSTRAINT.H
E:\PROGRAMMING\BULLET PHYSICS\BULLET3-2.83.7\SRC\BULLET3COMMON\B3VECTOR3.H
E:\PROGRAMMING\BULLET PHYSICS\BULLET3-2.83.7\SRC\BULLET3COMMON\B3SCALAR.H
C:\PROGRAM FILES (X86)\WINDOWS KITS\10\INCLUDE\10.0.10586.0\UCRT\MATH.H
C:\PROGRAM FILES (X86)\WINDOWS KITS\10\INCLUDE\10.0.10586.0\UCRT\CORECRT.H
D:\PROGRAM\VISUAL STUDIO COM 2015\VC\INCLUDE\VCRUNTIME.H
D:\PROGRAM\VISUAL STUDIO COM 2015\VC\INCLUDE\SAL.H
D:\PROGRAM\VISUAL STUDIO COM 2015\VC\INCLUDE\CONCURRENCYSAL.H
D:\PROGRAM\VISUAL STUDIO COM 2015\VC\INCLUDE\VADEFS.H
C:\PROGRAM FILES (X86)\WINDOWS KITS\10\INCLUDE\10.0.10586.0\UCRT\STDLIB.H
C:\PROGRAM FILES (X86)\WINDOWS KITS\10\INCLUDE\10.0.10586.0\UCRT\CORECRT_MALLOC.H
C:\PROGRAM FILES (X86)\WINDOWS KITS\10\INCLUDE\10.0.10586.0\UCRT\CORECRT_SEARCH.H
C:\PROGRAM FILES (X86)\WINDOWS KITS\10\INCLUDE\10.0.10586.0\UCRT\STDDEF.H
C:\PROGRAM FILES (X86)\WINDOWS KITS\10\INCLUDE\10.0.10586.0\UCRT\CORECRT_WSTDLIB.H
D:\PROGRAM\VISUAL STUDIO COM 2015\VC\INCLUDE\LIMITS.H
C:\PROGRAM FILES (X86)\WINDOWS KITS\10\INCLUDE\10.0.10586.0\UCRT\FLOAT.H
E:\PROGRAMMING\BULLET PHYSICS\BULLET3-2.83.7\SRC\BULLET3COMMON\B3LOGGING.H
D:\PROGRAM\VISUAL STUDIO COM 2015\VC\INCLUDE\EMMINTRIN.H
D:\PROGRAM\VISUAL STUDIO COM 2015\VC\INCLUDE\XMMINTRIN.H
D:\PROGRAM\VISUAL STUDIO COM 2015\VC\INCLUDE\MMINTRIN.H
C:\PROGRAM FILES (X86)\WINDOWS KITS\10\INCLUDE\10.0.10586.0\UCRT\MALLOC.H
C:\PROGRAM FILES (X86)\WINDOWS KITS\10\INCLUDE\10.0.10586.0\UCRT\STDIO.H
C:\PROGRAM FILES (X86)\WINDOWS KITS\10\INCLUDE\10.0.10586.0\UCRT\CORECRT_WSTDIO.H
C:\PROGRAM FILES (X86)\WINDOWS KITS\10\INCLUDE\10.0.10586.0\UCRT\CORECRT_STDIO_CONFIG.H
E:\PROGRAMMING\BULLET PHYSICS\BULLET3-2.83.7\SRC\BULLET3COMMON\B3MINMAX.H
E:\PROGRAMMING\BULLET PHYSICS\BULLET3-2.83.7\SRC\BULLET3COMMON\B3ALIGNEDALLOCATOR.H
E:\PROGRAMMING\BULLET PHYSICS\BULLET3-2.83.7\SRC\BULLET3DYNAMICS\CONSTRAINTSOLVER\B3TYPEDCONSTRAINT.H
E:\PROGRAMMING\BULLET PHYSICS\BULLET3-2.83.7\SRC\BULLET3DYNAMICS\CONSTRAINTSOLVER\B3SOLVERCONSTRAINT.H
E:\PROGRAMMING\BULLET PHYSICS\BULLET3-2.83.7\SRC\BULLET3COMMON\B3MATRIX3X3.H
E:\PROGRAMMING\BULLET PHYSICS\BULLET3-2.83.7\SRC\BULLET3COMMON\B3QUATERNION.H
E:\PROGRAMMING\BULLET PHYSICS\BULLET3-2.83.7\SRC\BULLET3COMMON\B3QUADWORD.H
E:\PROGRAMMING\BULLET PHYSICS\BULLET3-2.83.7\SRC\BULLET3COMMON\B3ALIGNEDOBJECTARRAY.H
D:\PROGRAM\VISUAL STUDIO COM 2015\VC\INCLUDE\NEW
D:\PROGRAM\VISUAL STUDIO COM 2015\VC\INCLUDE\EXCEPTION
D:\PROGRAM\VISUAL STUDIO COM 2015\VC\INCLUDE\TYPE_TRAITS
D:\PROGRAM\VISUAL STUDIO COM 2015\VC\INCLUDE\XSTDDEF
D:\PROGRAM\VISUAL STUDIO COM 2015\VC\INCLUDE\CSTDDEF
D:\PROGRAM\VISUAL STUDIO COM 2015\VC\INCLUDE\YVALS.H
D:\PROGRAM\VISUAL STUDIO COM 2015\VC\INCLUDE\XKEYCHECK.H
D:\PROGRAM\VISUAL STUDIO COM 2015\VC\INCLUDE\CRTDEFS.H
D:\PROGRAM\VISUAL STUDIO COM 2015\VC\INCLUDE\USE_ANSI.H
D:\PROGRAM\VISUAL STUDIO COM 2015\VC\INCLUDE\CSTDLIB
D:\PROGRAM\VISUAL STUDIO COM 2015\VC\INCLUDE\INITIALIZER_LIST
D:\PROGRAM\VISUAL STUDIO COM 2015\VC\INCLUDE\XTR1COMMON
D:\PROGRAM\VISUAL STUDIO COM 2015\VC\INCLUDE\VCRUNTIME_EXCEPTION.H
D:\PROGRAM\VISUAL STUDIO COM 2015\VC\INCLUDE\EH.H
C:\PROGRAM FILES (X86)\WINDOWS KITS\10\INCLUDE\10.0.10586.0\UCRT\CORECRT_TERMINATE.H
D:\PROGRAM\VISUAL STUDIO COM 2015\VC\INCLUDE\VCRUNTIME_NEW.H
E:\PROGRAMMING\BULLET PHYSICS\BULLET3-2.83.7\SRC\BULLET3DYNAMICS\CONSTRAINTSOLVER\B3SOLVERBODY.H
E:\PROGRAMMING\BULLET PHYSICS\BULLET3-2.83.7\SRC\BULLET3COMMON\B3TRANSFORMUTIL.H
E:\PROGRAMMING\BULLET PHYSICS\BULLET3-2.83.7\SRC\BULLET3COMMON\B3TRANSFORM.H
E:\PROGRAMMING\BULLET PHYSICS\BULLET3-2.83.7\SRC\BULLET3COLLISION\NARROWPHASECOLLISION\SHARED\B3RIGIDBODYDATA.H
E:\PROGRAMMING\BULLET PHYSICS\BULLET3-2.83.7\SRC\BULLET3COMMON\SHARED\B3FLOAT4.H
E:\PROGRAMMING\BULLET PHYSICS\BULLET3-2.83.7\SRC\BULLET3COMMON\SHARED\B3PLATFORMDEFINITIONS.H
E:\PROGRAMMING\BULLET PHYSICS\BULLET3-2.83.7\SRC\BULLET3COMMON\SHARED\B3QUAT.H
E:\PROGRAMMING\BULLET PHYSICS\BULLET3-2.83.7\SRC\BULLET3COMMON\SHARED\B3MAT3X3.H
^E:\PROGRAMMING\BULLET PHYSICS\BULLET3-2.83.7\SRC\BULLET3DYNAMICS\CONSTRAINTSOLVER\B3TYPEDCONSTRAINT.CPP
E:\PROGRAMMING\BULLET PHYSICS\BULLET3-2.83.7\SRC\BULLET3DYNAMICS\CONSTRAINTSOLVER\B3TYPEDCONSTRAINT.H
E:\PROGRAMMING\BULLET PHYSICS\BULLET3-2.83.7\SRC\BULLET3COMMON\B3SCALAR.H
C:\PROGRAM FILES (X86)\WINDOWS KITS\10\INCLUDE\10.0.10586.0\UCRT\MATH.H
C:\PROGRAM FILES (X86)\WINDOWS KITS\10\INCLUDE\10.0.10586.0\UCRT\CORECRT.H
D:\PROGRAM\VISUAL STUDIO COM 2015\VC\INCLUDE\VCRUNTIME.H
D:\PROGRAM\VISUAL STUDIO COM 2015\VC\INCLUDE\SAL.H
D:\PROGRAM\VISUAL STUDIO COM 2015\VC\INCLUDE\CONCURRENCYSAL.H
D:\PROGRAM\VISUAL STUDIO COM 2015\VC\INCLUDE\VADEFS.H
C:\PROGRAM FILES (X86)\WINDOWS KITS\10\INCLUDE\10.0.10586.0\UCRT\STDLIB.H
C:\PROGRAM FILES (X86)\WINDOWS KITS\10\INCLUDE\10.0.10586.0\UCRT\CORECRT_MALLOC.H
C:\PROGRAM FILES (X86)\WINDOWS KITS\10\INCLUDE\10.0.10586.0\UCRT\CORECRT_SEARCH.H
C:\PROGRAM FILES (X86)\WINDOWS KITS\10\INCLUDE\10.0.10586.0\UCRT\STDDEF.H
C:\PROGRAM FILES (X86)\WINDOWS KITS\10\INCLUDE\10.0.10586.0\UCRT\CORECRT_WSTDLIB.H
D:\PROGRAM\VISUAL STUDIO COM 2015\VC\INCLUDE\LIMITS.H
C:\PROGRAM FILES (X86)\WINDOWS KITS\10\INCLUDE\10.0.10586.0\UCRT\FLOAT.H
E:\PROGRAMMING\BULLET PHYSICS\BULLET3-2.83.7\SRC\BULLET3COMMON\B3LOGGING.H
D:\PROGRAM\VISUAL STUDIO COM 2015\VC\INCLUDE\EMMINTRIN.H
D:\PROGRAM\VISUAL STUDIO COM 2015\VC\INCLUDE\XMMINTRIN.H
D:\PROGRAM\VISUAL STUDIO COM 2015\VC\INCLUDE\MMINTRIN.H
C:\PROGRAM FILES (X86)\WINDOWS KITS\10\INCLUDE\10.0.10586.0\UCRT\MALLOC.H
C:\PROGRAM FILES (X86)\WINDOWS KITS\10\INCLUDE\10.0.10586.0\UCRT\STDIO.H
C:\PROGRAM FILES (X86)\WINDOWS KITS\10\INCLUDE\10.0.10586.0\UCRT\CORECRT_WSTDIO.H
C:\PROGRAM FILES (X86)\WINDOWS KITS\10\INCLUDE\10.0.10586.0\UCRT\CORECRT_STDIO_CONFIG.H
E:\PROGRAMMING\BULLET PHYSICS\BULLET3-2.83.7\SRC\BULLET3DYNAMICS\CONSTRAINTSOLVER\B3SOLVERCONSTRAINT.H
E:\PROGRAMMING\BULLET PHYSICS\BULLET3-2.83.7\SRC\BULLET3COMMON\B3VECTOR3.H
E:\PROGRAMMING\BULLET PHYSICS\BULLET3-2.83.7\SRC\BULLET3COMMON\B3MINMAX.H
E:\PROGRAMMING\BULLET PHYSICS\BULLET3-2.83.7\SRC\BULLET3COMMON\B3ALIGNEDALLOCATOR.H
E:\PROGRAMMING\BULLET PHYSICS\BULLET3-2.83.7\SRC\BULLET3COMMON\B3MATRIX3X3.H
E:\PROGRAMMING\BULLET PHYSICS\BULLET3-2.83.7\SRC\BULLET3COMMON\B3QUATERNION.H
E:\PROGRAMMING\BULLET PHYSICS\BULLET3-2.83.7\SRC\BULLET3COMMON\B3QUADWORD.H
E:\PROGRAMMING\BULLET PHYSICS\BULLET3-2.83.7\SRC\BULLET3COMMON\B3ALIGNEDOBJECTARRAY.H
D:\PROGRAM\VISUAL STUDIO COM 2015\VC\INCLUDE\NEW
D:\PROGRAM\VISUAL STUDIO COM 2015\VC\INCLUDE\EXCEPTION
D:\PROGRAM\VISUAL STUDIO COM 2015\VC\INCLUDE\TYPE_TRAITS
D:\PROGRAM\VISUAL STUDIO COM 2015\VC\INCLUDE\XSTDDEF
D:\PROGRAM\VISUAL STUDIO COM 2015\VC\INCLUDE\CSTDDEF
D:\PROGRAM\VISUAL STUDIO COM 2015\VC\INCLUDE\YVALS.H
D:\PROGRAM\VISUAL STUDIO COM 2015\VC\INCLUDE\XKEYCHECK.H
D:\PROGRAM\VISUAL STUDIO COM 2015\VC\INCLUDE\CRTDEFS.H
D:\PROGRAM\VISUAL STUDIO COM 2015\VC\INCLUDE\USE_ANSI.H
D:\PROGRAM\VISUAL STUDIO COM 2015\VC\INCLUDE\CSTDLIB
D:\PROGRAM\VISUAL STUDIO COM 2015\VC\INCLUDE\INITIALIZER_LIST
D:\PROGRAM\VISUAL STUDIO COM 2015\VC\INCLUDE\XTR1COMMON
D:\PROGRAM\VISUAL STUDIO COM 2015\VC\INCLUDE\VCRUNTIME_EXCEPTION.H
D:\PROGRAM\VISUAL STUDIO COM 2015\VC\INCLUDE\EH.H
C:\PROGRAM FILES (X86)\WINDOWS KITS\10\INCLUDE\10.0.10586.0\UCRT\CORECRT_TERMINATE.H
D:\PROGRAM\VISUAL STUDIO COM 2015\VC\INCLUDE\VCRUNTIME_NEW.H
E:\PROGRAMMING\BULLET PHYSICS\BULLET3-2.83.7\SRC\BULLET3DYNAMICS\CONSTRAINTSOLVER\B3SOLVERBODY.H
E:\PROGRAMMING\BULLET PHYSICS\BULLET3-2.83.7\SRC\BULLET3COMMON\B3TRANSFORMUTIL.H
E:\PROGRAMMING\BULLET PHYSICS\BULLET3-2.83.7\SRC\BULLET3COMMON\B3TRANSFORM.H
