^E:\PROGRAMMING\BULLET PHYSICS\BUILDS\SRC\BULLETSOFTBODY\BULLETSOFTBODY.DIR\RELEASE\BTDEFAULTSOFTBODYSOLVER.OBJ|E:\PROGRAMMING\BULLET PHYSICS\BUILDS\SRC\BULLETSOFTBODY\BULLETSOFTBODY.DIR\RELEASE\BTSOFTBODY.OBJ|E:\PROGRAMMING\BULLET PHYSICS\BUILDS\SRC\BULLETSOFTBODY\BULLETSOFTBODY.DIR\RELEASE\BTSOFTBODYCONCAVECOLLISIONALGORITHM.OBJ|E:\PROGRAMMING\BULLET PHYSICS\BUILDS\SRC\BULLETSOFTBODY\BULLETSOFTBODY.DIR\RELEASE\BTSOFTBODYHELPERS.OBJ|E:\PROGRAMMING\BULLET PHYSICS\BUILDS\SRC\BULLETSOFTBODY\BULLETSOFTBODY.DIR\RELEASE\BTSOFTBODYRIGIDBODYCOLLISIONCONFIGURATION.OBJ|E:\PROGRAMMING\BULLET PHYSICS\BUILDS\SRC\BULLETSOFTBODY\BULLETSOFTBODY.DIR\RELEASE\BTSOFTRIGIDCOLLISIONALGORITHM.OBJ|E:\PROGRAMMING\BULLET PHYSICS\BUILDS\SRC\BULLETSOFTBODY\BULLETSOFTBODY.DIR\RELEASE\BTSOFTRIGIDDYNAMICSWORLD.OBJ|E:\PROGRAMMING\BULLET PHYSICS\BUILDS\SRC\BULLETSOFTBODY\BULLETSOFTBODY.DIR\RELEASE\BTSOFTSOFTCOLLISIONALGORITHM.OBJ
C:\WINDOWS\GLOBALIZATION\SORTING\SORTDEFAULT.NLS
E:\PROGRAMMING\BULLET PHYSICS\BUILDS\SRC\BULLETSOFTBODY\BULLETSOFTBODY.DIR\RELEASE\BTSOFTBODY.OBJ
C:\WINDOWS\SYSTEM32\TZRES.DLL
E:\PROGRAMMING\BULLET PHYSICS\BUILDS\SRC\BULLETSOFTBODY\BULLETSOFTBODY.DIR\RELEASE\BTSOFTBODYCONCAVECOLLISIONALGORITHM.OBJ
E:\PROGRAMMING\BULLET PHYSICS\BUILDS\SRC\BULLETSOFTBODY\BULLETSOFTBODY.DIR\RELEASE\BTSOFTBODYHELPERS.OBJ
E:\PROGRAMMING\BULLET PHYSICS\BUILDS\SRC\BULLETSOFTBODY\BULLETSOFTBODY.DIR\RELEASE\BTSOFTBODYRIGIDBODYCOLLISIONCONFIGURATION.OBJ
E:\PROGRAMMING\BULLET PHYSICS\BUILDS\SRC\BULLETSOFTBODY\BULLETSOFTBODY.DIR\RELEASE\BTSOFTRIGIDCOLLISIONALGORITHM.OBJ
E:\PROGRAMMING\BULLET PHYSICS\BUILDS\SRC\BULLETSOFTBODY\BULLETSOFTBODY.DIR\RELEASE\BTSOFTRIGIDDYNAMICSWORLD.OBJ
E:\PROGRAMMING\BULLET PHYSICS\BUILDS\SRC\BULLETSOFTBODY\BULLETSOFTBODY.DIR\RELEASE\BTSOFTSOFTCOLLISIONALGORITHM.OBJ
E:\PROGRAMMING\BULLET PHYSICS\BUILDS\SRC\BULLETSOFTBODY\BULLETSOFTBODY.DIR\RELEASE\BTDEFAULTSOFTBODYSOLVER.OBJ
