^E:\PROGRAMMING\BULLET PHYSICS\BULLET3-2.83.7\EXAMPLES\EXAMPLEBROWSER\MAIN.CPP
/c /I"E:\PROGRAMMING\BULLET PHYSICS\BULLET3-2.83.7\EXAMPLES\EXAMPLEBROWSER\." /I"E:\PROGRAMMING\BULLET PHYSICS\BULLET3-2.83.7\SRC" /I"E:\PROGRAMMING\BULLET PHYSICS\BULLET3-2.83.7\EXAMPLES\THIRDPARTYLIBS" /I"E:\PROGRAMMING\BULLET PHYSICS\BULLET3-2.83.7\EXAMPLES\THIRDPARTYLIBS\GLEW" /nologo /W3 /WX- /O2 /Ob2 /D WIN32 /D NDEBUG /D _WIN64 /D USE_GRAPHICAL_BENCHMARK /D _CRT_SECURE_NO_WARNINGS /D _CRT_SECURE_NO_DEPRECATE /D _SCL_SECURE_NO_WARNINGS /D GLEW_STATIC /D "CMAKE_INTDIR=\"Release\"" /D _MBCS /Gm- /EHsc /MT /GS /fp:fast /Zc:wchar_t /Zc:forScope /Zc:inline /GR /Fo"APP_EXAMPLEBROWSER.DIR\RELEASE\\" /Fd"APP_EXAMPLEBROWSER.DIR\RELEASE\VC140.PDB" /Gd /TP E:\PROGRAMMING\BULLET PHYSICS\BULLET3-2.83.7\EXAMPLES\EXAMPLEBROWSER\MAIN.CPP
^E:\PROGRAMMING\BULLET PHYSICS\BULLET3-2.83.7\EXAMPLES\EXAMPLEBROWSER\EXAMPLEENTRIES.CPP
/c /I"E:\PROGRAMMING\BULLET PHYSICS\BULLET3-2.83.7\EXAMPLES\EXAMPLEBROWSER\." /I"E:\PROGRAMMING\BULLET PHYSICS\BULLET3-2.83.7\SRC" /I"E:\PROGRAMMING\BULLET PHYSICS\BULLET3-2.83.7\EXAMPLES\THIRDPARTYLIBS" /I"E:\PROGRAMMING\BULLET PHYSICS\BULLET3-2.83.7\EXAMPLES\THIRDPARTYLIBS\GLEW" /nologo /W3 /WX- /O2 /Ob2 /D WIN32 /D NDEBUG /D _WIN64 /D USE_GRAPHICAL_BENCHMARK /D _CRT_SECURE_NO_WARNINGS /D _CRT_SECURE_NO_DEPRECATE /D _SCL_SECURE_NO_WARNINGS /D GLEW_STATIC /D "CMAKE_INTDIR=\"Release\"" /D _MBCS /Gm- /EHsc /MT /GS /fp:fast /Zc:wchar_t /Zc:forScope /Zc:inline /GR /Fo"APP_EXAMPLEBROWSER.DIR\RELEASE\\" /Fd"APP_EXAMPLEBROWSER.DIR\RELEASE\VC140.PDB" /Gd /TP E:\PROGRAMMING\BULLET PHYSICS\BULLET3-2.83.7\EXAMPLES\EXAMPLEBROWSER\EXAMPLEENTRIES.CPP
^E:\PROGRAMMING\BULLET PHYSICS\BULLET3-2.83.7\EXAMPLES\SHAREDMEMORY\PHYSICSSERVER.CPP
/c /I"E:\PROGRAMMING\BULLET PHYSICS\BULLET3-2.83.7\EXAMPLES\EXAMPLEBROWSER\." /I"E:\PROGRAMMING\BULLET PHYSICS\BULLET3-2.83.7\SRC" /I"E:\PROGRAMMING\BULLET PHYSICS\BULLET3-2.83.7\EXAMPLES\THIRDPARTYLIBS" /I"E:\PROGRAMMING\BULLET PHYSICS\BULLET3-2.83.7\EXAMPLES\THIRDPARTYLIBS\GLEW" /nologo /W3 /WX- /O2 /Ob2 /D WIN32 /D NDEBUG /D _WIN64 /D USE_GRAPHICAL_BENCHMARK /D _CRT_SECURE_NO_WARNINGS /D _CRT_SECURE_NO_DEPRECATE /D _SCL_SECURE_NO_WARNINGS /D GLEW_STATIC /D "CMAKE_INTDIR=\"Release\"" /D _MBCS /Gm- /EHsc /MT /GS /fp:fast /Zc:wchar_t /Zc:forScope /Zc:inline /GR /Fo"APP_EXAMPLEBROWSER.DIR\RELEASE\\" /Fd"APP_EXAMPLEBROWSER.DIR\RELEASE\VC140.PDB" /Gd /TP E:\PROGRAMMING\BULLET PHYSICS\BULLET3-2.83.7\EXAMPLES\SHAREDMEMORY\PHYSICSSERVER.CPP
^E:\PROGRAMMING\BULLET PHYSICS\BULLET3-2.83.7\EXAMPLES\SHAREDMEMORY\PHYSICSCLIENTSHAREDMEMORY.CPP
/c /I"E:\PROGRAMMING\BULLET PHYSICS\BULLET3-2.83.7\EXAMPLES\EXAMPLEBROWSER\." /I"E:\PROGRAMMING\BULLET PHYSICS\BULLET3-2.83.7\SRC" /I"E:\PROGRAMMING\BULLET PHYSICS\BULLET3-2.83.7\EXAMPLES\THIRDPARTYLIBS" /I"E:\PROGRAMMING\BULLET PHYSICS\BULLET3-2.83.7\EXAMPLES\THIRDPARTYLIBS\GLEW" /nologo /W3 /WX- /O2 /Ob2 /D WIN32 /D NDEBUG /D _WIN64 /D USE_GRAPHICAL_BENCHMARK /D _CRT_SECURE_NO_WARNINGS /D _CRT_SECURE_NO_DEPRECATE /D _SCL_SECURE_NO_WARNINGS /D GLEW_STATIC /D "CMAKE_INTDIR=\"Release\"" /D _MBCS /Gm- /EHsc /MT /GS /fp:fast /Zc:wchar_t /Zc:forScope /Zc:inline /GR /Fo"APP_EXAMPLEBROWSER.DIR\RELEASE\\" /Fd"APP_EXAMPLEBROWSER.DIR\RELEASE\VC140.PDB" /Gd /TP E:\PROGRAMMING\BULLET PHYSICS\BULLET3-2.83.7\EXAMPLES\SHAREDMEMORY\PHYSICSCLIENTSHAREDMEMORY.CPP
^E:\PROGRAMMING\BULLET PHYSICS\BULLET3-2.83.7\EXAMPLES\SHAREDMEMORY\PHYSICSCLIENT.CPP
/c /I"E:\PROGRAMMING\BULLET PHYSICS\BULLET3-2.83.7\EXAMPLES\EXAMPLEBROWSER\." /I"E:\PROGRAMMING\BULLET PHYSICS\BULLET3-2.83.7\SRC" /I"E:\PROGRAMMING\BULLET PHYSICS\BULLET3-2.83.7\EXAMPLES\THIRDPARTYLIBS" /I"E:\PROGRAMMING\BULLET PHYSICS\BULLET3-2.83.7\EXAMPLES\THIRDPARTYLIBS\GLEW" /nologo /W3 /WX- /O2 /Ob2 /D WIN32 /D NDEBUG /D _WIN64 /D USE_GRAPHICAL_BENCHMARK /D _CRT_SECURE_NO_WARNINGS /D _CRT_SECURE_NO_DEPRECATE /D _SCL_SECURE_NO_WARNINGS /D GLEW_STATIC /D "CMAKE_INTDIR=\"Release\"" /D _MBCS /Gm- /EHsc /MT /GS /fp:fast /Zc:wchar_t /Zc:forScope /Zc:inline /GR /Fo"APP_EXAMPLEBROWSER.DIR\RELEASE\\" /Fd"APP_EXAMPLEBROWSER.DIR\RELEASE\VC140.PDB" /Gd /TP E:\PROGRAMMING\BULLET PHYSICS\BULLET3-2.83.7\EXAMPLES\SHAREDMEMORY\PHYSICSCLIENT.CPP
^E:\PROGRAMMING\BULLET PHYSICS\BULLET3-2.83.7\EXAMPLES\SHAREDMEMORY\PHYSICSCLIENTC_API.CPP
/c /I"E:\PROGRAMMING\BULLET PHYSICS\BULLET3-2.83.7\EXAMPLES\EXAMPLEBROWSER\." /I"E:\PROGRAMMING\BULLET PHYSICS\BULLET3-2.83.7\SRC" /I"E:\PROGRAMMING\BULLET PHYSICS\BULLET3-2.83.7\EXAMPLES\THIRDPARTYLIBS" /I"E:\PROGRAMMING\BULLET PHYSICS\BULLET3-2.83.7\EXAMPLES\THIRDPARTYLIBS\GLEW" /nologo /W3 /WX- /O2 /Ob2 /D WIN32 /D NDEBUG /D _WIN64 /D USE_GRAPHICAL_BENCHMARK /D _CRT_SECURE_NO_WARNINGS /D _CRT_SECURE_NO_DEPRECATE /D _SCL_SECURE_NO_WARNINGS /D GLEW_STATIC /D "CMAKE_INTDIR=\"Release\"" /D _MBCS /Gm- /EHsc /MT /GS /fp:fast /Zc:wchar_t /Zc:forScope /Zc:inline /GR /Fo"APP_EXAMPLEBROWSER.DIR\RELEASE\\" /Fd"APP_EXAMPLEBROWSER.DIR\RELEASE\VC140.PDB" /Gd /TP E:\PROGRAMMING\BULLET PHYSICS\BULLET3-2.83.7\EXAMPLES\SHAREDMEMORY\PHYSICSCLIENTC_API.CPP
^E:\PROGRAMMING\BULLET PHYSICS\BULLET3-2.83.7\EXAMPLES\SHAREDMEMORY\PHYSICSSERVEREXAMPLE.CPP
/c /I"E:\PROGRAMMING\BULLET PHYSICS\BULLET3-2.83.7\EXAMPLES\EXAMPLEBROWSER\." /I"E:\PROGRAMMING\BULLET PHYSICS\BULLET3-2.83.7\SRC" /I"E:\PROGRAMMING\BULLET PHYSICS\BULLET3-2.83.7\EXAMPLES\THIRDPARTYLIBS" /I"E:\PROGRAMMING\BULLET PHYSICS\BULLET3-2.83.7\EXAMPLES\THIRDPARTYLIBS\GLEW" /nologo /W3 /WX- /O2 /Ob2 /D WIN32 /D NDEBUG /D _WIN64 /D USE_GRAPHICAL_BENCHMARK /D _CRT_SECURE_NO_WARNINGS /D _CRT_SECURE_NO_DEPRECATE /D _SCL_SECURE_NO_WARNINGS /D GLEW_STATIC /D "CMAKE_INTDIR=\"Release\"" /D _MBCS /Gm- /EHsc /MT /GS /fp:fast /Zc:wchar_t /Zc:forScope /Zc:inline /GR /Fo"APP_EXAMPLEBROWSER.DIR\RELEASE\\" /Fd"APP_EXAMPLEBROWSER.DIR\RELEASE\VC140.PDB" /Gd /TP E:\PROGRAMMING\BULLET PHYSICS\BULLET3-2.83.7\EXAMPLES\SHAREDMEMORY\PHYSICSSERVEREXAMPLE.CPP
^E:\PROGRAMMING\BULLET PHYSICS\BULLET3-2.83.7\EXAMPLES\SHAREDMEMORY\PHYSICSCLIENTEXAMPLE.CPP
/c /I"E:\PROGRAMMING\BULLET PHYSICS\BULLET3-2.83.7\EXAMPLES\EXAMPLEBROWSER\." /I"E:\PROGRAMMING\BULLET PHYSICS\BULLET3-2.83.7\SRC" /I"E:\PROGRAMMING\BULLET PHYSICS\BULLET3-2.83.7\EXAMPLES\THIRDPARTYLIBS" /I"E:\PROGRAMMING\BULLET PHYSICS\BULLET3-2.83.7\EXAMPLES\THIRDPARTYLIBS\GLEW" /nologo /W3 /WX- /O2 /Ob2 /D WIN32 /D NDEBUG /D _WIN64 /D USE_GRAPHICAL_BENCHMARK /D _CRT_SECURE_NO_WARNINGS /D _CRT_SECURE_NO_DEPRECATE /D _SCL_SECURE_NO_WARNINGS /D GLEW_STATIC /D "CMAKE_INTDIR=\"Release\"" /D _MBCS /Gm- /EHsc /MT /GS /fp:fast /Zc:wchar_t /Zc:forScope /Zc:inline /GR /Fo"APP_EXAMPLEBROWSER.DIR\RELEASE\\" /Fd"APP_EXAMPLEBROWSER.DIR\RELEASE\VC140.PDB" /Gd /TP E:\PROGRAMMING\BULLET PHYSICS\BULLET3-2.83.7\EXAMPLES\SHAREDMEMORY\PHYSICSCLIENTEXAMPLE.CPP
^E:\PROGRAMMING\BULLET PHYSICS\BULLET3-2.83.7\EXAMPLES\SHAREDMEMORY\POSIXSHAREDMEMORY.CPP
/c /I"E:\PROGRAMMING\BULLET PHYSICS\BULLET3-2.83.7\EXAMPLES\EXAMPLEBROWSER\." /I"E:\PROGRAMMING\BULLET PHYSICS\BULLET3-2.83.7\SRC" /I"E:\PROGRAMMING\BULLET PHYSICS\BULLET3-2.83.7\EXAMPLES\THIRDPARTYLIBS" /I"E:\PROGRAMMING\BULLET PHYSICS\BULLET3-2.83.7\EXAMPLES\THIRDPARTYLIBS\GLEW" /nologo /W3 /WX- /O2 /Ob2 /D WIN32 /D NDEBUG /D _WIN64 /D USE_GRAPHICAL_BENCHMARK /D _CRT_SECURE_NO_WARNINGS /D _CRT_SECURE_NO_DEPRECATE /D _SCL_SECURE_NO_WARNINGS /D GLEW_STATIC /D "CMAKE_INTDIR=\"Release\"" /D _MBCS /Gm- /EHsc /MT /GS /fp:fast /Zc:wchar_t /Zc:forScope /Zc:inline /GR /Fo"APP_EXAMPLEBROWSER.DIR\RELEASE\\" /Fd"APP_EXAMPLEBROWSER.DIR\RELEASE\VC140.PDB" /Gd /TP E:\PROGRAMMING\BULLET PHYSICS\BULLET3-2.83.7\EXAMPLES\SHAREDMEMORY\POSIXSHAREDMEMORY.CPP
^E:\PROGRAMMING\BULLET PHYSICS\BULLET3-2.83.7\EXAMPLES\SHAREDMEMORY\WIN32SHAREDMEMORY.CPP
/c /I"E:\PROGRAMMING\BULLET PHYSICS\BULLET3-2.83.7\EXAMPLES\EXAMPLEBROWSER\." /I"E:\PROGRAMMING\BULLET PHYSICS\BULLET3-2.83.7\SRC" /I"E:\PROGRAMMING\BULLET PHYSICS\BULLET3-2.83.7\EXAMPLES\THIRDPARTYLIBS" /I"E:\PROGRAMMING\BULLET PHYSICS\BULLET3-2.83.7\EXAMPLES\THIRDPARTYLIBS\GLEW" /nologo /W3 /WX- /O2 /Ob2 /D WIN32 /D NDEBUG /D _WIN64 /D USE_GRAPHICAL_BENCHMARK /D _CRT_SECURE_NO_WARNINGS /D _CRT_SECURE_NO_DEPRECATE /D _SCL_SECURE_NO_WARNINGS /D GLEW_STATIC /D "CMAKE_INTDIR=\"Release\"" /D _MBCS /Gm- /EHsc /MT /GS /fp:fast /Zc:wchar_t /Zc:forScope /Zc:inline /GR /Fo"APP_EXAMPLEBROWSER.DIR\RELEASE\\" /Fd"APP_EXAMPLEBROWSER.DIR\RELEASE\VC140.PDB" /Gd /TP E:\PROGRAMMING\BULLET PHYSICS\BULLET3-2.83.7\EXAMPLES\SHAREDMEMORY\WIN32SHAREDMEMORY.CPP
^E:\PROGRAMMING\BULLET PHYSICS\BULLET3-2.83.7\EXAMPLES\SHAREDMEMORY\PHYSICSSERVERSHAREDMEMORY.CPP
/c /I"E:\PROGRAMMING\BULLET PHYSICS\BULLET3-2.83.7\EXAMPLES\EXAMPLEBROWSER\." /I"E:\PROGRAMMING\BULLET PHYSICS\BULLET3-2.83.7\SRC" /I"E:\PROGRAMMING\BULLET PHYSICS\BULLET3-2.83.7\EXAMPLES\THIRDPARTYLIBS" /I"E:\PROGRAMMING\BULLET PHYSICS\BULLET3-2.83.7\EXAMPLES\THIRDPARTYLIBS\GLEW" /nologo /W3 /WX- /O2 /Ob2 /D WIN32 /D NDEBUG /D _WIN64 /D USE_GRAPHICAL_BENCHMARK /D _CRT_SECURE_NO_WARNINGS /D _CRT_SECURE_NO_DEPRECATE /D _SCL_SECURE_NO_WARNINGS /D GLEW_STATIC /D "CMAKE_INTDIR=\"Release\"" /D _MBCS /Gm- /EHsc /MT /GS /fp:fast /Zc:wchar_t /Zc:forScope /Zc:inline /GR /Fo"APP_EXAMPLEBROWSER.DIR\RELEASE\\" /Fd"APP_EXAMPLEBROWSER.DIR\RELEASE\VC140.PDB" /Gd /TP E:\PROGRAMMING\BULLET PHYSICS\BULLET3-2.83.7\EXAMPLES\SHAREDMEMORY\PHYSICSSERVERSHAREDMEMORY.CPP
^E:\PROGRAMMING\BULLET PHYSICS\BULLET3-2.83.7\EXAMPLES\SHAREDMEMORY\PHYSICSDIRECT.CPP
/c /I"E:\PROGRAMMING\BULLET PHYSICS\BULLET3-2.83.7\EXAMPLES\EXAMPLEBROWSER\." /I"E:\PROGRAMMING\BULLET PHYSICS\BULLET3-2.83.7\SRC" /I"E:\PROGRAMMING\BULLET PHYSICS\BULLET3-2.83.7\EXAMPLES\THIRDPARTYLIBS" /I"E:\PROGRAMMING\BULLET PHYSICS\BULLET3-2.83.7\EXAMPLES\THIRDPARTYLIBS\GLEW" /nologo /W3 /WX- /O2 /Ob2 /D WIN32 /D NDEBUG /D _WIN64 /D USE_GRAPHICAL_BENCHMARK /D _CRT_SECURE_NO_WARNINGS /D _CRT_SECURE_NO_DEPRECATE /D _SCL_SECURE_NO_WARNINGS /D GLEW_STATIC /D "CMAKE_INTDIR=\"Release\"" /D _MBCS /Gm- /EHsc /MT /GS /fp:fast /Zc:wchar_t /Zc:forScope /Zc:inline /GR /Fo"APP_EXAMPLEBROWSER.DIR\RELEASE\\" /Fd"APP_EXAMPLEBROWSER.DIR\RELEASE\VC140.PDB" /Gd /TP E:\PROGRAMMING\BULLET PHYSICS\BULLET3-2.83.7\EXAMPLES\SHAREDMEMORY\PHYSICSDIRECT.CPP
^E:\PROGRAMMING\BULLET PHYSICS\BULLET3-2.83.7\EXAMPLES\SHAREDMEMORY\PHYSICSDIRECTC_API.CPP
/c /I"E:\PROGRAMMING\BULLET PHYSICS\BULLET3-2.83.7\EXAMPLES\EXAMPLEBROWSER\." /I"E:\PROGRAMMING\BULLET PHYSICS\BULLET3-2.83.7\SRC" /I"E:\PROGRAMMING\BULLET PHYSICS\BULLET3-2.83.7\EXAMPLES\THIRDPARTYLIBS" /I"E:\PROGRAMMING\BULLET PHYSICS\BULLET3-2.83.7\EXAMPLES\THIRDPARTYLIBS\GLEW" /nologo /W3 /WX- /O2 /Ob2 /D WIN32 /D NDEBUG /D _WIN64 /D USE_GRAPHICAL_BENCHMARK /D _CRT_SECURE_NO_WARNINGS /D _CRT_SECURE_NO_DEPRECATE /D _SCL_SECURE_NO_WARNINGS /D GLEW_STATIC /D "CMAKE_INTDIR=\"Release\"" /D _MBCS /Gm- /EHsc /MT /GS /fp:fast /Zc:wchar_t /Zc:forScope /Zc:inline /GR /Fo"APP_EXAMPLEBROWSER.DIR\RELEASE\\" /Fd"APP_EXAMPLEBROWSER.DIR\RELEASE\VC140.PDB" /Gd /TP E:\PROGRAMMING\BULLET PHYSICS\BULLET3-2.83.7\EXAMPLES\SHAREDMEMORY\PHYSICSDIRECTC_API.CPP
^E:\PROGRAMMING\BULLET PHYSICS\BULLET3-2.83.7\EXAMPLES\SHAREDMEMORY\PHYSICSLOOPBACK.CPP
/c /I"E:\PROGRAMMING\BULLET PHYSICS\BULLET3-2.83.7\EXAMPLES\EXAMPLEBROWSER\." /I"E:\PROGRAMMING\BULLET PHYSICS\BULLET3-2.83.7\SRC" /I"E:\PROGRAMMING\BULLET PHYSICS\BULLET3-2.83.7\EXAMPLES\THIRDPARTYLIBS" /I"E:\PROGRAMMING\BULLET PHYSICS\BULLET3-2.83.7\EXAMPLES\THIRDPARTYLIBS\GLEW" /nologo /W3 /WX- /O2 /Ob2 /D WIN32 /D NDEBUG /D _WIN64 /D USE_GRAPHICAL_BENCHMARK /D _CRT_SECURE_NO_WARNINGS /D _CRT_SECURE_NO_DEPRECATE /D _SCL_SECURE_NO_WARNINGS /D GLEW_STATIC /D "CMAKE_INTDIR=\"Release\"" /D _MBCS /Gm- /EHsc /MT /GS /fp:fast /Zc:wchar_t /Zc:forScope /Zc:inline /GR /Fo"APP_EXAMPLEBROWSER.DIR\RELEASE\\" /Fd"APP_EXAMPLEBROWSER.DIR\RELEASE\VC140.PDB" /Gd /TP E:\PROGRAMMING\BULLET PHYSICS\BULLET3-2.83.7\EXAMPLES\SHAREDMEMORY\PHYSICSLOOPBACK.CPP
^E:\PROGRAMMING\BULLET PHYSICS\BULLET3-2.83.7\EXAMPLES\SHAREDMEMORY\PHYSICSLOOPBACKC_API.CPP
/c /I"E:\PROGRAMMING\BULLET PHYSICS\BULLET3-2.83.7\EXAMPLES\EXAMPLEBROWSER\." /I"E:\PROGRAMMING\BULLET PHYSICS\BULLET3-2.83.7\SRC" /I"E:\PROGRAMMING\BULLET PHYSICS\BULLET3-2.83.7\EXAMPLES\THIRDPARTYLIBS" /I"E:\PROGRAMMING\BULLET PHYSICS\BULLET3-2.83.7\EXAMPLES\THIRDPARTYLIBS\GLEW" /nologo /W3 /WX- /O2 /Ob2 /D WIN32 /D NDEBUG /D _WIN64 /D USE_GRAPHICAL_BENCHMARK /D _CRT_SECURE_NO_WARNINGS /D _CRT_SECURE_NO_DEPRECATE /D _SCL_SECURE_NO_WARNINGS /D GLEW_STATIC /D "CMAKE_INTDIR=\"Release\"" /D _MBCS /Gm- /EHsc /MT /GS /fp:fast /Zc:wchar_t /Zc:forScope /Zc:inline /GR /Fo"APP_EXAMPLEBROWSER.DIR\RELEASE\\" /Fd"APP_EXAMPLEBROWSER.DIR\RELEASE\VC140.PDB" /Gd /TP E:\PROGRAMMING\BULLET PHYSICS\BULLET3-2.83.7\EXAMPLES\SHAREDMEMORY\PHYSICSLOOPBACKC_API.CPP
^E:\PROGRAMMING\BULLET PHYSICS\BULLET3-2.83.7\EXAMPLES\SHAREDMEMORY\PHYSICSSERVERCOMMANDPROCESSOR.CPP
/c /I"E:\PROGRAMMING\BULLET PHYSICS\BULLET3-2.83.7\EXAMPLES\EXAMPLEBROWSER\." /I"E:\PROGRAMMING\BULLET PHYSICS\BULLET3-2.83.7\SRC" /I"E:\PROGRAMMING\BULLET PHYSICS\BULLET3-2.83.7\EXAMPLES\THIRDPARTYLIBS" /I"E:\PROGRAMMING\BULLET PHYSICS\BULLET3-2.83.7\EXAMPLES\THIRDPARTYLIBS\GLEW" /nologo /W3 /WX- /O2 /Ob2 /D WIN32 /D NDEBUG /D _WIN64 /D USE_GRAPHICAL_BENCHMARK /D _CRT_SECURE_NO_WARNINGS /D _CRT_SECURE_NO_DEPRECATE /D _SCL_SECURE_NO_WARNINGS /D GLEW_STATIC /D "CMAKE_INTDIR=\"Release\"" /D _MBCS /Gm- /EHsc /MT /GS /fp:fast /Zc:wchar_t /Zc:forScope /Zc:inline /GR /Fo"APP_EXAMPLEBROWSER.DIR\RELEASE\\" /Fd"APP_EXAMPLEBROWSER.DIR\RELEASE\VC140.PDB" /Gd /TP E:\PROGRAMMING\BULLET PHYSICS\BULLET3-2.83.7\EXAMPLES\SHAREDMEMORY\PHYSICSSERVERCOMMANDPROCESSOR.CPP
^E:\PROGRAMMING\BULLET PHYSICS\BULLET3-2.83.7\EXAMPLES\BASICDEMO\BASICEXAMPLE.CPP
/c /I"E:\PROGRAMMING\BULLET PHYSICS\BULLET3-2.83.7\EXAMPLES\EXAMPLEBROWSER\." /I"E:\PROGRAMMING\BULLET PHYSICS\BULLET3-2.83.7\SRC" /I"E:\PROGRAMMING\BULLET PHYSICS\BULLET3-2.83.7\EXAMPLES\THIRDPARTYLIBS" /I"E:\PROGRAMMING\BULLET PHYSICS\BULLET3-2.83.7\EXAMPLES\THIRDPARTYLIBS\GLEW" /nologo /W3 /WX- /O2 /Ob2 /D WIN32 /D NDEBUG /D _WIN64 /D USE_GRAPHICAL_BENCHMARK /D _CRT_SECURE_NO_WARNINGS /D _CRT_SECURE_NO_DEPRECATE /D _SCL_SECURE_NO_WARNINGS /D GLEW_STATIC /D "CMAKE_INTDIR=\"Release\"" /D _MBCS /Gm- /EHsc /MT /GS /fp:fast /Zc:wchar_t /Zc:forScope /Zc:inline /GR /Fo"APP_EXAMPLEBROWSER.DIR\RELEASE\\" /Fd"APP_EXAMPLEBROWSER.DIR\RELEASE\VC140.PDB" /Gd /TP E:\PROGRAMMING\BULLET PHYSICS\BULLET3-2.83.7\EXAMPLES\BASICDEMO\BASICEXAMPLE.CPP
^E:\PROGRAMMING\BULLET PHYSICS\BULLET3-2.83.7\EXAMPLES\INVERSEDYNAMICS\INVERSEDYNAMICSEXAMPLE.CPP
/c /I"E:\PROGRAMMING\BULLET PHYSICS\BULLET3-2.83.7\EXAMPLES\EXAMPLEBROWSER\." /I"E:\PROGRAMMING\BULLET PHYSICS\BULLET3-2.83.7\SRC" /I"E:\PROGRAMMING\BULLET PHYSICS\BULLET3-2.83.7\EXAMPLES\THIRDPARTYLIBS" /I"E:\PROGRAMMING\BULLET PHYSICS\BULLET3-2.83.7\EXAMPLES\THIRDPARTYLIBS\GLEW" /nologo /W3 /WX- /O2 /Ob2 /D WIN32 /D NDEBUG /D _WIN64 /D USE_GRAPHICAL_BENCHMARK /D _CRT_SECURE_NO_WARNINGS /D _CRT_SECURE_NO_DEPRECATE /D _SCL_SECURE_NO_WARNINGS /D GLEW_STATIC /D "CMAKE_INTDIR=\"Release\"" /D _MBCS /Gm- /EHsc /MT /GS /fp:fast /Zc:wchar_t /Zc:forScope /Zc:inline /GR /Fo"APP_EXAMPLEBROWSER.DIR\RELEASE\\" /Fd"APP_EXAMPLEBROWSER.DIR\RELEASE\VC140.PDB" /Gd /TP E:\PROGRAMMING\BULLET PHYSICS\BULLET3-2.83.7\EXAMPLES\INVERSEDYNAMICS\INVERSEDYNAMICSEXAMPLE.CPP
^E:\PROGRAMMING\BULLET PHYSICS\BULLET3-2.83.7\EXAMPLES\FORKLIFT\FORKLIFTDEMO.CPP
/c /I"E:\PROGRAMMING\BULLET PHYSICS\BULLET3-2.83.7\EXAMPLES\EXAMPLEBROWSER\." /I"E:\PROGRAMMING\BULLET PHYSICS\BULLET3-2.83.7\SRC" /I"E:\PROGRAMMING\BULLET PHYSICS\BULLET3-2.83.7\EXAMPLES\THIRDPARTYLIBS" /I"E:\PROGRAMMING\BULLET PHYSICS\BULLET3-2.83.7\EXAMPLES\THIRDPARTYLIBS\GLEW" /nologo /W3 /WX- /O2 /Ob2 /D WIN32 /D NDEBUG /D _WIN64 /D USE_GRAPHICAL_BENCHMARK /D _CRT_SECURE_NO_WARNINGS /D _CRT_SECURE_NO_DEPRECATE /D _SCL_SECURE_NO_WARNINGS /D GLEW_STATIC /D "CMAKE_INTDIR=\"Release\"" /D _MBCS /Gm- /EHsc /MT /GS /fp:fast /Zc:wchar_t /Zc:forScope /Zc:inline /GR /Fo"APP_EXAMPLEBROWSER.DIR\RELEASE\\" /Fd"APP_EXAMPLEBROWSER.DIR\RELEASE\VC140.PDB" /Gd /TP E:\PROGRAMMING\BULLET PHYSICS\BULLET3-2.83.7\EXAMPLES\FORKLIFT\FORKLIFTDEMO.CPP
^E:\PROGRAMMING\BULLET PHYSICS\BULLET3-2.83.7\EXAMPLES\TUTORIAL\TUTORIAL.CPP
/c /I"E:\PROGRAMMING\BULLET PHYSICS\BULLET3-2.83.7\EXAMPLES\EXAMPLEBROWSER\." /I"E:\PROGRAMMING\BULLET PHYSICS\BULLET3-2.83.7\SRC" /I"E:\PROGRAMMING\BULLET PHYSICS\BULLET3-2.83.7\EXAMPLES\THIRDPARTYLIBS" /I"E:\PROGRAMMING\BULLET PHYSICS\BULLET3-2.83.7\EXAMPLES\THIRDPARTYLIBS\GLEW" /nologo /W3 /WX- /O2 /Ob2 /D WIN32 /D NDEBUG /D _WIN64 /D USE_GRAPHICAL_BENCHMARK /D _CRT_SECURE_NO_WARNINGS /D _CRT_SECURE_NO_DEPRECATE /D _SCL_SECURE_NO_WARNINGS /D GLEW_STATIC /D "CMAKE_INTDIR=\"Release\"" /D _MBCS /Gm- /EHsc /MT /GS /fp:fast /Zc:wchar_t /Zc:forScope /Zc:inline /GR /Fo"APP_EXAMPLEBROWSER.DIR\RELEASE\\" /Fd"APP_EXAMPLEBROWSER.DIR\RELEASE\VC140.PDB" /Gd /TP E:\PROGRAMMING\BULLET PHYSICS\BULLET3-2.83.7\EXAMPLES\TUTORIAL\TUTORIAL.CPP
^E:\PROGRAMMING\BULLET PHYSICS\BULLET3-2.83.7\EXAMPLES\TUTORIAL\DOF6CONSTRAINTTUTORIAL.CPP
/c /I"E:\PROGRAMMING\BULLET PHYSICS\BULLET3-2.83.7\EXAMPLES\EXAMPLEBROWSER\." /I"E:\PROGRAMMING\BULLET PHYSICS\BULLET3-2.83.7\SRC" /I"E:\PROGRAMMING\BULLET PHYSICS\BULLET3-2.83.7\EXAMPLES\THIRDPARTYLIBS" /I"E:\PROGRAMMING\BULLET PHYSICS\BULLET3-2.83.7\EXAMPLES\THIRDPARTYLIBS\GLEW" /nologo /W3 /WX- /O2 /Ob2 /D WIN32 /D NDEBUG /D _WIN64 /D USE_GRAPHICAL_BENCHMARK /D _CRT_SECURE_NO_WARNINGS /D _CRT_SECURE_NO_DEPRECATE /D _SCL_SECURE_NO_WARNINGS /D GLEW_STATIC /D "CMAKE_INTDIR=\"Release\"" /D _MBCS /Gm- /EHsc /MT /GS /fp:fast /Zc:wchar_t /Zc:forScope /Zc:inline /GR /Fo"APP_EXAMPLEBROWSER.DIR\RELEASE\\" /Fd"APP_EXAMPLEBROWSER.DIR\RELEASE\VC140.PDB" /Gd /TP E:\PROGRAMMING\BULLET PHYSICS\BULLET3-2.83.7\EXAMPLES\TUTORIAL\DOF6CONSTRAINTTUTORIAL.CPP
^E:\PROGRAMMING\BULLET PHYSICS\BULLET3-2.83.7\EXAMPLES\COLLISION\COLLISIONSDKC_API.CPP
/c /I"E:\PROGRAMMING\BULLET PHYSICS\BULLET3-2.83.7\EXAMPLES\EXAMPLEBROWSER\." /I"E:\PROGRAMMING\BULLET PHYSICS\BULLET3-2.83.7\SRC" /I"E:\PROGRAMMING\BULLET PHYSICS\BULLET3-2.83.7\EXAMPLES\THIRDPARTYLIBS" /I"E:\PROGRAMMING\BULLET PHYSICS\BULLET3-2.83.7\EXAMPLES\THIRDPARTYLIBS\GLEW" /nologo /W3 /WX- /O2 /Ob2 /D WIN32 /D NDEBUG /D _WIN64 /D USE_GRAPHICAL_BENCHMARK /D _CRT_SECURE_NO_WARNINGS /D _CRT_SECURE_NO_DEPRECATE /D _SCL_SECURE_NO_WARNINGS /D GLEW_STATIC /D "CMAKE_INTDIR=\"Release\"" /D _MBCS /Gm- /EHsc /MT /GS /fp:fast /Zc:wchar_t /Zc:forScope /Zc:inline /GR /Fo"APP_EXAMPLEBROWSER.DIR\RELEASE\\" /Fd"APP_EXAMPLEBROWSER.DIR\RELEASE\VC140.PDB" /Gd /TP E:\PROGRAMMING\BULLET PHYSICS\BULLET3-2.83.7\EXAMPLES\COLLISION\COLLISIONSDKC_API.CPP
^E:\PROGRAMMING\BULLET PHYSICS\BULLET3-2.83.7\EXAMPLES\COLLISION\COLLISIONTUTORIALBULLET2.CPP
/c /I"E:\PROGRAMMING\BULLET PHYSICS\BULLET3-2.83.7\EXAMPLES\EXAMPLEBROWSER\." /I"E:\PROGRAMMING\BULLET PHYSICS\BULLET3-2.83.7\SRC" /I"E:\PROGRAMMING\BULLET PHYSICS\BULLET3-2.83.7\EXAMPLES\THIRDPARTYLIBS" /I"E:\PROGRAMMING\BULLET PHYSICS\BULLET3-2.83.7\EXAMPLES\THIRDPARTYLIBS\GLEW" /nologo /W3 /WX- /O2 /Ob2 /D WIN32 /D NDEBUG /D _WIN64 /D USE_GRAPHICAL_BENCHMARK /D _CRT_SECURE_NO_WARNINGS /D _CRT_SECURE_NO_DEPRECATE /D _SCL_SECURE_NO_WARNINGS /D GLEW_STATIC /D "CMAKE_INTDIR=\"Release\"" /D _MBCS /Gm- /EHsc /MT /GS /fp:fast /Zc:wchar_t /Zc:forScope /Zc:inline /GR /Fo"APP_EXAMPLEBROWSER.DIR\RELEASE\\" /Fd"APP_EXAMPLEBROWSER.DIR\RELEASE\VC140.PDB" /Gd /TP E:\PROGRAMMING\BULLET PHYSICS\BULLET3-2.83.7\EXAMPLES\COLLISION\COLLISIONTUTORIALBULLET2.CPP
^E:\PROGRAMMING\BULLET PHYSICS\BULLET3-2.83.7\EXAMPLES\COLLISION\INTERNAL\BULLET2COLLISIONSDK.CPP
/c /I"E:\PROGRAMMING\BULLET PHYSICS\BULLET3-2.83.7\EXAMPLES\EXAMPLEBROWSER\." /I"E:\PROGRAMMING\BULLET PHYSICS\BULLET3-2.83.7\SRC" /I"E:\PROGRAMMING\BULLET PHYSICS\BULLET3-2.83.7\EXAMPLES\THIRDPARTYLIBS" /I"E:\PROGRAMMING\BULLET PHYSICS\BULLET3-2.83.7\EXAMPLES\THIRDPARTYLIBS\GLEW" /nologo /W3 /WX- /O2 /Ob2 /D WIN32 /D NDEBUG /D _WIN64 /D USE_GRAPHICAL_BENCHMARK /D _CRT_SECURE_NO_WARNINGS /D _CRT_SECURE_NO_DEPRECATE /D _SCL_SECURE_NO_WARNINGS /D GLEW_STATIC /D "CMAKE_INTDIR=\"Release\"" /D _MBCS /Gm- /EHsc /MT /GS /fp:fast /Zc:wchar_t /Zc:forScope /Zc:inline /GR /Fo"APP_EXAMPLEBROWSER.DIR\RELEASE\\" /Fd"APP_EXAMPLEBROWSER.DIR\RELEASE\VC140.PDB" /Gd /TP E:\PROGRAMMING\BULLET PHYSICS\BULLET3-2.83.7\EXAMPLES\COLLISION\INTERNAL\BULLET2COLLISIONSDK.CPP
^E:\PROGRAMMING\BULLET PHYSICS\BULLET3-2.83.7\EXAMPLES\COLLISION\INTERNAL\REALTIMEBULLET3COLLISIONSDK.CPP
/c /I"E:\PROGRAMMING\BULLET PHYSICS\BULLET3-2.83.7\EXAMPLES\EXAMPLEBROWSER\." /I"E:\PROGRAMMING\BULLET PHYSICS\BULLET3-2.83.7\SRC" /I"E:\PROGRAMMING\BULLET PHYSICS\BULLET3-2.83.7\EXAMPLES\THIRDPARTYLIBS" /I"E:\PROGRAMMING\BULLET PHYSICS\BULLET3-2.83.7\EXAMPLES\THIRDPARTYLIBS\GLEW" /nologo /W3 /WX- /O2 /Ob2 /D WIN32 /D NDEBUG /D _WIN64 /D USE_GRAPHICAL_BENCHMARK /D _CRT_SECURE_NO_WARNINGS /D _CRT_SECURE_NO_DEPRECATE /D _SCL_SECURE_NO_WARNINGS /D GLEW_STATIC /D "CMAKE_INTDIR=\"Release\"" /D _MBCS /Gm- /EHsc /MT /GS /fp:fast /Zc:wchar_t /Zc:forScope /Zc:inline /GR /Fo"APP_EXAMPLEBROWSER.DIR\RELEASE\\" /Fd"APP_EXAMPLEBROWSER.DIR\RELEASE\VC140.PDB" /Gd /TP E:\PROGRAMMING\BULLET PHYSICS\BULLET3-2.83.7\EXAMPLES\COLLISION\INTERNAL\REALTIMEBULLET3COLLISIONSDK.CPP
^E:\PROGRAMMING\BULLET PHYSICS\BULLET3-2.83.7\EXAMPLES\GYROSCOPICDEMO\GYROSCOPICSETUP.CPP
/c /I"E:\PROGRAMMING\BULLET PHYSICS\BULLET3-2.83.7\EXAMPLES\EXAMPLEBROWSER\." /I"E:\PROGRAMMING\BULLET PHYSICS\BULLET3-2.83.7\SRC" /I"E:\PROGRAMMING\BULLET PHYSICS\BULLET3-2.83.7\EXAMPLES\THIRDPARTYLIBS" /I"E:\PROGRAMMING\BULLET PHYSICS\BULLET3-2.83.7\EXAMPLES\THIRDPARTYLIBS\GLEW" /nologo /W3 /WX- /O2 /Ob2 /D WIN32 /D NDEBUG /D _WIN64 /D USE_GRAPHICAL_BENCHMARK /D _CRT_SECURE_NO_WARNINGS /D _CRT_SECURE_NO_DEPRECATE /D _SCL_SECURE_NO_WARNINGS /D GLEW_STATIC /D "CMAKE_INTDIR=\"Release\"" /D _MBCS /Gm- /EHsc /MT /GS /fp:fast /Zc:wchar_t /Zc:forScope /Zc:inline /GR /Fo"APP_EXAMPLEBROWSER.DIR\RELEASE\\" /Fd"APP_EXAMPLEBROWSER.DIR\RELEASE\VC140.PDB" /Gd /TP E:\PROGRAMMING\BULLET PHYSICS\BULLET3-2.83.7\EXAMPLES\GYROSCOPICDEMO\GYROSCOPICSETUP.CPP
^E:\PROGRAMMING\BULLET PHYSICS\BULLET3-2.83.7\EXAMPLES\PLANAR2D\PLANAR2D.CPP
/c /I"E:\PROGRAMMING\BULLET PHYSICS\BULLET3-2.83.7\EXAMPLES\EXAMPLEBROWSER\." /I"E:\PROGRAMMING\BULLET PHYSICS\BULLET3-2.83.7\SRC" /I"E:\PROGRAMMING\BULLET PHYSICS\BULLET3-2.83.7\EXAMPLES\THIRDPARTYLIBS" /I"E:\PROGRAMMING\BULLET PHYSICS\BULLET3-2.83.7\EXAMPLES\THIRDPARTYLIBS\GLEW" /nologo /W3 /WX- /O2 /Ob2 /D WIN32 /D NDEBUG /D _WIN64 /D USE_GRAPHICAL_BENCHMARK /D _CRT_SECURE_NO_WARNINGS /D _CRT_SECURE_NO_DEPRECATE /D _SCL_SECURE_NO_WARNINGS /D GLEW_STATIC /D "CMAKE_INTDIR=\"Release\"" /D _MBCS /Gm- /EHsc /MT /GS /fp:fast /Zc:wchar_t /Zc:forScope /Zc:inline /GR /Fo"APP_EXAMPLEBROWSER.DIR\RELEASE\\" /Fd"APP_EXAMPLEBROWSER.DIR\RELEASE\VC140.PDB" /Gd /TP E:\PROGRAMMING\BULLET PHYSICS\BULLET3-2.83.7\EXAMPLES\PLANAR2D\PLANAR2D.CPP
^E:\PROGRAMMING\BULLET PHYSICS\BULLET3-2.83.7\EXAMPLES\ROLLINGFRICTIONDEMO\ROLLINGFRICTIONDEMO.CPP
/c /I"E:\PROGRAMMING\BULLET PHYSICS\BULLET3-2.83.7\EXAMPLES\EXAMPLEBROWSER\." /I"E:\PROGRAMMING\BULLET PHYSICS\BULLET3-2.83.7\SRC" /I"E:\PROGRAMMING\BULLET PHYSICS\BULLET3-2.83.7\EXAMPLES\THIRDPARTYLIBS" /I"E:\PROGRAMMING\BULLET PHYSICS\BULLET3-2.83.7\EXAMPLES\THIRDPARTYLIBS\GLEW" /nologo /W3 /WX- /O2 /Ob2 /D WIN32 /D NDEBUG /D _WIN64 /D USE_GRAPHICAL_BENCHMARK /D _CRT_SECURE_NO_WARNINGS /D _CRT_SECURE_NO_DEPRECATE /D _SCL_SECURE_NO_WARNINGS /D GLEW_STATIC /D "CMAKE_INTDIR=\"Release\"" /D _MBCS /Gm- /EHsc /MT /GS /fp:fast /Zc:wchar_t /Zc:forScope /Zc:inline /GR /Fo"APP_EXAMPLEBROWSER.DIR\RELEASE\\" /Fd"APP_EXAMPLEBROWSER.DIR\RELEASE\VC140.PDB" /Gd /TP E:\PROGRAMMING\BULLET PHYSICS\BULLET3-2.83.7\EXAMPLES\ROLLINGFRICTIONDEMO\ROLLINGFRICTIONDEMO.CPP
^E:\PROGRAMMING\BULLET PHYSICS\BULLET3-2.83.7\EXAMPLES\FRACTUREDEMO\FRACTUREDEMO.CPP
/c /I"E:\PROGRAMMING\BULLET PHYSICS\BULLET3-2.83.7\EXAMPLES\EXAMPLEBROWSER\." /I"E:\PROGRAMMING\BULLET PHYSICS\BULLET3-2.83.7\SRC" /I"E:\PROGRAMMING\BULLET PHYSICS\BULLET3-2.83.7\EXAMPLES\THIRDPARTYLIBS" /I"E:\PROGRAMMING\BULLET PHYSICS\BULLET3-2.83.7\EXAMPLES\THIRDPARTYLIBS\GLEW" /nologo /W3 /WX- /O2 /Ob2 /D WIN32 /D NDEBUG /D _WIN64 /D USE_GRAPHICAL_BENCHMARK /D _CRT_SECURE_NO_WARNINGS /D _CRT_SECURE_NO_DEPRECATE /D _SCL_SECURE_NO_WARNINGS /D GLEW_STATIC /D "CMAKE_INTDIR=\"Release\"" /D _MBCS /Gm- /EHsc /MT /GS /fp:fast /Zc:wchar_t /Zc:forScope /Zc:inline /GR /Fo"APP_EXAMPLEBROWSER.DIR\RELEASE\\" /Fd"APP_EXAMPLEBROWSER.DIR\RELEASE\VC140.PDB" /Gd /TP E:\PROGRAMMING\BULLET PHYSICS\BULLET3-2.83.7\EXAMPLES\FRACTUREDEMO\FRACTUREDEMO.CPP
^E:\PROGRAMMING\BULLET PHYSICS\BULLET3-2.83.7\EXAMPLES\FRACTUREDEMO\BTFRACTUREBODY.CPP
/c /I"E:\PROGRAMMING\BULLET PHYSICS\BULLET3-2.83.7\EXAMPLES\EXAMPLEBROWSER\." /I"E:\PROGRAMMING\BULLET PHYSICS\BULLET3-2.83.7\SRC" /I"E:\PROGRAMMING\BULLET PHYSICS\BULLET3-2.83.7\EXAMPLES\THIRDPARTYLIBS" /I"E:\PROGRAMMING\BULLET PHYSICS\BULLET3-2.83.7\EXAMPLES\THIRDPARTYLIBS\GLEW" /nologo /W3 /WX- /O2 /Ob2 /D WIN32 /D NDEBUG /D _WIN64 /D USE_GRAPHICAL_BENCHMARK /D _CRT_SECURE_NO_WARNINGS /D _CRT_SECURE_NO_DEPRECATE /D _SCL_SECURE_NO_WARNINGS /D GLEW_STATIC /D "CMAKE_INTDIR=\"Release\"" /D _MBCS /Gm- /EHsc /MT /GS /fp:fast /Zc:wchar_t /Zc:forScope /Zc:inline /GR /Fo"APP_EXAMPLEBROWSER.DIR\RELEASE\\" /Fd"APP_EXAMPLEBROWSER.DIR\RELEASE\VC140.PDB" /Gd /TP E:\PROGRAMMING\BULLET PHYSICS\BULLET3-2.83.7\EXAMPLES\FRACTUREDEMO\BTFRACTUREBODY.CPP
^E:\PROGRAMMING\BULLET PHYSICS\BULLET3-2.83.7\EXAMPLES\FRACTUREDEMO\BTFRACTUREDYNAMICSWORLD.CPP
/c /I"E:\PROGRAMMING\BULLET PHYSICS\BULLET3-2.83.7\EXAMPLES\EXAMPLEBROWSER\." /I"E:\PROGRAMMING\BULLET PHYSICS\BULLET3-2.83.7\SRC" /I"E:\PROGRAMMING\BULLET PHYSICS\BULLET3-2.83.7\EXAMPLES\THIRDPARTYLIBS" /I"E:\PROGRAMMING\BULLET PHYSICS\BULLET3-2.83.7\EXAMPLES\THIRDPARTYLIBS\GLEW" /nologo /W3 /WX- /O2 /Ob2 /D WIN32 /D NDEBUG /D _WIN64 /D USE_GRAPHICAL_BENCHMARK /D _CRT_SECURE_NO_WARNINGS /D _CRT_SECURE_NO_DEPRECATE /D _SCL_SECURE_NO_WARNINGS /D GLEW_STATIC /D "CMAKE_INTDIR=\"Release\"" /D _MBCS /Gm- /EHsc /MT /GS /fp:fast /Zc:wchar_t /Zc:forScope /Zc:inline /GR /Fo"APP_EXAMPLEBROWSER.DIR\RELEASE\\" /Fd"APP_EXAMPLEBROWSER.DIR\RELEASE\VC140.PDB" /Gd /TP E:\PROGRAMMING\BULLET PHYSICS\BULLET3-2.83.7\EXAMPLES\FRACTUREDEMO\BTFRACTUREDYNAMICSWORLD.CPP
^E:\PROGRAMMING\BULLET PHYSICS\BULLET3-2.83.7\EXAMPLES\DYNAMICCONTROLDEMO\MOTORDEMO.CPP
/c /I"E:\PROGRAMMING\BULLET PHYSICS\BULLET3-2.83.7\EXAMPLES\EXAMPLEBROWSER\." /I"E:\PROGRAMMING\BULLET PHYSICS\BULLET3-2.83.7\SRC" /I"E:\PROGRAMMING\BULLET PHYSICS\BULLET3-2.83.7\EXAMPLES\THIRDPARTYLIBS" /I"E:\PROGRAMMING\BULLET PHYSICS\BULLET3-2.83.7\EXAMPLES\THIRDPARTYLIBS\GLEW" /nologo /W3 /WX- /O2 /Ob2 /D WIN32 /D NDEBUG /D _WIN64 /D USE_GRAPHICAL_BENCHMARK /D _CRT_SECURE_NO_WARNINGS /D _CRT_SECURE_NO_DEPRECATE /D _SCL_SECURE_NO_WARNINGS /D GLEW_STATIC /D "CMAKE_INTDIR=\"Release\"" /D _MBCS /Gm- /EHsc /MT /GS /fp:fast /Zc:wchar_t /Zc:forScope /Zc:inline /GR /Fo"APP_EXAMPLEBROWSER.DIR\RELEASE\\" /Fd"APP_EXAMPLEBROWSER.DIR\RELEASE\VC140.PDB" /Gd /TP E:\PROGRAMMING\BULLET PHYSICS\BULLET3-2.83.7\EXAMPLES\DYNAMICCONTROLDEMO\MOTORDEMO.CPP
^E:\PROGRAMMING\BULLET PHYSICS\BULLET3-2.83.7\EXAMPLES\MULTITHREADING\MULTITHREADINGEXAMPLE.CPP
/c /I"E:\PROGRAMMING\BULLET PHYSICS\BULLET3-2.83.7\EXAMPLES\EXAMPLEBROWSER\." /I"E:\PROGRAMMING\BULLET PHYSICS\BULLET3-2.83.7\SRC" /I"E:\PROGRAMMING\BULLET PHYSICS\BULLET3-2.83.7\EXAMPLES\THIRDPARTYLIBS" /I"E:\PROGRAMMING\BULLET PHYSICS\BULLET3-2.83.7\EXAMPLES\THIRDPARTYLIBS\GLEW" /nologo /W3 /WX- /O2 /Ob2 /D WIN32 /D NDEBUG /D _WIN64 /D USE_GRAPHICAL_BENCHMARK /D _CRT_SECURE_NO_WARNINGS /D _CRT_SECURE_NO_DEPRECATE /D _SCL_SECURE_NO_WARNINGS /D GLEW_STATIC /D "CMAKE_INTDIR=\"Release\"" /D _MBCS /Gm- /EHsc /MT /GS /fp:fast /Zc:wchar_t /Zc:forScope /Zc:inline /GR /Fo"APP_EXAMPLEBROWSER.DIR\RELEASE\\" /Fd"APP_EXAMPLEBROWSER.DIR\RELEASE\VC140.PDB" /Gd /TP E:\PROGRAMMING\BULLET PHYSICS\BULLET3-2.83.7\EXAMPLES\MULTITHREADING\MULTITHREADINGEXAMPLE.CPP
^E:\PROGRAMMING\BULLET PHYSICS\BULLET3-2.83.7\EXAMPLES\MULTITHREADING\B3POSIXTHREADSUPPORT.CPP
/c /I"E:\PROGRAMMING\BULLET PHYSICS\BULLET3-2.83.7\EXAMPLES\EXAMPLEBROWSER\." /I"E:\PROGRAMMING\BULLET PHYSICS\BULLET3-2.83.7\SRC" /I"E:\PROGRAMMING\BULLET PHYSICS\BULLET3-2.83.7\EXAMPLES\THIRDPARTYLIBS" /I"E:\PROGRAMMING\BULLET PHYSICS\BULLET3-2.83.7\EXAMPLES\THIRDPARTYLIBS\GLEW" /nologo /W3 /WX- /O2 /Ob2 /D WIN32 /D NDEBUG /D _WIN64 /D USE_GRAPHICAL_BENCHMARK /D _CRT_SECURE_NO_WARNINGS /D _CRT_SECURE_NO_DEPRECATE /D _SCL_SECURE_NO_WARNINGS /D GLEW_STATIC /D "CMAKE_INTDIR=\"Release\"" /D _MBCS /Gm- /EHsc /MT /GS /fp:fast /Zc:wchar_t /Zc:forScope /Zc:inline /GR /Fo"APP_EXAMPLEBROWSER.DIR\RELEASE\\" /Fd"APP_EXAMPLEBROWSER.DIR\RELEASE\VC140.PDB" /Gd /TP E:\PROGRAMMING\BULLET PHYSICS\BULLET3-2.83.7\EXAMPLES\MULTITHREADING\B3POSIXTHREADSUPPORT.CPP
^E:\PROGRAMMING\BULLET PHYSICS\BULLET3-2.83.7\EXAMPLES\MULTITHREADING\B3WIN32THREADSUPPORT.CPP
/c /I"E:\PROGRAMMING\BULLET PHYSICS\BULLET3-2.83.7\EXAMPLES\EXAMPLEBROWSER\." /I"E:\PROGRAMMING\BULLET PHYSICS\BULLET3-2.83.7\SRC" /I"E:\PROGRAMMING\BULLET PHYSICS\BULLET3-2.83.7\EXAMPLES\THIRDPARTYLIBS" /I"E:\PROGRAMMING\BULLET PHYSICS\BULLET3-2.83.7\EXAMPLES\THIRDPARTYLIBS\GLEW" /nologo /W3 /WX- /O2 /Ob2 /D WIN32 /D NDEBUG /D _WIN64 /D USE_GRAPHICAL_BENCHMARK /D _CRT_SECURE_NO_WARNINGS /D _CRT_SECURE_NO_DEPRECATE /D _SCL_SECURE_NO_WARNINGS /D GLEW_STATIC /D "CMAKE_INTDIR=\"Release\"" /D _MBCS /Gm- /EHsc /MT /GS /fp:fast /Zc:wchar_t /Zc:forScope /Zc:inline /GR /Fo"APP_EXAMPLEBROWSER.DIR\RELEASE\\" /Fd"APP_EXAMPLEBROWSER.DIR\RELEASE\VC140.PDB" /Gd /TP E:\PROGRAMMING\BULLET PHYSICS\BULLET3-2.83.7\EXAMPLES\MULTITHREADING\B3WIN32THREADSUPPORT.CPP
^E:\PROGRAMMING\BULLET PHYSICS\BULLET3-2.83.7\EXAMPLES\MULTITHREADING\B3THREADSUPPORTINTERFACE.CPP
/c /I"E:\PROGRAMMING\BULLET PHYSICS\BULLET3-2.83.7\EXAMPLES\EXAMPLEBROWSER\." /I"E:\PROGRAMMING\BULLET PHYSICS\BULLET3-2.83.7\SRC" /I"E:\PROGRAMMING\BULLET PHYSICS\BULLET3-2.83.7\EXAMPLES\THIRDPARTYLIBS" /I"E:\PROGRAMMING\BULLET PHYSICS\BULLET3-2.83.7\EXAMPLES\THIRDPARTYLIBS\GLEW" /nologo /W3 /WX- /O2 /Ob2 /D WIN32 /D NDEBUG /D _WIN64 /D USE_GRAPHICAL_BENCHMARK /D _CRT_SECURE_NO_WARNINGS /D _CRT_SECURE_NO_DEPRECATE /D _SCL_SECURE_NO_WARNINGS /D GLEW_STATIC /D "CMAKE_INTDIR=\"Release\"" /D _MBCS /Gm- /EHsc /MT /GS /fp:fast /Zc:wchar_t /Zc:forScope /Zc:inline /GR /Fo"APP_EXAMPLEBROWSER.DIR\RELEASE\\" /Fd"APP_EXAMPLEBROWSER.DIR\RELEASE\VC140.PDB" /Gd /TP E:\PROGRAMMING\BULLET PHYSICS\BULLET3-2.83.7\EXAMPLES\MULTITHREADING\B3THREADSUPPORTINTERFACE.CPP
^E:\PROGRAMMING\BULLET PHYSICS\BULLET3-2.83.7\EXAMPLES\RENDERINGEXAMPLES\TIMESERIESCANVAS.CPP
/c /I"E:\PROGRAMMING\BULLET PHYSICS\BULLET3-2.83.7\EXAMPLES\EXAMPLEBROWSER\." /I"E:\PROGRAMMING\BULLET PHYSICS\BULLET3-2.83.7\SRC" /I"E:\PROGRAMMING\BULLET PHYSICS\BULLET3-2.83.7\EXAMPLES\THIRDPARTYLIBS" /I"E:\PROGRAMMING\BULLET PHYSICS\BULLET3-2.83.7\EXAMPLES\THIRDPARTYLIBS\GLEW" /nologo /W3 /WX- /O2 /Ob2 /D WIN32 /D NDEBUG /D _WIN64 /D USE_GRAPHICAL_BENCHMARK /D _CRT_SECURE_NO_WARNINGS /D _CRT_SECURE_NO_DEPRECATE /D _SCL_SECURE_NO_WARNINGS /D GLEW_STATIC /D "CMAKE_INTDIR=\"Release\"" /D _MBCS /Gm- /EHsc /MT /GS /fp:fast /Zc:wchar_t /Zc:forScope /Zc:inline /GR /Fo"APP_EXAMPLEBROWSER.DIR\RELEASE\\" /Fd"APP_EXAMPLEBROWSER.DIR\RELEASE\VC140.PDB" /Gd /TP E:\PROGRAMMING\BULLET PHYSICS\BULLET3-2.83.7\EXAMPLES\RENDERINGEXAMPLES\TIMESERIESCANVAS.CPP
^E:\PROGRAMMING\BULLET PHYSICS\BULLET3-2.83.7\EXAMPLES\RENDERINGEXAMPLES\TIMESERIESFONTDATA.CPP
/c /I"E:\PROGRAMMING\BULLET PHYSICS\BULLET3-2.83.7\EXAMPLES\EXAMPLEBROWSER\." /I"E:\PROGRAMMING\BULLET PHYSICS\BULLET3-2.83.7\SRC" /I"E:\PROGRAMMING\BULLET PHYSICS\BULLET3-2.83.7\EXAMPLES\THIRDPARTYLIBS" /I"E:\PROGRAMMING\BULLET PHYSICS\BULLET3-2.83.7\EXAMPLES\THIRDPARTYLIBS\GLEW" /nologo /W3 /WX- /O2 /Ob2 /D WIN32 /D NDEBUG /D _WIN64 /D USE_GRAPHICAL_BENCHMARK /D _CRT_SECURE_NO_WARNINGS /D _CRT_SECURE_NO_DEPRECATE /D _SCL_SECURE_NO_WARNINGS /D GLEW_STATIC /D "CMAKE_INTDIR=\"Release\"" /D _MBCS /Gm- /EHsc /MT /GS /fp:fast /Zc:wchar_t /Zc:forScope /Zc:inline /GR /Fo"APP_EXAMPLEBROWSER.DIR\RELEASE\\" /Fd"APP_EXAMPLEBROWSER.DIR\RELEASE\VC140.PDB" /Gd /TP E:\PROGRAMMING\BULLET PHYSICS\BULLET3-2.83.7\EXAMPLES\RENDERINGEXAMPLES\TIMESERIESFONTDATA.CPP
^E:\PROGRAMMING\BULLET PHYSICS\BULLET3-2.83.7\EXAMPLES\RENDERINGEXAMPLES\COORDINATESYSTEMDEMO.CPP
/c /I"E:\PROGRAMMING\BULLET PHYSICS\BULLET3-2.83.7\EXAMPLES\EXAMPLEBROWSER\." /I"E:\PROGRAMMING\BULLET PHYSICS\BULLET3-2.83.7\SRC" /I"E:\PROGRAMMING\BULLET PHYSICS\BULLET3-2.83.7\EXAMPLES\THIRDPARTYLIBS" /I"E:\PROGRAMMING\BULLET PHYSICS\BULLET3-2.83.7\EXAMPLES\THIRDPARTYLIBS\GLEW" /nologo /W3 /WX- /O2 /Ob2 /D WIN32 /D NDEBUG /D _WIN64 /D USE_GRAPHICAL_BENCHMARK /D _CRT_SECURE_NO_WARNINGS /D _CRT_SECURE_NO_DEPRECATE /D _SCL_SECURE_NO_WARNINGS /D GLEW_STATIC /D "CMAKE_INTDIR=\"Release\"" /D _MBCS /Gm- /EHsc /MT /GS /fp:fast /Zc:wchar_t /Zc:forScope /Zc:inline /GR /Fo"APP_EXAMPLEBROWSER.DIR\RELEASE\\" /Fd"APP_EXAMPLEBROWSER.DIR\RELEASE\VC140.PDB" /Gd /TP E:\PROGRAMMING\BULLET PHYSICS\BULLET3-2.83.7\EXAMPLES\RENDERINGEXAMPLES\COORDINATESYSTEMDEMO.CPP
^E:\PROGRAMMING\BULLET PHYSICS\BULLET3-2.83.7\EXAMPLES\RENDERINGEXAMPLES\RAYTRACERSETUP.CPP
/c /I"E:\PROGRAMMING\BULLET PHYSICS\BULLET3-2.83.7\EXAMPLES\EXAMPLEBROWSER\." /I"E:\PROGRAMMING\BULLET PHYSICS\BULLET3-2.83.7\SRC" /I"E:\PROGRAMMING\BULLET PHYSICS\BULLET3-2.83.7\EXAMPLES\THIRDPARTYLIBS" /I"E:\PROGRAMMING\BULLET PHYSICS\BULLET3-2.83.7\EXAMPLES\THIRDPARTYLIBS\GLEW" /nologo /W3 /WX- /O2 /Ob2 /D WIN32 /D NDEBUG /D _WIN64 /D USE_GRAPHICAL_BENCHMARK /D _CRT_SECURE_NO_WARNINGS /D _CRT_SECURE_NO_DEPRECATE /D _SCL_SECURE_NO_WARNINGS /D GLEW_STATIC /D "CMAKE_INTDIR=\"Release\"" /D _MBCS /Gm- /EHsc /MT /GS /fp:fast /Zc:wchar_t /Zc:forScope /Zc:inline /GR /Fo"APP_EXAMPLEBROWSER.DIR\RELEASE\\" /Fd"APP_EXAMPLEBROWSER.DIR\RELEASE\VC140.PDB" /Gd /TP E:\PROGRAMMING\BULLET PHYSICS\BULLET3-2.83.7\EXAMPLES\RENDERINGEXAMPLES\RAYTRACERSETUP.CPP
^E:\PROGRAMMING\BULLET PHYSICS\BULLET3-2.83.7\EXAMPLES\RENDERINGEXAMPLES\RENDERINSTANCINGDEMO.CPP
/c /I"E:\PROGRAMMING\BULLET PHYSICS\BULLET3-2.83.7\EXAMPLES\EXAMPLEBROWSER\." /I"E:\PROGRAMMING\BULLET PHYSICS\BULLET3-2.83.7\SRC" /I"E:\PROGRAMMING\BULLET PHYSICS\BULLET3-2.83.7\EXAMPLES\THIRDPARTYLIBS" /I"E:\PROGRAMMING\BULLET PHYSICS\BULLET3-2.83.7\EXAMPLES\THIRDPARTYLIBS\GLEW" /nologo /W3 /WX- /O2 /Ob2 /D WIN32 /D NDEBUG /D _WIN64 /D USE_GRAPHICAL_BENCHMARK /D _CRT_SECURE_NO_WARNINGS /D _CRT_SECURE_NO_DEPRECATE /D _SCL_SECURE_NO_WARNINGS /D GLEW_STATIC /D "CMAKE_INTDIR=\"Release\"" /D _MBCS /Gm- /EHsc /MT /GS /fp:fast /Zc:wchar_t /Zc:forScope /Zc:inline /GR /Fo"APP_EXAMPLEBROWSER.DIR\RELEASE\\" /Fd"APP_EXAMPLEBROWSER.DIR\RELEASE\VC140.PDB" /Gd /TP E:\PROGRAMMING\BULLET PHYSICS\BULLET3-2.83.7\EXAMPLES\RENDERINGEXAMPLES\RENDERINSTANCINGDEMO.CPP
^E:\PROGRAMMING\BULLET PHYSICS\BULLET3-2.83.7\EXAMPLES\RENDERINGEXAMPLES\TIMESERIESEXAMPLE.CPP
/c /I"E:\PROGRAMMING\BULLET PHYSICS\BULLET3-2.83.7\EXAMPLES\EXAMPLEBROWSER\." /I"E:\PROGRAMMING\BULLET PHYSICS\BULLET3-2.83.7\SRC" /I"E:\PROGRAMMING\BULLET PHYSICS\BULLET3-2.83.7\EXAMPLES\THIRDPARTYLIBS" /I"E:\PROGRAMMING\BULLET PHYSICS\BULLET3-2.83.7\EXAMPLES\THIRDPARTYLIBS\GLEW" /nologo /W3 /WX- /O2 /Ob2 /D WIN32 /D NDEBUG /D _WIN64 /D USE_GRAPHICAL_BENCHMARK /D _CRT_SECURE_NO_WARNINGS /D _CRT_SECURE_NO_DEPRECATE /D _SCL_SECURE_NO_WARNINGS /D GLEW_STATIC /D "CMAKE_INTDIR=\"Release\"" /D _MBCS /Gm- /EHsc /MT /GS /fp:fast /Zc:wchar_t /Zc:forScope /Zc:inline /GR /Fo"APP_EXAMPLEBROWSER.DIR\RELEASE\\" /Fd"APP_EXAMPLEBROWSER.DIR\RELEASE\VC140.PDB" /Gd /TP E:\PROGRAMMING\BULLET PHYSICS\BULLET3-2.83.7\EXAMPLES\RENDERINGEXAMPLES\TIMESERIESEXAMPLE.CPP
^E:\PROGRAMMING\BULLET PHYSICS\BULLET3-2.83.7\EXAMPLES\BENCHMARKS\BENCHMARKDEMO.CPP
/c /I"E:\PROGRAMMING\BULLET PHYSICS\BULLET3-2.83.7\EXAMPLES\EXAMPLEBROWSER\." /I"E:\PROGRAMMING\BULLET PHYSICS\BULLET3-2.83.7\SRC" /I"E:\PROGRAMMING\BULLET PHYSICS\BULLET3-2.83.7\EXAMPLES\THIRDPARTYLIBS" /I"E:\PROGRAMMING\BULLET PHYSICS\BULLET3-2.83.7\EXAMPLES\THIRDPARTYLIBS\GLEW" /nologo /W3 /WX- /O2 /Ob2 /D WIN32 /D NDEBUG /D _WIN64 /D USE_GRAPHICAL_BENCHMARK /D _CRT_SECURE_NO_WARNINGS /D _CRT_SECURE_NO_DEPRECATE /D _SCL_SECURE_NO_WARNINGS /D GLEW_STATIC /D "CMAKE_INTDIR=\"Release\"" /D _MBCS /Gm- /EHsc /MT /GS /fp:fast /Zc:wchar_t /Zc:forScope /Zc:inline /GR /Fo"APP_EXAMPLEBROWSER.DIR\RELEASE\\" /Fd"APP_EXAMPLEBROWSER.DIR\RELEASE\VC140.PDB" /Gd /TP E:\PROGRAMMING\BULLET PHYSICS\BULLET3-2.83.7\EXAMPLES\BENCHMARKS\BENCHMARKDEMO.CPP
^E:\PROGRAMMING\BULLET PHYSICS\BULLET3-2.83.7\EXAMPLES\RAYCAST\RAYTESTDEMO.CPP
/c /I"E:\PROGRAMMING\BULLET PHYSICS\BULLET3-2.83.7\EXAMPLES\EXAMPLEBROWSER\." /I"E:\PROGRAMMING\BULLET PHYSICS\BULLET3-2.83.7\SRC" /I"E:\PROGRAMMING\BULLET PHYSICS\BULLET3-2.83.7\EXAMPLES\THIRDPARTYLIBS" /I"E:\PROGRAMMING\BULLET PHYSICS\BULLET3-2.83.7\EXAMPLES\THIRDPARTYLIBS\GLEW" /nologo /W3 /WX- /O2 /Ob2 /D WIN32 /D NDEBUG /D _WIN64 /D USE_GRAPHICAL_BENCHMARK /D _CRT_SECURE_NO_WARNINGS /D _CRT_SECURE_NO_DEPRECATE /D _SCL_SECURE_NO_WARNINGS /D GLEW_STATIC /D "CMAKE_INTDIR=\"Release\"" /D _MBCS /Gm- /EHsc /MT /GS /fp:fast /Zc:wchar_t /Zc:forScope /Zc:inline /GR /Fo"APP_EXAMPLEBROWSER.DIR\RELEASE\\" /Fd"APP_EXAMPLEBROWSER.DIR\RELEASE\VC140.PDB" /Gd /TP E:\PROGRAMMING\BULLET PHYSICS\BULLET3-2.83.7\EXAMPLES\RAYCAST\RAYTESTDEMO.CPP
^E:\PROGRAMMING\BULLET PHYSICS\BULLET3-2.83.7\EXAMPLES\IMPORTERS\IMPORTBULLET\SERIALIZESETUP.CPP
/c /I"E:\PROGRAMMING\BULLET PHYSICS\BULLET3-2.83.7\EXAMPLES\EXAMPLEBROWSER\." /I"E:\PROGRAMMING\BULLET PHYSICS\BULLET3-2.83.7\SRC" /I"E:\PROGRAMMING\BULLET PHYSICS\BULLET3-2.83.7\EXAMPLES\THIRDPARTYLIBS" /I"E:\PROGRAMMING\BULLET PHYSICS\BULLET3-2.83.7\EXAMPLES\THIRDPARTYLIBS\GLEW" /nologo /W3 /WX- /O2 /Ob2 /D WIN32 /D NDEBUG /D _WIN64 /D USE_GRAPHICAL_BENCHMARK /D _CRT_SECURE_NO_WARNINGS /D _CRT_SECURE_NO_DEPRECATE /D _SCL_SECURE_NO_WARNINGS /D GLEW_STATIC /D "CMAKE_INTDIR=\"Release\"" /D _MBCS /Gm- /EHsc /MT /GS /fp:fast /Zc:wchar_t /Zc:forScope /Zc:inline /GR /Fo"APP_EXAMPLEBROWSER.DIR\RELEASE\\" /Fd"APP_EXAMPLEBROWSER.DIR\RELEASE\VC140.PDB" /Gd /TP E:\PROGRAMMING\BULLET PHYSICS\BULLET3-2.83.7\EXAMPLES\IMPORTERS\IMPORTBULLET\SERIALIZESETUP.CPP
^E:\PROGRAMMING\BULLET PHYSICS\BULLET3-2.83.7\EXTRAS\SERIALIZE\BULLETWORLDIMPORTER\BTWORLDIMPORTER.CPP
/c /I"E:\PROGRAMMING\BULLET PHYSICS\BULLET3-2.83.7\EXAMPLES\EXAMPLEBROWSER\." /I"E:\PROGRAMMING\BULLET PHYSICS\BULLET3-2.83.7\SRC" /I"E:\PROGRAMMING\BULLET PHYSICS\BULLET3-2.83.7\EXAMPLES\THIRDPARTYLIBS" /I"E:\PROGRAMMING\BULLET PHYSICS\BULLET3-2.83.7\EXAMPLES\THIRDPARTYLIBS\GLEW" /nologo /W3 /WX- /O2 /Ob2 /D WIN32 /D NDEBUG /D _WIN64 /D USE_GRAPHICAL_BENCHMARK /D _CRT_SECURE_NO_WARNINGS /D _CRT_SECURE_NO_DEPRECATE /D _SCL_SECURE_NO_WARNINGS /D GLEW_STATIC /D "CMAKE_INTDIR=\"Release\"" /D _MBCS /Gm- /EHsc /MT /GS /fp:fast /Zc:wchar_t /Zc:forScope /Zc:inline /GR /Fo"APP_EXAMPLEBROWSER.DIR\RELEASE\\" /Fd"APP_EXAMPLEBROWSER.DIR\RELEASE\VC140.PDB" /Gd /TP E:\PROGRAMMING\BULLET PHYSICS\BULLET3-2.83.7\EXTRAS\SERIALIZE\BULLETWORLDIMPORTER\BTWORLDIMPORTER.CPP
^E:\PROGRAMMING\BULLET PHYSICS\BULLET3-2.83.7\EXTRAS\SERIALIZE\BULLETWORLDIMPORTER\BTBULLETWORLDIMPORTER.CPP
/c /I"E:\PROGRAMMING\BULLET PHYSICS\BULLET3-2.83.7\EXAMPLES\EXAMPLEBROWSER\." /I"E:\PROGRAMMING\BULLET PHYSICS\BULLET3-2.83.7\SRC" /I"E:\PROGRAMMING\BULLET PHYSICS\BULLET3-2.83.7\EXAMPLES\THIRDPARTYLIBS" /I"E:\PROGRAMMING\BULLET PHYSICS\BULLET3-2.83.7\EXAMPLES\THIRDPARTYLIBS\GLEW" /nologo /W3 /WX- /O2 /Ob2 /D WIN32 /D NDEBUG /D _WIN64 /D USE_GRAPHICAL_BENCHMARK /D _CRT_SECURE_NO_WARNINGS /D _CRT_SECURE_NO_DEPRECATE /D _SCL_SECURE_NO_WARNINGS /D GLEW_STATIC /D "CMAKE_INTDIR=\"Release\"" /D _MBCS /Gm- /EHsc /MT /GS /fp:fast /Zc:wchar_t /Zc:forScope /Zc:inline /GR /Fo"APP_EXAMPLEBROWSER.DIR\RELEASE\\" /Fd"APP_EXAMPLEBROWSER.DIR\RELEASE\VC140.PDB" /Gd /TP E:\PROGRAMMING\BULLET PHYSICS\BULLET3-2.83.7\EXTRAS\SERIALIZE\BULLETWORLDIMPORTER\BTBULLETWORLDIMPORTER.CPP
^E:\PROGRAMMING\BULLET PHYSICS\BULLET3-2.83.7\EXTRAS\SERIALIZE\BULLETFILELOADER\BCHUNK.CPP
/c /I"E:\PROGRAMMING\BULLET PHYSICS\BULLET3-2.83.7\EXAMPLES\EXAMPLEBROWSER\." /I"E:\PROGRAMMING\BULLET PHYSICS\BULLET3-2.83.7\SRC" /I"E:\PROGRAMMING\BULLET PHYSICS\BULLET3-2.83.7\EXAMPLES\THIRDPARTYLIBS" /I"E:\PROGRAMMING\BULLET PHYSICS\BULLET3-2.83.7\EXAMPLES\THIRDPARTYLIBS\GLEW" /nologo /W3 /WX- /O2 /Ob2 /D WIN32 /D NDEBUG /D _WIN64 /D USE_GRAPHICAL_BENCHMARK /D _CRT_SECURE_NO_WARNINGS /D _CRT_SECURE_NO_DEPRECATE /D _SCL_SECURE_NO_WARNINGS /D GLEW_STATIC /D "CMAKE_INTDIR=\"Release\"" /D _MBCS /Gm- /EHsc /MT /GS /fp:fast /Zc:wchar_t /Zc:forScope /Zc:inline /GR /Fo"APP_EXAMPLEBROWSER.DIR\RELEASE\\" /Fd"APP_EXAMPLEBROWSER.DIR\RELEASE\VC140.PDB" /Gd /TP E:\PROGRAMMING\BULLET PHYSICS\BULLET3-2.83.7\EXTRAS\SERIALIZE\BULLETFILELOADER\BCHUNK.CPP
^E:\PROGRAMMING\BULLET PHYSICS\BULLET3-2.83.7\EXTRAS\SERIALIZE\BULLETFILELOADER\BFILE.CPP
/c /I"E:\PROGRAMMING\BULLET PHYSICS\BULLET3-2.83.7\EXAMPLES\EXAMPLEBROWSER\." /I"E:\PROGRAMMING\BULLET PHYSICS\BULLET3-2.83.7\SRC" /I"E:\PROGRAMMING\BULLET PHYSICS\BULLET3-2.83.7\EXAMPLES\THIRDPARTYLIBS" /I"E:\PROGRAMMING\BULLET PHYSICS\BULLET3-2.83.7\EXAMPLES\THIRDPARTYLIBS\GLEW" /nologo /W3 /WX- /O2 /Ob2 /D WIN32 /D NDEBUG /D _WIN64 /D USE_GRAPHICAL_BENCHMARK /D _CRT_SECURE_NO_WARNINGS /D _CRT_SECURE_NO_DEPRECATE /D _SCL_SECURE_NO_WARNINGS /D GLEW_STATIC /D "CMAKE_INTDIR=\"Release\"" /D _MBCS /Gm- /EHsc /MT /GS /fp:fast /Zc:wchar_t /Zc:forScope /Zc:inline /GR /Fo"APP_EXAMPLEBROWSER.DIR\RELEASE\\" /Fd"APP_EXAMPLEBROWSER.DIR\RELEASE\VC140.PDB" /Gd /TP E:\PROGRAMMING\BULLET PHYSICS\BULLET3-2.83.7\EXTRAS\SERIALIZE\BULLETFILELOADER\BFILE.CPP
^E:\PROGRAMMING\BULLET PHYSICS\BULLET3-2.83.7\EXTRAS\SERIALIZE\BULLETFILELOADER\BDNA.CPP
/c /I"E:\PROGRAMMING\BULLET PHYSICS\BULLET3-2.83.7\EXAMPLES\EXAMPLEBROWSER\." /I"E:\PROGRAMMING\BULLET PHYSICS\BULLET3-2.83.7\SRC" /I"E:\PROGRAMMING\BULLET PHYSICS\BULLET3-2.83.7\EXAMPLES\THIRDPARTYLIBS" /I"E:\PROGRAMMING\BULLET PHYSICS\BULLET3-2.83.7\EXAMPLES\THIRDPARTYLIBS\GLEW" /nologo /W3 /WX- /O2 /Ob2 /D WIN32 /D NDEBUG /D _WIN64 /D USE_GRAPHICAL_BENCHMARK /D _CRT_SECURE_NO_WARNINGS /D _CRT_SECURE_NO_DEPRECATE /D _SCL_SECURE_NO_WARNINGS /D GLEW_STATIC /D "CMAKE_INTDIR=\"Release\"" /D _MBCS /Gm- /EHsc /MT /GS /fp:fast /Zc:wchar_t /Zc:forScope /Zc:inline /GR /Fo"APP_EXAMPLEBROWSER.DIR\RELEASE\\" /Fd"APP_EXAMPLEBROWSER.DIR\RELEASE\VC140.PDB" /Gd /TP E:\PROGRAMMING\BULLET PHYSICS\BULLET3-2.83.7\EXTRAS\SERIALIZE\BULLETFILELOADER\BDNA.CPP
^E:\PROGRAMMING\BULLET PHYSICS\BULLET3-2.83.7\EXTRAS\SERIALIZE\BULLETFILELOADER\BTBULLETFILE.CPP
/c /I"E:\PROGRAMMING\BULLET PHYSICS\BULLET3-2.83.7\EXAMPLES\EXAMPLEBROWSER\." /I"E:\PROGRAMMING\BULLET PHYSICS\BULLET3-2.83.7\SRC" /I"E:\PROGRAMMING\BULLET PHYSICS\BULLET3-2.83.7\EXAMPLES\THIRDPARTYLIBS" /I"E:\PROGRAMMING\BULLET PHYSICS\BULLET3-2.83.7\EXAMPLES\THIRDPARTYLIBS\GLEW" /nologo /W3 /WX- /O2 /Ob2 /D WIN32 /D NDEBUG /D _WIN64 /D USE_GRAPHICAL_BENCHMARK /D _CRT_SECURE_NO_WARNINGS /D _CRT_SECURE_NO_DEPRECATE /D _SCL_SECURE_NO_WARNINGS /D GLEW_STATIC /D "CMAKE_INTDIR=\"Release\"" /D _MBCS /Gm- /EHsc /MT /GS /fp:fast /Zc:wchar_t /Zc:forScope /Zc:inline /GR /Fo"APP_EXAMPLEBROWSER.DIR\RELEASE\\" /Fd"APP_EXAMPLEBROWSER.DIR\RELEASE\VC140.PDB" /Gd /TP E:\PROGRAMMING\BULLET PHYSICS\BULLET3-2.83.7\EXTRAS\SERIALIZE\BULLETFILELOADER\BTBULLETFILE.CPP
^E:\PROGRAMMING\BULLET PHYSICS\BULLET3-2.83.7\EXAMPLES\IMPORTERS\IMPORTBSP\BSPCONVERTER.CPP
/c /I"E:\PROGRAMMING\BULLET PHYSICS\BULLET3-2.83.7\EXAMPLES\EXAMPLEBROWSER\." /I"E:\PROGRAMMING\BULLET PHYSICS\BULLET3-2.83.7\SRC" /I"E:\PROGRAMMING\BULLET PHYSICS\BULLET3-2.83.7\EXAMPLES\THIRDPARTYLIBS" /I"E:\PROGRAMMING\BULLET PHYSICS\BULLET3-2.83.7\EXAMPLES\THIRDPARTYLIBS\GLEW" /nologo /W3 /WX- /O2 /Ob2 /D WIN32 /D NDEBUG /D _WIN64 /D USE_GRAPHICAL_BENCHMARK /D _CRT_SECURE_NO_WARNINGS /D _CRT_SECURE_NO_DEPRECATE /D _SCL_SECURE_NO_WARNINGS /D GLEW_STATIC /D "CMAKE_INTDIR=\"Release\"" /D _MBCS /Gm- /EHsc /MT /GS /fp:fast /Zc:wchar_t /Zc:forScope /Zc:inline /GR /Fo"APP_EXAMPLEBROWSER.DIR\RELEASE\\" /Fd"APP_EXAMPLEBROWSER.DIR\RELEASE\VC140.PDB" /Gd /TP E:\PROGRAMMING\BULLET PHYSICS\BULLET3-2.83.7\EXAMPLES\IMPORTERS\IMPORTBSP\BSPCONVERTER.CPP
^E:\PROGRAMMING\BULLET PHYSICS\BULLET3-2.83.7\EXAMPLES\IMPORTERS\IMPORTBSP\BSPLOADER.CPP
/c /I"E:\PROGRAMMING\BULLET PHYSICS\BULLET3-2.83.7\EXAMPLES\EXAMPLEBROWSER\." /I"E:\PROGRAMMING\BULLET PHYSICS\BULLET3-2.83.7\SRC" /I"E:\PROGRAMMING\BULLET PHYSICS\BULLET3-2.83.7\EXAMPLES\THIRDPARTYLIBS" /I"E:\PROGRAMMING\BULLET PHYSICS\BULLET3-2.83.7\EXAMPLES\THIRDPARTYLIBS\GLEW" /nologo /W3 /WX- /O2 /Ob2 /D WIN32 /D NDEBUG /D _WIN64 /D USE_GRAPHICAL_BENCHMARK /D _CRT_SECURE_NO_WARNINGS /D _CRT_SECURE_NO_DEPRECATE /D _SCL_SECURE_NO_WARNINGS /D GLEW_STATIC /D "CMAKE_INTDIR=\"Release\"" /D _MBCS /Gm- /EHsc /MT /GS /fp:fast /Zc:wchar_t /Zc:forScope /Zc:inline /GR /Fo"APP_EXAMPLEBROWSER.DIR\RELEASE\\" /Fd"APP_EXAMPLEBROWSER.DIR\RELEASE\VC140.PDB" /Gd /TP E:\PROGRAMMING\BULLET PHYSICS\BULLET3-2.83.7\EXAMPLES\IMPORTERS\IMPORTBSP\BSPLOADER.CPP
^E:\PROGRAMMING\BULLET PHYSICS\BULLET3-2.83.7\EXAMPLES\IMPORTERS\IMPORTBSP\IMPORTBSPEXAMPLE.CPP
/c /I"E:\PROGRAMMING\BULLET PHYSICS\BULLET3-2.83.7\EXAMPLES\EXAMPLEBROWSER\." /I"E:\PROGRAMMING\BULLET PHYSICS\BULLET3-2.83.7\SRC" /I"E:\PROGRAMMING\BULLET PHYSICS\BULLET3-2.83.7\EXAMPLES\THIRDPARTYLIBS" /I"E:\PROGRAMMING\BULLET PHYSICS\BULLET3-2.83.7\EXAMPLES\THIRDPARTYLIBS\GLEW" /nologo /W3 /WX- /O2 /Ob2 /D WIN32 /D NDEBUG /D _WIN64 /D USE_GRAPHICAL_BENCHMARK /D _CRT_SECURE_NO_WARNINGS /D _CRT_SECURE_NO_DEPRECATE /D _SCL_SECURE_NO_WARNINGS /D GLEW_STATIC /D "CMAKE_INTDIR=\"Release\"" /D _MBCS /Gm- /EHsc /MT /GS /fp:fast /Zc:wchar_t /Zc:forScope /Zc:inline /GR /Fo"APP_EXAMPLEBROWSER.DIR\RELEASE\\" /Fd"APP_EXAMPLEBROWSER.DIR\RELEASE\VC140.PDB" /Gd /TP E:\PROGRAMMING\BULLET PHYSICS\BULLET3-2.83.7\EXAMPLES\IMPORTERS\IMPORTBSP\IMPORTBSPEXAMPLE.CPP
^E:\PROGRAMMING\BULLET PHYSICS\BULLET3-2.83.7\EXAMPLES\IMPORTERS\IMPORTCOLLADADEMO\IMPORTCOLLADASETUP.CPP
/c /I"E:\PROGRAMMING\BULLET PHYSICS\BULLET3-2.83.7\EXAMPLES\EXAMPLEBROWSER\." /I"E:\PROGRAMMING\BULLET PHYSICS\BULLET3-2.83.7\SRC" /I"E:\PROGRAMMING\BULLET PHYSICS\BULLET3-2.83.7\EXAMPLES\THIRDPARTYLIBS" /I"E:\PROGRAMMING\BULLET PHYSICS\BULLET3-2.83.7\EXAMPLES\THIRDPARTYLIBS\GLEW" /nologo /W3 /WX- /O2 /Ob2 /D WIN32 /D NDEBUG /D _WIN64 /D USE_GRAPHICAL_BENCHMARK /D _CRT_SECURE_NO_WARNINGS /D _CRT_SECURE_NO_DEPRECATE /D _SCL_SECURE_NO_WARNINGS /D GLEW_STATIC /D "CMAKE_INTDIR=\"Release\"" /D _MBCS /Gm- /EHsc /MT /GS /fp:fast /Zc:wchar_t /Zc:forScope /Zc:inline /GR /Fo"APP_EXAMPLEBROWSER.DIR\RELEASE\\" /Fd"APP_EXAMPLEBROWSER.DIR\RELEASE\VC140.PDB" /Gd /TP E:\PROGRAMMING\BULLET PHYSICS\BULLET3-2.83.7\EXAMPLES\IMPORTERS\IMPORTCOLLADADEMO\IMPORTCOLLADASETUP.CPP
^E:\PROGRAMMING\BULLET PHYSICS\BULLET3-2.83.7\EXAMPLES\IMPORTERS\IMPORTCOLLADADEMO\LOADMESHFROMCOLLADA.CPP
/c /I"E:\PROGRAMMING\BULLET PHYSICS\BULLET3-2.83.7\EXAMPLES\EXAMPLEBROWSER\." /I"E:\PROGRAMMING\BULLET PHYSICS\BULLET3-2.83.7\SRC" /I"E:\PROGRAMMING\BULLET PHYSICS\BULLET3-2.83.7\EXAMPLES\THIRDPARTYLIBS" /I"E:\PROGRAMMING\BULLET PHYSICS\BULLET3-2.83.7\EXAMPLES\THIRDPARTYLIBS\GLEW" /nologo /W3 /WX- /O2 /Ob2 /D WIN32 /D NDEBUG /D _WIN64 /D USE_GRAPHICAL_BENCHMARK /D _CRT_SECURE_NO_WARNINGS /D _CRT_SECURE_NO_DEPRECATE /D _SCL_SECURE_NO_WARNINGS /D GLEW_STATIC /D "CMAKE_INTDIR=\"Release\"" /D _MBCS /Gm- /EHsc /MT /GS /fp:fast /Zc:wchar_t /Zc:forScope /Zc:inline /GR /Fo"APP_EXAMPLEBROWSER.DIR\RELEASE\\" /Fd"APP_EXAMPLEBROWSER.DIR\RELEASE\VC140.PDB" /Gd /TP E:\PROGRAMMING\BULLET PHYSICS\BULLET3-2.83.7\EXAMPLES\IMPORTERS\IMPORTCOLLADADEMO\LOADMESHFROMCOLLADA.CPP
^E:\PROGRAMMING\BULLET PHYSICS\BULLET3-2.83.7\EXAMPLES\IMPORTERS\IMPORTOBJDEMO\IMPORTOBJEXAMPLE.CPP
/c /I"E:\PROGRAMMING\BULLET PHYSICS\BULLET3-2.83.7\EXAMPLES\EXAMPLEBROWSER\." /I"E:\PROGRAMMING\BULLET PHYSICS\BULLET3-2.83.7\SRC" /I"E:\PROGRAMMING\BULLET PHYSICS\BULLET3-2.83.7\EXAMPLES\THIRDPARTYLIBS" /I"E:\PROGRAMMING\BULLET PHYSICS\BULLET3-2.83.7\EXAMPLES\THIRDPARTYLIBS\GLEW" /nologo /W3 /WX- /O2 /Ob2 /D WIN32 /D NDEBUG /D _WIN64 /D USE_GRAPHICAL_BENCHMARK /D _CRT_SECURE_NO_WARNINGS /D _CRT_SECURE_NO_DEPRECATE /D _SCL_SECURE_NO_WARNINGS /D GLEW_STATIC /D "CMAKE_INTDIR=\"Release\"" /D _MBCS /Gm- /EHsc /MT /GS /fp:fast /Zc:wchar_t /Zc:forScope /Zc:inline /GR /Fo"APP_EXAMPLEBROWSER.DIR\RELEASE\\" /Fd"APP_EXAMPLEBROWSER.DIR\RELEASE\VC140.PDB" /Gd /TP E:\PROGRAMMING\BULLET PHYSICS\BULLET3-2.83.7\EXAMPLES\IMPORTERS\IMPORTOBJDEMO\IMPORTOBJEXAMPLE.CPP
^E:\PROGRAMMING\BULLET PHYSICS\BULLET3-2.83.7\EXAMPLES\IMPORTERS\IMPORTOBJDEMO\LOADMESHFROMOBJ.CPP
/c /I"E:\PROGRAMMING\BULLET PHYSICS\BULLET3-2.83.7\EXAMPLES\EXAMPLEBROWSER\." /I"E:\PROGRAMMING\BULLET PHYSICS\BULLET3-2.83.7\SRC" /I"E:\PROGRAMMING\BULLET PHYSICS\BULLET3-2.83.7\EXAMPLES\THIRDPARTYLIBS" /I"E:\PROGRAMMING\BULLET PHYSICS\BULLET3-2.83.7\EXAMPLES\THIRDPARTYLIBS\GLEW" /nologo /W3 /WX- /O2 /Ob2 /D WIN32 /D NDEBUG /D _WIN64 /D USE_GRAPHICAL_BENCHMARK /D _CRT_SECURE_NO_WARNINGS /D _CRT_SECURE_NO_DEPRECATE /D _SCL_SECURE_NO_WARNINGS /D GLEW_STATIC /D "CMAKE_INTDIR=\"Release\"" /D _MBCS /Gm- /EHsc /MT /GS /fp:fast /Zc:wchar_t /Zc:forScope /Zc:inline /GR /Fo"APP_EXAMPLEBROWSER.DIR\RELEASE\\" /Fd"APP_EXAMPLEBROWSER.DIR\RELEASE\VC140.PDB" /Gd /TP E:\PROGRAMMING\BULLET PHYSICS\BULLET3-2.83.7\EXAMPLES\IMPORTERS\IMPORTOBJDEMO\LOADMESHFROMOBJ.CPP
^E:\PROGRAMMING\BULLET PHYSICS\BULLET3-2.83.7\EXAMPLES\IMPORTERS\IMPORTOBJDEMO\WAVEFRONT2GLINSTANCEGRAPHICSSHAPE.CPP
/c /I"E:\PROGRAMMING\BULLET PHYSICS\BULLET3-2.83.7\EXAMPLES\EXAMPLEBROWSER\." /I"E:\PROGRAMMING\BULLET PHYSICS\BULLET3-2.83.7\SRC" /I"E:\PROGRAMMING\BULLET PHYSICS\BULLET3-2.83.7\EXAMPLES\THIRDPARTYLIBS" /I"E:\PROGRAMMING\BULLET PHYSICS\BULLET3-2.83.7\EXAMPLES\THIRDPARTYLIBS\GLEW" /nologo /W3 /WX- /O2 /Ob2 /D WIN32 /D NDEBUG /D _WIN64 /D USE_GRAPHICAL_BENCHMARK /D _CRT_SECURE_NO_WARNINGS /D _CRT_SECURE_NO_DEPRECATE /D _SCL_SECURE_NO_WARNINGS /D GLEW_STATIC /D "CMAKE_INTDIR=\"Release\"" /D _MBCS /Gm- /EHsc /MT /GS /fp:fast /Zc:wchar_t /Zc:forScope /Zc:inline /GR /Fo"APP_EXAMPLEBROWSER.DIR\RELEASE\\" /Fd"APP_EXAMPLEBROWSER.DIR\RELEASE\VC140.PDB" /Gd /TP E:\PROGRAMMING\BULLET PHYSICS\BULLET3-2.83.7\EXAMPLES\IMPORTERS\IMPORTOBJDEMO\WAVEFRONT2GLINSTANCEGRAPHICSSHAPE.CPP
^E:\PROGRAMMING\BULLET PHYSICS\BULLET3-2.83.7\EXAMPLES\IMPORTERS\IMPORTSTLDEMO\IMPORTSTLSETUP.CPP
/c /I"E:\PROGRAMMING\BULLET PHYSICS\BULLET3-2.83.7\EXAMPLES\EXAMPLEBROWSER\." /I"E:\PROGRAMMING\BULLET PHYSICS\BULLET3-2.83.7\SRC" /I"E:\PROGRAMMING\BULLET PHYSICS\BULLET3-2.83.7\EXAMPLES\THIRDPARTYLIBS" /I"E:\PROGRAMMING\BULLET PHYSICS\BULLET3-2.83.7\EXAMPLES\THIRDPARTYLIBS\GLEW" /nologo /W3 /WX- /O2 /Ob2 /D WIN32 /D NDEBUG /D _WIN64 /D USE_GRAPHICAL_BENCHMARK /D _CRT_SECURE_NO_WARNINGS /D _CRT_SECURE_NO_DEPRECATE /D _SCL_SECURE_NO_WARNINGS /D GLEW_STATIC /D "CMAKE_INTDIR=\"Release\"" /D _MBCS /Gm- /EHsc /MT /GS /fp:fast /Zc:wchar_t /Zc:forScope /Zc:inline /GR /Fo"APP_EXAMPLEBROWSER.DIR\RELEASE\\" /Fd"APP_EXAMPLEBROWSER.DIR\RELEASE\VC140.PDB" /Gd /TP E:\PROGRAMMING\BULLET PHYSICS\BULLET3-2.83.7\EXAMPLES\IMPORTERS\IMPORTSTLDEMO\IMPORTSTLSETUP.CPP
^E:\PROGRAMMING\BULLET PHYSICS\BULLET3-2.83.7\EXAMPLES\IMPORTERS\IMPORTURDFDEMO\IMPORTURDFSETUP.CPP
/c /I"E:\PROGRAMMING\BULLET PHYSICS\BULLET3-2.83.7\EXAMPLES\EXAMPLEBROWSER\." /I"E:\PROGRAMMING\BULLET PHYSICS\BULLET3-2.83.7\SRC" /I"E:\PROGRAMMING\BULLET PHYSICS\BULLET3-2.83.7\EXAMPLES\THIRDPARTYLIBS" /I"E:\PROGRAMMING\BULLET PHYSICS\BULLET3-2.83.7\EXAMPLES\THIRDPARTYLIBS\GLEW" /nologo /W3 /WX- /O2 /Ob2 /D WIN32 /D NDEBUG /D _WIN64 /D USE_GRAPHICAL_BENCHMARK /D _CRT_SECURE_NO_WARNINGS /D _CRT_SECURE_NO_DEPRECATE /D _SCL_SECURE_NO_WARNINGS /D GLEW_STATIC /D "CMAKE_INTDIR=\"Release\"" /D _MBCS /Gm- /EHsc /MT /GS /fp:fast /Zc:wchar_t /Zc:forScope /Zc:inline /GR /Fo"APP_EXAMPLEBROWSER.DIR\RELEASE\\" /Fd"APP_EXAMPLEBROWSER.DIR\RELEASE\VC140.PDB" /Gd /TP E:\PROGRAMMING\BULLET PHYSICS\BULLET3-2.83.7\EXAMPLES\IMPORTERS\IMPORTURDFDEMO\IMPORTURDFSETUP.CPP
^E:\PROGRAMMING\BULLET PHYSICS\BULLET3-2.83.7\EXAMPLES\IMPORTERS\IMPORTURDFDEMO\URDF2BULLET.CPP
/c /I"E:\PROGRAMMING\BULLET PHYSICS\BULLET3-2.83.7\EXAMPLES\EXAMPLEBROWSER\." /I"E:\PROGRAMMING\BULLET PHYSICS\BULLET3-2.83.7\SRC" /I"E:\PROGRAMMING\BULLET PHYSICS\BULLET3-2.83.7\EXAMPLES\THIRDPARTYLIBS" /I"E:\PROGRAMMING\BULLET PHYSICS\BULLET3-2.83.7\EXAMPLES\THIRDPARTYLIBS\GLEW" /nologo /W3 /WX- /O2 /Ob2 /D WIN32 /D NDEBUG /D _WIN64 /D USE_GRAPHICAL_BENCHMARK /D _CRT_SECURE_NO_WARNINGS /D _CRT_SECURE_NO_DEPRECATE /D _SCL_SECURE_NO_WARNINGS /D GLEW_STATIC /D "CMAKE_INTDIR=\"Release\"" /D _MBCS /Gm- /EHsc /MT /GS /fp:fast /Zc:wchar_t /Zc:forScope /Zc:inline /GR /Fo"APP_EXAMPLEBROWSER.DIR\RELEASE\\" /Fd"APP_EXAMPLEBROWSER.DIR\RELEASE\VC140.PDB" /Gd /TP E:\PROGRAMMING\BULLET PHYSICS\BULLET3-2.83.7\EXAMPLES\IMPORTERS\IMPORTURDFDEMO\URDF2BULLET.CPP
^E:\PROGRAMMING\BULLET PHYSICS\BULLET3-2.83.7\EXAMPLES\IMPORTERS\IMPORTURDFDEMO\MYMULTIBODYCREATOR.CPP
/c /I"E:\PROGRAMMING\BULLET PHYSICS\BULLET3-2.83.7\EXAMPLES\EXAMPLEBROWSER\." /I"E:\PROGRAMMING\BULLET PHYSICS\BULLET3-2.83.7\SRC" /I"E:\PROGRAMMING\BULLET PHYSICS\BULLET3-2.83.7\EXAMPLES\THIRDPARTYLIBS" /I"E:\PROGRAMMING\BULLET PHYSICS\BULLET3-2.83.7\EXAMPLES\THIRDPARTYLIBS\GLEW" /nologo /W3 /WX- /O2 /Ob2 /D WIN32 /D NDEBUG /D _WIN64 /D USE_GRAPHICAL_BENCHMARK /D _CRT_SECURE_NO_WARNINGS /D _CRT_SECURE_NO_DEPRECATE /D _SCL_SECURE_NO_WARNINGS /D GLEW_STATIC /D "CMAKE_INTDIR=\"Release\"" /D _MBCS /Gm- /EHsc /MT /GS /fp:fast /Zc:wchar_t /Zc:forScope /Zc:inline /GR /Fo"APP_EXAMPLEBROWSER.DIR\RELEASE\\" /Fd"APP_EXAMPLEBROWSER.DIR\RELEASE\VC140.PDB" /Gd /TP E:\PROGRAMMING\BULLET PHYSICS\BULLET3-2.83.7\EXAMPLES\IMPORTERS\IMPORTURDFDEMO\MYMULTIBODYCREATOR.CPP
^E:\PROGRAMMING\BULLET PHYSICS\BULLET3-2.83.7\EXAMPLES\IMPORTERS\IMPORTURDFDEMO\URDFPARSER.CPP
/c /I"E:\PROGRAMMING\BULLET PHYSICS\BULLET3-2.83.7\EXAMPLES\EXAMPLEBROWSER\." /I"E:\PROGRAMMING\BULLET PHYSICS\BULLET3-2.83.7\SRC" /I"E:\PROGRAMMING\BULLET PHYSICS\BULLET3-2.83.7\EXAMPLES\THIRDPARTYLIBS" /I"E:\PROGRAMMING\BULLET PHYSICS\BULLET3-2.83.7\EXAMPLES\THIRDPARTYLIBS\GLEW" /nologo /W3 /WX- /O2 /Ob2 /D WIN32 /D NDEBUG /D _WIN64 /D USE_GRAPHICAL_BENCHMARK /D _CRT_SECURE_NO_WARNINGS /D _CRT_SECURE_NO_DEPRECATE /D _SCL_SECURE_NO_WARNINGS /D GLEW_STATIC /D "CMAKE_INTDIR=\"Release\"" /D _MBCS /Gm- /EHsc /MT /GS /fp:fast /Zc:wchar_t /Zc:forScope /Zc:inline /GR /Fo"APP_EXAMPLEBROWSER.DIR\RELEASE\\" /Fd"APP_EXAMPLEBROWSER.DIR\RELEASE\VC140.PDB" /Gd /TP E:\PROGRAMMING\BULLET PHYSICS\BULLET3-2.83.7\EXAMPLES\IMPORTERS\IMPORTURDFDEMO\URDFPARSER.CPP
^E:\PROGRAMMING\BULLET PHYSICS\BULLET3-2.83.7\EXAMPLES\IMPORTERS\IMPORTURDFDEMO\URDFSTRINGSPLIT.CPP
/c /I"E:\PROGRAMMING\BULLET PHYSICS\BULLET3-2.83.7\EXAMPLES\EXAMPLEBROWSER\." /I"E:\PROGRAMMING\BULLET PHYSICS\BULLET3-2.83.7\SRC" /I"E:\PROGRAMMING\BULLET PHYSICS\BULLET3-2.83.7\EXAMPLES\THIRDPARTYLIBS" /I"E:\PROGRAMMING\BULLET PHYSICS\BULLET3-2.83.7\EXAMPLES\THIRDPARTYLIBS\GLEW" /nologo /W3 /WX- /O2 /Ob2 /D WIN32 /D NDEBUG /D _WIN64 /D USE_GRAPHICAL_BENCHMARK /D _CRT_SECURE_NO_WARNINGS /D _CRT_SECURE_NO_DEPRECATE /D _SCL_SECURE_NO_WARNINGS /D GLEW_STATIC /D "CMAKE_INTDIR=\"Release\"" /D _MBCS /Gm- /EHsc /MT /GS /fp:fast /Zc:wchar_t /Zc:forScope /Zc:inline /GR /Fo"APP_EXAMPLEBROWSER.DIR\RELEASE\\" /Fd"APP_EXAMPLEBROWSER.DIR\RELEASE\VC140.PDB" /Gd /TP E:\PROGRAMMING\BULLET PHYSICS\BULLET3-2.83.7\EXAMPLES\IMPORTERS\IMPORTURDFDEMO\URDFSTRINGSPLIT.CPP
^E:\PROGRAMMING\BULLET PHYSICS\BULLET3-2.83.7\EXAMPLES\IMPORTERS\IMPORTURDFDEMO\BULLETURDFIMPORTER.CPP
/c /I"E:\PROGRAMMING\BULLET PHYSICS\BULLET3-2.83.7\EXAMPLES\EXAMPLEBROWSER\." /I"E:\PROGRAMMING\BULLET PHYSICS\BULLET3-2.83.7\SRC" /I"E:\PROGRAMMING\BULLET PHYSICS\BULLET3-2.83.7\EXAMPLES\THIRDPARTYLIBS" /I"E:\PROGRAMMING\BULLET PHYSICS\BULLET3-2.83.7\EXAMPLES\THIRDPARTYLIBS\GLEW" /nologo /W3 /WX- /O2 /Ob2 /D WIN32 /D NDEBUG /D _WIN64 /D USE_GRAPHICAL_BENCHMARK /D _CRT_SECURE_NO_WARNINGS /D _CRT_SECURE_NO_DEPRECATE /D _SCL_SECURE_NO_WARNINGS /D GLEW_STATIC /D "CMAKE_INTDIR=\"Release\"" /D _MBCS /Gm- /EHsc /MT /GS /fp:fast /Zc:wchar_t /Zc:forScope /Zc:inline /GR /Fo"APP_EXAMPLEBROWSER.DIR\RELEASE\\" /Fd"APP_EXAMPLEBROWSER.DIR\RELEASE\VC140.PDB" /Gd /TP E:\PROGRAMMING\BULLET PHYSICS\BULLET3-2.83.7\EXAMPLES\IMPORTERS\IMPORTURDFDEMO\BULLETURDFIMPORTER.CPP
^E:\PROGRAMMING\BULLET PHYSICS\BULLET3-2.83.7\EXAMPLES\VORONOIFRACTURE\VORONOIFRACTUREDEMO.CPP
/c /I"E:\PROGRAMMING\BULLET PHYSICS\BULLET3-2.83.7\EXAMPLES\EXAMPLEBROWSER\." /I"E:\PROGRAMMING\BULLET PHYSICS\BULLET3-2.83.7\SRC" /I"E:\PROGRAMMING\BULLET PHYSICS\BULLET3-2.83.7\EXAMPLES\THIRDPARTYLIBS" /I"E:\PROGRAMMING\BULLET PHYSICS\BULLET3-2.83.7\EXAMPLES\THIRDPARTYLIBS\GLEW" /nologo /W3 /WX- /O2 /Ob2 /D WIN32 /D NDEBUG /D _WIN64 /D USE_GRAPHICAL_BENCHMARK /D _CRT_SECURE_NO_WARNINGS /D _CRT_SECURE_NO_DEPRECATE /D _SCL_SECURE_NO_WARNINGS /D GLEW_STATIC /D "CMAKE_INTDIR=\"Release\"" /D _MBCS /Gm- /EHsc /MT /GS /fp:fast /Zc:wchar_t /Zc:forScope /Zc:inline /GR /Fo"APP_EXAMPLEBROWSER.DIR\RELEASE\\" /Fd"APP_EXAMPLEBROWSER.DIR\RELEASE\VC140.PDB" /Gd /TP E:\PROGRAMMING\BULLET PHYSICS\BULLET3-2.83.7\EXAMPLES\VORONOIFRACTURE\VORONOIFRACTUREDEMO.CPP
^E:\PROGRAMMING\BULLET PHYSICS\BULLET3-2.83.7\EXAMPLES\VORONOIFRACTURE\BTCONVEXCONVEXMPRALGORITHM.CPP
/c /I"E:\PROGRAMMING\BULLET PHYSICS\BULLET3-2.83.7\EXAMPLES\EXAMPLEBROWSER\." /I"E:\PROGRAMMING\BULLET PHYSICS\BULLET3-2.83.7\SRC" /I"E:\PROGRAMMING\BULLET PHYSICS\BULLET3-2.83.7\EXAMPLES\THIRDPARTYLIBS" /I"E:\PROGRAMMING\BULLET PHYSICS\BULLET3-2.83.7\EXAMPLES\THIRDPARTYLIBS\GLEW" /nologo /W3 /WX- /O2 /Ob2 /D WIN32 /D NDEBUG /D _WIN64 /D USE_GRAPHICAL_BENCHMARK /D _CRT_SECURE_NO_WARNINGS /D _CRT_SECURE_NO_DEPRECATE /D _SCL_SECURE_NO_WARNINGS /D GLEW_STATIC /D "CMAKE_INTDIR=\"Release\"" /D _MBCS /Gm- /EHsc /MT /GS /fp:fast /Zc:wchar_t /Zc:forScope /Zc:inline /GR /Fo"APP_EXAMPLEBROWSER.DIR\RELEASE\\" /Fd"APP_EXAMPLEBROWSER.DIR\RELEASE\VC140.PDB" /Gd /TP E:\PROGRAMMING\BULLET PHYSICS\BULLET3-2.83.7\EXAMPLES\VORONOIFRACTURE\BTCONVEXCONVEXMPRALGORITHM.CPP
^E:\PROGRAMMING\BULLET PHYSICS\BULLET3-2.83.7\EXAMPLES\VEHICLES\HINGE2VEHICLE.CPP
/c /I"E:\PROGRAMMING\BULLET PHYSICS\BULLET3-2.83.7\EXAMPLES\EXAMPLEBROWSER\." /I"E:\PROGRAMMING\BULLET PHYSICS\BULLET3-2.83.7\SRC" /I"E:\PROGRAMMING\BULLET PHYSICS\BULLET3-2.83.7\EXAMPLES\THIRDPARTYLIBS" /I"E:\PROGRAMMING\BULLET PHYSICS\BULLET3-2.83.7\EXAMPLES\THIRDPARTYLIBS\GLEW" /nologo /W3 /WX- /O2 /Ob2 /D WIN32 /D NDEBUG /D _WIN64 /D USE_GRAPHICAL_BENCHMARK /D _CRT_SECURE_NO_WARNINGS /D _CRT_SECURE_NO_DEPRECATE /D _SCL_SECURE_NO_WARNINGS /D GLEW_STATIC /D "CMAKE_INTDIR=\"Release\"" /D _MBCS /Gm- /EHsc /MT /GS /fp:fast /Zc:wchar_t /Zc:forScope /Zc:inline /GR /Fo"APP_EXAMPLEBROWSER.DIR\RELEASE\\" /Fd"APP_EXAMPLEBROWSER.DIR\RELEASE\VC140.PDB" /Gd /TP E:\PROGRAMMING\BULLET PHYSICS\BULLET3-2.83.7\EXAMPLES\VEHICLES\HINGE2VEHICLE.CPP
^E:\PROGRAMMING\BULLET PHYSICS\BULLET3-2.83.7\EXAMPLES\MULTIBODY\PENDULUM.CPP
/c /I"E:\PROGRAMMING\BULLET PHYSICS\BULLET3-2.83.7\EXAMPLES\EXAMPLEBROWSER\." /I"E:\PROGRAMMING\BULLET PHYSICS\BULLET3-2.83.7\SRC" /I"E:\PROGRAMMING\BULLET PHYSICS\BULLET3-2.83.7\EXAMPLES\THIRDPARTYLIBS" /I"E:\PROGRAMMING\BULLET PHYSICS\BULLET3-2.83.7\EXAMPLES\THIRDPARTYLIBS\GLEW" /nologo /W3 /WX- /O2 /Ob2 /D WIN32 /D NDEBUG /D _WIN64 /D USE_GRAPHICAL_BENCHMARK /D _CRT_SECURE_NO_WARNINGS /D _CRT_SECURE_NO_DEPRECATE /D _SCL_SECURE_NO_WARNINGS /D GLEW_STATIC /D "CMAKE_INTDIR=\"Release\"" /D _MBCS /Gm- /EHsc /MT /GS /fp:fast /Zc:wchar_t /Zc:forScope /Zc:inline /GR /Fo"APP_EXAMPLEBROWSER.DIR\RELEASE\\" /Fd"APP_EXAMPLEBROWSER.DIR\RELEASE\VC140.PDB" /Gd /TP E:\PROGRAMMING\BULLET PHYSICS\BULLET3-2.83.7\EXAMPLES\MULTIBODY\PENDULUM.CPP
^E:\PROGRAMMING\BULLET PHYSICS\BULLET3-2.83.7\EXAMPLES\MULTIBODY\TESTJOINTTORQUESETUP.CPP
/c /I"E:\PROGRAMMING\BULLET PHYSICS\BULLET3-2.83.7\EXAMPLES\EXAMPLEBROWSER\." /I"E:\PROGRAMMING\BULLET PHYSICS\BULLET3-2.83.7\SRC" /I"E:\PROGRAMMING\BULLET PHYSICS\BULLET3-2.83.7\EXAMPLES\THIRDPARTYLIBS" /I"E:\PROGRAMMING\BULLET PHYSICS\BULLET3-2.83.7\EXAMPLES\THIRDPARTYLIBS\GLEW" /nologo /W3 /WX- /O2 /Ob2 /D WIN32 /D NDEBUG /D _WIN64 /D USE_GRAPHICAL_BENCHMARK /D _CRT_SECURE_NO_WARNINGS /D _CRT_SECURE_NO_DEPRECATE /D _SCL_SECURE_NO_WARNINGS /D GLEW_STATIC /D "CMAKE_INTDIR=\"Release\"" /D _MBCS /Gm- /EHsc /MT /GS /fp:fast /Zc:wchar_t /Zc:forScope /Zc:inline /GR /Fo"APP_EXAMPLEBROWSER.DIR\RELEASE\\" /Fd"APP_EXAMPLEBROWSER.DIR\RELEASE\VC140.PDB" /Gd /TP E:\PROGRAMMING\BULLET PHYSICS\BULLET3-2.83.7\EXAMPLES\MULTIBODY\TESTJOINTTORQUESETUP.CPP
^E:\PROGRAMMING\BULLET PHYSICS\BULLET3-2.83.7\EXAMPLES\MULTIBODY\INVERTEDPENDULUMPDCONTROL.CPP
/c /I"E:\PROGRAMMING\BULLET PHYSICS\BULLET3-2.83.7\EXAMPLES\EXAMPLEBROWSER\." /I"E:\PROGRAMMING\BULLET PHYSICS\BULLET3-2.83.7\SRC" /I"E:\PROGRAMMING\BULLET PHYSICS\BULLET3-2.83.7\EXAMPLES\THIRDPARTYLIBS" /I"E:\PROGRAMMING\BULLET PHYSICS\BULLET3-2.83.7\EXAMPLES\THIRDPARTYLIBS\GLEW" /nologo /W3 /WX- /O2 /Ob2 /D WIN32 /D NDEBUG /D _WIN64 /D USE_GRAPHICAL_BENCHMARK /D _CRT_SECURE_NO_WARNINGS /D _CRT_SECURE_NO_DEPRECATE /D _SCL_SECURE_NO_WARNINGS /D GLEW_STATIC /D "CMAKE_INTDIR=\"Release\"" /D _MBCS /Gm- /EHsc /MT /GS /fp:fast /Zc:wchar_t /Zc:forScope /Zc:inline /GR /Fo"APP_EXAMPLEBROWSER.DIR\RELEASE\\" /Fd"APP_EXAMPLEBROWSER.DIR\RELEASE\VC140.PDB" /Gd /TP E:\PROGRAMMING\BULLET PHYSICS\BULLET3-2.83.7\EXAMPLES\MULTIBODY\INVERTEDPENDULUMPDCONTROL.CPP
^E:\PROGRAMMING\BULLET PHYSICS\BULLET3-2.83.7\EXAMPLES\MULTIBODY\MULTIBODYCONSTRAINTFEEDBACK.CPP
/c /I"E:\PROGRAMMING\BULLET PHYSICS\BULLET3-2.83.7\EXAMPLES\EXAMPLEBROWSER\." /I"E:\PROGRAMMING\BULLET PHYSICS\BULLET3-2.83.7\SRC" /I"E:\PROGRAMMING\BULLET PHYSICS\BULLET3-2.83.7\EXAMPLES\THIRDPARTYLIBS" /I"E:\PROGRAMMING\BULLET PHYSICS\BULLET3-2.83.7\EXAMPLES\THIRDPARTYLIBS\GLEW" /nologo /W3 /WX- /O2 /Ob2 /D WIN32 /D NDEBUG /D _WIN64 /D USE_GRAPHICAL_BENCHMARK /D _CRT_SECURE_NO_WARNINGS /D _CRT_SECURE_NO_DEPRECATE /D _SCL_SECURE_NO_WARNINGS /D GLEW_STATIC /D "CMAKE_INTDIR=\"Release\"" /D _MBCS /Gm- /EHsc /MT /GS /fp:fast /Zc:wchar_t /Zc:forScope /Zc:inline /GR /Fo"APP_EXAMPLEBROWSER.DIR\RELEASE\\" /Fd"APP_EXAMPLEBROWSER.DIR\RELEASE\VC140.PDB" /Gd /TP E:\PROGRAMMING\BULLET PHYSICS\BULLET3-2.83.7\EXAMPLES\MULTIBODY\MULTIBODYCONSTRAINTFEEDBACK.CPP
^E:\PROGRAMMING\BULLET PHYSICS\BULLET3-2.83.7\EXAMPLES\MULTIBODY\MULTIDOFDEMO.CPP
/c /I"E:\PROGRAMMING\BULLET PHYSICS\BULLET3-2.83.7\EXAMPLES\EXAMPLEBROWSER\." /I"E:\PROGRAMMING\BULLET PHYSICS\BULLET3-2.83.7\SRC" /I"E:\PROGRAMMING\BULLET PHYSICS\BULLET3-2.83.7\EXAMPLES\THIRDPARTYLIBS" /I"E:\PROGRAMMING\BULLET PHYSICS\BULLET3-2.83.7\EXAMPLES\THIRDPARTYLIBS\GLEW" /nologo /W3 /WX- /O2 /Ob2 /D WIN32 /D NDEBUG /D _WIN64 /D USE_GRAPHICAL_BENCHMARK /D _CRT_SECURE_NO_WARNINGS /D _CRT_SECURE_NO_DEPRECATE /D _SCL_SECURE_NO_WARNINGS /D GLEW_STATIC /D "CMAKE_INTDIR=\"Release\"" /D _MBCS /Gm- /EHsc /MT /GS /fp:fast /Zc:wchar_t /Zc:forScope /Zc:inline /GR /Fo"APP_EXAMPLEBROWSER.DIR\RELEASE\\" /Fd"APP_EXAMPLEBROWSER.DIR\RELEASE\VC140.PDB" /Gd /TP E:\PROGRAMMING\BULLET PHYSICS\BULLET3-2.83.7\EXAMPLES\MULTIBODY\MULTIDOFDEMO.CPP
^E:\PROGRAMMING\BULLET PHYSICS\BULLET3-2.83.7\EXAMPLES\CONSTRAINTS\TESTHINGETORQUE.CPP
/c /I"E:\PROGRAMMING\BULLET PHYSICS\BULLET3-2.83.7\EXAMPLES\EXAMPLEBROWSER\." /I"E:\PROGRAMMING\BULLET PHYSICS\BULLET3-2.83.7\SRC" /I"E:\PROGRAMMING\BULLET PHYSICS\BULLET3-2.83.7\EXAMPLES\THIRDPARTYLIBS" /I"E:\PROGRAMMING\BULLET PHYSICS\BULLET3-2.83.7\EXAMPLES\THIRDPARTYLIBS\GLEW" /nologo /W3 /WX- /O2 /Ob2 /D WIN32 /D NDEBUG /D _WIN64 /D USE_GRAPHICAL_BENCHMARK /D _CRT_SECURE_NO_WARNINGS /D _CRT_SECURE_NO_DEPRECATE /D _SCL_SECURE_NO_WARNINGS /D GLEW_STATIC /D "CMAKE_INTDIR=\"Release\"" /D _MBCS /Gm- /EHsc /MT /GS /fp:fast /Zc:wchar_t /Zc:forScope /Zc:inline /GR /Fo"APP_EXAMPLEBROWSER.DIR\RELEASE\\" /Fd"APP_EXAMPLEBROWSER.DIR\RELEASE\VC140.PDB" /Gd /TP E:\PROGRAMMING\BULLET PHYSICS\BULLET3-2.83.7\EXAMPLES\CONSTRAINTS\TESTHINGETORQUE.CPP
^E:\PROGRAMMING\BULLET PHYSICS\BULLET3-2.83.7\EXAMPLES\CONSTRAINTS\CONSTRAINTDEMO.CPP
/c /I"E:\PROGRAMMING\BULLET PHYSICS\BULLET3-2.83.7\EXAMPLES\EXAMPLEBROWSER\." /I"E:\PROGRAMMING\BULLET PHYSICS\BULLET3-2.83.7\SRC" /I"E:\PROGRAMMING\BULLET PHYSICS\BULLET3-2.83.7\EXAMPLES\THIRDPARTYLIBS" /I"E:\PROGRAMMING\BULLET PHYSICS\BULLET3-2.83.7\EXAMPLES\THIRDPARTYLIBS\GLEW" /nologo /W3 /WX- /O2 /Ob2 /D WIN32 /D NDEBUG /D _WIN64 /D USE_GRAPHICAL_BENCHMARK /D _CRT_SECURE_NO_WARNINGS /D _CRT_SECURE_NO_DEPRECATE /D _SCL_SECURE_NO_WARNINGS /D GLEW_STATIC /D "CMAKE_INTDIR=\"Release\"" /D _MBCS /Gm- /EHsc /MT /GS /fp:fast /Zc:wchar_t /Zc:forScope /Zc:inline /GR /Fo"APP_EXAMPLEBROWSER.DIR\RELEASE\\" /Fd"APP_EXAMPLEBROWSER.DIR\RELEASE\VC140.PDB" /Gd /TP E:\PROGRAMMING\BULLET PHYSICS\BULLET3-2.83.7\EXAMPLES\CONSTRAINTS\CONSTRAINTDEMO.CPP
^E:\PROGRAMMING\BULLET PHYSICS\BULLET3-2.83.7\EXAMPLES\CONSTRAINTS\DOF6SPRING2SETUP.CPP
/c /I"E:\PROGRAMMING\BULLET PHYSICS\BULLET3-2.83.7\EXAMPLES\EXAMPLEBROWSER\." /I"E:\PROGRAMMING\BULLET PHYSICS\BULLET3-2.83.7\SRC" /I"E:\PROGRAMMING\BULLET PHYSICS\BULLET3-2.83.7\EXAMPLES\THIRDPARTYLIBS" /I"E:\PROGRAMMING\BULLET PHYSICS\BULLET3-2.83.7\EXAMPLES\THIRDPARTYLIBS\GLEW" /nologo /W3 /WX- /O2 /Ob2 /D WIN32 /D NDEBUG /D _WIN64 /D USE_GRAPHICAL_BENCHMARK /D _CRT_SECURE_NO_WARNINGS /D _CRT_SECURE_NO_DEPRECATE /D _SCL_SECURE_NO_WARNINGS /D GLEW_STATIC /D "CMAKE_INTDIR=\"Release\"" /D _MBCS /Gm- /EHsc /MT /GS /fp:fast /Zc:wchar_t /Zc:forScope /Zc:inline /GR /Fo"APP_EXAMPLEBROWSER.DIR\RELEASE\\" /Fd"APP_EXAMPLEBROWSER.DIR\RELEASE\VC140.PDB" /Gd /TP E:\PROGRAMMING\BULLET PHYSICS\BULLET3-2.83.7\EXAMPLES\CONSTRAINTS\DOF6SPRING2SETUP.CPP
^E:\PROGRAMMING\BULLET PHYSICS\BULLET3-2.83.7\EXAMPLES\CONSTRAINTS\CONSTRAINTPHYSICSSETUP.CPP
/c /I"E:\PROGRAMMING\BULLET PHYSICS\BULLET3-2.83.7\EXAMPLES\EXAMPLEBROWSER\." /I"E:\PROGRAMMING\BULLET PHYSICS\BULLET3-2.83.7\SRC" /I"E:\PROGRAMMING\BULLET PHYSICS\BULLET3-2.83.7\EXAMPLES\THIRDPARTYLIBS" /I"E:\PROGRAMMING\BULLET PHYSICS\BULLET3-2.83.7\EXAMPLES\THIRDPARTYLIBS\GLEW" /nologo /W3 /WX- /O2 /Ob2 /D WIN32 /D NDEBUG /D _WIN64 /D USE_GRAPHICAL_BENCHMARK /D _CRT_SECURE_NO_WARNINGS /D _CRT_SECURE_NO_DEPRECATE /D _SCL_SECURE_NO_WARNINGS /D GLEW_STATIC /D "CMAKE_INTDIR=\"Release\"" /D _MBCS /Gm- /EHsc /MT /GS /fp:fast /Zc:wchar_t /Zc:forScope /Zc:inline /GR /Fo"APP_EXAMPLEBROWSER.DIR\RELEASE\\" /Fd"APP_EXAMPLEBROWSER.DIR\RELEASE\VC140.PDB" /Gd /TP E:\PROGRAMMING\BULLET PHYSICS\BULLET3-2.83.7\EXAMPLES\CONSTRAINTS\CONSTRAINTPHYSICSSETUP.CPP
^E:\PROGRAMMING\BULLET PHYSICS\BULLET3-2.83.7\EXAMPLES\THIRDPARTYLIBS\STB_IMAGE\STB_IMAGE.CPP
/c /I"E:\PROGRAMMING\BULLET PHYSICS\BULLET3-2.83.7\EXAMPLES\EXAMPLEBROWSER\." /I"E:\PROGRAMMING\BULLET PHYSICS\BULLET3-2.83.7\SRC" /I"E:\PROGRAMMING\BULLET PHYSICS\BULLET3-2.83.7\EXAMPLES\THIRDPARTYLIBS" /I"E:\PROGRAMMING\BULLET PHYSICS\BULLET3-2.83.7\EXAMPLES\THIRDPARTYLIBS\GLEW" /nologo /W3 /WX- /O2 /Ob2 /D WIN32 /D NDEBUG /D _WIN64 /D USE_GRAPHICAL_BENCHMARK /D _CRT_SECURE_NO_WARNINGS /D _CRT_SECURE_NO_DEPRECATE /D _SCL_SECURE_NO_WARNINGS /D GLEW_STATIC /D "CMAKE_INTDIR=\"Release\"" /D _MBCS /Gm- /EHsc /MT /GS /fp:fast /Zc:wchar_t /Zc:forScope /Zc:inline /GR /Fo"APP_EXAMPLEBROWSER.DIR\RELEASE\\" /Fd"APP_EXAMPLEBROWSER.DIR\RELEASE\VC140.PDB" /Gd /TP E:\PROGRAMMING\BULLET PHYSICS\BULLET3-2.83.7\EXAMPLES\THIRDPARTYLIBS\STB_IMAGE\STB_IMAGE.CPP
^E:\PROGRAMMING\BULLET PHYSICS\BULLET3-2.83.7\EXAMPLES\THIRDPARTYLIBS\WAVEFRONT\TINY_OBJ_LOADER.CPP
/c /I"E:\PROGRAMMING\BULLET PHYSICS\BULLET3-2.83.7\EXAMPLES\EXAMPLEBROWSER\." /I"E:\PROGRAMMING\BULLET PHYSICS\BULLET3-2.83.7\SRC" /I"E:\PROGRAMMING\BULLET PHYSICS\BULLET3-2.83.7\EXAMPLES\THIRDPARTYLIBS" /I"E:\PROGRAMMING\BULLET PHYSICS\BULLET3-2.83.7\EXAMPLES\THIRDPARTYLIBS\GLEW" /nologo /W3 /WX- /O2 /Ob2 /D WIN32 /D NDEBUG /D _WIN64 /D USE_GRAPHICAL_BENCHMARK /D _CRT_SECURE_NO_WARNINGS /D _CRT_SECURE_NO_DEPRECATE /D _SCL_SECURE_NO_WARNINGS /D GLEW_STATIC /D "CMAKE_INTDIR=\"Release\"" /D _MBCS /Gm- /EHsc /MT /GS /fp:fast /Zc:wchar_t /Zc:forScope /Zc:inline /GR /Fo"APP_EXAMPLEBROWSER.DIR\RELEASE\\" /Fd"APP_EXAMPLEBROWSER.DIR\RELEASE\VC140.PDB" /Gd /TP E:\PROGRAMMING\BULLET PHYSICS\BULLET3-2.83.7\EXAMPLES\THIRDPARTYLIBS\WAVEFRONT\TINY_OBJ_LOADER.CPP
^E:\PROGRAMMING\BULLET PHYSICS\BULLET3-2.83.7\EXAMPLES\THIRDPARTYLIBS\TINYXML\TINYSTR.CPP
/c /I"E:\PROGRAMMING\BULLET PHYSICS\BULLET3-2.83.7\EXAMPLES\EXAMPLEBROWSER\." /I"E:\PROGRAMMING\BULLET PHYSICS\BULLET3-2.83.7\SRC" /I"E:\PROGRAMMING\BULLET PHYSICS\BULLET3-2.83.7\EXAMPLES\THIRDPARTYLIBS" /I"E:\PROGRAMMING\BULLET PHYSICS\BULLET3-2.83.7\EXAMPLES\THIRDPARTYLIBS\GLEW" /nologo /W3 /WX- /O2 /Ob2 /D WIN32 /D NDEBUG /D _WIN64 /D USE_GRAPHICAL_BENCHMARK /D _CRT_SECURE_NO_WARNINGS /D _CRT_SECURE_NO_DEPRECATE /D _SCL_SECURE_NO_WARNINGS /D GLEW_STATIC /D "CMAKE_INTDIR=\"Release\"" /D _MBCS /Gm- /EHsc /MT /GS /fp:fast /Zc:wchar_t /Zc:forScope /Zc:inline /GR /Fo"APP_EXAMPLEBROWSER.DIR\RELEASE\\" /Fd"APP_EXAMPLEBROWSER.DIR\RELEASE\VC140.PDB" /Gd /TP E:\PROGRAMMING\BULLET PHYSICS\BULLET3-2.83.7\EXAMPLES\THIRDPARTYLIBS\TINYXML\TINYSTR.CPP
^E:\PROGRAMMING\BULLET PHYSICS\BULLET3-2.83.7\EXAMPLES\THIRDPARTYLIBS\TINYXML\TINYXML.CPP
/c /I"E:\PROGRAMMING\BULLET PHYSICS\BULLET3-2.83.7\EXAMPLES\EXAMPLEBROWSER\." /I"E:\PROGRAMMING\BULLET PHYSICS\BULLET3-2.83.7\SRC" /I"E:\PROGRAMMING\BULLET PHYSICS\BULLET3-2.83.7\EXAMPLES\THIRDPARTYLIBS" /I"E:\PROGRAMMING\BULLET PHYSICS\BULLET3-2.83.7\EXAMPLES\THIRDPARTYLIBS\GLEW" /nologo /W3 /WX- /O2 /Ob2 /D WIN32 /D NDEBUG /D _WIN64 /D USE_GRAPHICAL_BENCHMARK /D _CRT_SECURE_NO_WARNINGS /D _CRT_SECURE_NO_DEPRECATE /D _SCL_SECURE_NO_WARNINGS /D GLEW_STATIC /D "CMAKE_INTDIR=\"Release\"" /D _MBCS /Gm- /EHsc /MT /GS /fp:fast /Zc:wchar_t /Zc:forScope /Zc:inline /GR /Fo"APP_EXAMPLEBROWSER.DIR\RELEASE\\" /Fd"APP_EXAMPLEBROWSER.DIR\RELEASE\VC140.PDB" /Gd /TP E:\PROGRAMMING\BULLET PHYSICS\BULLET3-2.83.7\EXAMPLES\THIRDPARTYLIBS\TINYXML\TINYXML.CPP
^E:\PROGRAMMING\BULLET PHYSICS\BULLET3-2.83.7\EXAMPLES\THIRDPARTYLIBS\TINYXML\TINYXMLERROR.CPP
/c /I"E:\PROGRAMMING\BULLET PHYSICS\BULLET3-2.83.7\EXAMPLES\EXAMPLEBROWSER\." /I"E:\PROGRAMMING\BULLET PHYSICS\BULLET3-2.83.7\SRC" /I"E:\PROGRAMMING\BULLET PHYSICS\BULLET3-2.83.7\EXAMPLES\THIRDPARTYLIBS" /I"E:\PROGRAMMING\BULLET PHYSICS\BULLET3-2.83.7\EXAMPLES\THIRDPARTYLIBS\GLEW" /nologo /W3 /WX- /O2 /Ob2 /D WIN32 /D NDEBUG /D _WIN64 /D USE_GRAPHICAL_BENCHMARK /D _CRT_SECURE_NO_WARNINGS /D _CRT_SECURE_NO_DEPRECATE /D _SCL_SECURE_NO_WARNINGS /D GLEW_STATIC /D "CMAKE_INTDIR=\"Release\"" /D _MBCS /Gm- /EHsc /MT /GS /fp:fast /Zc:wchar_t /Zc:forScope /Zc:inline /GR /Fo"APP_EXAMPLEBROWSER.DIR\RELEASE\\" /Fd"APP_EXAMPLEBROWSER.DIR\RELEASE\VC140.PDB" /Gd /TP E:\PROGRAMMING\BULLET PHYSICS\BULLET3-2.83.7\EXAMPLES\THIRDPARTYLIBS\TINYXML\TINYXMLERROR.CPP
^E:\PROGRAMMING\BULLET PHYSICS\BULLET3-2.83.7\EXAMPLES\THIRDPARTYLIBS\TINYXML\TINYXMLPARSER.CPP
/c /I"E:\PROGRAMMING\BULLET PHYSICS\BULLET3-2.83.7\EXAMPLES\EXAMPLEBROWSER\." /I"E:\PROGRAMMING\BULLET PHYSICS\BULLET3-2.83.7\SRC" /I"E:\PROGRAMMING\BULLET PHYSICS\BULLET3-2.83.7\EXAMPLES\THIRDPARTYLIBS" /I"E:\PROGRAMMING\BULLET PHYSICS\BULLET3-2.83.7\EXAMPLES\THIRDPARTYLIBS\GLEW" /nologo /W3 /WX- /O2 /Ob2 /D WIN32 /D NDEBUG /D _WIN64 /D USE_GRAPHICAL_BENCHMARK /D _CRT_SECURE_NO_WARNINGS /D _CRT_SECURE_NO_DEPRECATE /D _SCL_SECURE_NO_WARNINGS /D GLEW_STATIC /D "CMAKE_INTDIR=\"Release\"" /D _MBCS /Gm- /EHsc /MT /GS /fp:fast /Zc:wchar_t /Zc:forScope /Zc:inline /GR /Fo"APP_EXAMPLEBROWSER.DIR\RELEASE\\" /Fd"APP_EXAMPLEBROWSER.DIR\RELEASE\VC140.PDB" /Gd /TP E:\PROGRAMMING\BULLET PHYSICS\BULLET3-2.83.7\EXAMPLES\THIRDPARTYLIBS\TINYXML\TINYXMLPARSER.CPP
^E:\PROGRAMMING\BULLET PHYSICS\BULLET3-2.83.7\EXAMPLES\THIRDPARTYLIBS\URDF\URDFDOM\URDF_PARSER\SRC\POSE.CPP
/c /I"E:\PROGRAMMING\BULLET PHYSICS\BULLET3-2.83.7\EXAMPLES\EXAMPLEBROWSER\." /I"E:\PROGRAMMING\BULLET PHYSICS\BULLET3-2.83.7\SRC" /I"E:\PROGRAMMING\BULLET PHYSICS\BULLET3-2.83.7\EXAMPLES\THIRDPARTYLIBS" /I"E:\PROGRAMMING\BULLET PHYSICS\BULLET3-2.83.7\EXAMPLES\THIRDPARTYLIBS\GLEW" /nologo /W3 /WX- /O2 /Ob2 /D WIN32 /D NDEBUG /D _WIN64 /D USE_GRAPHICAL_BENCHMARK /D _CRT_SECURE_NO_WARNINGS /D _CRT_SECURE_NO_DEPRECATE /D _SCL_SECURE_NO_WARNINGS /D GLEW_STATIC /D "CMAKE_INTDIR=\"Release\"" /D _MBCS /Gm- /EHsc /MT /GS /fp:fast /Zc:wchar_t /Zc:forScope /Zc:inline /GR /Fo"APP_EXAMPLEBROWSER.DIR\RELEASE\\" /Fd"APP_EXAMPLEBROWSER.DIR\RELEASE\VC140.PDB" /Gd /TP E:\PROGRAMMING\BULLET PHYSICS\BULLET3-2.83.7\EXAMPLES\THIRDPARTYLIBS\URDF\URDFDOM\URDF_PARSER\SRC\POSE.CPP
^E:\PROGRAMMING\BULLET PHYSICS\BULLET3-2.83.7\EXAMPLES\THIRDPARTYLIBS\URDF\URDFDOM\URDF_PARSER\SRC\MODEL.CPP
/c /I"E:\PROGRAMMING\BULLET PHYSICS\BULLET3-2.83.7\EXAMPLES\EXAMPLEBROWSER\." /I"E:\PROGRAMMING\BULLET PHYSICS\BULLET3-2.83.7\SRC" /I"E:\PROGRAMMING\BULLET PHYSICS\BULLET3-2.83.7\EXAMPLES\THIRDPARTYLIBS" /I"E:\PROGRAMMING\BULLET PHYSICS\BULLET3-2.83.7\EXAMPLES\THIRDPARTYLIBS\GLEW" /nologo /W3 /WX- /O2 /Ob2 /D WIN32 /D NDEBUG /D _WIN64 /D USE_GRAPHICAL_BENCHMARK /D _CRT_SECURE_NO_WARNINGS /D _CRT_SECURE_NO_DEPRECATE /D _SCL_SECURE_NO_WARNINGS /D GLEW_STATIC /D "CMAKE_INTDIR=\"Release\"" /D _MBCS /Gm- /EHsc /MT /GS /fp:fast /Zc:wchar_t /Zc:forScope /Zc:inline /GR /Fo"APP_EXAMPLEBROWSER.DIR\RELEASE\\" /Fd"APP_EXAMPLEBROWSER.DIR\RELEASE\VC140.PDB" /Gd /TP E:\PROGRAMMING\BULLET PHYSICS\BULLET3-2.83.7\EXAMPLES\THIRDPARTYLIBS\URDF\URDFDOM\URDF_PARSER\SRC\MODEL.CPP
^E:\PROGRAMMING\BULLET PHYSICS\BULLET3-2.83.7\EXAMPLES\THIRDPARTYLIBS\URDF\URDFDOM\URDF_PARSER\SRC\LINK.CPP
/c /I"E:\PROGRAMMING\BULLET PHYSICS\BULLET3-2.83.7\EXAMPLES\EXAMPLEBROWSER\." /I"E:\PROGRAMMING\BULLET PHYSICS\BULLET3-2.83.7\SRC" /I"E:\PROGRAMMING\BULLET PHYSICS\BULLET3-2.83.7\EXAMPLES\THIRDPARTYLIBS" /I"E:\PROGRAMMING\BULLET PHYSICS\BULLET3-2.83.7\EXAMPLES\THIRDPARTYLIBS\GLEW" /nologo /W3 /WX- /O2 /Ob2 /D WIN32 /D NDEBUG /D _WIN64 /D USE_GRAPHICAL_BENCHMARK /D _CRT_SECURE_NO_WARNINGS /D _CRT_SECURE_NO_DEPRECATE /D _SCL_SECURE_NO_WARNINGS /D GLEW_STATIC /D "CMAKE_INTDIR=\"Release\"" /D _MBCS /Gm- /EHsc /MT /GS /fp:fast /Zc:wchar_t /Zc:forScope /Zc:inline /GR /Fo"APP_EXAMPLEBROWSER.DIR\RELEASE\\" /Fd"APP_EXAMPLEBROWSER.DIR\RELEASE\VC140.PDB" /Gd /TP E:\PROGRAMMING\BULLET PHYSICS\BULLET3-2.83.7\EXAMPLES\THIRDPARTYLIBS\URDF\URDFDOM\URDF_PARSER\SRC\LINK.CPP
^E:\PROGRAMMING\BULLET PHYSICS\BULLET3-2.83.7\EXAMPLES\THIRDPARTYLIBS\URDF\URDFDOM\URDF_PARSER\SRC\JOINT.CPP
/c /I"E:\PROGRAMMING\BULLET PHYSICS\BULLET3-2.83.7\EXAMPLES\EXAMPLEBROWSER\." /I"E:\PROGRAMMING\BULLET PHYSICS\BULLET3-2.83.7\SRC" /I"E:\PROGRAMMING\BULLET PHYSICS\BULLET3-2.83.7\EXAMPLES\THIRDPARTYLIBS" /I"E:\PROGRAMMING\BULLET PHYSICS\BULLET3-2.83.7\EXAMPLES\THIRDPARTYLIBS\GLEW" /nologo /W3 /WX- /O2 /Ob2 /D WIN32 /D NDEBUG /D _WIN64 /D USE_GRAPHICAL_BENCHMARK /D _CRT_SECURE_NO_WARNINGS /D _CRT_SECURE_NO_DEPRECATE /D _SCL_SECURE_NO_WARNINGS /D GLEW_STATIC /D "CMAKE_INTDIR=\"Release\"" /D _MBCS /Gm- /EHsc /MT /GS /fp:fast /Zc:wchar_t /Zc:forScope /Zc:inline /GR /Fo"APP_EXAMPLEBROWSER.DIR\RELEASE\\" /Fd"APP_EXAMPLEBROWSER.DIR\RELEASE\VC140.PDB" /Gd /TP E:\PROGRAMMING\BULLET PHYSICS\BULLET3-2.83.7\EXAMPLES\THIRDPARTYLIBS\URDF\URDFDOM\URDF_PARSER\SRC\JOINT.CPP
^E:\PROGRAMMING\BULLET PHYSICS\BULLET3-2.83.7\EXAMPLES\THIRDPARTYLIBS\URDF\BOOST_REPLACEMENT\PRINTF_CONSOLE.CPP
/c /I"E:\PROGRAMMING\BULLET PHYSICS\BULLET3-2.83.7\EXAMPLES\EXAMPLEBROWSER\." /I"E:\PROGRAMMING\BULLET PHYSICS\BULLET3-2.83.7\SRC" /I"E:\PROGRAMMING\BULLET PHYSICS\BULLET3-2.83.7\EXAMPLES\THIRDPARTYLIBS" /I"E:\PROGRAMMING\BULLET PHYSICS\BULLET3-2.83.7\EXAMPLES\THIRDPARTYLIBS\GLEW" /nologo /W3 /WX- /O2 /Ob2 /D WIN32 /D NDEBUG /D _WIN64 /D USE_GRAPHICAL_BENCHMARK /D _CRT_SECURE_NO_WARNINGS /D _CRT_SECURE_NO_DEPRECATE /D _SCL_SECURE_NO_WARNINGS /D GLEW_STATIC /D "CMAKE_INTDIR=\"Release\"" /D _MBCS /Gm- /EHsc /MT /GS /fp:fast /Zc:wchar_t /Zc:forScope /Zc:inline /GR /Fo"APP_EXAMPLEBROWSER.DIR\RELEASE\\" /Fd"APP_EXAMPLEBROWSER.DIR\RELEASE\VC140.PDB" /Gd /TP E:\PROGRAMMING\BULLET PHYSICS\BULLET3-2.83.7\EXAMPLES\THIRDPARTYLIBS\URDF\BOOST_REPLACEMENT\PRINTF_CONSOLE.CPP
^E:\PROGRAMMING\BULLET PHYSICS\BULLET3-2.83.7\EXAMPLES\THIRDPARTYLIBS\URDF\BOOST_REPLACEMENT\STRING_SPLIT.CPP
/c /I"E:\PROGRAMMING\BULLET PHYSICS\BULLET3-2.83.7\EXAMPLES\EXAMPLEBROWSER\." /I"E:\PROGRAMMING\BULLET PHYSICS\BULLET3-2.83.7\SRC" /I"E:\PROGRAMMING\BULLET PHYSICS\BULLET3-2.83.7\EXAMPLES\THIRDPARTYLIBS" /I"E:\PROGRAMMING\BULLET PHYSICS\BULLET3-2.83.7\EXAMPLES\THIRDPARTYLIBS\GLEW" /nologo /W3 /WX- /O2 /Ob2 /D WIN32 /D NDEBUG /D _WIN64 /D USE_GRAPHICAL_BENCHMARK /D _CRT_SECURE_NO_WARNINGS /D _CRT_SECURE_NO_DEPRECATE /D _SCL_SECURE_NO_WARNINGS /D GLEW_STATIC /D "CMAKE_INTDIR=\"Release\"" /D _MBCS /Gm- /EHsc /MT /GS /fp:fast /Zc:wchar_t /Zc:forScope /Zc:inline /GR /Fo"APP_EXAMPLEBROWSER.DIR\RELEASE\\" /Fd"APP_EXAMPLEBROWSER.DIR\RELEASE\VC140.PDB" /Gd /TP E:\PROGRAMMING\BULLET PHYSICS\BULLET3-2.83.7\EXAMPLES\THIRDPARTYLIBS\URDF\BOOST_REPLACEMENT\STRING_SPLIT.CPP
^E:\PROGRAMMING\BULLET PHYSICS\BULLET3-2.83.7\EXAMPLES\UTILS\B3CLOCK.CPP
/c /I"E:\PROGRAMMING\BULLET PHYSICS\BULLET3-2.83.7\EXAMPLES\EXAMPLEBROWSER\." /I"E:\PROGRAMMING\BULLET PHYSICS\BULLET3-2.83.7\SRC" /I"E:\PROGRAMMING\BULLET PHYSICS\BULLET3-2.83.7\EXAMPLES\THIRDPARTYLIBS" /I"E:\PROGRAMMING\BULLET PHYSICS\BULLET3-2.83.7\EXAMPLES\THIRDPARTYLIBS\GLEW" /nologo /W3 /WX- /O2 /Ob2 /D WIN32 /D NDEBUG /D _WIN64 /D USE_GRAPHICAL_BENCHMARK /D _CRT_SECURE_NO_WARNINGS /D _CRT_SECURE_NO_DEPRECATE /D _SCL_SECURE_NO_WARNINGS /D GLEW_STATIC /D "CMAKE_INTDIR=\"Release\"" /D _MBCS /Gm- /EHsc /MT /GS /fp:fast /Zc:wchar_t /Zc:forScope /Zc:inline /GR /Fo"APP_EXAMPLEBROWSER.DIR\RELEASE\\" /Fd"APP_EXAMPLEBROWSER.DIR\RELEASE\VC140.PDB" /Gd /TP E:\PROGRAMMING\BULLET PHYSICS\BULLET3-2.83.7\EXAMPLES\UTILS\B3CLOCK.CPP
^E:\PROGRAMMING\BULLET PHYSICS\BULLET3-2.83.7\EXAMPLES\UTILS\B3RESOURCEPATH.CPP
/c /I"E:\PROGRAMMING\BULLET PHYSICS\BULLET3-2.83.7\EXAMPLES\EXAMPLEBROWSER\." /I"E:\PROGRAMMING\BULLET PHYSICS\BULLET3-2.83.7\SRC" /I"E:\PROGRAMMING\BULLET PHYSICS\BULLET3-2.83.7\EXAMPLES\THIRDPARTYLIBS" /I"E:\PROGRAMMING\BULLET PHYSICS\BULLET3-2.83.7\EXAMPLES\THIRDPARTYLIBS\GLEW" /nologo /W3 /WX- /O2 /Ob2 /D WIN32 /D NDEBUG /D _WIN64 /D USE_GRAPHICAL_BENCHMARK /D _CRT_SECURE_NO_WARNINGS /D _CRT_SECURE_NO_DEPRECATE /D _SCL_SECURE_NO_WARNINGS /D GLEW_STATIC /D "CMAKE_INTDIR=\"Release\"" /D _MBCS /Gm- /EHsc /MT /GS /fp:fast /Zc:wchar_t /Zc:forScope /Zc:inline /GR /Fo"APP_EXAMPLEBROWSER.DIR\RELEASE\\" /Fd"APP_EXAMPLEBROWSER.DIR\RELEASE\VC140.PDB" /Gd /TP E:\PROGRAMMING\BULLET PHYSICS\BULLET3-2.83.7\EXAMPLES\UTILS\B3RESOURCEPATH.CPP
^E:\PROGRAMMING\BULLET PHYSICS\BULLET3-2.83.7\EXAMPLES\EXAMPLEBROWSER\GL_SHAPEDRAWER.CPP
/c /I"E:\PROGRAMMING\BULLET PHYSICS\BULLET3-2.83.7\EXAMPLES\EXAMPLEBROWSER\." /I"E:\PROGRAMMING\BULLET PHYSICS\BULLET3-2.83.7\SRC" /I"E:\PROGRAMMING\BULLET PHYSICS\BULLET3-2.83.7\EXAMPLES\THIRDPARTYLIBS" /I"E:\PROGRAMMING\BULLET PHYSICS\BULLET3-2.83.7\EXAMPLES\THIRDPARTYLIBS\GLEW" /nologo /W3 /WX- /O2 /Ob2 /D WIN32 /D NDEBUG /D _WIN64 /D USE_GRAPHICAL_BENCHMARK /D _CRT_SECURE_NO_WARNINGS /D _CRT_SECURE_NO_DEPRECATE /D _SCL_SECURE_NO_WARNINGS /D GLEW_STATIC /D "CMAKE_INTDIR=\"Release\"" /D _MBCS /Gm- /EHsc /MT /GS /fp:fast /Zc:wchar_t /Zc:forScope /Zc:inline /GR /Fo"APP_EXAMPLEBROWSER.DIR\RELEASE\\" /Fd"APP_EXAMPLEBROWSER.DIR\RELEASE\VC140.PDB" /Gd /TP E:\PROGRAMMING\BULLET PHYSICS\BULLET3-2.83.7\EXAMPLES\EXAMPLEBROWSER\GL_SHAPEDRAWER.CPP
^E:\PROGRAMMING\BULLET PHYSICS\BULLET3-2.83.7\EXAMPLES\EXAMPLEBROWSER\OPENGLEXAMPLEBROWSER.CPP
/c /I"E:\PROGRAMMING\BULLET PHYSICS\BULLET3-2.83.7\EXAMPLES\EXAMPLEBROWSER\." /I"E:\PROGRAMMING\BULLET PHYSICS\BULLET3-2.83.7\SRC" /I"E:\PROGRAMMING\BULLET PHYSICS\BULLET3-2.83.7\EXAMPLES\THIRDPARTYLIBS" /I"E:\PROGRAMMING\BULLET PHYSICS\BULLET3-2.83.7\EXAMPLES\THIRDPARTYLIBS\GLEW" /nologo /W3 /WX- /O2 /Ob2 /D WIN32 /D NDEBUG /D _WIN64 /D USE_GRAPHICAL_BENCHMARK /D _CRT_SECURE_NO_WARNINGS /D _CRT_SECURE_NO_DEPRECATE /D _SCL_SECURE_NO_WARNINGS /D GLEW_STATIC /D "CMAKE_INTDIR=\"Release\"" /D _MBCS /Gm- /EHsc /MT /GS /fp:fast /Zc:wchar_t /Zc:forScope /Zc:inline /GR /Fo"APP_EXAMPLEBROWSER.DIR\RELEASE\\" /Fd"APP_EXAMPLEBROWSER.DIR\RELEASE\VC140.PDB" /Gd /TP E:\PROGRAMMING\BULLET PHYSICS\BULLET3-2.83.7\EXAMPLES\EXAMPLEBROWSER\OPENGLEXAMPLEBROWSER.CPP
^E:\PROGRAMMING\BULLET PHYSICS\BULLET3-2.83.7\EXAMPLES\EXAMPLEBROWSER\OPENGLGUIHELPER.CPP
/c /I"E:\PROGRAMMING\BULLET PHYSICS\BULLET3-2.83.7\EXAMPLES\EXAMPLEBROWSER\." /I"E:\PROGRAMMING\BULLET PHYSICS\BULLET3-2.83.7\SRC" /I"E:\PROGRAMMING\BULLET PHYSICS\BULLET3-2.83.7\EXAMPLES\THIRDPARTYLIBS" /I"E:\PROGRAMMING\BULLET PHYSICS\BULLET3-2.83.7\EXAMPLES\THIRDPARTYLIBS\GLEW" /nologo /W3 /WX- /O2 /Ob2 /D WIN32 /D NDEBUG /D _WIN64 /D USE_GRAPHICAL_BENCHMARK /D _CRT_SECURE_NO_WARNINGS /D _CRT_SECURE_NO_DEPRECATE /D _SCL_SECURE_NO_WARNINGS /D GLEW_STATIC /D "CMAKE_INTDIR=\"Release\"" /D _MBCS /Gm- /EHsc /MT /GS /fp:fast /Zc:wchar_t /Zc:forScope /Zc:inline /GR /Fo"APP_EXAMPLEBROWSER.DIR\RELEASE\\" /Fd"APP_EXAMPLEBROWSER.DIR\RELEASE\VC140.PDB" /Gd /TP E:\PROGRAMMING\BULLET PHYSICS\BULLET3-2.83.7\EXAMPLES\EXAMPLEBROWSER\OPENGLGUIHELPER.CPP
^E:\PROGRAMMING\BULLET PHYSICS\BULLET3-2.83.7\EXAMPLES\EXAMPLEBROWSER\GWENGUISUPPORT\GRAPHINGTEXTURE.CPP
/c /I"E:\PROGRAMMING\BULLET PHYSICS\BULLET3-2.83.7\EXAMPLES\EXAMPLEBROWSER\." /I"E:\PROGRAMMING\BULLET PHYSICS\BULLET3-2.83.7\SRC" /I"E:\PROGRAMMING\BULLET PHYSICS\BULLET3-2.83.7\EXAMPLES\THIRDPARTYLIBS" /I"E:\PROGRAMMING\BULLET PHYSICS\BULLET3-2.83.7\EXAMPLES\THIRDPARTYLIBS\GLEW" /nologo /W3 /WX- /O2 /Ob2 /D WIN32 /D NDEBUG /D _WIN64 /D USE_GRAPHICAL_BENCHMARK /D _CRT_SECURE_NO_WARNINGS /D _CRT_SECURE_NO_DEPRECATE /D _SCL_SECURE_NO_WARNINGS /D GLEW_STATIC /D "CMAKE_INTDIR=\"Release\"" /D _MBCS /Gm- /EHsc /MT /GS /fp:fast /Zc:wchar_t /Zc:forScope /Zc:inline /GR /Fo"APP_EXAMPLEBROWSER.DIR\RELEASE\\" /Fd"APP_EXAMPLEBROWSER.DIR\RELEASE\VC140.PDB" /Gd /TP E:\PROGRAMMING\BULLET PHYSICS\BULLET3-2.83.7\EXAMPLES\EXAMPLEBROWSER\GWENGUISUPPORT\GRAPHINGTEXTURE.CPP
^E:\PROGRAMMING\BULLET PHYSICS\BULLET3-2.83.7\EXAMPLES\EXAMPLEBROWSER\GWENGUISUPPORT\GWENPARAMETERINTERFACE.CPP
/c /I"E:\PROGRAMMING\BULLET PHYSICS\BULLET3-2.83.7\EXAMPLES\EXAMPLEBROWSER\." /I"E:\PROGRAMMING\BULLET PHYSICS\BULLET3-2.83.7\SRC" /I"E:\PROGRAMMING\BULLET PHYSICS\BULLET3-2.83.7\EXAMPLES\THIRDPARTYLIBS" /I"E:\PROGRAMMING\BULLET PHYSICS\BULLET3-2.83.7\EXAMPLES\THIRDPARTYLIBS\GLEW" /nologo /W3 /WX- /O2 /Ob2 /D WIN32 /D NDEBUG /D _WIN64 /D USE_GRAPHICAL_BENCHMARK /D _CRT_SECURE_NO_WARNINGS /D _CRT_SECURE_NO_DEPRECATE /D _SCL_SECURE_NO_WARNINGS /D GLEW_STATIC /D "CMAKE_INTDIR=\"Release\"" /D _MBCS /Gm- /EHsc /MT /GS /fp:fast /Zc:wchar_t /Zc:forScope /Zc:inline /GR /Fo"APP_EXAMPLEBROWSER.DIR\RELEASE\\" /Fd"APP_EXAMPLEBROWSER.DIR\RELEASE\VC140.PDB" /Gd /TP E:\PROGRAMMING\BULLET PHYSICS\BULLET3-2.83.7\EXAMPLES\EXAMPLEBROWSER\GWENGUISUPPORT\GWENPARAMETERINTERFACE.CPP
^E:\PROGRAMMING\BULLET PHYSICS\BULLET3-2.83.7\EXAMPLES\EXAMPLEBROWSER\GWENGUISUPPORT\GWENPROFILEWINDOW.CPP
/c /I"E:\PROGRAMMING\BULLET PHYSICS\BULLET3-2.83.7\EXAMPLES\EXAMPLEBROWSER\." /I"E:\PROGRAMMING\BULLET PHYSICS\BULLET3-2.83.7\SRC" /I"E:\PROGRAMMING\BULLET PHYSICS\BULLET3-2.83.7\EXAMPLES\THIRDPARTYLIBS" /I"E:\PROGRAMMING\BULLET PHYSICS\BULLET3-2.83.7\EXAMPLES\THIRDPARTYLIBS\GLEW" /nologo /W3 /WX- /O2 /Ob2 /D WIN32 /D NDEBUG /D _WIN64 /D USE_GRAPHICAL_BENCHMARK /D _CRT_SECURE_NO_WARNINGS /D _CRT_SECURE_NO_DEPRECATE /D _SCL_SECURE_NO_WARNINGS /D GLEW_STATIC /D "CMAKE_INTDIR=\"Release\"" /D _MBCS /Gm- /EHsc /MT /GS /fp:fast /Zc:wchar_t /Zc:forScope /Zc:inline /GR /Fo"APP_EXAMPLEBROWSER.DIR\RELEASE\\" /Fd"APP_EXAMPLEBROWSER.DIR\RELEASE\VC140.PDB" /Gd /TP E:\PROGRAMMING\BULLET PHYSICS\BULLET3-2.83.7\EXAMPLES\EXAMPLEBROWSER\GWENGUISUPPORT\GWENPROFILEWINDOW.CPP
^E:\PROGRAMMING\BULLET PHYSICS\BULLET3-2.83.7\EXAMPLES\EXAMPLEBROWSER\GWENGUISUPPORT\GWENTEXTUREWINDOW.CPP
/c /I"E:\PROGRAMMING\BULLET PHYSICS\BULLET3-2.83.7\EXAMPLES\EXAMPLEBROWSER\." /I"E:\PROGRAMMING\BULLET PHYSICS\BULLET3-2.83.7\SRC" /I"E:\PROGRAMMING\BULLET PHYSICS\BULLET3-2.83.7\EXAMPLES\THIRDPARTYLIBS" /I"E:\PROGRAMMING\BULLET PHYSICS\BULLET3-2.83.7\EXAMPLES\THIRDPARTYLIBS\GLEW" /nologo /W3 /WX- /O2 /Ob2 /D WIN32 /D NDEBUG /D _WIN64 /D USE_GRAPHICAL_BENCHMARK /D _CRT_SECURE_NO_WARNINGS /D _CRT_SECURE_NO_DEPRECATE /D _SCL_SECURE_NO_WARNINGS /D GLEW_STATIC /D "CMAKE_INTDIR=\"Release\"" /D _MBCS /Gm- /EHsc /MT /GS /fp:fast /Zc:wchar_t /Zc:forScope /Zc:inline /GR /Fo"APP_EXAMPLEBROWSER.DIR\RELEASE\\" /Fd"APP_EXAMPLEBROWSER.DIR\RELEASE\VC140.PDB" /Gd /TP E:\PROGRAMMING\BULLET PHYSICS\BULLET3-2.83.7\EXAMPLES\EXAMPLEBROWSER\GWENGUISUPPORT\GWENTEXTUREWINDOW.CPP
^E:\PROGRAMMING\BULLET PHYSICS\BULLET3-2.83.7\EXAMPLES\EXAMPLEBROWSER\GWENGUISUPPORT\GWENUSERINTERFACE.CPP
/c /I"E:\PROGRAMMING\BULLET PHYSICS\BULLET3-2.83.7\EXAMPLES\EXAMPLEBROWSER\." /I"E:\PROGRAMMING\BULLET PHYSICS\BULLET3-2.83.7\SRC" /I"E:\PROGRAMMING\BULLET PHYSICS\BULLET3-2.83.7\EXAMPLES\THIRDPARTYLIBS" /I"E:\PROGRAMMING\BULLET PHYSICS\BULLET3-2.83.7\EXAMPLES\THIRDPARTYLIBS\GLEW" /nologo /W3 /WX- /O2 /Ob2 /D WIN32 /D NDEBUG /D _WIN64 /D USE_GRAPHICAL_BENCHMARK /D _CRT_SECURE_NO_WARNINGS /D _CRT_SECURE_NO_DEPRECATE /D _SCL_SECURE_NO_WARNINGS /D GLEW_STATIC /D "CMAKE_INTDIR=\"Release\"" /D _MBCS /Gm- /EHsc /MT /GS /fp:fast /Zc:wchar_t /Zc:forScope /Zc:inline /GR /Fo"APP_EXAMPLEBROWSER.DIR\RELEASE\\" /Fd"APP_EXAMPLEBROWSER.DIR\RELEASE\VC140.PDB" /Gd /TP E:\PROGRAMMING\BULLET PHYSICS\BULLET3-2.83.7\EXAMPLES\EXAMPLEBROWSER\GWENGUISUPPORT\GWENUSERINTERFACE.CPP
