#Command:  
^E:\PROGRAMMING\BULLET PHYSICS\BUILDS\CMAKEFILES\3.5.1\COMPILERIDC\DEBUG\CMAKECCOMPILERID.OBJ
C:\PROGRAMDATA\MICROSOFT\WINDOWS\WER\REPORTQUEUE\NONCRITICAL_VCTIP.EXE_FA3F56286735C412927232DFAF152F7E4D865291_00000000_4A0E99C1\REPORT.WER
