#Command:  
^E:\PROGRAMMING\BULLET PHYSICS\BUILDS\CMAKEFILES\3.5.1\COMPILERIDC\DEBUG\CMAKECCOMPILERID.OBJ
C:\PROGRAMDATA\MICROSOFT\WINDOWS\WER\REPORTQUEUE\APPCRASH_CONTROLCENTER.EX_88356793FD32459B6D88330CB6F3C31C06A23FA_35E44641_83894FEB\REPORT.WER
C:\PROGRAMDATA\MICROSOFT\WINDOWS\WER\REPORTQUEUE\APPCRASH_DEVENV.EXE_4A789BDAA4FD62EFC8B8DC2D8DCA19E054D3_12AA736E_71BEA7E4\REPORT.WER
C:\PROGRAMDATA\MICROSOFT\WINDOWS\WER\REPORTQUEUE\APPCRASH_MICROSOFT.MICROS_81ECF2FA835CD95EA69CE8198ADAAEAAF8D6FDA_E127E73B_5D907CE1\REPORT.WER
C:\PROGRAMDATA\MICROSOFT\WINDOWS\WER\REPORTQUEUE\APPCRASH_MICROSOFT.MICROS_81ECF2FA835CD95EA69CE8198ADAAEAAF8D6FDA_E127E73B_5EC07B6A\REPORT.WER
C:\PROGRAMDATA\MICROSOFT\WINDOWS\WER\REPORTQUEUE\APPCRASH_NEXUSCLIENT.EXE_40256DAD3D2537FAEB324C4593575D5F5A3C472_FFFE86C4_5ED6E001\REPORT.WER
C:\PROGRAMDATA\MICROSOFT\WINDOWS\WER\REPORTQUEUE\APPCRASH_OBJEXPORTERUI.EX_6FEB5042C8578EC9C16283757BA39C6D5FF6529_04EA6C77_5685C050\REPORT.WER
C:\PROGRAMDATA\MICROSOFT\WINDOWS\WER\REPORTQUEUE\CRITICAL_MAYA.EXE_DF874E796EDA6B66EAB153B5A112FBDA718CFE4_EEA16253_367846C7\REPORT.WER
C:\PROGRAMDATA\MICROSOFT\WINDOWS\WER\REPORTQUEUE\CRITICAL_NEXUSCLIENT.EXE_59BE3D76C1C7813BCB8266D24D1E6258DE381C_FFFE86C4_5E27B88F\REPORT.WER
C:\PROGRAMDATA\MICROSOFT\WINDOWS\WER\REPORTQUEUE\NONCRITICAL_DEVENV_5A487158D9ADD8CE849F27CCE1D5595EE9CA3_00000000_08135C78\REPORT.WER
C:\PROGRAMDATA\MICROSOFT\WINDOWS\WER\REPORTQUEUE\NONCRITICAL_PERFWATSONTCDB_688F135DD185F2A8133A474A2518EFC6CE6CC4A_00000000_35BBC842\REPORT.WER
C:\PROGRAMDATA\MICROSOFT\WINDOWS\WER\REPORTQUEUE\NONCRITICAL_PERFWATSONTCDB_688F135DD185F2A8133A474A2518EFC6CE6CC4A_00000000_56F99C37\REPORT.WER
C:\PROGRAMDATA\MICROSOFT\WINDOWS\WER\REPORTQUEUE\NONCRITICAL_PERFWATSONTCDB_688F135DD185F2A8133A474A2518EFC6CE6CC4A_00000000_B5BD2FEE\REPORT.WER
C:\PROGRAMDATA\MICROSOFT\WINDOWS\WER\REPORTQUEUE\NONCRITICAL_PERFWATSONTCDB_688F135DD185F2A8133A474A2518EFC6CE6CC4A_00000000_D58EE998\REPORT.WER
C:\PROGRAMDATA\MICROSOFT\WINDOWS\WER\REPORTQUEUE\APPCRASH_CONTROLCENTER.EX_88356793FD32459B6D88330CB6F3C31C06A23FA_35E44641_83894FEB\REPORT.WER
C:\PROGRAMDATA\MICROSOFT\WINDOWS\WER\REPORTQUEUE\APPCRASH_DEVENV.EXE_4A789BDAA4FD62EFC8B8DC2D8DCA19E054D3_12AA736E_71BEA7E4\REPORT.WER
C:\PROGRAMDATA\MICROSOFT\WINDOWS\WER\REPORTQUEUE\APPCRASH_MICROSOFT.MICROS_81ECF2FA835CD95EA69CE8198ADAAEAAF8D6FDA_E127E73B_5D907CE1\REPORT.WER
C:\PROGRAMDATA\MICROSOFT\WINDOWS\WER\REPORTQUEUE\APPCRASH_MICROSOFT.MICROS_81ECF2FA835CD95EA69CE8198ADAAEAAF8D6FDA_E127E73B_5EC07B6A\REPORT.WER
C:\PROGRAMDATA\MICROSOFT\WINDOWS\WER\REPORTQUEUE\APPCRASH_NEXUSCLIENT.EXE_40256DAD3D2537FAEB324C4593575D5F5A3C472_FFFE86C4_5ED6E001\REPORT.WER
C:\PROGRAMDATA\MICROSOFT\WINDOWS\WER\REPORTQUEUE\APPCRASH_OBJEXPORTERUI.EX_6FEB5042C8578EC9C16283757BA39C6D5FF6529_04EA6C77_5685C050\REPORT.WER
C:\PROGRAMDATA\MICROSOFT\WINDOWS\WER\REPORTQUEUE\CRITICAL_MAYA.EXE_DF874E796EDA6B66EAB153B5A112FBDA718CFE4_EEA16253_367846C7\REPORT.WER
C:\PROGRAMDATA\MICROSOFT\WINDOWS\WER\REPORTQUEUE\CRITICAL_NEXUSCLIENT.EXE_59BE3D76C1C7813BCB8266D24D1E6258DE381C_FFFE86C4_5E27B88F\REPORT.WER
C:\PROGRAMDATA\MICROSOFT\WINDOWS\WER\REPORTQUEUE\NONCRITICAL_DEVENV_5A487158D9ADD8CE849F27CCE1D5595EE9CA3_00000000_08135C78\REPORT.WER
C:\PROGRAMDATA\MICROSOFT\WINDOWS\WER\REPORTQUEUE\NONCRITICAL_PERFWATSONTCDB_688F135DD185F2A8133A474A2518EFC6CE6CC4A_00000000_35BBC842\REPORT.WER
C:\PROGRAMDATA\MICROSOFT\WINDOWS\WER\REPORTQUEUE\NONCRITICAL_PERFWATSONTCDB_688F135DD185F2A8133A474A2518EFC6CE6CC4A_00000000_56F99C37\REPORT.WER
C:\PROGRAMDATA\MICROSOFT\WINDOWS\WER\REPORTQUEUE\NONCRITICAL_PERFWATSONTCDB_688F135DD185F2A8133A474A2518EFC6CE6CC4A_00000000_B5BD2FEE\REPORT.WER
C:\PROGRAMDATA\MICROSOFT\WINDOWS\WER\REPORTQUEUE\NONCRITICAL_PERFWATSONTCDB_688F135DD185F2A8133A474A2518EFC6CE6CC4A_00000000_D58EE998\REPORT.WER
C:\PROGRAMDATA\MICROSOFT\WINDOWS\WER\REPORTQUEUE\NONCRITICAL_VCTIP.EXE_FA3F56286735C412927232DFAF152F7E4D865291_00000000_4A0E99C1\REPORT.WER
