^E:\PROGRAMMING\BULLET PHYSICS\BULLET3-2.83.7\SRC\BULLETDYNAMICS\CHARACTER\BTKINEMATICCHARACTERCONTROLLER.CPP
/c /I"E:\PROGRAMMING\BULLET PHYSICS\BULLET3-2.83.7\SRC" /nologo /W3 /WX- /O2 /Ob2 /D WIN32 /D NDEBUG /D _WIN64 /D USE_GRAPHICAL_BENCHMARK /D _CRT_SECURE_NO_WARNINGS /D _CRT_SECURE_NO_DEPRECATE /D _SCL_SECURE_NO_WARNINGS /D "CMAKE_INTDIR=\"Release\"" /D _MBCS /Gm- /EHsc /MD /GS /fp:fast /Zc:wchar_t /Zc:forScope /Zc:inline /GR /Fo"BULLETDYNAMICS.DIR\RELEASE\\" /Fd"BULLETDYNAMICS.DIR\RELEASE\BULLETDYNAMICS.PDB" /Gd /TP E:\PROGRAMMING\BULLET PHYSICS\BULLET3-2.83.7\SRC\BULLETDYNAMICS\CHARACTER\BTKINEMATICCHARACTERCONTROLLER.CPP
^E:\PROGRAMMING\BULLET PHYSICS\BULLET3-2.83.7\SRC\BULLETDYNAMICS\CONSTRAINTSOLVER\BTCONETWISTCONSTRAINT.CPP
/c /I"E:\PROGRAMMING\BULLET PHYSICS\BULLET3-2.83.7\SRC" /nologo /W3 /WX- /O2 /Ob2 /D WIN32 /D NDEBUG /D _WIN64 /D USE_GRAPHICAL_BENCHMARK /D _CRT_SECURE_NO_WARNINGS /D _CRT_SECURE_NO_DEPRECATE /D _SCL_SECURE_NO_WARNINGS /D "CMAKE_INTDIR=\"Release\"" /D _MBCS /Gm- /EHsc /MD /GS /fp:fast /Zc:wchar_t /Zc:forScope /Zc:inline /GR /Fo"BULLETDYNAMICS.DIR\RELEASE\\" /Fd"BULLETDYNAMICS.DIR\RELEASE\BULLETDYNAMICS.PDB" /Gd /TP E:\PROGRAMMING\BULLET PHYSICS\BULLET3-2.83.7\SRC\BULLETDYNAMICS\CONSTRAINTSOLVER\BTCONETWISTCONSTRAINT.CPP
^E:\PROGRAMMING\BULLET PHYSICS\BULLET3-2.83.7\SRC\BULLETDYNAMICS\CONSTRAINTSOLVER\BTCONTACTCONSTRAINT.CPP
/c /I"E:\PROGRAMMING\BULLET PHYSICS\BULLET3-2.83.7\SRC" /nologo /W3 /WX- /O2 /Ob2 /D WIN32 /D NDEBUG /D _WIN64 /D USE_GRAPHICAL_BENCHMARK /D _CRT_SECURE_NO_WARNINGS /D _CRT_SECURE_NO_DEPRECATE /D _SCL_SECURE_NO_WARNINGS /D "CMAKE_INTDIR=\"Release\"" /D _MBCS /Gm- /EHsc /MD /GS /fp:fast /Zc:wchar_t /Zc:forScope /Zc:inline /GR /Fo"BULLETDYNAMICS.DIR\RELEASE\\" /Fd"BULLETDYNAMICS.DIR\RELEASE\BULLETDYNAMICS.PDB" /Gd /TP E:\PROGRAMMING\BULLET PHYSICS\BULLET3-2.83.7\SRC\BULLETDYNAMICS\CONSTRAINTSOLVER\BTCONTACTCONSTRAINT.CPP
^E:\PROGRAMMING\BULLET PHYSICS\BULLET3-2.83.7\SRC\BULLETDYNAMICS\CONSTRAINTSOLVER\BTFIXEDCONSTRAINT.CPP
/c /I"E:\PROGRAMMING\BULLET PHYSICS\BULLET3-2.83.7\SRC" /nologo /W3 /WX- /O2 /Ob2 /D WIN32 /D NDEBUG /D _WIN64 /D USE_GRAPHICAL_BENCHMARK /D _CRT_SECURE_NO_WARNINGS /D _CRT_SECURE_NO_DEPRECATE /D _SCL_SECURE_NO_WARNINGS /D "CMAKE_INTDIR=\"Release\"" /D _MBCS /Gm- /EHsc /MD /GS /fp:fast /Zc:wchar_t /Zc:forScope /Zc:inline /GR /Fo"BULLETDYNAMICS.DIR\RELEASE\\" /Fd"BULLETDYNAMICS.DIR\RELEASE\BULLETDYNAMICS.PDB" /Gd /TP E:\PROGRAMMING\BULLET PHYSICS\BULLET3-2.83.7\SRC\BULLETDYNAMICS\CONSTRAINTSOLVER\BTFIXEDCONSTRAINT.CPP
^E:\PROGRAMMING\BULLET PHYSICS\BULLET3-2.83.7\SRC\BULLETDYNAMICS\CONSTRAINTSOLVER\BTGEARCONSTRAINT.CPP
/c /I"E:\PROGRAMMING\BULLET PHYSICS\BULLET3-2.83.7\SRC" /nologo /W3 /WX- /O2 /Ob2 /D WIN32 /D NDEBUG /D _WIN64 /D USE_GRAPHICAL_BENCHMARK /D _CRT_SECURE_NO_WARNINGS /D _CRT_SECURE_NO_DEPRECATE /D _SCL_SECURE_NO_WARNINGS /D "CMAKE_INTDIR=\"Release\"" /D _MBCS /Gm- /EHsc /MD /GS /fp:fast /Zc:wchar_t /Zc:forScope /Zc:inline /GR /Fo"BULLETDYNAMICS.DIR\RELEASE\\" /Fd"BULLETDYNAMICS.DIR\RELEASE\BULLETDYNAMICS.PDB" /Gd /TP E:\PROGRAMMING\BULLET PHYSICS\BULLET3-2.83.7\SRC\BULLETDYNAMICS\CONSTRAINTSOLVER\BTGEARCONSTRAINT.CPP
^E:\PROGRAMMING\BULLET PHYSICS\BULLET3-2.83.7\SRC\BULLETDYNAMICS\CONSTRAINTSOLVER\BTGENERIC6DOFCONSTRAINT.CPP
/c /I"E:\PROGRAMMING\BULLET PHYSICS\BULLET3-2.83.7\SRC" /nologo /W3 /WX- /O2 /Ob2 /D WIN32 /D NDEBUG /D _WIN64 /D USE_GRAPHICAL_BENCHMARK /D _CRT_SECURE_NO_WARNINGS /D _CRT_SECURE_NO_DEPRECATE /D _SCL_SECURE_NO_WARNINGS /D "CMAKE_INTDIR=\"Release\"" /D _MBCS /Gm- /EHsc /MD /GS /fp:fast /Zc:wchar_t /Zc:forScope /Zc:inline /GR /Fo"BULLETDYNAMICS.DIR\RELEASE\\" /Fd"BULLETDYNAMICS.DIR\RELEASE\BULLETDYNAMICS.PDB" /Gd /TP E:\PROGRAMMING\BULLET PHYSICS\BULLET3-2.83.7\SRC\BULLETDYNAMICS\CONSTRAINTSOLVER\BTGENERIC6DOFCONSTRAINT.CPP
^E:\PROGRAMMING\BULLET PHYSICS\BULLET3-2.83.7\SRC\BULLETDYNAMICS\CONSTRAINTSOLVER\BTGENERIC6DOFSPRINGCONSTRAINT.CPP
/c /I"E:\PROGRAMMING\BULLET PHYSICS\BULLET3-2.83.7\SRC" /nologo /W3 /WX- /O2 /Ob2 /D WIN32 /D NDEBUG /D _WIN64 /D USE_GRAPHICAL_BENCHMARK /D _CRT_SECURE_NO_WARNINGS /D _CRT_SECURE_NO_DEPRECATE /D _SCL_SECURE_NO_WARNINGS /D "CMAKE_INTDIR=\"Release\"" /D _MBCS /Gm- /EHsc /MD /GS /fp:fast /Zc:wchar_t /Zc:forScope /Zc:inline /GR /Fo"BULLETDYNAMICS.DIR\RELEASE\\" /Fd"BULLETDYNAMICS.DIR\RELEASE\BULLETDYNAMICS.PDB" /Gd /TP E:\PROGRAMMING\BULLET PHYSICS\BULLET3-2.83.7\SRC\BULLETDYNAMICS\CONSTRAINTSOLVER\BTGENERIC6DOFSPRINGCONSTRAINT.CPP
^E:\PROGRAMMING\BULLET PHYSICS\BULLET3-2.83.7\SRC\BULLETDYNAMICS\CONSTRAINTSOLVER\BTGENERIC6DOFSPRING2CONSTRAINT.CPP
/c /I"E:\PROGRAMMING\BULLET PHYSICS\BULLET3-2.83.7\SRC" /nologo /W3 /WX- /O2 /Ob2 /D WIN32 /D NDEBUG /D _WIN64 /D USE_GRAPHICAL_BENCHMARK /D _CRT_SECURE_NO_WARNINGS /D _CRT_SECURE_NO_DEPRECATE /D _SCL_SECURE_NO_WARNINGS /D "CMAKE_INTDIR=\"Release\"" /D _MBCS /Gm- /EHsc /MD /GS /fp:fast /Zc:wchar_t /Zc:forScope /Zc:inline /GR /Fo"BULLETDYNAMICS.DIR\RELEASE\\" /Fd"BULLETDYNAMICS.DIR\RELEASE\BULLETDYNAMICS.PDB" /Gd /TP E:\PROGRAMMING\BULLET PHYSICS\BULLET3-2.83.7\SRC\BULLETDYNAMICS\CONSTRAINTSOLVER\BTGENERIC6DOFSPRING2CONSTRAINT.CPP
^E:\PROGRAMMING\BULLET PHYSICS\BULLET3-2.83.7\SRC\BULLETDYNAMICS\CONSTRAINTSOLVER\BTHINGE2CONSTRAINT.CPP
/c /I"E:\PROGRAMMING\BULLET PHYSICS\BULLET3-2.83.7\SRC" /nologo /W3 /WX- /O2 /Ob2 /D WIN32 /D NDEBUG /D _WIN64 /D USE_GRAPHICAL_BENCHMARK /D _CRT_SECURE_NO_WARNINGS /D _CRT_SECURE_NO_DEPRECATE /D _SCL_SECURE_NO_WARNINGS /D "CMAKE_INTDIR=\"Release\"" /D _MBCS /Gm- /EHsc /MD /GS /fp:fast /Zc:wchar_t /Zc:forScope /Zc:inline /GR /Fo"BULLETDYNAMICS.DIR\RELEASE\\" /Fd"BULLETDYNAMICS.DIR\RELEASE\BULLETDYNAMICS.PDB" /Gd /TP E:\PROGRAMMING\BULLET PHYSICS\BULLET3-2.83.7\SRC\BULLETDYNAMICS\CONSTRAINTSOLVER\BTHINGE2CONSTRAINT.CPP
^E:\PROGRAMMING\BULLET PHYSICS\BULLET3-2.83.7\SRC\BULLETDYNAMICS\CONSTRAINTSOLVER\BTHINGECONSTRAINT.CPP
/c /I"E:\PROGRAMMING\BULLET PHYSICS\BULLET3-2.83.7\SRC" /nologo /W3 /WX- /O2 /Ob2 /D WIN32 /D NDEBUG /D _WIN64 /D USE_GRAPHICAL_BENCHMARK /D _CRT_SECURE_NO_WARNINGS /D _CRT_SECURE_NO_DEPRECATE /D _SCL_SECURE_NO_WARNINGS /D "CMAKE_INTDIR=\"Release\"" /D _MBCS /Gm- /EHsc /MD /GS /fp:fast /Zc:wchar_t /Zc:forScope /Zc:inline /GR /Fo"BULLETDYNAMICS.DIR\RELEASE\\" /Fd"BULLETDYNAMICS.DIR\RELEASE\BULLETDYNAMICS.PDB" /Gd /TP E:\PROGRAMMING\BULLET PHYSICS\BULLET3-2.83.7\SRC\BULLETDYNAMICS\CONSTRAINTSOLVER\BTHINGECONSTRAINT.CPP
^E:\PROGRAMMING\BULLET PHYSICS\BULLET3-2.83.7\SRC\BULLETDYNAMICS\CONSTRAINTSOLVER\BTPOINT2POINTCONSTRAINT.CPP
/c /I"E:\PROGRAMMING\BULLET PHYSICS\BULLET3-2.83.7\SRC" /nologo /W3 /WX- /O2 /Ob2 /D WIN32 /D NDEBUG /D _WIN64 /D USE_GRAPHICAL_BENCHMARK /D _CRT_SECURE_NO_WARNINGS /D _CRT_SECURE_NO_DEPRECATE /D _SCL_SECURE_NO_WARNINGS /D "CMAKE_INTDIR=\"Release\"" /D _MBCS /Gm- /EHsc /MD /GS /fp:fast /Zc:wchar_t /Zc:forScope /Zc:inline /GR /Fo"BULLETDYNAMICS.DIR\RELEASE\\" /Fd"BULLETDYNAMICS.DIR\RELEASE\BULLETDYNAMICS.PDB" /Gd /TP E:\PROGRAMMING\BULLET PHYSICS\BULLET3-2.83.7\SRC\BULLETDYNAMICS\CONSTRAINTSOLVER\BTPOINT2POINTCONSTRAINT.CPP
^E:\PROGRAMMING\BULLET PHYSICS\BULLET3-2.83.7\SRC\BULLETDYNAMICS\CONSTRAINTSOLVER\BTSEQUENTIALIMPULSECONSTRAINTSOLVER.CPP
/c /I"E:\PROGRAMMING\BULLET PHYSICS\BULLET3-2.83.7\SRC" /nologo /W3 /WX- /O2 /Ob2 /D WIN32 /D NDEBUG /D _WIN64 /D USE_GRAPHICAL_BENCHMARK /D _CRT_SECURE_NO_WARNINGS /D _CRT_SECURE_NO_DEPRECATE /D _SCL_SECURE_NO_WARNINGS /D "CMAKE_INTDIR=\"Release\"" /D _MBCS /Gm- /EHsc /MD /GS /fp:fast /Zc:wchar_t /Zc:forScope /Zc:inline /GR /Fo"BULLETDYNAMICS.DIR\RELEASE\\" /Fd"BULLETDYNAMICS.DIR\RELEASE\BULLETDYNAMICS.PDB" /Gd /TP E:\PROGRAMMING\BULLET PHYSICS\BULLET3-2.83.7\SRC\BULLETDYNAMICS\CONSTRAINTSOLVER\BTSEQUENTIALIMPULSECONSTRAINTSOLVER.CPP
^E:\PROGRAMMING\BULLET PHYSICS\BULLET3-2.83.7\SRC\BULLETDYNAMICS\CONSTRAINTSOLVER\BTNNCGCONSTRAINTSOLVER.CPP
/c /I"E:\PROGRAMMING\BULLET PHYSICS\BULLET3-2.83.7\SRC" /nologo /W3 /WX- /O2 /Ob2 /D WIN32 /D NDEBUG /D _WIN64 /D USE_GRAPHICAL_BENCHMARK /D _CRT_SECURE_NO_WARNINGS /D _CRT_SECURE_NO_DEPRECATE /D _SCL_SECURE_NO_WARNINGS /D "CMAKE_INTDIR=\"Release\"" /D _MBCS /Gm- /EHsc /MD /GS /fp:fast /Zc:wchar_t /Zc:forScope /Zc:inline /GR /Fo"BULLETDYNAMICS.DIR\RELEASE\\" /Fd"BULLETDYNAMICS.DIR\RELEASE\BULLETDYNAMICS.PDB" /Gd /TP E:\PROGRAMMING\BULLET PHYSICS\BULLET3-2.83.7\SRC\BULLETDYNAMICS\CONSTRAINTSOLVER\BTNNCGCONSTRAINTSOLVER.CPP
^E:\PROGRAMMING\BULLET PHYSICS\BULLET3-2.83.7\SRC\BULLETDYNAMICS\CONSTRAINTSOLVER\BTSLIDERCONSTRAINT.CPP
/c /I"E:\PROGRAMMING\BULLET PHYSICS\BULLET3-2.83.7\SRC" /nologo /W3 /WX- /O2 /Ob2 /D WIN32 /D NDEBUG /D _WIN64 /D USE_GRAPHICAL_BENCHMARK /D _CRT_SECURE_NO_WARNINGS /D _CRT_SECURE_NO_DEPRECATE /D _SCL_SECURE_NO_WARNINGS /D "CMAKE_INTDIR=\"Release\"" /D _MBCS /Gm- /EHsc /MD /GS /fp:fast /Zc:wchar_t /Zc:forScope /Zc:inline /GR /Fo"BULLETDYNAMICS.DIR\RELEASE\\" /Fd"BULLETDYNAMICS.DIR\RELEASE\BULLETDYNAMICS.PDB" /Gd /TP E:\PROGRAMMING\BULLET PHYSICS\BULLET3-2.83.7\SRC\BULLETDYNAMICS\CONSTRAINTSOLVER\BTSLIDERCONSTRAINT.CPP
^E:\PROGRAMMING\BULLET PHYSICS\BULLET3-2.83.7\SRC\BULLETDYNAMICS\CONSTRAINTSOLVER\BTSOLVE2LINEARCONSTRAINT.CPP
/c /I"E:\PROGRAMMING\BULLET PHYSICS\BULLET3-2.83.7\SRC" /nologo /W3 /WX- /O2 /Ob2 /D WIN32 /D NDEBUG /D _WIN64 /D USE_GRAPHICAL_BENCHMARK /D _CRT_SECURE_NO_WARNINGS /D _CRT_SECURE_NO_DEPRECATE /D _SCL_SECURE_NO_WARNINGS /D "CMAKE_INTDIR=\"Release\"" /D _MBCS /Gm- /EHsc /MD /GS /fp:fast /Zc:wchar_t /Zc:forScope /Zc:inline /GR /Fo"BULLETDYNAMICS.DIR\RELEASE\\" /Fd"BULLETDYNAMICS.DIR\RELEASE\BULLETDYNAMICS.PDB" /Gd /TP E:\PROGRAMMING\BULLET PHYSICS\BULLET3-2.83.7\SRC\BULLETDYNAMICS\CONSTRAINTSOLVER\BTSOLVE2LINEARCONSTRAINT.CPP
^E:\PROGRAMMING\BULLET PHYSICS\BULLET3-2.83.7\SRC\BULLETDYNAMICS\CONSTRAINTSOLVER\BTTYPEDCONSTRAINT.CPP
/c /I"E:\PROGRAMMING\BULLET PHYSICS\BULLET3-2.83.7\SRC" /nologo /W3 /WX- /O2 /Ob2 /D WIN32 /D NDEBUG /D _WIN64 /D USE_GRAPHICAL_BENCHMARK /D _CRT_SECURE_NO_WARNINGS /D _CRT_SECURE_NO_DEPRECATE /D _SCL_SECURE_NO_WARNINGS /D "CMAKE_INTDIR=\"Release\"" /D _MBCS /Gm- /EHsc /MD /GS /fp:fast /Zc:wchar_t /Zc:forScope /Zc:inline /GR /Fo"BULLETDYNAMICS.DIR\RELEASE\\" /Fd"BULLETDYNAMICS.DIR\RELEASE\BULLETDYNAMICS.PDB" /Gd /TP E:\PROGRAMMING\BULLET PHYSICS\BULLET3-2.83.7\SRC\BULLETDYNAMICS\CONSTRAINTSOLVER\BTTYPEDCONSTRAINT.CPP
^E:\PROGRAMMING\BULLET PHYSICS\BULLET3-2.83.7\SRC\BULLETDYNAMICS\CONSTRAINTSOLVER\BTUNIVERSALCONSTRAINT.CPP
/c /I"E:\PROGRAMMING\BULLET PHYSICS\BULLET3-2.83.7\SRC" /nologo /W3 /WX- /O2 /Ob2 /D WIN32 /D NDEBUG /D _WIN64 /D USE_GRAPHICAL_BENCHMARK /D _CRT_SECURE_NO_WARNINGS /D _CRT_SECURE_NO_DEPRECATE /D _SCL_SECURE_NO_WARNINGS /D "CMAKE_INTDIR=\"Release\"" /D _MBCS /Gm- /EHsc /MD /GS /fp:fast /Zc:wchar_t /Zc:forScope /Zc:inline /GR /Fo"BULLETDYNAMICS.DIR\RELEASE\\" /Fd"BULLETDYNAMICS.DIR\RELEASE\BULLETDYNAMICS.PDB" /Gd /TP E:\PROGRAMMING\BULLET PHYSICS\BULLET3-2.83.7\SRC\BULLETDYNAMICS\CONSTRAINTSOLVER\BTUNIVERSALCONSTRAINT.CPP
^E:\PROGRAMMING\BULLET PHYSICS\BULLET3-2.83.7\SRC\BULLETDYNAMICS\DYNAMICS\BTDISCRETEDYNAMICSWORLD.CPP
/c /I"E:\PROGRAMMING\BULLET PHYSICS\BULLET3-2.83.7\SRC" /nologo /W3 /WX- /O2 /Ob2 /D WIN32 /D NDEBUG /D _WIN64 /D USE_GRAPHICAL_BENCHMARK /D _CRT_SECURE_NO_WARNINGS /D _CRT_SECURE_NO_DEPRECATE /D _SCL_SECURE_NO_WARNINGS /D "CMAKE_INTDIR=\"Release\"" /D _MBCS /Gm- /EHsc /MD /GS /fp:fast /Zc:wchar_t /Zc:forScope /Zc:inline /GR /Fo"BULLETDYNAMICS.DIR\RELEASE\\" /Fd"BULLETDYNAMICS.DIR\RELEASE\BULLETDYNAMICS.PDB" /Gd /TP E:\PROGRAMMING\BULLET PHYSICS\BULLET3-2.83.7\SRC\BULLETDYNAMICS\DYNAMICS\BTDISCRETEDYNAMICSWORLD.CPP
^E:\PROGRAMMING\BULLET PHYSICS\BULLET3-2.83.7\SRC\BULLETDYNAMICS\DYNAMICS\BTRIGIDBODY.CPP
/c /I"E:\PROGRAMMING\BULLET PHYSICS\BULLET3-2.83.7\SRC" /nologo /W3 /WX- /O2 /Ob2 /D WIN32 /D NDEBUG /D _WIN64 /D USE_GRAPHICAL_BENCHMARK /D _CRT_SECURE_NO_WARNINGS /D _CRT_SECURE_NO_DEPRECATE /D _SCL_SECURE_NO_WARNINGS /D "CMAKE_INTDIR=\"Release\"" /D _MBCS /Gm- /EHsc /MD /GS /fp:fast /Zc:wchar_t /Zc:forScope /Zc:inline /GR /Fo"BULLETDYNAMICS.DIR\RELEASE\\" /Fd"BULLETDYNAMICS.DIR\RELEASE\BULLETDYNAMICS.PDB" /Gd /TP E:\PROGRAMMING\BULLET PHYSICS\BULLET3-2.83.7\SRC\BULLETDYNAMICS\DYNAMICS\BTRIGIDBODY.CPP
^E:\PROGRAMMING\BULLET PHYSICS\BULLET3-2.83.7\SRC\BULLETDYNAMICS\DYNAMICS\BTSIMPLEDYNAMICSWORLD.CPP
/c /I"E:\PROGRAMMING\BULLET PHYSICS\BULLET3-2.83.7\SRC" /nologo /W3 /WX- /O2 /Ob2 /D WIN32 /D NDEBUG /D _WIN64 /D USE_GRAPHICAL_BENCHMARK /D _CRT_SECURE_NO_WARNINGS /D _CRT_SECURE_NO_DEPRECATE /D _SCL_SECURE_NO_WARNINGS /D "CMAKE_INTDIR=\"Release\"" /D _MBCS /Gm- /EHsc /MD /GS /fp:fast /Zc:wchar_t /Zc:forScope /Zc:inline /GR /Fo"BULLETDYNAMICS.DIR\RELEASE\\" /Fd"BULLETDYNAMICS.DIR\RELEASE\BULLETDYNAMICS.PDB" /Gd /TP E:\PROGRAMMING\BULLET PHYSICS\BULLET3-2.83.7\SRC\BULLETDYNAMICS\DYNAMICS\BTSIMPLEDYNAMICSWORLD.CPP
^E:\PROGRAMMING\BULLET PHYSICS\BULLET3-2.83.7\SRC\BULLETDYNAMICS\VEHICLE\BTRAYCASTVEHICLE.CPP
/c /I"E:\PROGRAMMING\BULLET PHYSICS\BULLET3-2.83.7\SRC" /nologo /W3 /WX- /O2 /Ob2 /D WIN32 /D NDEBUG /D _WIN64 /D USE_GRAPHICAL_BENCHMARK /D _CRT_SECURE_NO_WARNINGS /D _CRT_SECURE_NO_DEPRECATE /D _SCL_SECURE_NO_WARNINGS /D "CMAKE_INTDIR=\"Release\"" /D _MBCS /Gm- /EHsc /MD /GS /fp:fast /Zc:wchar_t /Zc:forScope /Zc:inline /GR /Fo"BULLETDYNAMICS.DIR\RELEASE\\" /Fd"BULLETDYNAMICS.DIR\RELEASE\BULLETDYNAMICS.PDB" /Gd /TP E:\PROGRAMMING\BULLET PHYSICS\BULLET3-2.83.7\SRC\BULLETDYNAMICS\VEHICLE\BTRAYCASTVEHICLE.CPP
^E:\PROGRAMMING\BULLET PHYSICS\BULLET3-2.83.7\SRC\BULLETDYNAMICS\VEHICLE\BTWHEELINFO.CPP
/c /I"E:\PROGRAMMING\BULLET PHYSICS\BULLET3-2.83.7\SRC" /nologo /W3 /WX- /O2 /Ob2 /D WIN32 /D NDEBUG /D _WIN64 /D USE_GRAPHICAL_BENCHMARK /D _CRT_SECURE_NO_WARNINGS /D _CRT_SECURE_NO_DEPRECATE /D _SCL_SECURE_NO_WARNINGS /D "CMAKE_INTDIR=\"Release\"" /D _MBCS /Gm- /EHsc /MD /GS /fp:fast /Zc:wchar_t /Zc:forScope /Zc:inline /GR /Fo"BULLETDYNAMICS.DIR\RELEASE\\" /Fd"BULLETDYNAMICS.DIR\RELEASE\BULLETDYNAMICS.PDB" /Gd /TP E:\PROGRAMMING\BULLET PHYSICS\BULLET3-2.83.7\SRC\BULLETDYNAMICS\VEHICLE\BTWHEELINFO.CPP
^E:\PROGRAMMING\BULLET PHYSICS\BULLET3-2.83.7\SRC\BULLETDYNAMICS\FEATHERSTONE\BTMULTIBODY.CPP
/c /I"E:\PROGRAMMING\BULLET PHYSICS\BULLET3-2.83.7\SRC" /nologo /W3 /WX- /O2 /Ob2 /D WIN32 /D NDEBUG /D _WIN64 /D USE_GRAPHICAL_BENCHMARK /D _CRT_SECURE_NO_WARNINGS /D _CRT_SECURE_NO_DEPRECATE /D _SCL_SECURE_NO_WARNINGS /D "CMAKE_INTDIR=\"Release\"" /D _MBCS /Gm- /EHsc /MD /GS /fp:fast /Zc:wchar_t /Zc:forScope /Zc:inline /GR /Fo"BULLETDYNAMICS.DIR\RELEASE\\" /Fd"BULLETDYNAMICS.DIR\RELEASE\BULLETDYNAMICS.PDB" /Gd /TP E:\PROGRAMMING\BULLET PHYSICS\BULLET3-2.83.7\SRC\BULLETDYNAMICS\FEATHERSTONE\BTMULTIBODY.CPP
^E:\PROGRAMMING\BULLET PHYSICS\BULLET3-2.83.7\SRC\BULLETDYNAMICS\FEATHERSTONE\BTMULTIBODYCONSTRAINTSOLVER.CPP
/c /I"E:\PROGRAMMING\BULLET PHYSICS\BULLET3-2.83.7\SRC" /nologo /W3 /WX- /O2 /Ob2 /D WIN32 /D NDEBUG /D _WIN64 /D USE_GRAPHICAL_BENCHMARK /D _CRT_SECURE_NO_WARNINGS /D _CRT_SECURE_NO_DEPRECATE /D _SCL_SECURE_NO_WARNINGS /D "CMAKE_INTDIR=\"Release\"" /D _MBCS /Gm- /EHsc /MD /GS /fp:fast /Zc:wchar_t /Zc:forScope /Zc:inline /GR /Fo"BULLETDYNAMICS.DIR\RELEASE\\" /Fd"BULLETDYNAMICS.DIR\RELEASE\BULLETDYNAMICS.PDB" /Gd /TP E:\PROGRAMMING\BULLET PHYSICS\BULLET3-2.83.7\SRC\BULLETDYNAMICS\FEATHERSTONE\BTMULTIBODYCONSTRAINTSOLVER.CPP
^E:\PROGRAMMING\BULLET PHYSICS\BULLET3-2.83.7\SRC\BULLETDYNAMICS\FEATHERSTONE\BTMULTIBODYDYNAMICSWORLD.CPP
/c /I"E:\PROGRAMMING\BULLET PHYSICS\BULLET3-2.83.7\SRC" /nologo /W3 /WX- /O2 /Ob2 /D WIN32 /D NDEBUG /D _WIN64 /D USE_GRAPHICAL_BENCHMARK /D _CRT_SECURE_NO_WARNINGS /D _CRT_SECURE_NO_DEPRECATE /D _SCL_SECURE_NO_WARNINGS /D "CMAKE_INTDIR=\"Release\"" /D _MBCS /Gm- /EHsc /MD /GS /fp:fast /Zc:wchar_t /Zc:forScope /Zc:inline /GR /Fo"BULLETDYNAMICS.DIR\RELEASE\\" /Fd"BULLETDYNAMICS.DIR\RELEASE\BULLETDYNAMICS.PDB" /Gd /TP E:\PROGRAMMING\BULLET PHYSICS\BULLET3-2.83.7\SRC\BULLETDYNAMICS\FEATHERSTONE\BTMULTIBODYDYNAMICSWORLD.CPP
^E:\PROGRAMMING\BULLET PHYSICS\BULLET3-2.83.7\SRC\BULLETDYNAMICS\FEATHERSTONE\BTMULTIBODYJOINTLIMITCONSTRAINT.CPP
/c /I"E:\PROGRAMMING\BULLET PHYSICS\BULLET3-2.83.7\SRC" /nologo /W3 /WX- /O2 /Ob2 /D WIN32 /D NDEBUG /D _WIN64 /D USE_GRAPHICAL_BENCHMARK /D _CRT_SECURE_NO_WARNINGS /D _CRT_SECURE_NO_DEPRECATE /D _SCL_SECURE_NO_WARNINGS /D "CMAKE_INTDIR=\"Release\"" /D _MBCS /Gm- /EHsc /MD /GS /fp:fast /Zc:wchar_t /Zc:forScope /Zc:inline /GR /Fo"BULLETDYNAMICS.DIR\RELEASE\\" /Fd"BULLETDYNAMICS.DIR\RELEASE\BULLETDYNAMICS.PDB" /Gd /TP E:\PROGRAMMING\BULLET PHYSICS\BULLET3-2.83.7\SRC\BULLETDYNAMICS\FEATHERSTONE\BTMULTIBODYJOINTLIMITCONSTRAINT.CPP
^E:\PROGRAMMING\BULLET PHYSICS\BULLET3-2.83.7\SRC\BULLETDYNAMICS\FEATHERSTONE\BTMULTIBODYCONSTRAINT.CPP
/c /I"E:\PROGRAMMING\BULLET PHYSICS\BULLET3-2.83.7\SRC" /nologo /W3 /WX- /O2 /Ob2 /D WIN32 /D NDEBUG /D _WIN64 /D USE_GRAPHICAL_BENCHMARK /D _CRT_SECURE_NO_WARNINGS /D _CRT_SECURE_NO_DEPRECATE /D _SCL_SECURE_NO_WARNINGS /D "CMAKE_INTDIR=\"Release\"" /D _MBCS /Gm- /EHsc /MD /GS /fp:fast /Zc:wchar_t /Zc:forScope /Zc:inline /GR /Fo"BULLETDYNAMICS.DIR\RELEASE\\" /Fd"BULLETDYNAMICS.DIR\RELEASE\BULLETDYNAMICS.PDB" /Gd /TP E:\PROGRAMMING\BULLET PHYSICS\BULLET3-2.83.7\SRC\BULLETDYNAMICS\FEATHERSTONE\BTMULTIBODYCONSTRAINT.CPP
^E:\PROGRAMMING\BULLET PHYSICS\BULLET3-2.83.7\SRC\BULLETDYNAMICS\FEATHERSTONE\BTMULTIBODYPOINT2POINT.CPP
/c /I"E:\PROGRAMMING\BULLET PHYSICS\BULLET3-2.83.7\SRC" /nologo /W3 /WX- /O2 /Ob2 /D WIN32 /D NDEBUG /D _WIN64 /D USE_GRAPHICAL_BENCHMARK /D _CRT_SECURE_NO_WARNINGS /D _CRT_SECURE_NO_DEPRECATE /D _SCL_SECURE_NO_WARNINGS /D "CMAKE_INTDIR=\"Release\"" /D _MBCS /Gm- /EHsc /MD /GS /fp:fast /Zc:wchar_t /Zc:forScope /Zc:inline /GR /Fo"BULLETDYNAMICS.DIR\RELEASE\\" /Fd"BULLETDYNAMICS.DIR\RELEASE\BULLETDYNAMICS.PDB" /Gd /TP E:\PROGRAMMING\BULLET PHYSICS\BULLET3-2.83.7\SRC\BULLETDYNAMICS\FEATHERSTONE\BTMULTIBODYPOINT2POINT.CPP
^E:\PROGRAMMING\BULLET PHYSICS\BULLET3-2.83.7\SRC\BULLETDYNAMICS\FEATHERSTONE\BTMULTIBODYJOINTMOTOR.CPP
/c /I"E:\PROGRAMMING\BULLET PHYSICS\BULLET3-2.83.7\SRC" /nologo /W3 /WX- /O2 /Ob2 /D WIN32 /D NDEBUG /D _WIN64 /D USE_GRAPHICAL_BENCHMARK /D _CRT_SECURE_NO_WARNINGS /D _CRT_SECURE_NO_DEPRECATE /D _SCL_SECURE_NO_WARNINGS /D "CMAKE_INTDIR=\"Release\"" /D _MBCS /Gm- /EHsc /MD /GS /fp:fast /Zc:wchar_t /Zc:forScope /Zc:inline /GR /Fo"BULLETDYNAMICS.DIR\RELEASE\\" /Fd"BULLETDYNAMICS.DIR\RELEASE\BULLETDYNAMICS.PDB" /Gd /TP E:\PROGRAMMING\BULLET PHYSICS\BULLET3-2.83.7\SRC\BULLETDYNAMICS\FEATHERSTONE\BTMULTIBODYJOINTMOTOR.CPP
^E:\PROGRAMMING\BULLET PHYSICS\BULLET3-2.83.7\SRC\BULLETDYNAMICS\MLCPSOLVERS\BTDANTZIGLCP.CPP
/c /I"E:\PROGRAMMING\BULLET PHYSICS\BULLET3-2.83.7\SRC" /nologo /W3 /WX- /O2 /Ob2 /D WIN32 /D NDEBUG /D _WIN64 /D USE_GRAPHICAL_BENCHMARK /D _CRT_SECURE_NO_WARNINGS /D _CRT_SECURE_NO_DEPRECATE /D _SCL_SECURE_NO_WARNINGS /D "CMAKE_INTDIR=\"Release\"" /D _MBCS /Gm- /EHsc /MD /GS /fp:fast /Zc:wchar_t /Zc:forScope /Zc:inline /GR /Fo"BULLETDYNAMICS.DIR\RELEASE\\" /Fd"BULLETDYNAMICS.DIR\RELEASE\BULLETDYNAMICS.PDB" /Gd /TP E:\PROGRAMMING\BULLET PHYSICS\BULLET3-2.83.7\SRC\BULLETDYNAMICS\MLCPSOLVERS\BTDANTZIGLCP.CPP
^E:\PROGRAMMING\BULLET PHYSICS\BULLET3-2.83.7\SRC\BULLETDYNAMICS\MLCPSOLVERS\BTMLCPSOLVER.CPP
/c /I"E:\PROGRAMMING\BULLET PHYSICS\BULLET3-2.83.7\SRC" /nologo /W3 /WX- /O2 /Ob2 /D WIN32 /D NDEBUG /D _WIN64 /D USE_GRAPHICAL_BENCHMARK /D _CRT_SECURE_NO_WARNINGS /D _CRT_SECURE_NO_DEPRECATE /D _SCL_SECURE_NO_WARNINGS /D "CMAKE_INTDIR=\"Release\"" /D _MBCS /Gm- /EHsc /MD /GS /fp:fast /Zc:wchar_t /Zc:forScope /Zc:inline /GR /Fo"BULLETDYNAMICS.DIR\RELEASE\\" /Fd"BULLETDYNAMICS.DIR\RELEASE\BULLETDYNAMICS.PDB" /Gd /TP E:\PROGRAMMING\BULLET PHYSICS\BULLET3-2.83.7\SRC\BULLETDYNAMICS\MLCPSOLVERS\BTMLCPSOLVER.CPP
^E:\PROGRAMMING\BULLET PHYSICS\BULLET3-2.83.7\SRC\BULLETDYNAMICS\MLCPSOLVERS\BTLEMKEALGORITHM.CPP
/c /I"E:\PROGRAMMING\BULLET PHYSICS\BULLET3-2.83.7\SRC" /nologo /W3 /WX- /O2 /Ob2 /D WIN32 /D NDEBUG /D _WIN64 /D USE_GRAPHICAL_BENCHMARK /D _CRT_SECURE_NO_WARNINGS /D _CRT_SECURE_NO_DEPRECATE /D _SCL_SECURE_NO_WARNINGS /D "CMAKE_INTDIR=\"Release\"" /D _MBCS /Gm- /EHsc /MD /GS /fp:fast /Zc:wchar_t /Zc:forScope /Zc:inline /GR /Fo"BULLETDYNAMICS.DIR\RELEASE\\" /Fd"BULLETDYNAMICS.DIR\RELEASE\BULLETDYNAMICS.PDB" /Gd /TP E:\PROGRAMMING\BULLET PHYSICS\BULLET3-2.83.7\SRC\BULLETDYNAMICS\MLCPSOLVERS\BTLEMKEALGORITHM.CPP
