^E:\PROGRAMMING\BULLET PHYSICS\BULLET3-2.83.7\SRC\BULLETDYNAMICS\CHARACTER\BTKINEMATICCHARACTERCONTROLLER.CPP|E:\PROGRAMMING\BULLET PHYSICS\BULLET3-2.83.7\SRC\BULLETDYNAMICS\CONSTRAINTSOLVER\BTCONETWISTCONSTRAINT.CPP|E:\PROGRAMMING\BULLET PHYSICS\BULLET3-2.83.7\SRC\BULLETDYNAMICS\CONSTRAINTSOLVER\BTCONTACTCONSTRAINT.CPP|E:\PROGRAMMING\BULLET PHYSICS\BULLET3-2.83.7\SRC\BULLETDYNAMICS\CONSTRAINTSOLVER\BTFIXEDCONSTRAINT.CPP|E:\PROGRAMMING\BULLET PHYSICS\BULLET3-2.83.7\SRC\BULLETDYNAMICS\CONSTRAINTSOLVER\BTGEARCONSTRAINT.CPP|E:\PROGRAMMING\BULLET PHYSICS\BULLET3-2.83.7\SRC\BULLETDYNAMICS\CONSTRAINTSOLVER\BTGENERIC6DOFCONSTRAINT.CPP|E:\PROGRAMMING\BULLET PHYSICS\BULLET3-2.83.7\SRC\BULLETDYNAMICS\CONSTRAINTSOLVER\BTGENERIC6DOFSPRING2CONSTRAINT.CPP|E:\PROGRAMMING\BULLET PHYSICS\BULLET3-2.83.7\SRC\BULLETDYNAMICS\CONSTRAINTSOLVER\BTGENERIC6DOFSPRINGCONSTRAINT.CPP|E:\PROGRAMMING\BULLET PHYSICS\BULLET3-2.83.7\SRC\BULLETDYNAMICS\CONSTRAINTSOLVER\BTHINGE2CONSTRAINT.CPP|E:\PROGRAMMING\BULLET PHYSICS\BULLET3-2.83.7\SRC\BULLETDYNAMICS\CONSTRAINTSOLVER\BTHINGECONSTRAINT.CPP|E:\PROGRAMMING\BULLET PHYSICS\BULLET3-2.83.7\SRC\BULLETDYNAMICS\CONSTRAINTSOLVER\BTNNCGCONSTRAINTSOLVER.CPP|E:\PROGRAMMING\BULLET PHYSICS\BULLET3-2.83.7\SRC\BULLETDYNAMICS\CONSTRAINTSOLVER\BTPOINT2POINTCONSTRAINT.CPP|E:\PROGRAMMING\BULLET PHYSICS\BULLET3-2.83.7\SRC\BULLETDYNAMICS\CONSTRAINTSOLVER\BTSEQUENTIALIMPULSECONSTRAINTSOLVER.CPP|E:\PROGRAMMING\BULLET PHYSICS\BULLET3-2.83.7\SRC\BULLETDYNAMICS\CONSTRAINTSOLVER\BTSLIDERCONSTRAINT.CPP|E:\PROGRAMMING\BULLET PHYSICS\BULLET3-2.83.7\SRC\BULLETDYNAMICS\CONSTRAINTSOLVER\BTSOLVE2LINEARCONSTRAINT.CPP|E:\PROGRAMMING\BULLET PHYSICS\BULLET3-2.83.7\SRC\BULLETDYNAMICS\CONSTRAINTSOLVER\BTTYPEDCONSTRAINT.CPP|E:\PROGRAMMING\BULLET PHYSICS\BULLET3-2.83.7\SRC\BULLETDYNAMICS\CONSTRAINTSOLVER\BTUNIVERSALCONSTRAINT.CPP|E:\PROGRAMMING\BULLET PHYSICS\BULLET3-2.83.7\SRC\BULLETDYNAMICS\DYNAMICS\BTDISCRETEDYNAMICSWORLD.CPP|E:\PROGRAMMING\BULLET PHYSICS\BULLET3-2.83.7\SRC\BULLETDYNAMICS\DYNAMICS\BTRIGIDBODY.CPP|E:\PROGRAMMING\BULLET PHYSICS\BULLET3-2.83.7\SRC\BULLETDYNAMICS\DYNAMICS\BTSIMPLEDYNAMICSWORLD.CPP|E:\PROGRAMMING\BULLET PHYSICS\BULLET3-2.83.7\SRC\BULLETDYNAMICS\FEATHERSTONE\BTMULTIBODY.CPP|E:\PROGRAMMING\BULLET PHYSICS\BULLET3-2.83.7\SRC\BULLETDYNAMICS\FEATHERSTONE\BTMULTIBODYCONSTRAINT.CPP|E:\PROGRAMMING\BULLET PHYSICS\BULLET3-2.83.7\SRC\BULLETDYNAMICS\FEATHERSTONE\BTMULTIBODYCONSTRAINTSOLVER.CPP|E:\PROGRAMMING\BULLET PHYSICS\BULLET3-2.83.7\SRC\BULLETDYNAMICS\FEATHERSTONE\BTMULTIBODYDYNAMICSWORLD.CPP|E:\PROGRAMMING\BULLET PHYSICS\BULLET3-2.83.7\SRC\BULLETDYNAMICS\FEATHERSTONE\BTMULTIBODYJOINTLIMITCONSTRAINT.CPP|E:\PROGRAMMING\BULLET PHYSICS\BULLET3-2.83.7\SRC\BULLETDYNAMICS\FEATHERSTONE\BTMULTIBODYJOINTMOTOR.CPP|E:\PROGRAMMING\BULLET PHYSICS\BULLET3-2.83.7\SRC\BULLETDYNAMICS\FEATHERSTONE\BTMULTIBODYPOINT2POINT.CPP|E:\PROGRAMMING\BULLET PHYSICS\BULLET3-2.83.7\SRC\BULLETDYNAMICS\MLCPSOLVERS\BTDANTZIGLCP.CPP|E:\PROGRAMMING\BULLET PHYSICS\BULLET3-2.83.7\SRC\BULLETDYNAMICS\MLCPSOLVERS\BTLEMKEALGORITHM.CPP|E:\PROGRAMMING\BULLET PHYSICS\BULLET3-2.83.7\SRC\BULLETDYNAMICS\MLCPSOLVERS\BTMLCPSOLVER.CPP|E:\PROGRAMMING\BULLET PHYSICS\BULLET3-2.83.7\SRC\BULLETDYNAMICS\VEHICLE\BTRAYCASTVEHICLE.CPP|E:\PROGRAMMING\BULLET PHYSICS\BULLET3-2.83.7\SRC\BULLETDYNAMICS\VEHICLE\BTWHEELINFO.CPP
E:\PROGRAMMING\BULLET PHYSICS\BUILDS\SRC\BULLETDYNAMICS\BULLETDYNAMICS.DIR\RELEASE\BTSIMPLEDYNAMICSWORLD.OBJ
E:\PROGRAMMING\BULLET PHYSICS\BUILDS\SRC\BULLETDYNAMICS\BULLETDYNAMICS.DIR\RELEASE\BTRIGIDBODY.OBJ
E:\PROGRAMMING\BULLET PHYSICS\BUILDS\SRC\BULLETDYNAMICS\BULLETDYNAMICS.DIR\RELEASE\BTDISCRETEDYNAMICSWORLD.OBJ
E:\PROGRAMMING\BULLET PHYSICS\BUILDS\SRC\BULLETDYNAMICS\BULLETDYNAMICS.DIR\RELEASE\BTUNIVERSALCONSTRAINT.OBJ
E:\PROGRAMMING\BULLET PHYSICS\BUILDS\SRC\BULLETDYNAMICS\BULLETDYNAMICS.DIR\RELEASE\BTTYPEDCONSTRAINT.OBJ
E:\PROGRAMMING\BULLET PHYSICS\BUILDS\SRC\BULLETDYNAMICS\BULLETDYNAMICS.DIR\RELEASE\BTSOLVE2LINEARCONSTRAINT.OBJ
E:\PROGRAMMING\BULLET PHYSICS\BUILDS\SRC\BULLETDYNAMICS\BULLETDYNAMICS.DIR\RELEASE\BTSLIDERCONSTRAINT.OBJ
E:\PROGRAMMING\BULLET PHYSICS\BUILDS\SRC\BULLETDYNAMICS\BULLETDYNAMICS.DIR\RELEASE\BTNNCGCONSTRAINTSOLVER.OBJ
E:\PROGRAMMING\BULLET PHYSICS\BUILDS\SRC\BULLETDYNAMICS\BULLETDYNAMICS.DIR\RELEASE\BTSEQUENTIALIMPULSECONSTRAINTSOLVER.OBJ
E:\PROGRAMMING\BULLET PHYSICS\BUILDS\SRC\BULLETDYNAMICS\BULLETDYNAMICS.DIR\RELEASE\BTPOINT2POINTCONSTRAINT.OBJ
E:\PROGRAMMING\BULLET PHYSICS\BUILDS\SRC\BULLETDYNAMICS\BULLETDYNAMICS.DIR\RELEASE\BTHINGECONSTRAINT.OBJ
E:\PROGRAMMING\BULLET PHYSICS\BUILDS\SRC\BULLETDYNAMICS\BULLETDYNAMICS.DIR\RELEASE\BTHINGE2CONSTRAINT.OBJ
E:\PROGRAMMING\BULLET PHYSICS\BUILDS\SRC\BULLETDYNAMICS\BULLETDYNAMICS.DIR\RELEASE\BTGENERIC6DOFSPRING2CONSTRAINT.OBJ
E:\PROGRAMMING\BULLET PHYSICS\BUILDS\SRC\BULLETDYNAMICS\BULLETDYNAMICS.DIR\RELEASE\BTGENERIC6DOFSPRINGCONSTRAINT.OBJ
E:\PROGRAMMING\BULLET PHYSICS\BUILDS\SRC\BULLETDYNAMICS\BULLETDYNAMICS.DIR\RELEASE\BTGENERIC6DOFCONSTRAINT.OBJ
E:\PROGRAMMING\BULLET PHYSICS\BUILDS\SRC\BULLETDYNAMICS\BULLETDYNAMICS.DIR\RELEASE\BTGEARCONSTRAINT.OBJ
E:\PROGRAMMING\BULLET PHYSICS\BUILDS\SRC\BULLETDYNAMICS\BULLETDYNAMICS.DIR\RELEASE\BTFIXEDCONSTRAINT.OBJ
E:\PROGRAMMING\BULLET PHYSICS\BUILDS\SRC\BULLETDYNAMICS\BULLETDYNAMICS.DIR\RELEASE\BTCONTACTCONSTRAINT.OBJ
E:\PROGRAMMING\BULLET PHYSICS\BUILDS\SRC\BULLETDYNAMICS\BULLETDYNAMICS.DIR\RELEASE\BTCONETWISTCONSTRAINT.OBJ
E:\PROGRAMMING\BULLET PHYSICS\BUILDS\SRC\BULLETDYNAMICS\BULLETDYNAMICS.DIR\RELEASE\BTKINEMATICCHARACTERCONTROLLER.OBJ
E:\PROGRAMMING\BULLET PHYSICS\BUILDS\SRC\BULLETDYNAMICS\BULLETDYNAMICS.DIR\RELEASE\BTLEMKEALGORITHM.OBJ
E:\PROGRAMMING\BULLET PHYSICS\BUILDS\SRC\BULLETDYNAMICS\BULLETDYNAMICS.DIR\RELEASE\BTMLCPSOLVER.OBJ
E:\PROGRAMMING\BULLET PHYSICS\BUILDS\SRC\BULLETDYNAMICS\BULLETDYNAMICS.DIR\RELEASE\BTDANTZIGLCP.OBJ
E:\PROGRAMMING\BULLET PHYSICS\BUILDS\SRC\BULLETDYNAMICS\BULLETDYNAMICS.DIR\RELEASE\BTMULTIBODYJOINTMOTOR.OBJ
E:\PROGRAMMING\BULLET PHYSICS\BUILDS\SRC\BULLETDYNAMICS\BULLETDYNAMICS.DIR\RELEASE\BTMULTIBODYPOINT2POINT.OBJ
E:\PROGRAMMING\BULLET PHYSICS\BUILDS\SRC\BULLETDYNAMICS\BULLETDYNAMICS.DIR\RELEASE\BTMULTIBODYCONSTRAINT.OBJ
E:\PROGRAMMING\BULLET PHYSICS\BUILDS\SRC\BULLETDYNAMICS\BULLETDYNAMICS.DIR\RELEASE\BTMULTIBODYJOINTLIMITCONSTRAINT.OBJ
E:\PROGRAMMING\BULLET PHYSICS\BUILDS\SRC\BULLETDYNAMICS\BULLETDYNAMICS.DIR\RELEASE\BTMULTIBODYDYNAMICSWORLD.OBJ
E:\PROGRAMMING\BULLET PHYSICS\BUILDS\SRC\BULLETDYNAMICS\BULLETDYNAMICS.DIR\RELEASE\BTMULTIBODYCONSTRAINTSOLVER.OBJ
E:\PROGRAMMING\BULLET PHYSICS\BUILDS\SRC\BULLETDYNAMICS\BULLETDYNAMICS.DIR\RELEASE\BTMULTIBODY.OBJ
E:\PROGRAMMING\BULLET PHYSICS\BUILDS\SRC\BULLETDYNAMICS\BULLETDYNAMICS.DIR\RELEASE\BTWHEELINFO.OBJ
E:\PROGRAMMING\BULLET PHYSICS\BUILDS\SRC\BULLETDYNAMICS\BULLETDYNAMICS.DIR\RELEASE\BTRAYCASTVEHICLE.OBJ
