^E:\PROGRAMMING\BULLET PHYSICS\BUILDS\SRC\BULLETINVERSEDYNAMICS\BULLETINVERSEDYNAMICS.DIR\DEBUG\IDMATH.OBJ|E:\PROGRAMMING\BULLET PHYSICS\BUILDS\SRC\BULLETINVERSEDYNAMICS\BULLETINVERSEDYNAMICS.DIR\DEBUG\MULTIBODYTREE.OBJ|E:\PROGRAMMING\BULLET PHYSICS\BUILDS\SRC\BULLETINVERSEDYNAMICS\BULLETINVERSEDYNAMICS.DIR\DEBUG\MULTIBODYTREEIMPL.OBJ|E:\PROGRAMMING\BULLET PHYSICS\BUILDS\SRC\BULLETINVERSEDYNAMICS\BULLETINVERSEDYNAMICS.DIR\DEBUG\MULTIBODYTREEINITCACHE.OBJ
C:\WINDOWS\GLOBALIZATION\SORTING\SORTDEFAULT.NLS
E:\PROGRAMMING\BULLET PHYSICS\BUILDS\SRC\BULLETINVERSEDYNAMICS\BULLETINVERSEDYNAMICS.DIR\DEBUG\IDMATH.OBJ
C:\WINDOWS\SYSTEM32\TZRES.DLL
E:\PROGRAMMING\BULLET PHYSICS\BUILDS\SRC\BULLETINVERSEDYNAMICS\BULLETINVERSEDYNAMICS.DIR\DEBUG\MULTIBODYTREE.OBJ
E:\PROGRAMMING\BULLET PHYSICS\BUILDS\SRC\BULLETINVERSEDYNAMICS\BULLETINVERSEDYNAMICS.DIR\DEBUG\MULTIBODYTREEINITCACHE.OBJ
E:\PROGRAMMING\BULLET PHYSICS\BUILDS\SRC\BULLETINVERSEDYNAMICS\BULLETINVERSEDYNAMICS.DIR\DEBUG\MULTIBODYTREEIMPL.OBJ
