^E:\PROGRAMMING\BULLET PHYSICS\BULLET3-2.83.7\SRC\BULLET3COLLISION\BROADPHASECOLLISION\B3DYNAMICBVH.CPP|E:\PROGRAMMING\BULLET PHYSICS\BULLET3-2.83.7\SRC\BULLET3COLLISION\BROADPHASECOLLISION\B3DYNAMICBVHBROADPHASE.CPP|E:\PROGRAMMING\BULLET PHYSICS\BULLET3-2.83.7\SRC\BULLET3COLLISION\BROADPHASECOLLISION\B3OVERLAPPINGPAIRCACHE.CPP|E:\PROGRAMMING\BULLET PHYSICS\BULLET3-2.83.7\SRC\BULLET3COLLISION\NARROWPHASECOLLISION\B3CONVEXUTILITY.CPP|E:\PROGRAMMING\BULLET PHYSICS\BULLET3-2.83.7\SRC\BULLET3COLLISION\NARROWPHASECOLLISION\B3CPUNARROWPHASE.CPP
E:\PROGRAMMING\BULLET PHYSICS\BUILDS\SRC\BULLET3COLLISION\BULLET3COLLISION.DIR\DEBUG\BULLET3COLLISION.PDB
E:\PROGRAMMING\BULLET PHYSICS\BUILDS\SRC\BULLET3COLLISION\BULLET3COLLISION.DIR\DEBUG\B3CPUNARROWPHASE.OBJ
E:\PROGRAMMING\BULLET PHYSICS\BUILDS\SRC\BULLET3COLLISION\BULLET3COLLISION.DIR\DEBUG\B3CONVEXUTILITY.OBJ
E:\PROGRAMMING\BULLET PHYSICS\BUILDS\SRC\BULLET3COLLISION\BULLET3COLLISION.DIR\DEBUG\B3OVERLAPPINGPAIRCACHE.OBJ
E:\PROGRAMMING\BULLET PHYSICS\BUILDS\SRC\BULLET3COLLISION\BULLET3COLLISION.DIR\DEBUG\B3DYNAMICBVHBROADPHASE.OBJ
E:\PROGRAMMING\BULLET PHYSICS\BUILDS\SRC\BULLET3COLLISION\BULLET3COLLISION.DIR\DEBUG\B3DYNAMICBVH.OBJ
^E:\PROGRAMMING\BULLET PHYSICS\BULLET3-2.83.7\SRC\BULLET3COLLISION\BROADPHASECOLLISION\B3DYNAMICBVH.CPP
E:\PROGRAMMING\BULLET PHYSICS\BUILDS\SRC\BULLET3COLLISION\BULLET3COLLISION.DIR\DEBUG\BULLET3COLLISION.PDB
^E:\PROGRAMMING\BULLET PHYSICS\BULLET3-2.83.7\SRC\BULLET3COLLISION\BROADPHASECOLLISION\B3DYNAMICBVHBROADPHASE.CPP
E:\PROGRAMMING\BULLET PHYSICS\BUILDS\SRC\BULLET3COLLISION\BULLET3COLLISION.DIR\DEBUG\BULLET3COLLISION.PDB
^E:\PROGRAMMING\BULLET PHYSICS\BULLET3-2.83.7\SRC\BULLET3COLLISION\BROADPHASECOLLISION\B3OVERLAPPINGPAIRCACHE.CPP
E:\PROGRAMMING\BULLET PHYSICS\BUILDS\SRC\BULLET3COLLISION\BULLET3COLLISION.DIR\DEBUG\BULLET3COLLISION.PDB
^E:\PROGRAMMING\BULLET PHYSICS\BULLET3-2.83.7\SRC\BULLET3COLLISION\NARROWPHASECOLLISION\B3CONVEXUTILITY.CPP
E:\PROGRAMMING\BULLET PHYSICS\BUILDS\SRC\BULLET3COLLISION\BULLET3COLLISION.DIR\DEBUG\BULLET3COLLISION.PDB
^E:\PROGRAMMING\BULLET PHYSICS\BULLET3-2.83.7\SRC\BULLET3COLLISION\NARROWPHASECOLLISION\B3CPUNARROWPHASE.CPP
E:\PROGRAMMING\BULLET PHYSICS\BUILDS\SRC\BULLET3COLLISION\BULLET3COLLISION.DIR\DEBUG\BULLET3COLLISION.PDB
