^E:\PROGRAMMING\BULLET PHYSICS\BULLET3-2.83.7\EXAMPLES\THIRDPARTYLIBS\GLEW\GLEW.C
/c /I"E:\PROGRAMMING\BULLET PHYSICS\BULLET3-2.83.7\EXAMPLES\OPENGLWINDOW\.." /I"E:\PROGRAMMING\BULLET PHYSICS\BULLET3-2.83.7\EXAMPLES\OPENGLWINDOW\..\..\SRC" /I"E:\PROGRAMMING\BULLET PHYSICS\BULLET3-2.83.7\EXAMPLES\THIRDPARTYLIBS\GLEW" /Zi /nologo /W3 /WX- /Od /Ob0 /D WIN32 /D _DEBUG /D _DEBUG /D _WIN64 /D USE_GRAPHICAL_BENCHMARK /D _CRT_SECURE_NO_WARNINGS /D _CRT_SECURE_NO_DEPRECATE /D _SCL_SECURE_NO_WARNINGS /D GLEW_STATIC /D "CMAKE_INTDIR=\"Debug\"" /D _MBCS /Gm- /EHsc /RTC1 /MTd /GS /fp:fast /Zc:wchar_t /Zc:forScope /Zc:inline /GR /Fo"OPENGLWINDOW.DIR\DEBUG\\" /Fd"OPENGLWINDOW.DIR\DEBUG\OPENGLWINDOW.PDB" /Gd /TC E:\PROGRAMMING\BULLET PHYSICS\BULLET3-2.83.7\EXAMPLES\THIRDPARTYLIBS\GLEW\GLEW.C
^E:\PROGRAMMING\BULLET PHYSICS\BULLET3-2.83.7\EXAMPLES\OPENGLWINDOW\WIN32OPENGLWINDOW.CPP
/c /I"E:\PROGRAMMING\BULLET PHYSICS\BULLET3-2.83.7\EXAMPLES\OPENGLWINDOW\.." /I"E:\PROGRAMMING\BULLET PHYSICS\BULLET3-2.83.7\EXAMPLES\OPENGLWINDOW\..\..\SRC" /I"E:\PROGRAMMING\BULLET PHYSICS\BULLET3-2.83.7\EXAMPLES\THIRDPARTYLIBS\GLEW" /Zi /nologo /W3 /WX- /Od /Ob0 /D WIN32 /D _DEBUG /D _DEBUG /D _WIN64 /D USE_GRAPHICAL_BENCHMARK /D _CRT_SECURE_NO_WARNINGS /D _CRT_SECURE_NO_DEPRECATE /D _SCL_SECURE_NO_WARNINGS /D GLEW_STATIC /D "CMAKE_INTDIR=\"Debug\"" /D _MBCS /Gm- /EHsc /RTC1 /MTd /GS /fp:fast /Zc:wchar_t /Zc:forScope /Zc:inline /GR /Fo"OPENGLWINDOW.DIR\DEBUG\\" /Fd"OPENGLWINDOW.DIR\DEBUG\OPENGLWINDOW.PDB" /Gd /TP E:\PROGRAMMING\BULLET PHYSICS\BULLET3-2.83.7\EXAMPLES\OPENGLWINDOW\WIN32OPENGLWINDOW.CPP
^E:\PROGRAMMING\BULLET PHYSICS\BULLET3-2.83.7\EXAMPLES\OPENGLWINDOW\WIN32WINDOW.CPP
/c /I"E:\PROGRAMMING\BULLET PHYSICS\BULLET3-2.83.7\EXAMPLES\OPENGLWINDOW\.." /I"E:\PROGRAMMING\BULLET PHYSICS\BULLET3-2.83.7\EXAMPLES\OPENGLWINDOW\..\..\SRC" /I"E:\PROGRAMMING\BULLET PHYSICS\BULLET3-2.83.7\EXAMPLES\THIRDPARTYLIBS\GLEW" /Zi /nologo /W3 /WX- /Od /Ob0 /D WIN32 /D _DEBUG /D _DEBUG /D _WIN64 /D USE_GRAPHICAL_BENCHMARK /D _CRT_SECURE_NO_WARNINGS /D _CRT_SECURE_NO_DEPRECATE /D _SCL_SECURE_NO_WARNINGS /D GLEW_STATIC /D "CMAKE_INTDIR=\"Debug\"" /D _MBCS /Gm- /EHsc /RTC1 /MTd /GS /fp:fast /Zc:wchar_t /Zc:forScope /Zc:inline /GR /Fo"OPENGLWINDOW.DIR\DEBUG\\" /Fd"OPENGLWINDOW.DIR\DEBUG\OPENGLWINDOW.PDB" /Gd /TP E:\PROGRAMMING\BULLET PHYSICS\BULLET3-2.83.7\EXAMPLES\OPENGLWINDOW\WIN32WINDOW.CPP
^E:\PROGRAMMING\BULLET PHYSICS\BULLET3-2.83.7\EXAMPLES\OPENGLWINDOW\FONTSTASH.CPP
/c /I"E:\PROGRAMMING\BULLET PHYSICS\BULLET3-2.83.7\EXAMPLES\OPENGLWINDOW\.." /I"E:\PROGRAMMING\BULLET PHYSICS\BULLET3-2.83.7\EXAMPLES\OPENGLWINDOW\..\..\SRC" /I"E:\PROGRAMMING\BULLET PHYSICS\BULLET3-2.83.7\EXAMPLES\THIRDPARTYLIBS\GLEW" /Zi /nologo /W3 /WX- /Od /Ob0 /D WIN32 /D _DEBUG /D _DEBUG /D _WIN64 /D USE_GRAPHICAL_BENCHMARK /D _CRT_SECURE_NO_WARNINGS /D _CRT_SECURE_NO_DEPRECATE /D _SCL_SECURE_NO_WARNINGS /D GLEW_STATIC /D "CMAKE_INTDIR=\"Debug\"" /D _MBCS /Gm- /EHsc /RTC1 /MTd /GS /fp:fast /Zc:wchar_t /Zc:forScope /Zc:inline /GR /Fo"OPENGLWINDOW.DIR\DEBUG\\" /Fd"OPENGLWINDOW.DIR\DEBUG\OPENGLWINDOW.PDB" /Gd /TP E:\PROGRAMMING\BULLET PHYSICS\BULLET3-2.83.7\EXAMPLES\OPENGLWINDOW\FONTSTASH.CPP
^E:\PROGRAMMING\BULLET PHYSICS\BULLET3-2.83.7\EXAMPLES\OPENGLWINDOW\GLINSTANCINGRENDERER.CPP
/c /I"E:\PROGRAMMING\BULLET PHYSICS\BULLET3-2.83.7\EXAMPLES\OPENGLWINDOW\.." /I"E:\PROGRAMMING\BULLET PHYSICS\BULLET3-2.83.7\EXAMPLES\OPENGLWINDOW\..\..\SRC" /I"E:\PROGRAMMING\BULLET PHYSICS\BULLET3-2.83.7\EXAMPLES\THIRDPARTYLIBS\GLEW" /Zi /nologo /W3 /WX- /Od /Ob0 /D WIN32 /D _DEBUG /D _DEBUG /D _WIN64 /D USE_GRAPHICAL_BENCHMARK /D _CRT_SECURE_NO_WARNINGS /D _CRT_SECURE_NO_DEPRECATE /D _SCL_SECURE_NO_WARNINGS /D GLEW_STATIC /D "CMAKE_INTDIR=\"Debug\"" /D _MBCS /Gm- /EHsc /RTC1 /MTd /GS /fp:fast /Zc:wchar_t /Zc:forScope /Zc:inline /GR /Fo"OPENGLWINDOW.DIR\DEBUG\\" /Fd"OPENGLWINDOW.DIR\DEBUG\OPENGLWINDOW.PDB" /Gd /TP E:\PROGRAMMING\BULLET PHYSICS\BULLET3-2.83.7\EXAMPLES\OPENGLWINDOW\GLINSTANCINGRENDERER.CPP
^E:\PROGRAMMING\BULLET PHYSICS\BULLET3-2.83.7\EXAMPLES\OPENGLWINDOW\GLPRIMITIVERENDERER.CPP
/c /I"E:\PROGRAMMING\BULLET PHYSICS\BULLET3-2.83.7\EXAMPLES\OPENGLWINDOW\.." /I"E:\PROGRAMMING\BULLET PHYSICS\BULLET3-2.83.7\EXAMPLES\OPENGLWINDOW\..\..\SRC" /I"E:\PROGRAMMING\BULLET PHYSICS\BULLET3-2.83.7\EXAMPLES\THIRDPARTYLIBS\GLEW" /Zi /nologo /W3 /WX- /Od /Ob0 /D WIN32 /D _DEBUG /D _DEBUG /D _WIN64 /D USE_GRAPHICAL_BENCHMARK /D _CRT_SECURE_NO_WARNINGS /D _CRT_SECURE_NO_DEPRECATE /D _SCL_SECURE_NO_WARNINGS /D GLEW_STATIC /D "CMAKE_INTDIR=\"Debug\"" /D _MBCS /Gm- /EHsc /RTC1 /MTd /GS /fp:fast /Zc:wchar_t /Zc:forScope /Zc:inline /GR /Fo"OPENGLWINDOW.DIR\DEBUG\\" /Fd"OPENGLWINDOW.DIR\DEBUG\OPENGLWINDOW.PDB" /Gd /TP E:\PROGRAMMING\BULLET PHYSICS\BULLET3-2.83.7\EXAMPLES\OPENGLWINDOW\GLPRIMITIVERENDERER.CPP
^E:\PROGRAMMING\BULLET PHYSICS\BULLET3-2.83.7\EXAMPLES\OPENGLWINDOW\GLRENDERTOTEXTURE.CPP
/c /I"E:\PROGRAMMING\BULLET PHYSICS\BULLET3-2.83.7\EXAMPLES\OPENGLWINDOW\.." /I"E:\PROGRAMMING\BULLET PHYSICS\BULLET3-2.83.7\EXAMPLES\OPENGLWINDOW\..\..\SRC" /I"E:\PROGRAMMING\BULLET PHYSICS\BULLET3-2.83.7\EXAMPLES\THIRDPARTYLIBS\GLEW" /Zi /nologo /W3 /WX- /Od /Ob0 /D WIN32 /D _DEBUG /D _DEBUG /D _WIN64 /D USE_GRAPHICAL_BENCHMARK /D _CRT_SECURE_NO_WARNINGS /D _CRT_SECURE_NO_DEPRECATE /D _SCL_SECURE_NO_WARNINGS /D GLEW_STATIC /D "CMAKE_INTDIR=\"Debug\"" /D _MBCS /Gm- /EHsc /RTC1 /MTd /GS /fp:fast /Zc:wchar_t /Zc:forScope /Zc:inline /GR /Fo"OPENGLWINDOW.DIR\DEBUG\\" /Fd"OPENGLWINDOW.DIR\DEBUG\OPENGLWINDOW.PDB" /Gd /TP E:\PROGRAMMING\BULLET PHYSICS\BULLET3-2.83.7\EXAMPLES\OPENGLWINDOW\GLRENDERTOTEXTURE.CPP
^E:\PROGRAMMING\BULLET PHYSICS\BULLET3-2.83.7\EXAMPLES\OPENGLWINDOW\LOADSHADER.CPP
/c /I"E:\PROGRAMMING\BULLET PHYSICS\BULLET3-2.83.7\EXAMPLES\OPENGLWINDOW\.." /I"E:\PROGRAMMING\BULLET PHYSICS\BULLET3-2.83.7\EXAMPLES\OPENGLWINDOW\..\..\SRC" /I"E:\PROGRAMMING\BULLET PHYSICS\BULLET3-2.83.7\EXAMPLES\THIRDPARTYLIBS\GLEW" /Zi /nologo /W3 /WX- /Od /Ob0 /D WIN32 /D _DEBUG /D _DEBUG /D _WIN64 /D USE_GRAPHICAL_BENCHMARK /D _CRT_SECURE_NO_WARNINGS /D _CRT_SECURE_NO_DEPRECATE /D _SCL_SECURE_NO_WARNINGS /D GLEW_STATIC /D "CMAKE_INTDIR=\"Debug\"" /D _MBCS /Gm- /EHsc /RTC1 /MTd /GS /fp:fast /Zc:wchar_t /Zc:forScope /Zc:inline /GR /Fo"OPENGLWINDOW.DIR\DEBUG\\" /Fd"OPENGLWINDOW.DIR\DEBUG\OPENGLWINDOW.PDB" /Gd /TP E:\PROGRAMMING\BULLET PHYSICS\BULLET3-2.83.7\EXAMPLES\OPENGLWINDOW\LOADSHADER.CPP
^E:\PROGRAMMING\BULLET PHYSICS\BULLET3-2.83.7\EXAMPLES\OPENGLWINDOW\OPENGL_FONTSTASHCALLBACKS.CPP
/c /I"E:\PROGRAMMING\BULLET PHYSICS\BULLET3-2.83.7\EXAMPLES\OPENGLWINDOW\.." /I"E:\PROGRAMMING\BULLET PHYSICS\BULLET3-2.83.7\EXAMPLES\OPENGLWINDOW\..\..\SRC" /I"E:\PROGRAMMING\BULLET PHYSICS\BULLET3-2.83.7\EXAMPLES\THIRDPARTYLIBS\GLEW" /Zi /nologo /W3 /WX- /Od /Ob0 /D WIN32 /D _DEBUG /D _DEBUG /D _WIN64 /D USE_GRAPHICAL_BENCHMARK /D _CRT_SECURE_NO_WARNINGS /D _CRT_SECURE_NO_DEPRECATE /D _SCL_SECURE_NO_WARNINGS /D GLEW_STATIC /D "CMAKE_INTDIR=\"Debug\"" /D _MBCS /Gm- /EHsc /RTC1 /MTd /GS /fp:fast /Zc:wchar_t /Zc:forScope /Zc:inline /GR /Fo"OPENGLWINDOW.DIR\DEBUG\\" /Fd"OPENGLWINDOW.DIR\DEBUG\OPENGLWINDOW.PDB" /Gd /TP E:\PROGRAMMING\BULLET PHYSICS\BULLET3-2.83.7\EXAMPLES\OPENGLWINDOW\OPENGL_FONTSTASHCALLBACKS.CPP
^E:\PROGRAMMING\BULLET PHYSICS\BULLET3-2.83.7\EXAMPLES\OPENGLWINDOW\OPENSANS.CPP
/c /I"E:\PROGRAMMING\BULLET PHYSICS\BULLET3-2.83.7\EXAMPLES\OPENGLWINDOW\.." /I"E:\PROGRAMMING\BULLET PHYSICS\BULLET3-2.83.7\EXAMPLES\OPENGLWINDOW\..\..\SRC" /I"E:\PROGRAMMING\BULLET PHYSICS\BULLET3-2.83.7\EXAMPLES\THIRDPARTYLIBS\GLEW" /Zi /nologo /W3 /WX- /Od /Ob0 /D WIN32 /D _DEBUG /D _DEBUG /D _WIN64 /D USE_GRAPHICAL_BENCHMARK /D _CRT_SECURE_NO_WARNINGS /D _CRT_SECURE_NO_DEPRECATE /D _SCL_SECURE_NO_WARNINGS /D GLEW_STATIC /D "CMAKE_INTDIR=\"Debug\"" /D _MBCS /Gm- /EHsc /RTC1 /MTd /GS /fp:fast /Zc:wchar_t /Zc:forScope /Zc:inline /GR /Fo"OPENGLWINDOW.DIR\DEBUG\\" /Fd"OPENGLWINDOW.DIR\DEBUG\OPENGLWINDOW.PDB" /Gd /TP E:\PROGRAMMING\BULLET PHYSICS\BULLET3-2.83.7\EXAMPLES\OPENGLWINDOW\OPENSANS.CPP
^E:\PROGRAMMING\BULLET PHYSICS\BULLET3-2.83.7\EXAMPLES\OPENGLWINDOW\SIMPLECAMERA.CPP
/c /I"E:\PROGRAMMING\BULLET PHYSICS\BULLET3-2.83.7\EXAMPLES\OPENGLWINDOW\.." /I"E:\PROGRAMMING\BULLET PHYSICS\BULLET3-2.83.7\EXAMPLES\OPENGLWINDOW\..\..\SRC" /I"E:\PROGRAMMING\BULLET PHYSICS\BULLET3-2.83.7\EXAMPLES\THIRDPARTYLIBS\GLEW" /Zi /nologo /W3 /WX- /Od /Ob0 /D WIN32 /D _DEBUG /D _DEBUG /D _WIN64 /D USE_GRAPHICAL_BENCHMARK /D _CRT_SECURE_NO_WARNINGS /D _CRT_SECURE_NO_DEPRECATE /D _SCL_SECURE_NO_WARNINGS /D GLEW_STATIC /D "CMAKE_INTDIR=\"Debug\"" /D _MBCS /Gm- /EHsc /RTC1 /MTd /GS /fp:fast /Zc:wchar_t /Zc:forScope /Zc:inline /GR /Fo"OPENGLWINDOW.DIR\DEBUG\\" /Fd"OPENGLWINDOW.DIR\DEBUG\OPENGLWINDOW.PDB" /Gd /TP E:\PROGRAMMING\BULLET PHYSICS\BULLET3-2.83.7\EXAMPLES\OPENGLWINDOW\SIMPLECAMERA.CPP
^E:\PROGRAMMING\BULLET PHYSICS\BULLET3-2.83.7\EXAMPLES\OPENGLWINDOW\SIMPLEOPENGL2APP.CPP
/c /I"E:\PROGRAMMING\BULLET PHYSICS\BULLET3-2.83.7\EXAMPLES\OPENGLWINDOW\.." /I"E:\PROGRAMMING\BULLET PHYSICS\BULLET3-2.83.7\EXAMPLES\OPENGLWINDOW\..\..\SRC" /I"E:\PROGRAMMING\BULLET PHYSICS\BULLET3-2.83.7\EXAMPLES\THIRDPARTYLIBS\GLEW" /Zi /nologo /W3 /WX- /Od /Ob0 /D WIN32 /D _DEBUG /D _DEBUG /D _WIN64 /D USE_GRAPHICAL_BENCHMARK /D _CRT_SECURE_NO_WARNINGS /D _CRT_SECURE_NO_DEPRECATE /D _SCL_SECURE_NO_WARNINGS /D GLEW_STATIC /D "CMAKE_INTDIR=\"Debug\"" /D _MBCS /Gm- /EHsc /RTC1 /MTd /GS /fp:fast /Zc:wchar_t /Zc:forScope /Zc:inline /GR /Fo"OPENGLWINDOW.DIR\DEBUG\\" /Fd"OPENGLWINDOW.DIR\DEBUG\OPENGLWINDOW.PDB" /Gd /TP E:\PROGRAMMING\BULLET PHYSICS\BULLET3-2.83.7\EXAMPLES\OPENGLWINDOW\SIMPLEOPENGL2APP.CPP
^E:\PROGRAMMING\BULLET PHYSICS\BULLET3-2.83.7\EXAMPLES\OPENGLWINDOW\SIMPLEOPENGL2RENDERER.CPP
/c /I"E:\PROGRAMMING\BULLET PHYSICS\BULLET3-2.83.7\EXAMPLES\OPENGLWINDOW\.." /I"E:\PROGRAMMING\BULLET PHYSICS\BULLET3-2.83.7\EXAMPLES\OPENGLWINDOW\..\..\SRC" /I"E:\PROGRAMMING\BULLET PHYSICS\BULLET3-2.83.7\EXAMPLES\THIRDPARTYLIBS\GLEW" /Zi /nologo /W3 /WX- /Od /Ob0 /D WIN32 /D _DEBUG /D _DEBUG /D _WIN64 /D USE_GRAPHICAL_BENCHMARK /D _CRT_SECURE_NO_WARNINGS /D _CRT_SECURE_NO_DEPRECATE /D _SCL_SECURE_NO_WARNINGS /D GLEW_STATIC /D "CMAKE_INTDIR=\"Debug\"" /D _MBCS /Gm- /EHsc /RTC1 /MTd /GS /fp:fast /Zc:wchar_t /Zc:forScope /Zc:inline /GR /Fo"OPENGLWINDOW.DIR\DEBUG\\" /Fd"OPENGLWINDOW.DIR\DEBUG\OPENGLWINDOW.PDB" /Gd /TP E:\PROGRAMMING\BULLET PHYSICS\BULLET3-2.83.7\EXAMPLES\OPENGLWINDOW\SIMPLEOPENGL2RENDERER.CPP
^E:\PROGRAMMING\BULLET PHYSICS\BULLET3-2.83.7\EXAMPLES\OPENGLWINDOW\SIMPLEOPENGL3APP.CPP
/c /I"E:\PROGRAMMING\BULLET PHYSICS\BULLET3-2.83.7\EXAMPLES\OPENGLWINDOW\.." /I"E:\PROGRAMMING\BULLET PHYSICS\BULLET3-2.83.7\EXAMPLES\OPENGLWINDOW\..\..\SRC" /I"E:\PROGRAMMING\BULLET PHYSICS\BULLET3-2.83.7\EXAMPLES\THIRDPARTYLIBS\GLEW" /Zi /nologo /W3 /WX- /Od /Ob0 /D WIN32 /D _DEBUG /D _DEBUG /D _WIN64 /D USE_GRAPHICAL_BENCHMARK /D _CRT_SECURE_NO_WARNINGS /D _CRT_SECURE_NO_DEPRECATE /D _SCL_SECURE_NO_WARNINGS /D GLEW_STATIC /D "CMAKE_INTDIR=\"Debug\"" /D _MBCS /Gm- /EHsc /RTC1 /MTd /GS /fp:fast /Zc:wchar_t /Zc:forScope /Zc:inline /GR /Fo"OPENGLWINDOW.DIR\DEBUG\\" /Fd"OPENGLWINDOW.DIR\DEBUG\OPENGLWINDOW.PDB" /Gd /TP E:\PROGRAMMING\BULLET PHYSICS\BULLET3-2.83.7\EXAMPLES\OPENGLWINDOW\SIMPLEOPENGL3APP.CPP
^E:\PROGRAMMING\BULLET PHYSICS\BULLET3-2.83.7\EXAMPLES\OPENGLWINDOW\TWFONTS.CPP
/c /I"E:\PROGRAMMING\BULLET PHYSICS\BULLET3-2.83.7\EXAMPLES\OPENGLWINDOW\.." /I"E:\PROGRAMMING\BULLET PHYSICS\BULLET3-2.83.7\EXAMPLES\OPENGLWINDOW\..\..\SRC" /I"E:\PROGRAMMING\BULLET PHYSICS\BULLET3-2.83.7\EXAMPLES\THIRDPARTYLIBS\GLEW" /Zi /nologo /W3 /WX- /Od /Ob0 /D WIN32 /D _DEBUG /D _DEBUG /D _WIN64 /D USE_GRAPHICAL_BENCHMARK /D _CRT_SECURE_NO_WARNINGS /D _CRT_SECURE_NO_DEPRECATE /D _SCL_SECURE_NO_WARNINGS /D GLEW_STATIC /D "CMAKE_INTDIR=\"Debug\"" /D _MBCS /Gm- /EHsc /RTC1 /MTd /GS /fp:fast /Zc:wchar_t /Zc:forScope /Zc:inline /GR /Fo"OPENGLWINDOW.DIR\DEBUG\\" /Fd"OPENGLWINDOW.DIR\DEBUG\OPENGLWINDOW.PDB" /Gd /TP E:\PROGRAMMING\BULLET PHYSICS\BULLET3-2.83.7\EXAMPLES\OPENGLWINDOW\TWFONTS.CPP
