^E:\PROGRAMMING\BULLET PHYSICS\BUILDS\EXAMPLES\OPENGLWINDOW\OPENGLWINDOW.DIR\DEBUG\FONTSTASH.OBJ|E:\PROGRAMMING\BULLET PHYSICS\BUILDS\EXAMPLES\OPENGLWINDOW\OPENGLWINDOW.DIR\DEBUG\GLEW.OBJ|E:\PROGRAMMING\BULLET PHYSICS\BUILDS\EXAMPLES\OPENGLWINDOW\OPENGLWINDOW.DIR\DEBUG\GLINSTANCINGRENDERER.OBJ|E:\PROGRAMMING\BULLET PHYSICS\BUILDS\EXAMPLES\OPENGLWINDOW\OPENGLWINDOW.DIR\DEBUG\GLPRIMITIVERENDERER.OBJ|E:\PROGRAMMING\BULLET PHYSICS\BUILDS\EXAMPLES\OPENGLWINDOW\OPENGLWINDOW.DIR\DEBUG\GLRENDERTOTEXTURE.OBJ|E:\PROGRAMMING\BULLET PHYSICS\BUILDS\EXAMPLES\OPENGLWINDOW\OPENGLWINDOW.DIR\DEBUG\LOADSHADER.OBJ|E:\PROGRAMMING\BULLET PHYSICS\BUILDS\EXAMPLES\OPENGLWINDOW\OPENGLWINDOW.DIR\DEBUG\OPENGL_FONTSTASHCALLBACKS.OBJ|E:\PROGRAMMING\BULLET PHYSICS\BUILDS\EXAMPLES\OPENGLWINDOW\OPENGLWINDOW.DIR\DEBUG\OPENSANS.OBJ|E:\PROGRAMMING\BULLET PHYSICS\BUILDS\EXAMPLES\OPENGLWINDOW\OPENGLWINDOW.DIR\DEBUG\SIMPLECAMERA.OBJ|E:\PROGRAMMING\BULLET PHYSICS\BUILDS\EXAMPLES\OPENGLWINDOW\OPENGLWINDOW.DIR\DEBUG\SIMPLEOPENGL2APP.OBJ|E:\PROGRAMMING\BULLET PHYSICS\BUILDS\EXAMPLES\OPENGLWINDOW\OPENGLWINDOW.DIR\DEBUG\SIMPLEOPENGL2RENDERER.OBJ|E:\PROGRAMMING\BULLET PHYSICS\BUILDS\EXAMPLES\OPENGLWINDOW\OPENGLWINDOW.DIR\DEBUG\SIMPLEOPENGL3APP.OBJ|E:\PROGRAMMING\BULLET PHYSICS\BUILDS\EXAMPLES\OPENGLWINDOW\OPENGLWINDOW.DIR\DEBUG\TWFONTS.OBJ|E:\PROGRAMMING\BULLET PHYSICS\BUILDS\EXAMPLES\OPENGLWINDOW\OPENGLWINDOW.DIR\DEBUG\WIN32OPENGLWINDOW.OBJ|E:\PROGRAMMING\BULLET PHYSICS\BUILDS\EXAMPLES\OPENGLWINDOW\OPENGLWINDOW.DIR\DEBUG\WIN32WINDOW.OBJ
C:\WINDOWS\GLOBALIZATION\SORTING\SORTDEFAULT.NLS
E:\PROGRAMMING\BULLET PHYSICS\BUILDS\EXAMPLES\OPENGLWINDOW\OPENGLWINDOW.DIR\DEBUG\GLEW.OBJ
C:\WINDOWS\SYSTEM32\TZRES.DLL
E:\PROGRAMMING\BULLET PHYSICS\BUILDS\EXAMPLES\OPENGLWINDOW\OPENGLWINDOW.DIR\DEBUG\WIN32OPENGLWINDOW.OBJ
E:\PROGRAMMING\BULLET PHYSICS\BUILDS\EXAMPLES\OPENGLWINDOW\OPENGLWINDOW.DIR\DEBUG\WIN32WINDOW.OBJ
E:\PROGRAMMING\BULLET PHYSICS\BUILDS\EXAMPLES\OPENGLWINDOW\OPENGLWINDOW.DIR\DEBUG\FONTSTASH.OBJ
E:\PROGRAMMING\BULLET PHYSICS\BUILDS\EXAMPLES\OPENGLWINDOW\OPENGLWINDOW.DIR\DEBUG\GLINSTANCINGRENDERER.OBJ
E:\PROGRAMMING\BULLET PHYSICS\BUILDS\EXAMPLES\OPENGLWINDOW\OPENGLWINDOW.DIR\DEBUG\GLPRIMITIVERENDERER.OBJ
E:\PROGRAMMING\BULLET PHYSICS\BUILDS\EXAMPLES\OPENGLWINDOW\OPENGLWINDOW.DIR\DEBUG\GLRENDERTOTEXTURE.OBJ
E:\PROGRAMMING\BULLET PHYSICS\BUILDS\EXAMPLES\OPENGLWINDOW\OPENGLWINDOW.DIR\DEBUG\LOADSHADER.OBJ
E:\PROGRAMMING\BULLET PHYSICS\BUILDS\EXAMPLES\OPENGLWINDOW\OPENGLWINDOW.DIR\DEBUG\OPENGL_FONTSTASHCALLBACKS.OBJ
E:\PROGRAMMING\BULLET PHYSICS\BUILDS\EXAMPLES\OPENGLWINDOW\OPENGLWINDOW.DIR\DEBUG\OPENSANS.OBJ
E:\PROGRAMMING\BULLET PHYSICS\BUILDS\EXAMPLES\OPENGLWINDOW\OPENGLWINDOW.DIR\DEBUG\SIMPLECAMERA.OBJ
E:\PROGRAMMING\BULLET PHYSICS\BUILDS\EXAMPLES\OPENGLWINDOW\OPENGLWINDOW.DIR\DEBUG\SIMPLEOPENGL2APP.OBJ
E:\PROGRAMMING\BULLET PHYSICS\BUILDS\EXAMPLES\OPENGLWINDOW\OPENGLWINDOW.DIR\DEBUG\SIMPLEOPENGL2RENDERER.OBJ
E:\PROGRAMMING\BULLET PHYSICS\BUILDS\EXAMPLES\OPENGLWINDOW\OPENGLWINDOW.DIR\DEBUG\SIMPLEOPENGL3APP.OBJ
E:\PROGRAMMING\BULLET PHYSICS\BUILDS\EXAMPLES\OPENGLWINDOW\OPENGLWINDOW.DIR\DEBUG\TWFONTS.OBJ
