^E:\PROGRAMMING\BULLET PHYSICS\BULLET3-2.83.7\EXAMPLES\THIRDPARTYLIBS\GWEN\ANIM.CPP
/c /I"E:\PROGRAMMING\BULLET PHYSICS\BULLET3-2.83.7\SRC" /I"E:\PROGRAMMING\BULLET PHYSICS\BULLET3-2.83.7\EXAMPLES\THIRDPARTYLIBS" /I"E:\PROGRAMMING\BULLET PHYSICS\BULLET3-2.83.7\EXAMPLES\THIRDPARTYLIBS\GLEW" /Zi /nologo /W3 /WX- /Od /Ob0 /D WIN32 /D _DEBUG /D _DEBUG /D _WIN64 /D USE_GRAPHICAL_BENCHMARK /D _CRT_SECURE_NO_WARNINGS /D _CRT_SECURE_NO_DEPRECATE /D _SCL_SECURE_NO_WARNINGS /D GLEW_STATIC /D GWEN_COMPILE_STATIC /D _HAS_EXCEPTIONS=0 /D _STATIC_CPPLIB /D "CMAKE_INTDIR=\"Debug\"" /D _MBCS /Gm- /EHsc /RTC1 /MTd /GS /fp:fast /Zc:wchar_t /Zc:forScope /Zc:inline /GR /Fo"GWEN.DIR\DEBUG\\" /Fd"GWEN.DIR\DEBUG\GWEN.PDB" /Gd /TP E:\PROGRAMMING\BULLET PHYSICS\BULLET3-2.83.7\EXAMPLES\THIRDPARTYLIBS\GWEN\ANIM.CPP
^E:\PROGRAMMING\BULLET PHYSICS\BULLET3-2.83.7\EXAMPLES\THIRDPARTYLIBS\GWEN\BASERENDER.CPP
/c /I"E:\PROGRAMMING\BULLET PHYSICS\BULLET3-2.83.7\SRC" /I"E:\PROGRAMMING\BULLET PHYSICS\BULLET3-2.83.7\EXAMPLES\THIRDPARTYLIBS" /I"E:\PROGRAMMING\BULLET PHYSICS\BULLET3-2.83.7\EXAMPLES\THIRDPARTYLIBS\GLEW" /Zi /nologo /W3 /WX- /Od /Ob0 /D WIN32 /D _DEBUG /D _DEBUG /D _WIN64 /D USE_GRAPHICAL_BENCHMARK /D _CRT_SECURE_NO_WARNINGS /D _CRT_SECURE_NO_DEPRECATE /D _SCL_SECURE_NO_WARNINGS /D GLEW_STATIC /D GWEN_COMPILE_STATIC /D _HAS_EXCEPTIONS=0 /D _STATIC_CPPLIB /D "CMAKE_INTDIR=\"Debug\"" /D _MBCS /Gm- /EHsc /RTC1 /MTd /GS /fp:fast /Zc:wchar_t /Zc:forScope /Zc:inline /GR /Fo"GWEN.DIR\DEBUG\\" /Fd"GWEN.DIR\DEBUG\GWEN.PDB" /Gd /TP E:\PROGRAMMING\BULLET PHYSICS\BULLET3-2.83.7\EXAMPLES\THIRDPARTYLIBS\GWEN\BASERENDER.CPP
^E:\PROGRAMMING\BULLET PHYSICS\BULLET3-2.83.7\EXAMPLES\THIRDPARTYLIBS\GWEN\DRAGANDDROP.CPP
/c /I"E:\PROGRAMMING\BULLET PHYSICS\BULLET3-2.83.7\SRC" /I"E:\PROGRAMMING\BULLET PHYSICS\BULLET3-2.83.7\EXAMPLES\THIRDPARTYLIBS" /I"E:\PROGRAMMING\BULLET PHYSICS\BULLET3-2.83.7\EXAMPLES\THIRDPARTYLIBS\GLEW" /Zi /nologo /W3 /WX- /Od /Ob0 /D WIN32 /D _DEBUG /D _DEBUG /D _WIN64 /D USE_GRAPHICAL_BENCHMARK /D _CRT_SECURE_NO_WARNINGS /D _CRT_SECURE_NO_DEPRECATE /D _SCL_SECURE_NO_WARNINGS /D GLEW_STATIC /D GWEN_COMPILE_STATIC /D _HAS_EXCEPTIONS=0 /D _STATIC_CPPLIB /D "CMAKE_INTDIR=\"Debug\"" /D _MBCS /Gm- /EHsc /RTC1 /MTd /GS /fp:fast /Zc:wchar_t /Zc:forScope /Zc:inline /GR /Fo"GWEN.DIR\DEBUG\\" /Fd"GWEN.DIR\DEBUG\GWEN.PDB" /Gd /TP E:\PROGRAMMING\BULLET PHYSICS\BULLET3-2.83.7\EXAMPLES\THIRDPARTYLIBS\GWEN\DRAGANDDROP.CPP
^E:\PROGRAMMING\BULLET PHYSICS\BULLET3-2.83.7\EXAMPLES\THIRDPARTYLIBS\GWEN\EVENTS.CPP
/c /I"E:\PROGRAMMING\BULLET PHYSICS\BULLET3-2.83.7\SRC" /I"E:\PROGRAMMING\BULLET PHYSICS\BULLET3-2.83.7\EXAMPLES\THIRDPARTYLIBS" /I"E:\PROGRAMMING\BULLET PHYSICS\BULLET3-2.83.7\EXAMPLES\THIRDPARTYLIBS\GLEW" /Zi /nologo /W3 /WX- /Od /Ob0 /D WIN32 /D _DEBUG /D _DEBUG /D _WIN64 /D USE_GRAPHICAL_BENCHMARK /D _CRT_SECURE_NO_WARNINGS /D _CRT_SECURE_NO_DEPRECATE /D _SCL_SECURE_NO_WARNINGS /D GLEW_STATIC /D GWEN_COMPILE_STATIC /D _HAS_EXCEPTIONS=0 /D _STATIC_CPPLIB /D "CMAKE_INTDIR=\"Debug\"" /D _MBCS /Gm- /EHsc /RTC1 /MTd /GS /fp:fast /Zc:wchar_t /Zc:forScope /Zc:inline /GR /Fo"GWEN.DIR\DEBUG\\" /Fd"GWEN.DIR\DEBUG\GWEN.PDB" /Gd /TP E:\PROGRAMMING\BULLET PHYSICS\BULLET3-2.83.7\EXAMPLES\THIRDPARTYLIBS\GWEN\EVENTS.CPP
^E:\PROGRAMMING\BULLET PHYSICS\BULLET3-2.83.7\EXAMPLES\THIRDPARTYLIBS\GWEN\GWEN.CPP
/c /I"E:\PROGRAMMING\BULLET PHYSICS\BULLET3-2.83.7\SRC" /I"E:\PROGRAMMING\BULLET PHYSICS\BULLET3-2.83.7\EXAMPLES\THIRDPARTYLIBS" /I"E:\PROGRAMMING\BULLET PHYSICS\BULLET3-2.83.7\EXAMPLES\THIRDPARTYLIBS\GLEW" /Zi /nologo /W3 /WX- /Od /Ob0 /D WIN32 /D _DEBUG /D _DEBUG /D _WIN64 /D USE_GRAPHICAL_BENCHMARK /D _CRT_SECURE_NO_WARNINGS /D _CRT_SECURE_NO_DEPRECATE /D _SCL_SECURE_NO_WARNINGS /D GLEW_STATIC /D GWEN_COMPILE_STATIC /D _HAS_EXCEPTIONS=0 /D _STATIC_CPPLIB /D "CMAKE_INTDIR=\"Debug\"" /D _MBCS /Gm- /EHsc /RTC1 /MTd /GS /fp:fast /Zc:wchar_t /Zc:forScope /Zc:inline /GR /Fo"GWEN.DIR\DEBUG\\" /Fd"GWEN.DIR\DEBUG\GWEN.PDB" /Gd /TP E:\PROGRAMMING\BULLET PHYSICS\BULLET3-2.83.7\EXAMPLES\THIRDPARTYLIBS\GWEN\GWEN.CPP
^E:\PROGRAMMING\BULLET PHYSICS\BULLET3-2.83.7\EXAMPLES\THIRDPARTYLIBS\GWEN\HOOK.CPP
/c /I"E:\PROGRAMMING\BULLET PHYSICS\BULLET3-2.83.7\SRC" /I"E:\PROGRAMMING\BULLET PHYSICS\BULLET3-2.83.7\EXAMPLES\THIRDPARTYLIBS" /I"E:\PROGRAMMING\BULLET PHYSICS\BULLET3-2.83.7\EXAMPLES\THIRDPARTYLIBS\GLEW" /Zi /nologo /W3 /WX- /Od /Ob0 /D WIN32 /D _DEBUG /D _DEBUG /D _WIN64 /D USE_GRAPHICAL_BENCHMARK /D _CRT_SECURE_NO_WARNINGS /D _CRT_SECURE_NO_DEPRECATE /D _SCL_SECURE_NO_WARNINGS /D GLEW_STATIC /D GWEN_COMPILE_STATIC /D _HAS_EXCEPTIONS=0 /D _STATIC_CPPLIB /D "CMAKE_INTDIR=\"Debug\"" /D _MBCS /Gm- /EHsc /RTC1 /MTd /GS /fp:fast /Zc:wchar_t /Zc:forScope /Zc:inline /GR /Fo"GWEN.DIR\DEBUG\\" /Fd"GWEN.DIR\DEBUG\GWEN.PDB" /Gd /TP E:\PROGRAMMING\BULLET PHYSICS\BULLET3-2.83.7\EXAMPLES\THIRDPARTYLIBS\GWEN\HOOK.CPP
^E:\PROGRAMMING\BULLET PHYSICS\BULLET3-2.83.7\EXAMPLES\THIRDPARTYLIBS\GWEN\INPUTHANDLER.CPP
/c /I"E:\PROGRAMMING\BULLET PHYSICS\BULLET3-2.83.7\SRC" /I"E:\PROGRAMMING\BULLET PHYSICS\BULLET3-2.83.7\EXAMPLES\THIRDPARTYLIBS" /I"E:\PROGRAMMING\BULLET PHYSICS\BULLET3-2.83.7\EXAMPLES\THIRDPARTYLIBS\GLEW" /Zi /nologo /W3 /WX- /Od /Ob0 /D WIN32 /D _DEBUG /D _DEBUG /D _WIN64 /D USE_GRAPHICAL_BENCHMARK /D _CRT_SECURE_NO_WARNINGS /D _CRT_SECURE_NO_DEPRECATE /D _SCL_SECURE_NO_WARNINGS /D GLEW_STATIC /D GWEN_COMPILE_STATIC /D _HAS_EXCEPTIONS=0 /D _STATIC_CPPLIB /D "CMAKE_INTDIR=\"Debug\"" /D _MBCS /Gm- /EHsc /RTC1 /MTd /GS /fp:fast /Zc:wchar_t /Zc:forScope /Zc:inline /GR /Fo"GWEN.DIR\DEBUG\\" /Fd"GWEN.DIR\DEBUG\GWEN.PDB" /Gd /TP E:\PROGRAMMING\BULLET PHYSICS\BULLET3-2.83.7\EXAMPLES\THIRDPARTYLIBS\GWEN\INPUTHANDLER.CPP
^E:\PROGRAMMING\BULLET PHYSICS\BULLET3-2.83.7\EXAMPLES\THIRDPARTYLIBS\GWEN\SKIN.CPP
/c /I"E:\PROGRAMMING\BULLET PHYSICS\BULLET3-2.83.7\SRC" /I"E:\PROGRAMMING\BULLET PHYSICS\BULLET3-2.83.7\EXAMPLES\THIRDPARTYLIBS" /I"E:\PROGRAMMING\BULLET PHYSICS\BULLET3-2.83.7\EXAMPLES\THIRDPARTYLIBS\GLEW" /Zi /nologo /W3 /WX- /Od /Ob0 /D WIN32 /D _DEBUG /D _DEBUG /D _WIN64 /D USE_GRAPHICAL_BENCHMARK /D _CRT_SECURE_NO_WARNINGS /D _CRT_SECURE_NO_DEPRECATE /D _SCL_SECURE_NO_WARNINGS /D GLEW_STATIC /D GWEN_COMPILE_STATIC /D _HAS_EXCEPTIONS=0 /D _STATIC_CPPLIB /D "CMAKE_INTDIR=\"Debug\"" /D _MBCS /Gm- /EHsc /RTC1 /MTd /GS /fp:fast /Zc:wchar_t /Zc:forScope /Zc:inline /GR /Fo"GWEN.DIR\DEBUG\\" /Fd"GWEN.DIR\DEBUG\GWEN.PDB" /Gd /TP E:\PROGRAMMING\BULLET PHYSICS\BULLET3-2.83.7\EXAMPLES\THIRDPARTYLIBS\GWEN\SKIN.CPP
^E:\PROGRAMMING\BULLET PHYSICS\BULLET3-2.83.7\EXAMPLES\THIRDPARTYLIBS\GWEN\TOOLTIP.CPP
/c /I"E:\PROGRAMMING\BULLET PHYSICS\BULLET3-2.83.7\SRC" /I"E:\PROGRAMMING\BULLET PHYSICS\BULLET3-2.83.7\EXAMPLES\THIRDPARTYLIBS" /I"E:\PROGRAMMING\BULLET PHYSICS\BULLET3-2.83.7\EXAMPLES\THIRDPARTYLIBS\GLEW" /Zi /nologo /W3 /WX- /Od /Ob0 /D WIN32 /D _DEBUG /D _DEBUG /D _WIN64 /D USE_GRAPHICAL_BENCHMARK /D _CRT_SECURE_NO_WARNINGS /D _CRT_SECURE_NO_DEPRECATE /D _SCL_SECURE_NO_WARNINGS /D GLEW_STATIC /D GWEN_COMPILE_STATIC /D _HAS_EXCEPTIONS=0 /D _STATIC_CPPLIB /D "CMAKE_INTDIR=\"Debug\"" /D _MBCS /Gm- /EHsc /RTC1 /MTd /GS /fp:fast /Zc:wchar_t /Zc:forScope /Zc:inline /GR /Fo"GWEN.DIR\DEBUG\\" /Fd"GWEN.DIR\DEBUG\GWEN.PDB" /Gd /TP E:\PROGRAMMING\BULLET PHYSICS\BULLET3-2.83.7\EXAMPLES\THIRDPARTYLIBS\GWEN\TOOLTIP.CPP
^E:\PROGRAMMING\BULLET PHYSICS\BULLET3-2.83.7\EXAMPLES\THIRDPARTYLIBS\GWEN\UTILITY.CPP
/c /I"E:\PROGRAMMING\BULLET PHYSICS\BULLET3-2.83.7\SRC" /I"E:\PROGRAMMING\BULLET PHYSICS\BULLET3-2.83.7\EXAMPLES\THIRDPARTYLIBS" /I"E:\PROGRAMMING\BULLET PHYSICS\BULLET3-2.83.7\EXAMPLES\THIRDPARTYLIBS\GLEW" /Zi /nologo /W3 /WX- /Od /Ob0 /D WIN32 /D _DEBUG /D _DEBUG /D _WIN64 /D USE_GRAPHICAL_BENCHMARK /D _CRT_SECURE_NO_WARNINGS /D _CRT_SECURE_NO_DEPRECATE /D _SCL_SECURE_NO_WARNINGS /D GLEW_STATIC /D GWEN_COMPILE_STATIC /D _HAS_EXCEPTIONS=0 /D _STATIC_CPPLIB /D "CMAKE_INTDIR=\"Debug\"" /D _MBCS /Gm- /EHsc /RTC1 /MTd /GS /fp:fast /Zc:wchar_t /Zc:forScope /Zc:inline /GR /Fo"GWEN.DIR\DEBUG\\" /Fd"GWEN.DIR\DEBUG\GWEN.PDB" /Gd /TP E:\PROGRAMMING\BULLET PHYSICS\BULLET3-2.83.7\EXAMPLES\THIRDPARTYLIBS\GWEN\UTILITY.CPP
^E:\PROGRAMMING\BULLET PHYSICS\BULLET3-2.83.7\EXAMPLES\THIRDPARTYLIBS\GWEN\CONTROLS\BASE.CPP
/c /I"E:\PROGRAMMING\BULLET PHYSICS\BULLET3-2.83.7\SRC" /I"E:\PROGRAMMING\BULLET PHYSICS\BULLET3-2.83.7\EXAMPLES\THIRDPARTYLIBS" /I"E:\PROGRAMMING\BULLET PHYSICS\BULLET3-2.83.7\EXAMPLES\THIRDPARTYLIBS\GLEW" /Zi /nologo /W3 /WX- /Od /Ob0 /D WIN32 /D _DEBUG /D _DEBUG /D _WIN64 /D USE_GRAPHICAL_BENCHMARK /D _CRT_SECURE_NO_WARNINGS /D _CRT_SECURE_NO_DEPRECATE /D _SCL_SECURE_NO_WARNINGS /D GLEW_STATIC /D GWEN_COMPILE_STATIC /D _HAS_EXCEPTIONS=0 /D _STATIC_CPPLIB /D "CMAKE_INTDIR=\"Debug\"" /D _MBCS /Gm- /EHsc /RTC1 /MTd /GS /fp:fast /Zc:wchar_t /Zc:forScope /Zc:inline /GR /Fo"GWEN.DIR\DEBUG\\" /Fd"GWEN.DIR\DEBUG\GWEN.PDB" /Gd /TP E:\PROGRAMMING\BULLET PHYSICS\BULLET3-2.83.7\EXAMPLES\THIRDPARTYLIBS\GWEN\CONTROLS\BASE.CPP
^E:\PROGRAMMING\BULLET PHYSICS\BULLET3-2.83.7\EXAMPLES\THIRDPARTYLIBS\GWEN\CONTROLS\BUTTON.CPP
/c /I"E:\PROGRAMMING\BULLET PHYSICS\BULLET3-2.83.7\SRC" /I"E:\PROGRAMMING\BULLET PHYSICS\BULLET3-2.83.7\EXAMPLES\THIRDPARTYLIBS" /I"E:\PROGRAMMING\BULLET PHYSICS\BULLET3-2.83.7\EXAMPLES\THIRDPARTYLIBS\GLEW" /Zi /nologo /W3 /WX- /Od /Ob0 /D WIN32 /D _DEBUG /D _DEBUG /D _WIN64 /D USE_GRAPHICAL_BENCHMARK /D _CRT_SECURE_NO_WARNINGS /D _CRT_SECURE_NO_DEPRECATE /D _SCL_SECURE_NO_WARNINGS /D GLEW_STATIC /D GWEN_COMPILE_STATIC /D _HAS_EXCEPTIONS=0 /D _STATIC_CPPLIB /D "CMAKE_INTDIR=\"Debug\"" /D _MBCS /Gm- /EHsc /RTC1 /MTd /GS /fp:fast /Zc:wchar_t /Zc:forScope /Zc:inline /GR /Fo"GWEN.DIR\DEBUG\\" /Fd"GWEN.DIR\DEBUG\GWEN.PDB" /Gd /TP E:\PROGRAMMING\BULLET PHYSICS\BULLET3-2.83.7\EXAMPLES\THIRDPARTYLIBS\GWEN\CONTROLS\BUTTON.CPP
^E:\PROGRAMMING\BULLET PHYSICS\BULLET3-2.83.7\EXAMPLES\THIRDPARTYLIBS\GWEN\CONTROLS\CANVAS.CPP
/c /I"E:\PROGRAMMING\BULLET PHYSICS\BULLET3-2.83.7\SRC" /I"E:\PROGRAMMING\BULLET PHYSICS\BULLET3-2.83.7\EXAMPLES\THIRDPARTYLIBS" /I"E:\PROGRAMMING\BULLET PHYSICS\BULLET3-2.83.7\EXAMPLES\THIRDPARTYLIBS\GLEW" /Zi /nologo /W3 /WX- /Od /Ob0 /D WIN32 /D _DEBUG /D _DEBUG /D _WIN64 /D USE_GRAPHICAL_BENCHMARK /D _CRT_SECURE_NO_WARNINGS /D _CRT_SECURE_NO_DEPRECATE /D _SCL_SECURE_NO_WARNINGS /D GLEW_STATIC /D GWEN_COMPILE_STATIC /D _HAS_EXCEPTIONS=0 /D _STATIC_CPPLIB /D "CMAKE_INTDIR=\"Debug\"" /D _MBCS /Gm- /EHsc /RTC1 /MTd /GS /fp:fast /Zc:wchar_t /Zc:forScope /Zc:inline /GR /Fo"GWEN.DIR\DEBUG\\" /Fd"GWEN.DIR\DEBUG\GWEN.PDB" /Gd /TP E:\PROGRAMMING\BULLET PHYSICS\BULLET3-2.83.7\EXAMPLES\THIRDPARTYLIBS\GWEN\CONTROLS\CANVAS.CPP
^E:\PROGRAMMING\BULLET PHYSICS\BULLET3-2.83.7\EXAMPLES\THIRDPARTYLIBS\GWEN\CONTROLS\CHECKBOX.CPP
/c /I"E:\PROGRAMMING\BULLET PHYSICS\BULLET3-2.83.7\SRC" /I"E:\PROGRAMMING\BULLET PHYSICS\BULLET3-2.83.7\EXAMPLES\THIRDPARTYLIBS" /I"E:\PROGRAMMING\BULLET PHYSICS\BULLET3-2.83.7\EXAMPLES\THIRDPARTYLIBS\GLEW" /Zi /nologo /W3 /WX- /Od /Ob0 /D WIN32 /D _DEBUG /D _DEBUG /D _WIN64 /D USE_GRAPHICAL_BENCHMARK /D _CRT_SECURE_NO_WARNINGS /D _CRT_SECURE_NO_DEPRECATE /D _SCL_SECURE_NO_WARNINGS /D GLEW_STATIC /D GWEN_COMPILE_STATIC /D _HAS_EXCEPTIONS=0 /D _STATIC_CPPLIB /D "CMAKE_INTDIR=\"Debug\"" /D _MBCS /Gm- /EHsc /RTC1 /MTd /GS /fp:fast /Zc:wchar_t /Zc:forScope /Zc:inline /GR /Fo"GWEN.DIR\DEBUG\\" /Fd"GWEN.DIR\DEBUG\GWEN.PDB" /Gd /TP E:\PROGRAMMING\BULLET PHYSICS\BULLET3-2.83.7\EXAMPLES\THIRDPARTYLIBS\GWEN\CONTROLS\CHECKBOX.CPP
^E:\PROGRAMMING\BULLET PHYSICS\BULLET3-2.83.7\EXAMPLES\THIRDPARTYLIBS\GWEN\CONTROLS\COLORCONTROLS.CPP
/c /I"E:\PROGRAMMING\BULLET PHYSICS\BULLET3-2.83.7\SRC" /I"E:\PROGRAMMING\BULLET PHYSICS\BULLET3-2.83.7\EXAMPLES\THIRDPARTYLIBS" /I"E:\PROGRAMMING\BULLET PHYSICS\BULLET3-2.83.7\EXAMPLES\THIRDPARTYLIBS\GLEW" /Zi /nologo /W3 /WX- /Od /Ob0 /D WIN32 /D _DEBUG /D _DEBUG /D _WIN64 /D USE_GRAPHICAL_BENCHMARK /D _CRT_SECURE_NO_WARNINGS /D _CRT_SECURE_NO_DEPRECATE /D _SCL_SECURE_NO_WARNINGS /D GLEW_STATIC /D GWEN_COMPILE_STATIC /D _HAS_EXCEPTIONS=0 /D _STATIC_CPPLIB /D "CMAKE_INTDIR=\"Debug\"" /D _MBCS /Gm- /EHsc /RTC1 /MTd /GS /fp:fast /Zc:wchar_t /Zc:forScope /Zc:inline /GR /Fo"GWEN.DIR\DEBUG\\" /Fd"GWEN.DIR\DEBUG\GWEN.PDB" /Gd /TP E:\PROGRAMMING\BULLET PHYSICS\BULLET3-2.83.7\EXAMPLES\THIRDPARTYLIBS\GWEN\CONTROLS\COLORCONTROLS.CPP
^E:\PROGRAMMING\BULLET PHYSICS\BULLET3-2.83.7\EXAMPLES\THIRDPARTYLIBS\GWEN\CONTROLS\COLORPICKER.CPP
/c /I"E:\PROGRAMMING\BULLET PHYSICS\BULLET3-2.83.7\SRC" /I"E:\PROGRAMMING\BULLET PHYSICS\BULLET3-2.83.7\EXAMPLES\THIRDPARTYLIBS" /I"E:\PROGRAMMING\BULLET PHYSICS\BULLET3-2.83.7\EXAMPLES\THIRDPARTYLIBS\GLEW" /Zi /nologo /W3 /WX- /Od /Ob0 /D WIN32 /D _DEBUG /D _DEBUG /D _WIN64 /D USE_GRAPHICAL_BENCHMARK /D _CRT_SECURE_NO_WARNINGS /D _CRT_SECURE_NO_DEPRECATE /D _SCL_SECURE_NO_WARNINGS /D GLEW_STATIC /D GWEN_COMPILE_STATIC /D _HAS_EXCEPTIONS=0 /D _STATIC_CPPLIB /D "CMAKE_INTDIR=\"Debug\"" /D _MBCS /Gm- /EHsc /RTC1 /MTd /GS /fp:fast /Zc:wchar_t /Zc:forScope /Zc:inline /GR /Fo"GWEN.DIR\DEBUG\\" /Fd"GWEN.DIR\DEBUG\GWEN.PDB" /Gd /TP E:\PROGRAMMING\BULLET PHYSICS\BULLET3-2.83.7\EXAMPLES\THIRDPARTYLIBS\GWEN\CONTROLS\COLORPICKER.CPP
^E:\PROGRAMMING\BULLET PHYSICS\BULLET3-2.83.7\EXAMPLES\THIRDPARTYLIBS\GWEN\CONTROLS\COMBOBOX.CPP
/c /I"E:\PROGRAMMING\BULLET PHYSICS\BULLET3-2.83.7\SRC" /I"E:\PROGRAMMING\BULLET PHYSICS\BULLET3-2.83.7\EXAMPLES\THIRDPARTYLIBS" /I"E:\PROGRAMMING\BULLET PHYSICS\BULLET3-2.83.7\EXAMPLES\THIRDPARTYLIBS\GLEW" /Zi /nologo /W3 /WX- /Od /Ob0 /D WIN32 /D _DEBUG /D _DEBUG /D _WIN64 /D USE_GRAPHICAL_BENCHMARK /D _CRT_SECURE_NO_WARNINGS /D _CRT_SECURE_NO_DEPRECATE /D _SCL_SECURE_NO_WARNINGS /D GLEW_STATIC /D GWEN_COMPILE_STATIC /D _HAS_EXCEPTIONS=0 /D _STATIC_CPPLIB /D "CMAKE_INTDIR=\"Debug\"" /D _MBCS /Gm- /EHsc /RTC1 /MTd /GS /fp:fast /Zc:wchar_t /Zc:forScope /Zc:inline /GR /Fo"GWEN.DIR\DEBUG\\" /Fd"GWEN.DIR\DEBUG\GWEN.PDB" /Gd /TP E:\PROGRAMMING\BULLET PHYSICS\BULLET3-2.83.7\EXAMPLES\THIRDPARTYLIBS\GWEN\CONTROLS\COMBOBOX.CPP
^E:\PROGRAMMING\BULLET PHYSICS\BULLET3-2.83.7\EXAMPLES\THIRDPARTYLIBS\GWEN\CONTROLS\CROSSSPLITTER.CPP
/c /I"E:\PROGRAMMING\BULLET PHYSICS\BULLET3-2.83.7\SRC" /I"E:\PROGRAMMING\BULLET PHYSICS\BULLET3-2.83.7\EXAMPLES\THIRDPARTYLIBS" /I"E:\PROGRAMMING\BULLET PHYSICS\BULLET3-2.83.7\EXAMPLES\THIRDPARTYLIBS\GLEW" /Zi /nologo /W3 /WX- /Od /Ob0 /D WIN32 /D _DEBUG /D _DEBUG /D _WIN64 /D USE_GRAPHICAL_BENCHMARK /D _CRT_SECURE_NO_WARNINGS /D _CRT_SECURE_NO_DEPRECATE /D _SCL_SECURE_NO_WARNINGS /D GLEW_STATIC /D GWEN_COMPILE_STATIC /D _HAS_EXCEPTIONS=0 /D _STATIC_CPPLIB /D "CMAKE_INTDIR=\"Debug\"" /D _MBCS /Gm- /EHsc /RTC1 /MTd /GS /fp:fast /Zc:wchar_t /Zc:forScope /Zc:inline /GR /Fo"GWEN.DIR\DEBUG\\" /Fd"GWEN.DIR\DEBUG\GWEN.PDB" /Gd /TP E:\PROGRAMMING\BULLET PHYSICS\BULLET3-2.83.7\EXAMPLES\THIRDPARTYLIBS\GWEN\CONTROLS\CROSSSPLITTER.CPP
^E:\PROGRAMMING\BULLET PHYSICS\BULLET3-2.83.7\EXAMPLES\THIRDPARTYLIBS\GWEN\CONTROLS\DOCKBASE.CPP
/c /I"E:\PROGRAMMING\BULLET PHYSICS\BULLET3-2.83.7\SRC" /I"E:\PROGRAMMING\BULLET PHYSICS\BULLET3-2.83.7\EXAMPLES\THIRDPARTYLIBS" /I"E:\PROGRAMMING\BULLET PHYSICS\BULLET3-2.83.7\EXAMPLES\THIRDPARTYLIBS\GLEW" /Zi /nologo /W3 /WX- /Od /Ob0 /D WIN32 /D _DEBUG /D _DEBUG /D _WIN64 /D USE_GRAPHICAL_BENCHMARK /D _CRT_SECURE_NO_WARNINGS /D _CRT_SECURE_NO_DEPRECATE /D _SCL_SECURE_NO_WARNINGS /D GLEW_STATIC /D GWEN_COMPILE_STATIC /D _HAS_EXCEPTIONS=0 /D _STATIC_CPPLIB /D "CMAKE_INTDIR=\"Debug\"" /D _MBCS /Gm- /EHsc /RTC1 /MTd /GS /fp:fast /Zc:wchar_t /Zc:forScope /Zc:inline /GR /Fo"GWEN.DIR\DEBUG\\" /Fd"GWEN.DIR\DEBUG\GWEN.PDB" /Gd /TP E:\PROGRAMMING\BULLET PHYSICS\BULLET3-2.83.7\EXAMPLES\THIRDPARTYLIBS\GWEN\CONTROLS\DOCKBASE.CPP
^E:\PROGRAMMING\BULLET PHYSICS\BULLET3-2.83.7\EXAMPLES\THIRDPARTYLIBS\GWEN\CONTROLS\DOCKEDTABCONTROL.CPP
/c /I"E:\PROGRAMMING\BULLET PHYSICS\BULLET3-2.83.7\SRC" /I"E:\PROGRAMMING\BULLET PHYSICS\BULLET3-2.83.7\EXAMPLES\THIRDPARTYLIBS" /I"E:\PROGRAMMING\BULLET PHYSICS\BULLET3-2.83.7\EXAMPLES\THIRDPARTYLIBS\GLEW" /Zi /nologo /W3 /WX- /Od /Ob0 /D WIN32 /D _DEBUG /D _DEBUG /D _WIN64 /D USE_GRAPHICAL_BENCHMARK /D _CRT_SECURE_NO_WARNINGS /D _CRT_SECURE_NO_DEPRECATE /D _SCL_SECURE_NO_WARNINGS /D GLEW_STATIC /D GWEN_COMPILE_STATIC /D _HAS_EXCEPTIONS=0 /D _STATIC_CPPLIB /D "CMAKE_INTDIR=\"Debug\"" /D _MBCS /Gm- /EHsc /RTC1 /MTd /GS /fp:fast /Zc:wchar_t /Zc:forScope /Zc:inline /GR /Fo"GWEN.DIR\DEBUG\\" /Fd"GWEN.DIR\DEBUG\GWEN.PDB" /Gd /TP E:\PROGRAMMING\BULLET PHYSICS\BULLET3-2.83.7\EXAMPLES\THIRDPARTYLIBS\GWEN\CONTROLS\DOCKEDTABCONTROL.CPP
^E:\PROGRAMMING\BULLET PHYSICS\BULLET3-2.83.7\EXAMPLES\THIRDPARTYLIBS\GWEN\CONTROLS\DRAGGER.CPP
/c /I"E:\PROGRAMMING\BULLET PHYSICS\BULLET3-2.83.7\SRC" /I"E:\PROGRAMMING\BULLET PHYSICS\BULLET3-2.83.7\EXAMPLES\THIRDPARTYLIBS" /I"E:\PROGRAMMING\BULLET PHYSICS\BULLET3-2.83.7\EXAMPLES\THIRDPARTYLIBS\GLEW" /Zi /nologo /W3 /WX- /Od /Ob0 /D WIN32 /D _DEBUG /D _DEBUG /D _WIN64 /D USE_GRAPHICAL_BENCHMARK /D _CRT_SECURE_NO_WARNINGS /D _CRT_SECURE_NO_DEPRECATE /D _SCL_SECURE_NO_WARNINGS /D GLEW_STATIC /D GWEN_COMPILE_STATIC /D _HAS_EXCEPTIONS=0 /D _STATIC_CPPLIB /D "CMAKE_INTDIR=\"Debug\"" /D _MBCS /Gm- /EHsc /RTC1 /MTd /GS /fp:fast /Zc:wchar_t /Zc:forScope /Zc:inline /GR /Fo"GWEN.DIR\DEBUG\\" /Fd"GWEN.DIR\DEBUG\GWEN.PDB" /Gd /TP E:\PROGRAMMING\BULLET PHYSICS\BULLET3-2.83.7\EXAMPLES\THIRDPARTYLIBS\GWEN\CONTROLS\DRAGGER.CPP
^E:\PROGRAMMING\BULLET PHYSICS\BULLET3-2.83.7\EXAMPLES\THIRDPARTYLIBS\GWEN\CONTROLS\GROUPBOX.CPP
/c /I"E:\PROGRAMMING\BULLET PHYSICS\BULLET3-2.83.7\SRC" /I"E:\PROGRAMMING\BULLET PHYSICS\BULLET3-2.83.7\EXAMPLES\THIRDPARTYLIBS" /I"E:\PROGRAMMING\BULLET PHYSICS\BULLET3-2.83.7\EXAMPLES\THIRDPARTYLIBS\GLEW" /Zi /nologo /W3 /WX- /Od /Ob0 /D WIN32 /D _DEBUG /D _DEBUG /D _WIN64 /D USE_GRAPHICAL_BENCHMARK /D _CRT_SECURE_NO_WARNINGS /D _CRT_SECURE_NO_DEPRECATE /D _SCL_SECURE_NO_WARNINGS /D GLEW_STATIC /D GWEN_COMPILE_STATIC /D _HAS_EXCEPTIONS=0 /D _STATIC_CPPLIB /D "CMAKE_INTDIR=\"Debug\"" /D _MBCS /Gm- /EHsc /RTC1 /MTd /GS /fp:fast /Zc:wchar_t /Zc:forScope /Zc:inline /GR /Fo"GWEN.DIR\DEBUG\\" /Fd"GWEN.DIR\DEBUG\GWEN.PDB" /Gd /TP E:\PROGRAMMING\BULLET PHYSICS\BULLET3-2.83.7\EXAMPLES\THIRDPARTYLIBS\GWEN\CONTROLS\GROUPBOX.CPP
^E:\PROGRAMMING\BULLET PHYSICS\BULLET3-2.83.7\EXAMPLES\THIRDPARTYLIBS\GWEN\CONTROLS\HORIZONTALSCROLLBAR.CPP
/c /I"E:\PROGRAMMING\BULLET PHYSICS\BULLET3-2.83.7\SRC" /I"E:\PROGRAMMING\BULLET PHYSICS\BULLET3-2.83.7\EXAMPLES\THIRDPARTYLIBS" /I"E:\PROGRAMMING\BULLET PHYSICS\BULLET3-2.83.7\EXAMPLES\THIRDPARTYLIBS\GLEW" /Zi /nologo /W3 /WX- /Od /Ob0 /D WIN32 /D _DEBUG /D _DEBUG /D _WIN64 /D USE_GRAPHICAL_BENCHMARK /D _CRT_SECURE_NO_WARNINGS /D _CRT_SECURE_NO_DEPRECATE /D _SCL_SECURE_NO_WARNINGS /D GLEW_STATIC /D GWEN_COMPILE_STATIC /D _HAS_EXCEPTIONS=0 /D _STATIC_CPPLIB /D "CMAKE_INTDIR=\"Debug\"" /D _MBCS /Gm- /EHsc /RTC1 /MTd /GS /fp:fast /Zc:wchar_t /Zc:forScope /Zc:inline /GR /Fo"GWEN.DIR\DEBUG\\" /Fd"GWEN.DIR\DEBUG\GWEN.PDB" /Gd /TP E:\PROGRAMMING\BULLET PHYSICS\BULLET3-2.83.7\EXAMPLES\THIRDPARTYLIBS\GWEN\CONTROLS\HORIZONTALSCROLLBAR.CPP
^E:\PROGRAMMING\BULLET PHYSICS\BULLET3-2.83.7\EXAMPLES\THIRDPARTYLIBS\GWEN\CONTROLS\HORIZONTALSLIDER.CPP
/c /I"E:\PROGRAMMING\BULLET PHYSICS\BULLET3-2.83.7\SRC" /I"E:\PROGRAMMING\BULLET PHYSICS\BULLET3-2.83.7\EXAMPLES\THIRDPARTYLIBS" /I"E:\PROGRAMMING\BULLET PHYSICS\BULLET3-2.83.7\EXAMPLES\THIRDPARTYLIBS\GLEW" /Zi /nologo /W3 /WX- /Od /Ob0 /D WIN32 /D _DEBUG /D _DEBUG /D _WIN64 /D USE_GRAPHICAL_BENCHMARK /D _CRT_SECURE_NO_WARNINGS /D _CRT_SECURE_NO_DEPRECATE /D _SCL_SECURE_NO_WARNINGS /D GLEW_STATIC /D GWEN_COMPILE_STATIC /D _HAS_EXCEPTIONS=0 /D _STATIC_CPPLIB /D "CMAKE_INTDIR=\"Debug\"" /D _MBCS /Gm- /EHsc /RTC1 /MTd /GS /fp:fast /Zc:wchar_t /Zc:forScope /Zc:inline /GR /Fo"GWEN.DIR\DEBUG\\" /Fd"GWEN.DIR\DEBUG\GWEN.PDB" /Gd /TP E:\PROGRAMMING\BULLET PHYSICS\BULLET3-2.83.7\EXAMPLES\THIRDPARTYLIBS\GWEN\CONTROLS\HORIZONTALSLIDER.CPP
^E:\PROGRAMMING\BULLET PHYSICS\BULLET3-2.83.7\EXAMPLES\THIRDPARTYLIBS\GWEN\CONTROLS\HSVCOLORPICKER.CPP
/c /I"E:\PROGRAMMING\BULLET PHYSICS\BULLET3-2.83.7\SRC" /I"E:\PROGRAMMING\BULLET PHYSICS\BULLET3-2.83.7\EXAMPLES\THIRDPARTYLIBS" /I"E:\PROGRAMMING\BULLET PHYSICS\BULLET3-2.83.7\EXAMPLES\THIRDPARTYLIBS\GLEW" /Zi /nologo /W3 /WX- /Od /Ob0 /D WIN32 /D _DEBUG /D _DEBUG /D _WIN64 /D USE_GRAPHICAL_BENCHMARK /D _CRT_SECURE_NO_WARNINGS /D _CRT_SECURE_NO_DEPRECATE /D _SCL_SECURE_NO_WARNINGS /D GLEW_STATIC /D GWEN_COMPILE_STATIC /D _HAS_EXCEPTIONS=0 /D _STATIC_CPPLIB /D "CMAKE_INTDIR=\"Debug\"" /D _MBCS /Gm- /EHsc /RTC1 /MTd /GS /fp:fast /Zc:wchar_t /Zc:forScope /Zc:inline /GR /Fo"GWEN.DIR\DEBUG\\" /Fd"GWEN.DIR\DEBUG\GWEN.PDB" /Gd /TP E:\PROGRAMMING\BULLET PHYSICS\BULLET3-2.83.7\EXAMPLES\THIRDPARTYLIBS\GWEN\CONTROLS\HSVCOLORPICKER.CPP
^E:\PROGRAMMING\BULLET PHYSICS\BULLET3-2.83.7\EXAMPLES\THIRDPARTYLIBS\GWEN\CONTROLS\IMAGEPANEL.CPP
/c /I"E:\PROGRAMMING\BULLET PHYSICS\BULLET3-2.83.7\SRC" /I"E:\PROGRAMMING\BULLET PHYSICS\BULLET3-2.83.7\EXAMPLES\THIRDPARTYLIBS" /I"E:\PROGRAMMING\BULLET PHYSICS\BULLET3-2.83.7\EXAMPLES\THIRDPARTYLIBS\GLEW" /Zi /nologo /W3 /WX- /Od /Ob0 /D WIN32 /D _DEBUG /D _DEBUG /D _WIN64 /D USE_GRAPHICAL_BENCHMARK /D _CRT_SECURE_NO_WARNINGS /D _CRT_SECURE_NO_DEPRECATE /D _SCL_SECURE_NO_WARNINGS /D GLEW_STATIC /D GWEN_COMPILE_STATIC /D _HAS_EXCEPTIONS=0 /D _STATIC_CPPLIB /D "CMAKE_INTDIR=\"Debug\"" /D _MBCS /Gm- /EHsc /RTC1 /MTd /GS /fp:fast /Zc:wchar_t /Zc:forScope /Zc:inline /GR /Fo"GWEN.DIR\DEBUG\\" /Fd"GWEN.DIR\DEBUG\GWEN.PDB" /Gd /TP E:\PROGRAMMING\BULLET PHYSICS\BULLET3-2.83.7\EXAMPLES\THIRDPARTYLIBS\GWEN\CONTROLS\IMAGEPANEL.CPP
^E:\PROGRAMMING\BULLET PHYSICS\BULLET3-2.83.7\EXAMPLES\THIRDPARTYLIBS\GWEN\CONTROLS\LABEL.CPP
/c /I"E:\PROGRAMMING\BULLET PHYSICS\BULLET3-2.83.7\SRC" /I"E:\PROGRAMMING\BULLET PHYSICS\BULLET3-2.83.7\EXAMPLES\THIRDPARTYLIBS" /I"E:\PROGRAMMING\BULLET PHYSICS\BULLET3-2.83.7\EXAMPLES\THIRDPARTYLIBS\GLEW" /Zi /nologo /W3 /WX- /Od /Ob0 /D WIN32 /D _DEBUG /D _DEBUG /D _WIN64 /D USE_GRAPHICAL_BENCHMARK /D _CRT_SECURE_NO_WARNINGS /D _CRT_SECURE_NO_DEPRECATE /D _SCL_SECURE_NO_WARNINGS /D GLEW_STATIC /D GWEN_COMPILE_STATIC /D _HAS_EXCEPTIONS=0 /D _STATIC_CPPLIB /D "CMAKE_INTDIR=\"Debug\"" /D _MBCS /Gm- /EHsc /RTC1 /MTd /GS /fp:fast /Zc:wchar_t /Zc:forScope /Zc:inline /GR /Fo"GWEN.DIR\DEBUG\\" /Fd"GWEN.DIR\DEBUG\GWEN.PDB" /Gd /TP E:\PROGRAMMING\BULLET PHYSICS\BULLET3-2.83.7\EXAMPLES\THIRDPARTYLIBS\GWEN\CONTROLS\LABEL.CPP
^E:\PROGRAMMING\BULLET PHYSICS\BULLET3-2.83.7\EXAMPLES\THIRDPARTYLIBS\GWEN\CONTROLS\LABELCLICKABLE.CPP
/c /I"E:\PROGRAMMING\BULLET PHYSICS\BULLET3-2.83.7\SRC" /I"E:\PROGRAMMING\BULLET PHYSICS\BULLET3-2.83.7\EXAMPLES\THIRDPARTYLIBS" /I"E:\PROGRAMMING\BULLET PHYSICS\BULLET3-2.83.7\EXAMPLES\THIRDPARTYLIBS\GLEW" /Zi /nologo /W3 /WX- /Od /Ob0 /D WIN32 /D _DEBUG /D _DEBUG /D _WIN64 /D USE_GRAPHICAL_BENCHMARK /D _CRT_SECURE_NO_WARNINGS /D _CRT_SECURE_NO_DEPRECATE /D _SCL_SECURE_NO_WARNINGS /D GLEW_STATIC /D GWEN_COMPILE_STATIC /D _HAS_EXCEPTIONS=0 /D _STATIC_CPPLIB /D "CMAKE_INTDIR=\"Debug\"" /D _MBCS /Gm- /EHsc /RTC1 /MTd /GS /fp:fast /Zc:wchar_t /Zc:forScope /Zc:inline /GR /Fo"GWEN.DIR\DEBUG\\" /Fd"GWEN.DIR\DEBUG\GWEN.PDB" /Gd /TP E:\PROGRAMMING\BULLET PHYSICS\BULLET3-2.83.7\EXAMPLES\THIRDPARTYLIBS\GWEN\CONTROLS\LABELCLICKABLE.CPP
^E:\PROGRAMMING\BULLET PHYSICS\BULLET3-2.83.7\EXAMPLES\THIRDPARTYLIBS\GWEN\CONTROLS\LISTBOX.CPP
/c /I"E:\PROGRAMMING\BULLET PHYSICS\BULLET3-2.83.7\SRC" /I"E:\PROGRAMMING\BULLET PHYSICS\BULLET3-2.83.7\EXAMPLES\THIRDPARTYLIBS" /I"E:\PROGRAMMING\BULLET PHYSICS\BULLET3-2.83.7\EXAMPLES\THIRDPARTYLIBS\GLEW" /Zi /nologo /W3 /WX- /Od /Ob0 /D WIN32 /D _DEBUG /D _DEBUG /D _WIN64 /D USE_GRAPHICAL_BENCHMARK /D _CRT_SECURE_NO_WARNINGS /D _CRT_SECURE_NO_DEPRECATE /D _SCL_SECURE_NO_WARNINGS /D GLEW_STATIC /D GWEN_COMPILE_STATIC /D _HAS_EXCEPTIONS=0 /D _STATIC_CPPLIB /D "CMAKE_INTDIR=\"Debug\"" /D _MBCS /Gm- /EHsc /RTC1 /MTd /GS /fp:fast /Zc:wchar_t /Zc:forScope /Zc:inline /GR /Fo"GWEN.DIR\DEBUG\\" /Fd"GWEN.DIR\DEBUG\GWEN.PDB" /Gd /TP E:\PROGRAMMING\BULLET PHYSICS\BULLET3-2.83.7\EXAMPLES\THIRDPARTYLIBS\GWEN\CONTROLS\LISTBOX.CPP
^E:\PROGRAMMING\BULLET PHYSICS\BULLET3-2.83.7\EXAMPLES\THIRDPARTYLIBS\GWEN\CONTROLS\MENU.CPP
/c /I"E:\PROGRAMMING\BULLET PHYSICS\BULLET3-2.83.7\SRC" /I"E:\PROGRAMMING\BULLET PHYSICS\BULLET3-2.83.7\EXAMPLES\THIRDPARTYLIBS" /I"E:\PROGRAMMING\BULLET PHYSICS\BULLET3-2.83.7\EXAMPLES\THIRDPARTYLIBS\GLEW" /Zi /nologo /W3 /WX- /Od /Ob0 /D WIN32 /D _DEBUG /D _DEBUG /D _WIN64 /D USE_GRAPHICAL_BENCHMARK /D _CRT_SECURE_NO_WARNINGS /D _CRT_SECURE_NO_DEPRECATE /D _SCL_SECURE_NO_WARNINGS /D GLEW_STATIC /D GWEN_COMPILE_STATIC /D _HAS_EXCEPTIONS=0 /D _STATIC_CPPLIB /D "CMAKE_INTDIR=\"Debug\"" /D _MBCS /Gm- /EHsc /RTC1 /MTd /GS /fp:fast /Zc:wchar_t /Zc:forScope /Zc:inline /GR /Fo"GWEN.DIR\DEBUG\\" /Fd"GWEN.DIR\DEBUG\GWEN.PDB" /Gd /TP E:\PROGRAMMING\BULLET PHYSICS\BULLET3-2.83.7\EXAMPLES\THIRDPARTYLIBS\GWEN\CONTROLS\MENU.CPP
^E:\PROGRAMMING\BULLET PHYSICS\BULLET3-2.83.7\EXAMPLES\THIRDPARTYLIBS\GWEN\CONTROLS\MENUITEM.CPP
/c /I"E:\PROGRAMMING\BULLET PHYSICS\BULLET3-2.83.7\SRC" /I"E:\PROGRAMMING\BULLET PHYSICS\BULLET3-2.83.7\EXAMPLES\THIRDPARTYLIBS" /I"E:\PROGRAMMING\BULLET PHYSICS\BULLET3-2.83.7\EXAMPLES\THIRDPARTYLIBS\GLEW" /Zi /nologo /W3 /WX- /Od /Ob0 /D WIN32 /D _DEBUG /D _DEBUG /D _WIN64 /D USE_GRAPHICAL_BENCHMARK /D _CRT_SECURE_NO_WARNINGS /D _CRT_SECURE_NO_DEPRECATE /D _SCL_SECURE_NO_WARNINGS /D GLEW_STATIC /D GWEN_COMPILE_STATIC /D _HAS_EXCEPTIONS=0 /D _STATIC_CPPLIB /D "CMAKE_INTDIR=\"Debug\"" /D _MBCS /Gm- /EHsc /RTC1 /MTd /GS /fp:fast /Zc:wchar_t /Zc:forScope /Zc:inline /GR /Fo"GWEN.DIR\DEBUG\\" /Fd"GWEN.DIR\DEBUG\GWEN.PDB" /Gd /TP E:\PROGRAMMING\BULLET PHYSICS\BULLET3-2.83.7\EXAMPLES\THIRDPARTYLIBS\GWEN\CONTROLS\MENUITEM.CPP
^E:\PROGRAMMING\BULLET PHYSICS\BULLET3-2.83.7\EXAMPLES\THIRDPARTYLIBS\GWEN\CONTROLS\MENUSTRIP.CPP
/c /I"E:\PROGRAMMING\BULLET PHYSICS\BULLET3-2.83.7\SRC" /I"E:\PROGRAMMING\BULLET PHYSICS\BULLET3-2.83.7\EXAMPLES\THIRDPARTYLIBS" /I"E:\PROGRAMMING\BULLET PHYSICS\BULLET3-2.83.7\EXAMPLES\THIRDPARTYLIBS\GLEW" /Zi /nologo /W3 /WX- /Od /Ob0 /D WIN32 /D _DEBUG /D _DEBUG /D _WIN64 /D USE_GRAPHICAL_BENCHMARK /D _CRT_SECURE_NO_WARNINGS /D _CRT_SECURE_NO_DEPRECATE /D _SCL_SECURE_NO_WARNINGS /D GLEW_STATIC /D GWEN_COMPILE_STATIC /D _HAS_EXCEPTIONS=0 /D _STATIC_CPPLIB /D "CMAKE_INTDIR=\"Debug\"" /D _MBCS /Gm- /EHsc /RTC1 /MTd /GS /fp:fast /Zc:wchar_t /Zc:forScope /Zc:inline /GR /Fo"GWEN.DIR\DEBUG\\" /Fd"GWEN.DIR\DEBUG\GWEN.PDB" /Gd /TP E:\PROGRAMMING\BULLET PHYSICS\BULLET3-2.83.7\EXAMPLES\THIRDPARTYLIBS\GWEN\CONTROLS\MENUSTRIP.CPP
^E:\PROGRAMMING\BULLET PHYSICS\BULLET3-2.83.7\EXAMPLES\THIRDPARTYLIBS\GWEN\CONTROLS\NUMERICUPDOWN.CPP
/c /I"E:\PROGRAMMING\BULLET PHYSICS\BULLET3-2.83.7\SRC" /I"E:\PROGRAMMING\BULLET PHYSICS\BULLET3-2.83.7\EXAMPLES\THIRDPARTYLIBS" /I"E:\PROGRAMMING\BULLET PHYSICS\BULLET3-2.83.7\EXAMPLES\THIRDPARTYLIBS\GLEW" /Zi /nologo /W3 /WX- /Od /Ob0 /D WIN32 /D _DEBUG /D _DEBUG /D _WIN64 /D USE_GRAPHICAL_BENCHMARK /D _CRT_SECURE_NO_WARNINGS /D _CRT_SECURE_NO_DEPRECATE /D _SCL_SECURE_NO_WARNINGS /D GLEW_STATIC /D GWEN_COMPILE_STATIC /D _HAS_EXCEPTIONS=0 /D _STATIC_CPPLIB /D "CMAKE_INTDIR=\"Debug\"" /D _MBCS /Gm- /EHsc /RTC1 /MTd /GS /fp:fast /Zc:wchar_t /Zc:forScope /Zc:inline /GR /Fo"GWEN.DIR\DEBUG\\" /Fd"GWEN.DIR\DEBUG\GWEN.PDB" /Gd /TP E:\PROGRAMMING\BULLET PHYSICS\BULLET3-2.83.7\EXAMPLES\THIRDPARTYLIBS\GWEN\CONTROLS\NUMERICUPDOWN.CPP
^E:\PROGRAMMING\BULLET PHYSICS\BULLET3-2.83.7\EXAMPLES\THIRDPARTYLIBS\GWEN\CONTROLS\PANELLISTPANEL.CPP
/c /I"E:\PROGRAMMING\BULLET PHYSICS\BULLET3-2.83.7\SRC" /I"E:\PROGRAMMING\BULLET PHYSICS\BULLET3-2.83.7\EXAMPLES\THIRDPARTYLIBS" /I"E:\PROGRAMMING\BULLET PHYSICS\BULLET3-2.83.7\EXAMPLES\THIRDPARTYLIBS\GLEW" /Zi /nologo /W3 /WX- /Od /Ob0 /D WIN32 /D _DEBUG /D _DEBUG /D _WIN64 /D USE_GRAPHICAL_BENCHMARK /D _CRT_SECURE_NO_WARNINGS /D _CRT_SECURE_NO_DEPRECATE /D _SCL_SECURE_NO_WARNINGS /D GLEW_STATIC /D GWEN_COMPILE_STATIC /D _HAS_EXCEPTIONS=0 /D _STATIC_CPPLIB /D "CMAKE_INTDIR=\"Debug\"" /D _MBCS /Gm- /EHsc /RTC1 /MTd /GS /fp:fast /Zc:wchar_t /Zc:forScope /Zc:inline /GR /Fo"GWEN.DIR\DEBUG\\" /Fd"GWEN.DIR\DEBUG\GWEN.PDB" /Gd /TP E:\PROGRAMMING\BULLET PHYSICS\BULLET3-2.83.7\EXAMPLES\THIRDPARTYLIBS\GWEN\CONTROLS\PANELLISTPANEL.CPP
^E:\PROGRAMMING\BULLET PHYSICS\BULLET3-2.83.7\EXAMPLES\THIRDPARTYLIBS\GWEN\CONTROLS\PROGRESSBAR.CPP
/c /I"E:\PROGRAMMING\BULLET PHYSICS\BULLET3-2.83.7\SRC" /I"E:\PROGRAMMING\BULLET PHYSICS\BULLET3-2.83.7\EXAMPLES\THIRDPARTYLIBS" /I"E:\PROGRAMMING\BULLET PHYSICS\BULLET3-2.83.7\EXAMPLES\THIRDPARTYLIBS\GLEW" /Zi /nologo /W3 /WX- /Od /Ob0 /D WIN32 /D _DEBUG /D _DEBUG /D _WIN64 /D USE_GRAPHICAL_BENCHMARK /D _CRT_SECURE_NO_WARNINGS /D _CRT_SECURE_NO_DEPRECATE /D _SCL_SECURE_NO_WARNINGS /D GLEW_STATIC /D GWEN_COMPILE_STATIC /D _HAS_EXCEPTIONS=0 /D _STATIC_CPPLIB /D "CMAKE_INTDIR=\"Debug\"" /D _MBCS /Gm- /EHsc /RTC1 /MTd /GS /fp:fast /Zc:wchar_t /Zc:forScope /Zc:inline /GR /Fo"GWEN.DIR\DEBUG\\" /Fd"GWEN.DIR\DEBUG\GWEN.PDB" /Gd /TP E:\PROGRAMMING\BULLET PHYSICS\BULLET3-2.83.7\EXAMPLES\THIRDPARTYLIBS\GWEN\CONTROLS\PROGRESSBAR.CPP
^E:\PROGRAMMING\BULLET PHYSICS\BULLET3-2.83.7\EXAMPLES\THIRDPARTYLIBS\GWEN\CONTROLS\PROPERTIES.CPP
/c /I"E:\PROGRAMMING\BULLET PHYSICS\BULLET3-2.83.7\SRC" /I"E:\PROGRAMMING\BULLET PHYSICS\BULLET3-2.83.7\EXAMPLES\THIRDPARTYLIBS" /I"E:\PROGRAMMING\BULLET PHYSICS\BULLET3-2.83.7\EXAMPLES\THIRDPARTYLIBS\GLEW" /Zi /nologo /W3 /WX- /Od /Ob0 /D WIN32 /D _DEBUG /D _DEBUG /D _WIN64 /D USE_GRAPHICAL_BENCHMARK /D _CRT_SECURE_NO_WARNINGS /D _CRT_SECURE_NO_DEPRECATE /D _SCL_SECURE_NO_WARNINGS /D GLEW_STATIC /D GWEN_COMPILE_STATIC /D _HAS_EXCEPTIONS=0 /D _STATIC_CPPLIB /D "CMAKE_INTDIR=\"Debug\"" /D _MBCS /Gm- /EHsc /RTC1 /MTd /GS /fp:fast /Zc:wchar_t /Zc:forScope /Zc:inline /GR /Fo"GWEN.DIR\DEBUG\\" /Fd"GWEN.DIR\DEBUG\GWEN.PDB" /Gd /TP E:\PROGRAMMING\BULLET PHYSICS\BULLET3-2.83.7\EXAMPLES\THIRDPARTYLIBS\GWEN\CONTROLS\PROPERTIES.CPP
^E:\PROGRAMMING\BULLET PHYSICS\BULLET3-2.83.7\EXAMPLES\THIRDPARTYLIBS\GWEN\CONTROLS\RADIOBUTTON.CPP
/c /I"E:\PROGRAMMING\BULLET PHYSICS\BULLET3-2.83.7\SRC" /I"E:\PROGRAMMING\BULLET PHYSICS\BULLET3-2.83.7\EXAMPLES\THIRDPARTYLIBS" /I"E:\PROGRAMMING\BULLET PHYSICS\BULLET3-2.83.7\EXAMPLES\THIRDPARTYLIBS\GLEW" /Zi /nologo /W3 /WX- /Od /Ob0 /D WIN32 /D _DEBUG /D _DEBUG /D _WIN64 /D USE_GRAPHICAL_BENCHMARK /D _CRT_SECURE_NO_WARNINGS /D _CRT_SECURE_NO_DEPRECATE /D _SCL_SECURE_NO_WARNINGS /D GLEW_STATIC /D GWEN_COMPILE_STATIC /D _HAS_EXCEPTIONS=0 /D _STATIC_CPPLIB /D "CMAKE_INTDIR=\"Debug\"" /D _MBCS /Gm- /EHsc /RTC1 /MTd /GS /fp:fast /Zc:wchar_t /Zc:forScope /Zc:inline /GR /Fo"GWEN.DIR\DEBUG\\" /Fd"GWEN.DIR\DEBUG\GWEN.PDB" /Gd /TP E:\PROGRAMMING\BULLET PHYSICS\BULLET3-2.83.7\EXAMPLES\THIRDPARTYLIBS\GWEN\CONTROLS\RADIOBUTTON.CPP
^E:\PROGRAMMING\BULLET PHYSICS\BULLET3-2.83.7\EXAMPLES\THIRDPARTYLIBS\GWEN\CONTROLS\RADIOBUTTONCONTROLLER.CPP
/c /I"E:\PROGRAMMING\BULLET PHYSICS\BULLET3-2.83.7\SRC" /I"E:\PROGRAMMING\BULLET PHYSICS\BULLET3-2.83.7\EXAMPLES\THIRDPARTYLIBS" /I"E:\PROGRAMMING\BULLET PHYSICS\BULLET3-2.83.7\EXAMPLES\THIRDPARTYLIBS\GLEW" /Zi /nologo /W3 /WX- /Od /Ob0 /D WIN32 /D _DEBUG /D _DEBUG /D _WIN64 /D USE_GRAPHICAL_BENCHMARK /D _CRT_SECURE_NO_WARNINGS /D _CRT_SECURE_NO_DEPRECATE /D _SCL_SECURE_NO_WARNINGS /D GLEW_STATIC /D GWEN_COMPILE_STATIC /D _HAS_EXCEPTIONS=0 /D _STATIC_CPPLIB /D "CMAKE_INTDIR=\"Debug\"" /D _MBCS /Gm- /EHsc /RTC1 /MTd /GS /fp:fast /Zc:wchar_t /Zc:forScope /Zc:inline /GR /Fo"GWEN.DIR\DEBUG\\" /Fd"GWEN.DIR\DEBUG\GWEN.PDB" /Gd /TP E:\PROGRAMMING\BULLET PHYSICS\BULLET3-2.83.7\EXAMPLES\THIRDPARTYLIBS\GWEN\CONTROLS\RADIOBUTTONCONTROLLER.CPP
^E:\PROGRAMMING\BULLET PHYSICS\BULLET3-2.83.7\EXAMPLES\THIRDPARTYLIBS\GWEN\CONTROLS\RESIZABLECONTROL.CPP
/c /I"E:\PROGRAMMING\BULLET PHYSICS\BULLET3-2.83.7\SRC" /I"E:\PROGRAMMING\BULLET PHYSICS\BULLET3-2.83.7\EXAMPLES\THIRDPARTYLIBS" /I"E:\PROGRAMMING\BULLET PHYSICS\BULLET3-2.83.7\EXAMPLES\THIRDPARTYLIBS\GLEW" /Zi /nologo /W3 /WX- /Od /Ob0 /D WIN32 /D _DEBUG /D _DEBUG /D _WIN64 /D USE_GRAPHICAL_BENCHMARK /D _CRT_SECURE_NO_WARNINGS /D _CRT_SECURE_NO_DEPRECATE /D _SCL_SECURE_NO_WARNINGS /D GLEW_STATIC /D GWEN_COMPILE_STATIC /D _HAS_EXCEPTIONS=0 /D _STATIC_CPPLIB /D "CMAKE_INTDIR=\"Debug\"" /D _MBCS /Gm- /EHsc /RTC1 /MTd /GS /fp:fast /Zc:wchar_t /Zc:forScope /Zc:inline /GR /Fo"GWEN.DIR\DEBUG\\" /Fd"GWEN.DIR\DEBUG\GWEN.PDB" /Gd /TP E:\PROGRAMMING\BULLET PHYSICS\BULLET3-2.83.7\EXAMPLES\THIRDPARTYLIBS\GWEN\CONTROLS\RESIZABLECONTROL.CPP
^E:\PROGRAMMING\BULLET PHYSICS\BULLET3-2.83.7\EXAMPLES\THIRDPARTYLIBS\GWEN\CONTROLS\RESIZER.CPP
/c /I"E:\PROGRAMMING\BULLET PHYSICS\BULLET3-2.83.7\SRC" /I"E:\PROGRAMMING\BULLET PHYSICS\BULLET3-2.83.7\EXAMPLES\THIRDPARTYLIBS" /I"E:\PROGRAMMING\BULLET PHYSICS\BULLET3-2.83.7\EXAMPLES\THIRDPARTYLIBS\GLEW" /Zi /nologo /W3 /WX- /Od /Ob0 /D WIN32 /D _DEBUG /D _DEBUG /D _WIN64 /D USE_GRAPHICAL_BENCHMARK /D _CRT_SECURE_NO_WARNINGS /D _CRT_SECURE_NO_DEPRECATE /D _SCL_SECURE_NO_WARNINGS /D GLEW_STATIC /D GWEN_COMPILE_STATIC /D _HAS_EXCEPTIONS=0 /D _STATIC_CPPLIB /D "CMAKE_INTDIR=\"Debug\"" /D _MBCS /Gm- /EHsc /RTC1 /MTd /GS /fp:fast /Zc:wchar_t /Zc:forScope /Zc:inline /GR /Fo"GWEN.DIR\DEBUG\\" /Fd"GWEN.DIR\DEBUG\GWEN.PDB" /Gd /TP E:\PROGRAMMING\BULLET PHYSICS\BULLET3-2.83.7\EXAMPLES\THIRDPARTYLIBS\GWEN\CONTROLS\RESIZER.CPP
^E:\PROGRAMMING\BULLET PHYSICS\BULLET3-2.83.7\EXAMPLES\THIRDPARTYLIBS\GWEN\CONTROLS\RICHLABEL.CPP
/c /I"E:\PROGRAMMING\BULLET PHYSICS\BULLET3-2.83.7\SRC" /I"E:\PROGRAMMING\BULLET PHYSICS\BULLET3-2.83.7\EXAMPLES\THIRDPARTYLIBS" /I"E:\PROGRAMMING\BULLET PHYSICS\BULLET3-2.83.7\EXAMPLES\THIRDPARTYLIBS\GLEW" /Zi /nologo /W3 /WX- /Od /Ob0 /D WIN32 /D _DEBUG /D _DEBUG /D _WIN64 /D USE_GRAPHICAL_BENCHMARK /D _CRT_SECURE_NO_WARNINGS /D _CRT_SECURE_NO_DEPRECATE /D _SCL_SECURE_NO_WARNINGS /D GLEW_STATIC /D GWEN_COMPILE_STATIC /D _HAS_EXCEPTIONS=0 /D _STATIC_CPPLIB /D "CMAKE_INTDIR=\"Debug\"" /D _MBCS /Gm- /EHsc /RTC1 /MTd /GS /fp:fast /Zc:wchar_t /Zc:forScope /Zc:inline /GR /Fo"GWEN.DIR\DEBUG\\" /Fd"GWEN.DIR\DEBUG\GWEN.PDB" /Gd /TP E:\PROGRAMMING\BULLET PHYSICS\BULLET3-2.83.7\EXAMPLES\THIRDPARTYLIBS\GWEN\CONTROLS\RICHLABEL.CPP
^E:\PROGRAMMING\BULLET PHYSICS\BULLET3-2.83.7\EXAMPLES\THIRDPARTYLIBS\GWEN\CONTROLS\SCROLLBAR.CPP
/c /I"E:\PROGRAMMING\BULLET PHYSICS\BULLET3-2.83.7\SRC" /I"E:\PROGRAMMING\BULLET PHYSICS\BULLET3-2.83.7\EXAMPLES\THIRDPARTYLIBS" /I"E:\PROGRAMMING\BULLET PHYSICS\BULLET3-2.83.7\EXAMPLES\THIRDPARTYLIBS\GLEW" /Zi /nologo /W3 /WX- /Od /Ob0 /D WIN32 /D _DEBUG /D _DEBUG /D _WIN64 /D USE_GRAPHICAL_BENCHMARK /D _CRT_SECURE_NO_WARNINGS /D _CRT_SECURE_NO_DEPRECATE /D _SCL_SECURE_NO_WARNINGS /D GLEW_STATIC /D GWEN_COMPILE_STATIC /D _HAS_EXCEPTIONS=0 /D _STATIC_CPPLIB /D "CMAKE_INTDIR=\"Debug\"" /D _MBCS /Gm- /EHsc /RTC1 /MTd /GS /fp:fast /Zc:wchar_t /Zc:forScope /Zc:inline /GR /Fo"GWEN.DIR\DEBUG\\" /Fd"GWEN.DIR\DEBUG\GWEN.PDB" /Gd /TP E:\PROGRAMMING\BULLET PHYSICS\BULLET3-2.83.7\EXAMPLES\THIRDPARTYLIBS\GWEN\CONTROLS\SCROLLBAR.CPP
^E:\PROGRAMMING\BULLET PHYSICS\BULLET3-2.83.7\EXAMPLES\THIRDPARTYLIBS\GWEN\CONTROLS\SCROLLBARBAR.CPP
/c /I"E:\PROGRAMMING\BULLET PHYSICS\BULLET3-2.83.7\SRC" /I"E:\PROGRAMMING\BULLET PHYSICS\BULLET3-2.83.7\EXAMPLES\THIRDPARTYLIBS" /I"E:\PROGRAMMING\BULLET PHYSICS\BULLET3-2.83.7\EXAMPLES\THIRDPARTYLIBS\GLEW" /Zi /nologo /W3 /WX- /Od /Ob0 /D WIN32 /D _DEBUG /D _DEBUG /D _WIN64 /D USE_GRAPHICAL_BENCHMARK /D _CRT_SECURE_NO_WARNINGS /D _CRT_SECURE_NO_DEPRECATE /D _SCL_SECURE_NO_WARNINGS /D GLEW_STATIC /D GWEN_COMPILE_STATIC /D _HAS_EXCEPTIONS=0 /D _STATIC_CPPLIB /D "CMAKE_INTDIR=\"Debug\"" /D _MBCS /Gm- /EHsc /RTC1 /MTd /GS /fp:fast /Zc:wchar_t /Zc:forScope /Zc:inline /GR /Fo"GWEN.DIR\DEBUG\\" /Fd"GWEN.DIR\DEBUG\GWEN.PDB" /Gd /TP E:\PROGRAMMING\BULLET PHYSICS\BULLET3-2.83.7\EXAMPLES\THIRDPARTYLIBS\GWEN\CONTROLS\SCROLLBARBAR.CPP
^E:\PROGRAMMING\BULLET PHYSICS\BULLET3-2.83.7\EXAMPLES\THIRDPARTYLIBS\GWEN\CONTROLS\SCROLLBARBUTTON.CPP
/c /I"E:\PROGRAMMING\BULLET PHYSICS\BULLET3-2.83.7\SRC" /I"E:\PROGRAMMING\BULLET PHYSICS\BULLET3-2.83.7\EXAMPLES\THIRDPARTYLIBS" /I"E:\PROGRAMMING\BULLET PHYSICS\BULLET3-2.83.7\EXAMPLES\THIRDPARTYLIBS\GLEW" /Zi /nologo /W3 /WX- /Od /Ob0 /D WIN32 /D _DEBUG /D _DEBUG /D _WIN64 /D USE_GRAPHICAL_BENCHMARK /D _CRT_SECURE_NO_WARNINGS /D _CRT_SECURE_NO_DEPRECATE /D _SCL_SECURE_NO_WARNINGS /D GLEW_STATIC /D GWEN_COMPILE_STATIC /D _HAS_EXCEPTIONS=0 /D _STATIC_CPPLIB /D "CMAKE_INTDIR=\"Debug\"" /D _MBCS /Gm- /EHsc /RTC1 /MTd /GS /fp:fast /Zc:wchar_t /Zc:forScope /Zc:inline /GR /Fo"GWEN.DIR\DEBUG\\" /Fd"GWEN.DIR\DEBUG\GWEN.PDB" /Gd /TP E:\PROGRAMMING\BULLET PHYSICS\BULLET3-2.83.7\EXAMPLES\THIRDPARTYLIBS\GWEN\CONTROLS\SCROLLBARBUTTON.CPP
^E:\PROGRAMMING\BULLET PHYSICS\BULLET3-2.83.7\EXAMPLES\THIRDPARTYLIBS\GWEN\CONTROLS\SCROLLCONTROL.CPP
/c /I"E:\PROGRAMMING\BULLET PHYSICS\BULLET3-2.83.7\SRC" /I"E:\PROGRAMMING\BULLET PHYSICS\BULLET3-2.83.7\EXAMPLES\THIRDPARTYLIBS" /I"E:\PROGRAMMING\BULLET PHYSICS\BULLET3-2.83.7\EXAMPLES\THIRDPARTYLIBS\GLEW" /Zi /nologo /W3 /WX- /Od /Ob0 /D WIN32 /D _DEBUG /D _DEBUG /D _WIN64 /D USE_GRAPHICAL_BENCHMARK /D _CRT_SECURE_NO_WARNINGS /D _CRT_SECURE_NO_DEPRECATE /D _SCL_SECURE_NO_WARNINGS /D GLEW_STATIC /D GWEN_COMPILE_STATIC /D _HAS_EXCEPTIONS=0 /D _STATIC_CPPLIB /D "CMAKE_INTDIR=\"Debug\"" /D _MBCS /Gm- /EHsc /RTC1 /MTd /GS /fp:fast /Zc:wchar_t /Zc:forScope /Zc:inline /GR /Fo"GWEN.DIR\DEBUG\\" /Fd"GWEN.DIR\DEBUG\GWEN.PDB" /Gd /TP E:\PROGRAMMING\BULLET PHYSICS\BULLET3-2.83.7\EXAMPLES\THIRDPARTYLIBS\GWEN\CONTROLS\SCROLLCONTROL.CPP
^E:\PROGRAMMING\BULLET PHYSICS\BULLET3-2.83.7\EXAMPLES\THIRDPARTYLIBS\GWEN\CONTROLS\SLIDER.CPP
/c /I"E:\PROGRAMMING\BULLET PHYSICS\BULLET3-2.83.7\SRC" /I"E:\PROGRAMMING\BULLET PHYSICS\BULLET3-2.83.7\EXAMPLES\THIRDPARTYLIBS" /I"E:\PROGRAMMING\BULLET PHYSICS\BULLET3-2.83.7\EXAMPLES\THIRDPARTYLIBS\GLEW" /Zi /nologo /W3 /WX- /Od /Ob0 /D WIN32 /D _DEBUG /D _DEBUG /D _WIN64 /D USE_GRAPHICAL_BENCHMARK /D _CRT_SECURE_NO_WARNINGS /D _CRT_SECURE_NO_DEPRECATE /D _SCL_SECURE_NO_WARNINGS /D GLEW_STATIC /D GWEN_COMPILE_STATIC /D _HAS_EXCEPTIONS=0 /D _STATIC_CPPLIB /D "CMAKE_INTDIR=\"Debug\"" /D _MBCS /Gm- /EHsc /RTC1 /MTd /GS /fp:fast /Zc:wchar_t /Zc:forScope /Zc:inline /GR /Fo"GWEN.DIR\DEBUG\\" /Fd"GWEN.DIR\DEBUG\GWEN.PDB" /Gd /TP E:\PROGRAMMING\BULLET PHYSICS\BULLET3-2.83.7\EXAMPLES\THIRDPARTYLIBS\GWEN\CONTROLS\SLIDER.CPP
^E:\PROGRAMMING\BULLET PHYSICS\BULLET3-2.83.7\EXAMPLES\THIRDPARTYLIBS\GWEN\CONTROLS\SPLITTERBAR.CPP
/c /I"E:\PROGRAMMING\BULLET PHYSICS\BULLET3-2.83.7\SRC" /I"E:\PROGRAMMING\BULLET PHYSICS\BULLET3-2.83.7\EXAMPLES\THIRDPARTYLIBS" /I"E:\PROGRAMMING\BULLET PHYSICS\BULLET3-2.83.7\EXAMPLES\THIRDPARTYLIBS\GLEW" /Zi /nologo /W3 /WX- /Od /Ob0 /D WIN32 /D _DEBUG /D _DEBUG /D _WIN64 /D USE_GRAPHICAL_BENCHMARK /D _CRT_SECURE_NO_WARNINGS /D _CRT_SECURE_NO_DEPRECATE /D _SCL_SECURE_NO_WARNINGS /D GLEW_STATIC /D GWEN_COMPILE_STATIC /D _HAS_EXCEPTIONS=0 /D _STATIC_CPPLIB /D "CMAKE_INTDIR=\"Debug\"" /D _MBCS /Gm- /EHsc /RTC1 /MTd /GS /fp:fast /Zc:wchar_t /Zc:forScope /Zc:inline /GR /Fo"GWEN.DIR\DEBUG\\" /Fd"GWEN.DIR\DEBUG\GWEN.PDB" /Gd /TP E:\PROGRAMMING\BULLET PHYSICS\BULLET3-2.83.7\EXAMPLES\THIRDPARTYLIBS\GWEN\CONTROLS\SPLITTERBAR.CPP
^E:\PROGRAMMING\BULLET PHYSICS\BULLET3-2.83.7\EXAMPLES\THIRDPARTYLIBS\GWEN\CONTROLS\TABBUTTON.CPP
/c /I"E:\PROGRAMMING\BULLET PHYSICS\BULLET3-2.83.7\SRC" /I"E:\PROGRAMMING\BULLET PHYSICS\BULLET3-2.83.7\EXAMPLES\THIRDPARTYLIBS" /I"E:\PROGRAMMING\BULLET PHYSICS\BULLET3-2.83.7\EXAMPLES\THIRDPARTYLIBS\GLEW" /Zi /nologo /W3 /WX- /Od /Ob0 /D WIN32 /D _DEBUG /D _DEBUG /D _WIN64 /D USE_GRAPHICAL_BENCHMARK /D _CRT_SECURE_NO_WARNINGS /D _CRT_SECURE_NO_DEPRECATE /D _SCL_SECURE_NO_WARNINGS /D GLEW_STATIC /D GWEN_COMPILE_STATIC /D _HAS_EXCEPTIONS=0 /D _STATIC_CPPLIB /D "CMAKE_INTDIR=\"Debug\"" /D _MBCS /Gm- /EHsc /RTC1 /MTd /GS /fp:fast /Zc:wchar_t /Zc:forScope /Zc:inline /GR /Fo"GWEN.DIR\DEBUG\\" /Fd"GWEN.DIR\DEBUG\GWEN.PDB" /Gd /TP E:\PROGRAMMING\BULLET PHYSICS\BULLET3-2.83.7\EXAMPLES\THIRDPARTYLIBS\GWEN\CONTROLS\TABBUTTON.CPP
^E:\PROGRAMMING\BULLET PHYSICS\BULLET3-2.83.7\EXAMPLES\THIRDPARTYLIBS\GWEN\CONTROLS\TABCONTROL.CPP
/c /I"E:\PROGRAMMING\BULLET PHYSICS\BULLET3-2.83.7\SRC" /I"E:\PROGRAMMING\BULLET PHYSICS\BULLET3-2.83.7\EXAMPLES\THIRDPARTYLIBS" /I"E:\PROGRAMMING\BULLET PHYSICS\BULLET3-2.83.7\EXAMPLES\THIRDPARTYLIBS\GLEW" /Zi /nologo /W3 /WX- /Od /Ob0 /D WIN32 /D _DEBUG /D _DEBUG /D _WIN64 /D USE_GRAPHICAL_BENCHMARK /D _CRT_SECURE_NO_WARNINGS /D _CRT_SECURE_NO_DEPRECATE /D _SCL_SECURE_NO_WARNINGS /D GLEW_STATIC /D GWEN_COMPILE_STATIC /D _HAS_EXCEPTIONS=0 /D _STATIC_CPPLIB /D "CMAKE_INTDIR=\"Debug\"" /D _MBCS /Gm- /EHsc /RTC1 /MTd /GS /fp:fast /Zc:wchar_t /Zc:forScope /Zc:inline /GR /Fo"GWEN.DIR\DEBUG\\" /Fd"GWEN.DIR\DEBUG\GWEN.PDB" /Gd /TP E:\PROGRAMMING\BULLET PHYSICS\BULLET3-2.83.7\EXAMPLES\THIRDPARTYLIBS\GWEN\CONTROLS\TABCONTROL.CPP
^E:\PROGRAMMING\BULLET PHYSICS\BULLET3-2.83.7\EXAMPLES\THIRDPARTYLIBS\GWEN\CONTROLS\TABSTRIP.CPP
/c /I"E:\PROGRAMMING\BULLET PHYSICS\BULLET3-2.83.7\SRC" /I"E:\PROGRAMMING\BULLET PHYSICS\BULLET3-2.83.7\EXAMPLES\THIRDPARTYLIBS" /I"E:\PROGRAMMING\BULLET PHYSICS\BULLET3-2.83.7\EXAMPLES\THIRDPARTYLIBS\GLEW" /Zi /nologo /W3 /WX- /Od /Ob0 /D WIN32 /D _DEBUG /D _DEBUG /D _WIN64 /D USE_GRAPHICAL_BENCHMARK /D _CRT_SECURE_NO_WARNINGS /D _CRT_SECURE_NO_DEPRECATE /D _SCL_SECURE_NO_WARNINGS /D GLEW_STATIC /D GWEN_COMPILE_STATIC /D _HAS_EXCEPTIONS=0 /D _STATIC_CPPLIB /D "CMAKE_INTDIR=\"Debug\"" /D _MBCS /Gm- /EHsc /RTC1 /MTd /GS /fp:fast /Zc:wchar_t /Zc:forScope /Zc:inline /GR /Fo"GWEN.DIR\DEBUG\\" /Fd"GWEN.DIR\DEBUG\GWEN.PDB" /Gd /TP E:\PROGRAMMING\BULLET PHYSICS\BULLET3-2.83.7\EXAMPLES\THIRDPARTYLIBS\GWEN\CONTROLS\TABSTRIP.CPP
^E:\PROGRAMMING\BULLET PHYSICS\BULLET3-2.83.7\EXAMPLES\THIRDPARTYLIBS\GWEN\CONTROLS\TEXT.CPP
/c /I"E:\PROGRAMMING\BULLET PHYSICS\BULLET3-2.83.7\SRC" /I"E:\PROGRAMMING\BULLET PHYSICS\BULLET3-2.83.7\EXAMPLES\THIRDPARTYLIBS" /I"E:\PROGRAMMING\BULLET PHYSICS\BULLET3-2.83.7\EXAMPLES\THIRDPARTYLIBS\GLEW" /Zi /nologo /W3 /WX- /Od /Ob0 /D WIN32 /D _DEBUG /D _DEBUG /D _WIN64 /D USE_GRAPHICAL_BENCHMARK /D _CRT_SECURE_NO_WARNINGS /D _CRT_SECURE_NO_DEPRECATE /D _SCL_SECURE_NO_WARNINGS /D GLEW_STATIC /D GWEN_COMPILE_STATIC /D _HAS_EXCEPTIONS=0 /D _STATIC_CPPLIB /D "CMAKE_INTDIR=\"Debug\"" /D _MBCS /Gm- /EHsc /RTC1 /MTd /GS /fp:fast /Zc:wchar_t /Zc:forScope /Zc:inline /GR /Fo"GWEN.DIR\DEBUG\\" /Fd"GWEN.DIR\DEBUG\GWEN.PDB" /Gd /TP E:\PROGRAMMING\BULLET PHYSICS\BULLET3-2.83.7\EXAMPLES\THIRDPARTYLIBS\GWEN\CONTROLS\TEXT.CPP
^E:\PROGRAMMING\BULLET PHYSICS\BULLET3-2.83.7\EXAMPLES\THIRDPARTYLIBS\GWEN\CONTROLS\TEXTBOX.CPP
/c /I"E:\PROGRAMMING\BULLET PHYSICS\BULLET3-2.83.7\SRC" /I"E:\PROGRAMMING\BULLET PHYSICS\BULLET3-2.83.7\EXAMPLES\THIRDPARTYLIBS" /I"E:\PROGRAMMING\BULLET PHYSICS\BULLET3-2.83.7\EXAMPLES\THIRDPARTYLIBS\GLEW" /Zi /nologo /W3 /WX- /Od /Ob0 /D WIN32 /D _DEBUG /D _DEBUG /D _WIN64 /D USE_GRAPHICAL_BENCHMARK /D _CRT_SECURE_NO_WARNINGS /D _CRT_SECURE_NO_DEPRECATE /D _SCL_SECURE_NO_WARNINGS /D GLEW_STATIC /D GWEN_COMPILE_STATIC /D _HAS_EXCEPTIONS=0 /D _STATIC_CPPLIB /D "CMAKE_INTDIR=\"Debug\"" /D _MBCS /Gm- /EHsc /RTC1 /MTd /GS /fp:fast /Zc:wchar_t /Zc:forScope /Zc:inline /GR /Fo"GWEN.DIR\DEBUG\\" /Fd"GWEN.DIR\DEBUG\GWEN.PDB" /Gd /TP E:\PROGRAMMING\BULLET PHYSICS\BULLET3-2.83.7\EXAMPLES\THIRDPARTYLIBS\GWEN\CONTROLS\TEXTBOX.CPP
^E:\PROGRAMMING\BULLET PHYSICS\BULLET3-2.83.7\EXAMPLES\THIRDPARTYLIBS\GWEN\CONTROLS\TEXTBOXNUMERIC.CPP
/c /I"E:\PROGRAMMING\BULLET PHYSICS\BULLET3-2.83.7\SRC" /I"E:\PROGRAMMING\BULLET PHYSICS\BULLET3-2.83.7\EXAMPLES\THIRDPARTYLIBS" /I"E:\PROGRAMMING\BULLET PHYSICS\BULLET3-2.83.7\EXAMPLES\THIRDPARTYLIBS\GLEW" /Zi /nologo /W3 /WX- /Od /Ob0 /D WIN32 /D _DEBUG /D _DEBUG /D _WIN64 /D USE_GRAPHICAL_BENCHMARK /D _CRT_SECURE_NO_WARNINGS /D _CRT_SECURE_NO_DEPRECATE /D _SCL_SECURE_NO_WARNINGS /D GLEW_STATIC /D GWEN_COMPILE_STATIC /D _HAS_EXCEPTIONS=0 /D _STATIC_CPPLIB /D "CMAKE_INTDIR=\"Debug\"" /D _MBCS /Gm- /EHsc /RTC1 /MTd /GS /fp:fast /Zc:wchar_t /Zc:forScope /Zc:inline /GR /Fo"GWEN.DIR\DEBUG\\" /Fd"GWEN.DIR\DEBUG\GWEN.PDB" /Gd /TP E:\PROGRAMMING\BULLET PHYSICS\BULLET3-2.83.7\EXAMPLES\THIRDPARTYLIBS\GWEN\CONTROLS\TEXTBOXNUMERIC.CPP
^E:\PROGRAMMING\BULLET PHYSICS\BULLET3-2.83.7\EXAMPLES\THIRDPARTYLIBS\GWEN\CONTROLS\TREECONTROL.CPP
/c /I"E:\PROGRAMMING\BULLET PHYSICS\BULLET3-2.83.7\SRC" /I"E:\PROGRAMMING\BULLET PHYSICS\BULLET3-2.83.7\EXAMPLES\THIRDPARTYLIBS" /I"E:\PROGRAMMING\BULLET PHYSICS\BULLET3-2.83.7\EXAMPLES\THIRDPARTYLIBS\GLEW" /Zi /nologo /W3 /WX- /Od /Ob0 /D WIN32 /D _DEBUG /D _DEBUG /D _WIN64 /D USE_GRAPHICAL_BENCHMARK /D _CRT_SECURE_NO_WARNINGS /D _CRT_SECURE_NO_DEPRECATE /D _SCL_SECURE_NO_WARNINGS /D GLEW_STATIC /D GWEN_COMPILE_STATIC /D _HAS_EXCEPTIONS=0 /D _STATIC_CPPLIB /D "CMAKE_INTDIR=\"Debug\"" /D _MBCS /Gm- /EHsc /RTC1 /MTd /GS /fp:fast /Zc:wchar_t /Zc:forScope /Zc:inline /GR /Fo"GWEN.DIR\DEBUG\\" /Fd"GWEN.DIR\DEBUG\GWEN.PDB" /Gd /TP E:\PROGRAMMING\BULLET PHYSICS\BULLET3-2.83.7\EXAMPLES\THIRDPARTYLIBS\GWEN\CONTROLS\TREECONTROL.CPP
^E:\PROGRAMMING\BULLET PHYSICS\BULLET3-2.83.7\EXAMPLES\THIRDPARTYLIBS\GWEN\CONTROLS\TREENODE.CPP
/c /I"E:\PROGRAMMING\BULLET PHYSICS\BULLET3-2.83.7\SRC" /I"E:\PROGRAMMING\BULLET PHYSICS\BULLET3-2.83.7\EXAMPLES\THIRDPARTYLIBS" /I"E:\PROGRAMMING\BULLET PHYSICS\BULLET3-2.83.7\EXAMPLES\THIRDPARTYLIBS\GLEW" /Zi /nologo /W3 /WX- /Od /Ob0 /D WIN32 /D _DEBUG /D _DEBUG /D _WIN64 /D USE_GRAPHICAL_BENCHMARK /D _CRT_SECURE_NO_WARNINGS /D _CRT_SECURE_NO_DEPRECATE /D _SCL_SECURE_NO_WARNINGS /D GLEW_STATIC /D GWEN_COMPILE_STATIC /D _HAS_EXCEPTIONS=0 /D _STATIC_CPPLIB /D "CMAKE_INTDIR=\"Debug\"" /D _MBCS /Gm- /EHsc /RTC1 /MTd /GS /fp:fast /Zc:wchar_t /Zc:forScope /Zc:inline /GR /Fo"GWEN.DIR\DEBUG\\" /Fd"GWEN.DIR\DEBUG\GWEN.PDB" /Gd /TP E:\PROGRAMMING\BULLET PHYSICS\BULLET3-2.83.7\EXAMPLES\THIRDPARTYLIBS\GWEN\CONTROLS\TREENODE.CPP
^E:\PROGRAMMING\BULLET PHYSICS\BULLET3-2.83.7\EXAMPLES\THIRDPARTYLIBS\GWEN\CONTROLS\VERTICALSCROLLBAR.CPP
/c /I"E:\PROGRAMMING\BULLET PHYSICS\BULLET3-2.83.7\SRC" /I"E:\PROGRAMMING\BULLET PHYSICS\BULLET3-2.83.7\EXAMPLES\THIRDPARTYLIBS" /I"E:\PROGRAMMING\BULLET PHYSICS\BULLET3-2.83.7\EXAMPLES\THIRDPARTYLIBS\GLEW" /Zi /nologo /W3 /WX- /Od /Ob0 /D WIN32 /D _DEBUG /D _DEBUG /D _WIN64 /D USE_GRAPHICAL_BENCHMARK /D _CRT_SECURE_NO_WARNINGS /D _CRT_SECURE_NO_DEPRECATE /D _SCL_SECURE_NO_WARNINGS /D GLEW_STATIC /D GWEN_COMPILE_STATIC /D _HAS_EXCEPTIONS=0 /D _STATIC_CPPLIB /D "CMAKE_INTDIR=\"Debug\"" /D _MBCS /Gm- /EHsc /RTC1 /MTd /GS /fp:fast /Zc:wchar_t /Zc:forScope /Zc:inline /GR /Fo"GWEN.DIR\DEBUG\\" /Fd"GWEN.DIR\DEBUG\GWEN.PDB" /Gd /TP E:\PROGRAMMING\BULLET PHYSICS\BULLET3-2.83.7\EXAMPLES\THIRDPARTYLIBS\GWEN\CONTROLS\VERTICALSCROLLBAR.CPP
^E:\PROGRAMMING\BULLET PHYSICS\BULLET3-2.83.7\EXAMPLES\THIRDPARTYLIBS\GWEN\CONTROLS\VERTICALSLIDER.CPP
/c /I"E:\PROGRAMMING\BULLET PHYSICS\BULLET3-2.83.7\SRC" /I"E:\PROGRAMMING\BULLET PHYSICS\BULLET3-2.83.7\EXAMPLES\THIRDPARTYLIBS" /I"E:\PROGRAMMING\BULLET PHYSICS\BULLET3-2.83.7\EXAMPLES\THIRDPARTYLIBS\GLEW" /Zi /nologo /W3 /WX- /Od /Ob0 /D WIN32 /D _DEBUG /D _DEBUG /D _WIN64 /D USE_GRAPHICAL_BENCHMARK /D _CRT_SECURE_NO_WARNINGS /D _CRT_SECURE_NO_DEPRECATE /D _SCL_SECURE_NO_WARNINGS /D GLEW_STATIC /D GWEN_COMPILE_STATIC /D _HAS_EXCEPTIONS=0 /D _STATIC_CPPLIB /D "CMAKE_INTDIR=\"Debug\"" /D _MBCS /Gm- /EHsc /RTC1 /MTd /GS /fp:fast /Zc:wchar_t /Zc:forScope /Zc:inline /GR /Fo"GWEN.DIR\DEBUG\\" /Fd"GWEN.DIR\DEBUG\GWEN.PDB" /Gd /TP E:\PROGRAMMING\BULLET PHYSICS\BULLET3-2.83.7\EXAMPLES\THIRDPARTYLIBS\GWEN\CONTROLS\VERTICALSLIDER.CPP
^E:\PROGRAMMING\BULLET PHYSICS\BULLET3-2.83.7\EXAMPLES\THIRDPARTYLIBS\GWEN\CONTROLS\WINDOWCONTROL.CPP
/c /I"E:\PROGRAMMING\BULLET PHYSICS\BULLET3-2.83.7\SRC" /I"E:\PROGRAMMING\BULLET PHYSICS\BULLET3-2.83.7\EXAMPLES\THIRDPARTYLIBS" /I"E:\PROGRAMMING\BULLET PHYSICS\BULLET3-2.83.7\EXAMPLES\THIRDPARTYLIBS\GLEW" /Zi /nologo /W3 /WX- /Od /Ob0 /D WIN32 /D _DEBUG /D _DEBUG /D _WIN64 /D USE_GRAPHICAL_BENCHMARK /D _CRT_SECURE_NO_WARNINGS /D _CRT_SECURE_NO_DEPRECATE /D _SCL_SECURE_NO_WARNINGS /D GLEW_STATIC /D GWEN_COMPILE_STATIC /D _HAS_EXCEPTIONS=0 /D _STATIC_CPPLIB /D "CMAKE_INTDIR=\"Debug\"" /D _MBCS /Gm- /EHsc /RTC1 /MTd /GS /fp:fast /Zc:wchar_t /Zc:forScope /Zc:inline /GR /Fo"GWEN.DIR\DEBUG\\" /Fd"GWEN.DIR\DEBUG\GWEN.PDB" /Gd /TP E:\PROGRAMMING\BULLET PHYSICS\BULLET3-2.83.7\EXAMPLES\THIRDPARTYLIBS\GWEN\CONTROLS\WINDOWCONTROL.CPP
^E:\PROGRAMMING\BULLET PHYSICS\BULLET3-2.83.7\EXAMPLES\THIRDPARTYLIBS\GWEN\CONTROLS\DIALOG\FILEOPEN.CPP
/c /I"E:\PROGRAMMING\BULLET PHYSICS\BULLET3-2.83.7\SRC" /I"E:\PROGRAMMING\BULLET PHYSICS\BULLET3-2.83.7\EXAMPLES\THIRDPARTYLIBS" /I"E:\PROGRAMMING\BULLET PHYSICS\BULLET3-2.83.7\EXAMPLES\THIRDPARTYLIBS\GLEW" /Zi /nologo /W3 /WX- /Od /Ob0 /D WIN32 /D _DEBUG /D _DEBUG /D _WIN64 /D USE_GRAPHICAL_BENCHMARK /D _CRT_SECURE_NO_WARNINGS /D _CRT_SECURE_NO_DEPRECATE /D _SCL_SECURE_NO_WARNINGS /D GLEW_STATIC /D GWEN_COMPILE_STATIC /D _HAS_EXCEPTIONS=0 /D _STATIC_CPPLIB /D "CMAKE_INTDIR=\"Debug\"" /D _MBCS /Gm- /EHsc /RTC1 /MTd /GS /fp:fast /Zc:wchar_t /Zc:forScope /Zc:inline /GR /Fo"GWEN.DIR\DEBUG\\" /Fd"GWEN.DIR\DEBUG\GWEN.PDB" /Gd /TP E:\PROGRAMMING\BULLET PHYSICS\BULLET3-2.83.7\EXAMPLES\THIRDPARTYLIBS\GWEN\CONTROLS\DIALOG\FILEOPEN.CPP
^E:\PROGRAMMING\BULLET PHYSICS\BULLET3-2.83.7\EXAMPLES\THIRDPARTYLIBS\GWEN\CONTROLS\DIALOG\FILESAVE.CPP
/c /I"E:\PROGRAMMING\BULLET PHYSICS\BULLET3-2.83.7\SRC" /I"E:\PROGRAMMING\BULLET PHYSICS\BULLET3-2.83.7\EXAMPLES\THIRDPARTYLIBS" /I"E:\PROGRAMMING\BULLET PHYSICS\BULLET3-2.83.7\EXAMPLES\THIRDPARTYLIBS\GLEW" /Zi /nologo /W3 /WX- /Od /Ob0 /D WIN32 /D _DEBUG /D _DEBUG /D _WIN64 /D USE_GRAPHICAL_BENCHMARK /D _CRT_SECURE_NO_WARNINGS /D _CRT_SECURE_NO_DEPRECATE /D _SCL_SECURE_NO_WARNINGS /D GLEW_STATIC /D GWEN_COMPILE_STATIC /D _HAS_EXCEPTIONS=0 /D _STATIC_CPPLIB /D "CMAKE_INTDIR=\"Debug\"" /D _MBCS /Gm- /EHsc /RTC1 /MTd /GS /fp:fast /Zc:wchar_t /Zc:forScope /Zc:inline /GR /Fo"GWEN.DIR\DEBUG\\" /Fd"GWEN.DIR\DEBUG\GWEN.PDB" /Gd /TP E:\PROGRAMMING\BULLET PHYSICS\BULLET3-2.83.7\EXAMPLES\THIRDPARTYLIBS\GWEN\CONTROLS\DIALOG\FILESAVE.CPP
^E:\PROGRAMMING\BULLET PHYSICS\BULLET3-2.83.7\EXAMPLES\THIRDPARTYLIBS\GWEN\CONTROLS\DIALOG\QUERY.CPP
/c /I"E:\PROGRAMMING\BULLET PHYSICS\BULLET3-2.83.7\SRC" /I"E:\PROGRAMMING\BULLET PHYSICS\BULLET3-2.83.7\EXAMPLES\THIRDPARTYLIBS" /I"E:\PROGRAMMING\BULLET PHYSICS\BULLET3-2.83.7\EXAMPLES\THIRDPARTYLIBS\GLEW" /Zi /nologo /W3 /WX- /Od /Ob0 /D WIN32 /D _DEBUG /D _DEBUG /D _WIN64 /D USE_GRAPHICAL_BENCHMARK /D _CRT_SECURE_NO_WARNINGS /D _CRT_SECURE_NO_DEPRECATE /D _SCL_SECURE_NO_WARNINGS /D GLEW_STATIC /D GWEN_COMPILE_STATIC /D _HAS_EXCEPTIONS=0 /D _STATIC_CPPLIB /D "CMAKE_INTDIR=\"Debug\"" /D _MBCS /Gm- /EHsc /RTC1 /MTd /GS /fp:fast /Zc:wchar_t /Zc:forScope /Zc:inline /GR /Fo"GWEN.DIR\DEBUG\\" /Fd"GWEN.DIR\DEBUG\GWEN.PDB" /Gd /TP E:\PROGRAMMING\BULLET PHYSICS\BULLET3-2.83.7\EXAMPLES\THIRDPARTYLIBS\GWEN\CONTROLS\DIALOG\QUERY.CPP
^E:\PROGRAMMING\BULLET PHYSICS\BULLET3-2.83.7\EXAMPLES\THIRDPARTYLIBS\GWEN\PLATFORMS\NULL.CPP
/c /I"E:\PROGRAMMING\BULLET PHYSICS\BULLET3-2.83.7\SRC" /I"E:\PROGRAMMING\BULLET PHYSICS\BULLET3-2.83.7\EXAMPLES\THIRDPARTYLIBS" /I"E:\PROGRAMMING\BULLET PHYSICS\BULLET3-2.83.7\EXAMPLES\THIRDPARTYLIBS\GLEW" /Zi /nologo /W3 /WX- /Od /Ob0 /D WIN32 /D _DEBUG /D _DEBUG /D _WIN64 /D USE_GRAPHICAL_BENCHMARK /D _CRT_SECURE_NO_WARNINGS /D _CRT_SECURE_NO_DEPRECATE /D _SCL_SECURE_NO_WARNINGS /D GLEW_STATIC /D GWEN_COMPILE_STATIC /D _HAS_EXCEPTIONS=0 /D _STATIC_CPPLIB /D "CMAKE_INTDIR=\"Debug\"" /D _MBCS /Gm- /EHsc /RTC1 /MTd /GS /fp:fast /Zc:wchar_t /Zc:forScope /Zc:inline /GR /Fo"GWEN.DIR\DEBUG\\" /Fd"GWEN.DIR\DEBUG\GWEN.PDB" /Gd /TP E:\PROGRAMMING\BULLET PHYSICS\BULLET3-2.83.7\EXAMPLES\THIRDPARTYLIBS\GWEN\PLATFORMS\NULL.CPP
^E:\PROGRAMMING\BULLET PHYSICS\BULLET3-2.83.7\EXAMPLES\THIRDPARTYLIBS\GWEN\PLATFORMS\WINDOWS.CPP
/c /I"E:\PROGRAMMING\BULLET PHYSICS\BULLET3-2.83.7\SRC" /I"E:\PROGRAMMING\BULLET PHYSICS\BULLET3-2.83.7\EXAMPLES\THIRDPARTYLIBS" /I"E:\PROGRAMMING\BULLET PHYSICS\BULLET3-2.83.7\EXAMPLES\THIRDPARTYLIBS\GLEW" /Zi /nologo /W3 /WX- /Od /Ob0 /D WIN32 /D _DEBUG /D _DEBUG /D _WIN64 /D USE_GRAPHICAL_BENCHMARK /D _CRT_SECURE_NO_WARNINGS /D _CRT_SECURE_NO_DEPRECATE /D _SCL_SECURE_NO_WARNINGS /D GLEW_STATIC /D GWEN_COMPILE_STATIC /D _HAS_EXCEPTIONS=0 /D _STATIC_CPPLIB /D "CMAKE_INTDIR=\"Debug\"" /D _MBCS /Gm- /EHsc /RTC1 /MTd /GS /fp:fast /Zc:wchar_t /Zc:forScope /Zc:inline /GR /Fo"GWEN.DIR\DEBUG\\" /Fd"GWEN.DIR\DEBUG\GWEN.PDB" /Gd /TP E:\PROGRAMMING\BULLET PHYSICS\BULLET3-2.83.7\EXAMPLES\THIRDPARTYLIBS\GWEN\PLATFORMS\WINDOWS.CPP
^E:\PROGRAMMING\BULLET PHYSICS\BULLET3-2.83.7\EXAMPLES\THIRDPARTYLIBS\GWEN\RENDERERS\OPENGL_DEBUGFONT.CPP
/c /I"E:\PROGRAMMING\BULLET PHYSICS\BULLET3-2.83.7\SRC" /I"E:\PROGRAMMING\BULLET PHYSICS\BULLET3-2.83.7\EXAMPLES\THIRDPARTYLIBS" /I"E:\PROGRAMMING\BULLET PHYSICS\BULLET3-2.83.7\EXAMPLES\THIRDPARTYLIBS\GLEW" /Zi /nologo /W3 /WX- /Od /Ob0 /D WIN32 /D _DEBUG /D _DEBUG /D _WIN64 /D USE_GRAPHICAL_BENCHMARK /D _CRT_SECURE_NO_WARNINGS /D _CRT_SECURE_NO_DEPRECATE /D _SCL_SECURE_NO_WARNINGS /D GLEW_STATIC /D GWEN_COMPILE_STATIC /D _HAS_EXCEPTIONS=0 /D _STATIC_CPPLIB /D "CMAKE_INTDIR=\"Debug\"" /D _MBCS /Gm- /EHsc /RTC1 /MTd /GS /fp:fast /Zc:wchar_t /Zc:forScope /Zc:inline /GR /Fo"GWEN.DIR\DEBUG\\" /Fd"GWEN.DIR\DEBUG\GWEN.PDB" /Gd /TP E:\PROGRAMMING\BULLET PHYSICS\BULLET3-2.83.7\EXAMPLES\THIRDPARTYLIBS\GWEN\RENDERERS\OPENGL_DEBUGFONT.CPP
