^E:\PROGRAMMING\BULLET PHYSICS\BUILDS\SRC\BULLET3GEOMETRY\BULLET3GEOMETRY.DIR\DEBUG\B3CONVEXHULLCOMPUTER.OBJ|E:\PROGRAMMING\BULLET PHYSICS\BUILDS\SRC\BULLET3GEOMETRY\BULLET3GEOMETRY.DIR\DEBUG\B3GEOMETRYUTIL.OBJ
C:\WINDOWS\GLOBALIZATION\SORTING\SORTDEFAULT.NLS
E:\PROGRAMMING\BULLET PHYSICS\BUILDS\SRC\BULLET3GEOMETRY\BULLET3GEOMETRY.DIR\DEBUG\B3CONVEXHULLCOMPUTER.OBJ
C:\WINDOWS\SYSTEM32\TZRES.DLL
E:\PROGRAMMING\BULLET PHYSICS\BUILDS\SRC\BULLET3GEOMETRY\BULLET3GEOMETRY.DIR\DEBUG\B3GEOMETRYUTIL.OBJ
