^E:\PROGRAMMING\BULLET PHYSICS\BULLET3-2.83.7\TEST\COLLISION\MAIN.CPP
E:\PROGRAMMING\BULLET PHYSICS\BULLET3-2.83.7\TEST\GTEST-1.7.0\INCLUDE\GTEST\GTEST.H
D:\PROGRAM\VISUAL STUDIO COM 2015\VC\INCLUDE\LIMITS
D:\PROGRAM\VISUAL STUDIO COM 2015\VC\INCLUDE\YMATH.H
D:\PROGRAM\VISUAL STUDIO COM 2015\VC\INCLUDE\YVALS.H
D:\PROGRAM\VISUAL STUDIO COM 2015\VC\INCLUDE\XKEYCHECK.H
D:\PROGRAM\VISUAL STUDIO COM 2015\VC\INCLUDE\CRTDEFS.H
D:\PROGRAM\VISUAL STUDIO COM 2015\VC\INCLUDE\VCRUNTIME.H
D:\PROGRAM\VISUAL STUDIO COM 2015\VC\INCLUDE\SAL.H
D:\PROGRAM\VISUAL STUDIO COM 2015\VC\INCLUDE\CONCURRENCYSAL.H
D:\PROGRAM\VISUAL STUDIO COM 2015\VC\INCLUDE\VADEFS.H
C:\PROGRAM FILES (X86)\WINDOWS KITS\10\INCLUDE\10.0.10586.0\UCRT\CORECRT.H
D:\PROGRAM\VISUAL STUDIO COM 2015\VC\INCLUDE\USE_ANSI.H
D:\PROGRAM\VISUAL STUDIO COM 2015\VC\INCLUDE\CFLOAT
C:\PROGRAM FILES (X86)\WINDOWS KITS\10\INCLUDE\10.0.10586.0\UCRT\FLOAT.H
D:\PROGRAM\VISUAL STUDIO COM 2015\VC\INCLUDE\CLIMITS
D:\PROGRAM\VISUAL STUDIO COM 2015\VC\INCLUDE\LIMITS.H
D:\PROGRAM\VISUAL STUDIO COM 2015\VC\INCLUDE\CMATH
C:\PROGRAM FILES (X86)\WINDOWS KITS\10\INCLUDE\10.0.10586.0\UCRT\MATH.H
D:\PROGRAM\VISUAL STUDIO COM 2015\VC\INCLUDE\XTGMATH.H
D:\PROGRAM\VISUAL STUDIO COM 2015\VC\INCLUDE\XTR1COMMON
D:\PROGRAM\VISUAL STUDIO COM 2015\VC\INCLUDE\CSTDLIB
C:\PROGRAM FILES (X86)\WINDOWS KITS\10\INCLUDE\10.0.10586.0\UCRT\STDLIB.H
C:\PROGRAM FILES (X86)\WINDOWS KITS\10\INCLUDE\10.0.10586.0\UCRT\CORECRT_MALLOC.H
C:\PROGRAM FILES (X86)\WINDOWS KITS\10\INCLUDE\10.0.10586.0\UCRT\CORECRT_SEARCH.H
C:\PROGRAM FILES (X86)\WINDOWS KITS\10\INCLUDE\10.0.10586.0\UCRT\STDDEF.H
C:\PROGRAM FILES (X86)\WINDOWS KITS\10\INCLUDE\10.0.10586.0\UCRT\CORECRT_WSTDLIB.H
D:\PROGRAM\VISUAL STUDIO COM 2015\VC\INCLUDE\CWCHAR
C:\PROGRAM FILES (X86)\WINDOWS KITS\10\INCLUDE\10.0.10586.0\UCRT\WCHAR.H
C:\PROGRAM FILES (X86)\WINDOWS KITS\10\INCLUDE\10.0.10586.0\UCRT\CORECRT_MEMCPY_S.H
C:\PROGRAM FILES (X86)\WINDOWS KITS\10\INCLUDE\10.0.10586.0\UCRT\ERRNO.H
D:\PROGRAM\VISUAL STUDIO COM 2015\VC\INCLUDE\VCRUNTIME_STRING.H
C:\PROGRAM FILES (X86)\WINDOWS KITS\10\INCLUDE\10.0.10586.0\UCRT\CORECRT_WCONIO.H
C:\PROGRAM FILES (X86)\WINDOWS KITS\10\INCLUDE\10.0.10586.0\UCRT\CORECRT_STDIO_CONFIG.H
C:\PROGRAM FILES (X86)\WINDOWS KITS\10\INCLUDE\10.0.10586.0\UCRT\CORECRT_WCTYPE.H
C:\PROGRAM FILES (X86)\WINDOWS KITS\10\INCLUDE\10.0.10586.0\UCRT\CORECRT_WDIRECT.H
C:\PROGRAM FILES (X86)\WINDOWS KITS\10\INCLUDE\10.0.10586.0\UCRT\CORECRT_WIO.H
C:\PROGRAM FILES (X86)\WINDOWS KITS\10\INCLUDE\10.0.10586.0\UCRT\CORECRT_SHARE.H
C:\PROGRAM FILES (X86)\WINDOWS KITS\10\INCLUDE\10.0.10586.0\UCRT\CORECRT_WPROCESS.H
C:\PROGRAM FILES (X86)\WINDOWS KITS\10\INCLUDE\10.0.10586.0\UCRT\CORECRT_WSTDIO.H
C:\PROGRAM FILES (X86)\WINDOWS KITS\10\INCLUDE\10.0.10586.0\UCRT\CORECRT_WSTRING.H
C:\PROGRAM FILES (X86)\WINDOWS KITS\10\INCLUDE\10.0.10586.0\UCRT\CORECRT_WTIME.H
C:\PROGRAM FILES (X86)\WINDOWS KITS\10\INCLUDE\10.0.10586.0\UCRT\SYS\STAT.H
C:\PROGRAM FILES (X86)\WINDOWS KITS\10\INCLUDE\10.0.10586.0\UCRT\SYS\TYPES.H
D:\PROGRAM\VISUAL STUDIO COM 2015\VC\INCLUDE\XSTDDEF
D:\PROGRAM\VISUAL STUDIO COM 2015\VC\INCLUDE\CSTDDEF
D:\PROGRAM\VISUAL STUDIO COM 2015\VC\INCLUDE\INITIALIZER_LIST
D:\PROGRAM\VISUAL STUDIO COM 2015\VC\INCLUDE\OSTREAM
D:\PROGRAM\VISUAL STUDIO COM 2015\VC\INCLUDE\IOS
D:\PROGRAM\VISUAL STUDIO COM 2015\VC\INCLUDE\XLOCNUM
D:\PROGRAM\VISUAL STUDIO COM 2015\VC\INCLUDE\CSTDIO
C:\PROGRAM FILES (X86)\WINDOWS KITS\10\INCLUDE\10.0.10586.0\UCRT\STDIO.H
D:\PROGRAM\VISUAL STUDIO COM 2015\VC\INCLUDE\STREAMBUF
D:\PROGRAM\VISUAL STUDIO COM 2015\VC\INCLUDE\XIOSBASE
D:\PROGRAM\VISUAL STUDIO COM 2015\VC\INCLUDE\XLOCALE
D:\PROGRAM\VISUAL STUDIO COM 2015\VC\INCLUDE\CSTRING
C:\PROGRAM FILES (X86)\WINDOWS KITS\10\INCLUDE\10.0.10586.0\UCRT\STRING.H
C:\PROGRAM FILES (X86)\WINDOWS KITS\10\INCLUDE\10.0.10586.0\UCRT\CORECRT_MEMORY.H
D:\PROGRAM\VISUAL STUDIO COM 2015\VC\INCLUDE\STDEXCEPT
D:\PROGRAM\VISUAL STUDIO COM 2015\VC\INCLUDE\EXCEPTION
D:\PROGRAM\VISUAL STUDIO COM 2015\VC\INCLUDE\TYPE_TRAITS
C:\PROGRAM FILES (X86)\WINDOWS KITS\10\INCLUDE\10.0.10586.0\UCRT\MALLOC.H
D:\PROGRAM\VISUAL STUDIO COM 2015\VC\INCLUDE\VCRUNTIME_EXCEPTION.H
D:\PROGRAM\VISUAL STUDIO COM 2015\VC\INCLUDE\EH.H
C:\PROGRAM FILES (X86)\WINDOWS KITS\10\INCLUDE\10.0.10586.0\UCRT\CORECRT_TERMINATE.H
D:\PROGRAM\VISUAL STUDIO COM 2015\VC\INCLUDE\XSTRING
D:\PROGRAM\VISUAL STUDIO COM 2015\VC\INCLUDE\XMEMORY0
D:\PROGRAM\VISUAL STUDIO COM 2015\VC\INCLUDE\CSTDINT
D:\PROGRAM\VISUAL STUDIO COM 2015\VC\INCLUDE\STDINT.H
D:\PROGRAM\VISUAL STUDIO COM 2015\VC\INCLUDE\NEW
D:\PROGRAM\VISUAL STUDIO COM 2015\VC\INCLUDE\VCRUNTIME_NEW.H
D:\PROGRAM\VISUAL STUDIO COM 2015\VC\INCLUDE\XUTILITY
D:\PROGRAM\VISUAL STUDIO COM 2015\VC\INCLUDE\UTILITY
D:\PROGRAM\VISUAL STUDIO COM 2015\VC\INCLUDE\IOSFWD
C:\PROGRAM FILES (X86)\WINDOWS KITS\10\INCLUDE\10.0.10586.0\UCRT\CRTDBG.H
D:\PROGRAM\VISUAL STUDIO COM 2015\VC\INCLUDE\VCRUNTIME_NEW_DEBUG.H
D:\PROGRAM\VISUAL STUDIO COM 2015\VC\INCLUDE\XATOMIC0.H
D:\PROGRAM\VISUAL STUDIO COM 2015\VC\INCLUDE\INTRIN.H
D:\PROGRAM\VISUAL STUDIO COM 2015\VC\INCLUDE\SETJMP.H
D:\PROGRAM\VISUAL STUDIO COM 2015\VC\INCLUDE\IMMINTRIN.H
D:\PROGRAM\VISUAL STUDIO COM 2015\VC\INCLUDE\WMMINTRIN.H
D:\PROGRAM\VISUAL STUDIO COM 2015\VC\INCLUDE\NMMINTRIN.H
D:\PROGRAM\VISUAL STUDIO COM 2015\VC\INCLUDE\SMMINTRIN.H
D:\PROGRAM\VISUAL STUDIO COM 2015\VC\INCLUDE\TMMINTRIN.H
D:\PROGRAM\VISUAL STUDIO COM 2015\VC\INCLUDE\PMMINTRIN.H
D:\PROGRAM\VISUAL STUDIO COM 2015\VC\INCLUDE\EMMINTRIN.H
D:\PROGRAM\VISUAL STUDIO COM 2015\VC\INCLUDE\XMMINTRIN.H
D:\PROGRAM\VISUAL STUDIO COM 2015\VC\INCLUDE\MMINTRIN.H
D:\PROGRAM\VISUAL STUDIO COM 2015\VC\INCLUDE\AMMINTRIN.H
D:\PROGRAM\VISUAL STUDIO COM 2015\VC\INCLUDE\TYPEINFO
D:\PROGRAM\VISUAL STUDIO COM 2015\VC\INCLUDE\VCRUNTIME_TYPEINFO.H
D:\PROGRAM\VISUAL STUDIO COM 2015\VC\INCLUDE\XLOCINFO
D:\PROGRAM\VISUAL STUDIO COM 2015\VC\INCLUDE\XLOCINFO.H
C:\PROGRAM FILES (X86)\WINDOWS KITS\10\INCLUDE\10.0.10586.0\UCRT\CTYPE.H
C:\PROGRAM FILES (X86)\WINDOWS KITS\10\INCLUDE\10.0.10586.0\UCRT\LOCALE.H
D:\PROGRAM\VISUAL STUDIO COM 2015\VC\INCLUDE\XFACET
D:\PROGRAM\VISUAL STUDIO COM 2015\VC\INCLUDE\SYSTEM_ERROR
D:\PROGRAM\VISUAL STUDIO COM 2015\VC\INCLUDE\CERRNO
C:\PROGRAM FILES (X86)\WINDOWS KITS\10\INCLUDE\10.0.10586.0\UCRT\SHARE.H
D:\PROGRAM\VISUAL STUDIO COM 2015\VC\INCLUDE\VECTOR
D:\PROGRAM\VISUAL STUDIO COM 2015\VC\INCLUDE\XMEMORY
E:\PROGRAMMING\BULLET PHYSICS\BULLET3-2.83.7\TEST\GTEST-1.7.0\INCLUDE\GTEST\INTERNAL\GTEST-INTERNAL.H
E:\PROGRAMMING\BULLET PHYSICS\BULLET3-2.83.7\TEST\GTEST-1.7.0\INCLUDE\GTEST\INTERNAL\GTEST-PORT.H
D:\PROGRAM\VISUAL STUDIO COM 2015\VC\INCLUDE\IOSTREAM
D:\PROGRAM\VISUAL STUDIO COM 2015\VC\INCLUDE\ISTREAM
D:\PROGRAM\VISUAL STUDIO COM 2015\VC\INCLUDE\SSTREAM
D:\PROGRAM\VISUAL STUDIO COM 2015\VC\INCLUDE\STRING
C:\PROGRAM FILES (X86)\WINDOWS KITS\10\INCLUDE\10.0.10586.0\UCRT\DIRECT.H
C:\PROGRAM FILES (X86)\WINDOWS KITS\10\INCLUDE\10.0.10586.0\UCRT\IO.H
C:\PROGRAM FILES (X86)\WINDOWS KITS\10\INCLUDE\10.0.10586.0\UCRT\CORECRT_IO.H
D:\PROGRAM\VISUAL STUDIO COM 2015\VC\INCLUDE\TUPLE
D:\PROGRAM\VISUAL STUDIO COM 2015\VC\INCLUDE\IOMANIP
D:\PROGRAM\VISUAL STUDIO COM 2015\VC\INCLUDE\XLOCMON
D:\PROGRAM\VISUAL STUDIO COM 2015\VC\INCLUDE\XLOCTIME
D:\PROGRAM\VISUAL STUDIO COM 2015\VC\INCLUDE\CTIME
C:\PROGRAM FILES (X86)\WINDOWS KITS\10\INCLUDE\10.0.10586.0\UCRT\TIME.H
D:\PROGRAM\VISUAL STUDIO COM 2015\VC\INCLUDE\SET
D:\PROGRAM\VISUAL STUDIO COM 2015\VC\INCLUDE\XTREE
E:\PROGRAMMING\BULLET PHYSICS\BULLET3-2.83.7\TEST\GTEST-1.7.0\INCLUDE\GTEST\GTEST-MESSAGE.H
E:\PROGRAMMING\BULLET PHYSICS\BULLET3-2.83.7\TEST\GTEST-1.7.0\INCLUDE\GTEST\INTERNAL\GTEST-STRING.H
E:\PROGRAMMING\BULLET PHYSICS\BULLET3-2.83.7\TEST\GTEST-1.7.0\INCLUDE\GTEST\INTERNAL\GTEST-FILEPATH.H
E:\PROGRAMMING\BULLET PHYSICS\BULLET3-2.83.7\TEST\GTEST-1.7.0\INCLUDE\GTEST\INTERNAL\GTEST-TYPE-UTIL.H
E:\PROGRAMMING\BULLET PHYSICS\BULLET3-2.83.7\TEST\GTEST-1.7.0\INCLUDE\GTEST\GTEST-DEATH-TEST.H
E:\PROGRAMMING\BULLET PHYSICS\BULLET3-2.83.7\TEST\GTEST-1.7.0\INCLUDE\GTEST\INTERNAL\GTEST-DEATH-TEST-INTERNAL.H
E:\PROGRAMMING\BULLET PHYSICS\BULLET3-2.83.7\TEST\GTEST-1.7.0\INCLUDE\GTEST\GTEST-PARAM-TEST.H
E:\PROGRAMMING\BULLET PHYSICS\BULLET3-2.83.7\TEST\GTEST-1.7.0\INCLUDE\GTEST\INTERNAL\GTEST-PARAM-UTIL.H
D:\PROGRAM\VISUAL STUDIO COM 2015\VC\INCLUDE\ITERATOR
E:\PROGRAMMING\BULLET PHYSICS\BULLET3-2.83.7\TEST\GTEST-1.7.0\INCLUDE\GTEST\INTERNAL\GTEST-LINKED_PTR.H
C:\PROGRAM FILES (X86)\WINDOWS KITS\10\INCLUDE\10.0.10586.0\UCRT\ASSERT.H
E:\PROGRAMMING\BULLET PHYSICS\BULLET3-2.83.7\TEST\GTEST-1.7.0\INCLUDE\GTEST\GTEST-PRINTERS.H
E:\PROGRAMMING\BULLET PHYSICS\BULLET3-2.83.7\TEST\GTEST-1.7.0\INCLUDE\GTEST\INTERNAL\GTEST-PARAM-UTIL-GENERATED.H
E:\PROGRAMMING\BULLET PHYSICS\BULLET3-2.83.7\TEST\GTEST-1.7.0\INCLUDE\GTEST\GTEST_PROD.H
E:\PROGRAMMING\BULLET PHYSICS\BULLET3-2.83.7\TEST\GTEST-1.7.0\INCLUDE\GTEST\GTEST-TEST-PART.H
E:\PROGRAMMING\BULLET PHYSICS\BULLET3-2.83.7\TEST\GTEST-1.7.0\INCLUDE\GTEST\GTEST-TYPED-TEST.H
E:\PROGRAMMING\BULLET PHYSICS\BULLET3-2.83.7\TEST\GTEST-1.7.0\INCLUDE\GTEST\GTEST_PRED_IMPL.H
E:\PROGRAMMING\BULLET PHYSICS\BULLET3-2.83.7\TEST\COLLISION\SPHERESPHERECOLLISION.H
E:\PROGRAMMING\BULLET PHYSICS\BULLET3-2.83.7\SRC\LINEARMATH\BTTRANSFORM.H
E:\PROGRAMMING\BULLET PHYSICS\BULLET3-2.83.7\SRC\LINEARMATH\BTMATRIX3X3.H
E:\PROGRAMMING\BULLET PHYSICS\BULLET3-2.83.7\SRC\LINEARMATH\BTVECTOR3.H
E:\PROGRAMMING\BULLET PHYSICS\BULLET3-2.83.7\SRC\LINEARMATH\BTSCALAR.H
E:\PROGRAMMING\BULLET PHYSICS\BULLET3-2.83.7\SRC\LINEARMATH\BTMINMAX.H
E:\PROGRAMMING\BULLET PHYSICS\BULLET3-2.83.7\SRC\LINEARMATH\BTALIGNEDALLOCATOR.H
E:\PROGRAMMING\BULLET PHYSICS\BULLET3-2.83.7\SRC\LINEARMATH\BTQUATERNION.H
E:\PROGRAMMING\BULLET PHYSICS\BULLET3-2.83.7\SRC\LINEARMATH\BTQUADWORD.H
E:\PROGRAMMING\BULLET PHYSICS\BULLET3-2.83.7\TEST\COLLISION\BTDISTANCEINFO.H
E:\PROGRAMMING\BULLET PHYSICS\BULLET3-2.83.7\SRC\BULLETCOLLISION\COLLISIONSHAPES\BTSPHERESHAPE.H
E:\PROGRAMMING\BULLET PHYSICS\BULLET3-2.83.7\SRC\BULLETCOLLISION\COLLISIONSHAPES\BTCONVEXINTERNALSHAPE.H
E:\PROGRAMMING\BULLET PHYSICS\BULLET3-2.83.7\SRC\BULLETCOLLISION\COLLISIONSHAPES\BTCONVEXSHAPE.H
E:\PROGRAMMING\BULLET PHYSICS\BULLET3-2.83.7\SRC\BULLETCOLLISION\COLLISIONSHAPES\BTCOLLISIONSHAPE.H
E:\PROGRAMMING\BULLET PHYSICS\BULLET3-2.83.7\SRC\BULLETCOLLISION\BROADPHASECOLLISION\BTBROADPHASEPROXY.H
E:\PROGRAMMING\BULLET PHYSICS\BULLET3-2.83.7\SRC\BULLETCOLLISION\COLLISIONSHAPES\BTCOLLISIONMARGIN.H
E:\PROGRAMMING\BULLET PHYSICS\BULLET3-2.83.7\SRC\LINEARMATH\BTAABBUTIL2.H
E:\PROGRAMMING\BULLET PHYSICS\BULLET3-2.83.7\SRC\BULLETCOLLISION\COLLISIONSHAPES\BTMULTISPHERESHAPE.H
E:\PROGRAMMING\BULLET PHYSICS\BULLET3-2.83.7\SRC\LINEARMATH\BTALIGNEDOBJECTARRAY.H
E:\PROGRAMMING\BULLET PHYSICS\BULLET3-2.83.7\SRC\BULLETCOLLISION\NARROWPHASECOLLISION\BTCOMPUTEGJKEPAPENETRATION.H
E:\PROGRAMMING\BULLET PHYSICS\BULLET3-2.83.7\SRC\BULLETCOLLISION\NARROWPHASECOLLISION\BTGJKEPA3.H
E:\PROGRAMMING\BULLET PHYSICS\BULLET3-2.83.7\SRC\BULLETCOLLISION\NARROWPHASECOLLISION\BTGJKCOLLISIONDESCRIPTION.H
E:\PROGRAMMING\BULLET PHYSICS\BULLET3-2.83.7\SRC\BULLETCOLLISION\NARROWPHASECOLLISION\BTVORONOISIMPLEXSOLVER.H
E:\PROGRAMMING\BULLET PHYSICS\BULLET3-2.83.7\SRC\BULLETCOLLISION\NARROWPHASECOLLISION\BTSIMPLEXSOLVERINTERFACE.H
E:\PROGRAMMING\BULLET PHYSICS\BULLET3-2.83.7\SRC\BULLETCOLLISION\NARROWPHASECOLLISION\BTMPRPENETRATION.H
^E:\PROGRAMMING\BULLET PHYSICS\BULLET3-2.83.7\SRC\BULLETCOLLISION\NARROWPHASECOLLISION\BTVORONOISIMPLEXSOLVER.CPP
E:\PROGRAMMING\BULLET PHYSICS\BULLET3-2.83.7\SRC\BULLETCOLLISION\NARROWPHASECOLLISION\BTVORONOISIMPLEXSOLVER.H
E:\PROGRAMMING\BULLET PHYSICS\BULLET3-2.83.7\SRC\BULLETCOLLISION\NARROWPHASECOLLISION\BTSIMPLEXSOLVERINTERFACE.H
E:\PROGRAMMING\BULLET PHYSICS\BULLET3-2.83.7\SRC\LINEARMATH\BTVECTOR3.H
E:\PROGRAMMING\BULLET PHYSICS\BULLET3-2.83.7\SRC\LINEARMATH\BTSCALAR.H
C:\PROGRAM FILES (X86)\WINDOWS KITS\10\INCLUDE\10.0.10586.0\UCRT\MATH.H
C:\PROGRAM FILES (X86)\WINDOWS KITS\10\INCLUDE\10.0.10586.0\UCRT\CORECRT.H
D:\PROGRAM\VISUAL STUDIO COM 2015\VC\INCLUDE\VCRUNTIME.H
D:\PROGRAM\VISUAL STUDIO COM 2015\VC\INCLUDE\SAL.H
D:\PROGRAM\VISUAL STUDIO COM 2015\VC\INCLUDE\CONCURRENCYSAL.H
D:\PROGRAM\VISUAL STUDIO COM 2015\VC\INCLUDE\VADEFS.H
C:\PROGRAM FILES (X86)\WINDOWS KITS\10\INCLUDE\10.0.10586.0\UCRT\STDLIB.H
C:\PROGRAM FILES (X86)\WINDOWS KITS\10\INCLUDE\10.0.10586.0\UCRT\CORECRT_MALLOC.H
C:\PROGRAM FILES (X86)\WINDOWS KITS\10\INCLUDE\10.0.10586.0\UCRT\CORECRT_SEARCH.H
C:\PROGRAM FILES (X86)\WINDOWS KITS\10\INCLUDE\10.0.10586.0\UCRT\STDDEF.H
C:\PROGRAM FILES (X86)\WINDOWS KITS\10\INCLUDE\10.0.10586.0\UCRT\CORECRT_WSTDLIB.H
D:\PROGRAM\VISUAL STUDIO COM 2015\VC\INCLUDE\LIMITS.H
C:\PROGRAM FILES (X86)\WINDOWS KITS\10\INCLUDE\10.0.10586.0\UCRT\FLOAT.H
D:\PROGRAM\VISUAL STUDIO COM 2015\VC\INCLUDE\EMMINTRIN.H
D:\PROGRAM\VISUAL STUDIO COM 2015\VC\INCLUDE\XMMINTRIN.H
D:\PROGRAM\VISUAL STUDIO COM 2015\VC\INCLUDE\MMINTRIN.H
C:\PROGRAM FILES (X86)\WINDOWS KITS\10\INCLUDE\10.0.10586.0\UCRT\MALLOC.H
C:\PROGRAM FILES (X86)\WINDOWS KITS\10\INCLUDE\10.0.10586.0\UCRT\STDIO.H
C:\PROGRAM FILES (X86)\WINDOWS KITS\10\INCLUDE\10.0.10586.0\UCRT\CORECRT_WSTDIO.H
C:\PROGRAM FILES (X86)\WINDOWS KITS\10\INCLUDE\10.0.10586.0\UCRT\CORECRT_STDIO_CONFIG.H
E:\PROGRAMMING\BULLET PHYSICS\BULLET3-2.83.7\SRC\LINEARMATH\BTMINMAX.H
E:\PROGRAMMING\BULLET PHYSICS\BULLET3-2.83.7\SRC\LINEARMATH\BTALIGNEDALLOCATOR.H
^E:\PROGRAMMING\BULLET PHYSICS\BULLET3-2.83.7\SRC\BULLETCOLLISION\COLLISIONSHAPES\BTSPHERESHAPE.CPP
E:\PROGRAMMING\BULLET PHYSICS\BULLET3-2.83.7\SRC\BULLETCOLLISION\COLLISIONSHAPES\BTSPHERESHAPE.H
E:\PROGRAMMING\BULLET PHYSICS\BULLET3-2.83.7\SRC\BULLETCOLLISION\COLLISIONSHAPES\BTCONVEXINTERNALSHAPE.H
E:\PROGRAMMING\BULLET PHYSICS\BULLET3-2.83.7\SRC\BULLETCOLLISION\COLLISIONSHAPES\BTCONVEXSHAPE.H
E:\PROGRAMMING\BULLET PHYSICS\BULLET3-2.83.7\SRC\BULLETCOLLISION\COLLISIONSHAPES\BTCOLLISIONSHAPE.H
E:\PROGRAMMING\BULLET PHYSICS\BULLET3-2.83.7\SRC\LINEARMATH\BTTRANSFORM.H
E:\PROGRAMMING\BULLET PHYSICS\BULLET3-2.83.7\SRC\LINEARMATH\BTMATRIX3X3.H
E:\PROGRAMMING\BULLET PHYSICS\BULLET3-2.83.7\SRC\LINEARMATH\BTVECTOR3.H
E:\PROGRAMMING\BULLET PHYSICS\BULLET3-2.83.7\SRC\LINEARMATH\BTSCALAR.H
C:\PROGRAM FILES (X86)\WINDOWS KITS\10\INCLUDE\10.0.10586.0\UCRT\MATH.H
C:\PROGRAM FILES (X86)\WINDOWS KITS\10\INCLUDE\10.0.10586.0\UCRT\CORECRT.H
D:\PROGRAM\VISUAL STUDIO COM 2015\VC\INCLUDE\VCRUNTIME.H
D:\PROGRAM\VISUAL STUDIO COM 2015\VC\INCLUDE\SAL.H
D:\PROGRAM\VISUAL STUDIO COM 2015\VC\INCLUDE\CONCURRENCYSAL.H
D:\PROGRAM\VISUAL STUDIO COM 2015\VC\INCLUDE\VADEFS.H
C:\PROGRAM FILES (X86)\WINDOWS KITS\10\INCLUDE\10.0.10586.0\UCRT\STDLIB.H
C:\PROGRAM FILES (X86)\WINDOWS KITS\10\INCLUDE\10.0.10586.0\UCRT\CORECRT_MALLOC.H
C:\PROGRAM FILES (X86)\WINDOWS KITS\10\INCLUDE\10.0.10586.0\UCRT\CORECRT_SEARCH.H
C:\PROGRAM FILES (X86)\WINDOWS KITS\10\INCLUDE\10.0.10586.0\UCRT\STDDEF.H
C:\PROGRAM FILES (X86)\WINDOWS KITS\10\INCLUDE\10.0.10586.0\UCRT\CORECRT_WSTDLIB.H
D:\PROGRAM\VISUAL STUDIO COM 2015\VC\INCLUDE\LIMITS.H
C:\PROGRAM FILES (X86)\WINDOWS KITS\10\INCLUDE\10.0.10586.0\UCRT\FLOAT.H
D:\PROGRAM\VISUAL STUDIO COM 2015\VC\INCLUDE\EMMINTRIN.H
D:\PROGRAM\VISUAL STUDIO COM 2015\VC\INCLUDE\XMMINTRIN.H
D:\PROGRAM\VISUAL STUDIO COM 2015\VC\INCLUDE\MMINTRIN.H
C:\PROGRAM FILES (X86)\WINDOWS KITS\10\INCLUDE\10.0.10586.0\UCRT\MALLOC.H
C:\PROGRAM FILES (X86)\WINDOWS KITS\10\INCLUDE\10.0.10586.0\UCRT\STDIO.H
C:\PROGRAM FILES (X86)\WINDOWS KITS\10\INCLUDE\10.0.10586.0\UCRT\CORECRT_WSTDIO.H
C:\PROGRAM FILES (X86)\WINDOWS KITS\10\INCLUDE\10.0.10586.0\UCRT\CORECRT_STDIO_CONFIG.H
E:\PROGRAMMING\BULLET PHYSICS\BULLET3-2.83.7\SRC\LINEARMATH\BTMINMAX.H
E:\PROGRAMMING\BULLET PHYSICS\BULLET3-2.83.7\SRC\LINEARMATH\BTALIGNEDALLOCATOR.H
E:\PROGRAMMING\BULLET PHYSICS\BULLET3-2.83.7\SRC\LINEARMATH\BTQUATERNION.H
E:\PROGRAMMING\BULLET PHYSICS\BULLET3-2.83.7\SRC\LINEARMATH\BTQUADWORD.H
E:\PROGRAMMING\BULLET PHYSICS\BULLET3-2.83.7\SRC\BULLETCOLLISION\BROADPHASECOLLISION\BTBROADPHASEPROXY.H
E:\PROGRAMMING\BULLET PHYSICS\BULLET3-2.83.7\SRC\BULLETCOLLISION\COLLISIONSHAPES\BTCOLLISIONMARGIN.H
E:\PROGRAMMING\BULLET PHYSICS\BULLET3-2.83.7\SRC\LINEARMATH\BTAABBUTIL2.H
^E:\PROGRAMMING\BULLET PHYSICS\BULLET3-2.83.7\SRC\BULLETCOLLISION\COLLISIONSHAPES\BTMULTISPHERESHAPE.CPP
E:\PROGRAMMING\BULLET PHYSICS\BULLET3-2.83.7\SRC\BULLETCOLLISION\COLLISIONSHAPES\BTMULTISPHERESHAPE.H
E:\PROGRAMMING\BULLET PHYSICS\BULLET3-2.83.7\SRC\BULLETCOLLISION\COLLISIONSHAPES\BTCONVEXINTERNALSHAPE.H
E:\PROGRAMMING\BULLET PHYSICS\BULLET3-2.83.7\SRC\BULLETCOLLISION\COLLISIONSHAPES\BTCONVEXSHAPE.H
E:\PROGRAMMING\BULLET PHYSICS\BULLET3-2.83.7\SRC\BULLETCOLLISION\COLLISIONSHAPES\BTCOLLISIONSHAPE.H
E:\PROGRAMMING\BULLET PHYSICS\BULLET3-2.83.7\SRC\LINEARMATH\BTTRANSFORM.H
E:\PROGRAMMING\BULLET PHYSICS\BULLET3-2.83.7\SRC\LINEARMATH\BTMATRIX3X3.H
E:\PROGRAMMING\BULLET PHYSICS\BULLET3-2.83.7\SRC\LINEARMATH\BTVECTOR3.H
E:\PROGRAMMING\BULLET PHYSICS\BULLET3-2.83.7\SRC\LINEARMATH\BTSCALAR.H
C:\PROGRAM FILES (X86)\WINDOWS KITS\10\INCLUDE\10.0.10586.0\UCRT\MATH.H
C:\PROGRAM FILES (X86)\WINDOWS KITS\10\INCLUDE\10.0.10586.0\UCRT\CORECRT.H
D:\PROGRAM\VISUAL STUDIO COM 2015\VC\INCLUDE\VCRUNTIME.H
D:\PROGRAM\VISUAL STUDIO COM 2015\VC\INCLUDE\SAL.H
D:\PROGRAM\VISUAL STUDIO COM 2015\VC\INCLUDE\CONCURRENCYSAL.H
D:\PROGRAM\VISUAL STUDIO COM 2015\VC\INCLUDE\VADEFS.H
C:\PROGRAM FILES (X86)\WINDOWS KITS\10\INCLUDE\10.0.10586.0\UCRT\STDLIB.H
C:\PROGRAM FILES (X86)\WINDOWS KITS\10\INCLUDE\10.0.10586.0\UCRT\CORECRT_MALLOC.H
C:\PROGRAM FILES (X86)\WINDOWS KITS\10\INCLUDE\10.0.10586.0\UCRT\CORECRT_SEARCH.H
C:\PROGRAM FILES (X86)\WINDOWS KITS\10\INCLUDE\10.0.10586.0\UCRT\STDDEF.H
C:\PROGRAM FILES (X86)\WINDOWS KITS\10\INCLUDE\10.0.10586.0\UCRT\CORECRT_WSTDLIB.H
D:\PROGRAM\VISUAL STUDIO COM 2015\VC\INCLUDE\LIMITS.H
C:\PROGRAM FILES (X86)\WINDOWS KITS\10\INCLUDE\10.0.10586.0\UCRT\FLOAT.H
D:\PROGRAM\VISUAL STUDIO COM 2015\VC\INCLUDE\EMMINTRIN.H
D:\PROGRAM\VISUAL STUDIO COM 2015\VC\INCLUDE\XMMINTRIN.H
D:\PROGRAM\VISUAL STUDIO COM 2015\VC\INCLUDE\MMINTRIN.H
C:\PROGRAM FILES (X86)\WINDOWS KITS\10\INCLUDE\10.0.10586.0\UCRT\MALLOC.H
C:\PROGRAM FILES (X86)\WINDOWS KITS\10\INCLUDE\10.0.10586.0\UCRT\STDIO.H
C:\PROGRAM FILES (X86)\WINDOWS KITS\10\INCLUDE\10.0.10586.0\UCRT\CORECRT_WSTDIO.H
C:\PROGRAM FILES (X86)\WINDOWS KITS\10\INCLUDE\10.0.10586.0\UCRT\CORECRT_STDIO_CONFIG.H
E:\PROGRAMMING\BULLET PHYSICS\BULLET3-2.83.7\SRC\LINEARMATH\BTMINMAX.H
E:\PROGRAMMING\BULLET PHYSICS\BULLET3-2.83.7\SRC\LINEARMATH\BTALIGNEDALLOCATOR.H
E:\PROGRAMMING\BULLET PHYSICS\BULLET3-2.83.7\SRC\LINEARMATH\BTQUATERNION.H
E:\PROGRAMMING\BULLET PHYSICS\BULLET3-2.83.7\SRC\LINEARMATH\BTQUADWORD.H
E:\PROGRAMMING\BULLET PHYSICS\BULLET3-2.83.7\SRC\BULLETCOLLISION\BROADPHASECOLLISION\BTBROADPHASEPROXY.H
E:\PROGRAMMING\BULLET PHYSICS\BULLET3-2.83.7\SRC\BULLETCOLLISION\COLLISIONSHAPES\BTCOLLISIONMARGIN.H
E:\PROGRAMMING\BULLET PHYSICS\BULLET3-2.83.7\SRC\LINEARMATH\BTAABBUTIL2.H
E:\PROGRAMMING\BULLET PHYSICS\BULLET3-2.83.7\SRC\LINEARMATH\BTALIGNEDOBJECTARRAY.H
D:\PROGRAM\VISUAL STUDIO COM 2015\VC\INCLUDE\NEW
D:\PROGRAM\VISUAL STUDIO COM 2015\VC\INCLUDE\EXCEPTION
D:\PROGRAM\VISUAL STUDIO COM 2015\VC\INCLUDE\TYPE_TRAITS
D:\PROGRAM\VISUAL STUDIO COM 2015\VC\INCLUDE\XSTDDEF
D:\PROGRAM\VISUAL STUDIO COM 2015\VC\INCLUDE\CSTDDEF
D:\PROGRAM\VISUAL STUDIO COM 2015\VC\INCLUDE\YVALS.H
D:\PROGRAM\VISUAL STUDIO COM 2015\VC\INCLUDE\XKEYCHECK.H
D:\PROGRAM\VISUAL STUDIO COM 2015\VC\INCLUDE\CRTDEFS.H
D:\PROGRAM\VISUAL STUDIO COM 2015\VC\INCLUDE\USE_ANSI.H
D:\PROGRAM\VISUAL STUDIO COM 2015\VC\INCLUDE\CSTDLIB
D:\PROGRAM\VISUAL STUDIO COM 2015\VC\INCLUDE\INITIALIZER_LIST
D:\PROGRAM\VISUAL STUDIO COM 2015\VC\INCLUDE\XTR1COMMON
D:\PROGRAM\VISUAL STUDIO COM 2015\VC\INCLUDE\VCRUNTIME_EXCEPTION.H
D:\PROGRAM\VISUAL STUDIO COM 2015\VC\INCLUDE\EH.H
C:\PROGRAM FILES (X86)\WINDOWS KITS\10\INCLUDE\10.0.10586.0\UCRT\CORECRT_TERMINATE.H
D:\PROGRAM\VISUAL STUDIO COM 2015\VC\INCLUDE\VCRUNTIME_NEW.H
E:\PROGRAMMING\BULLET PHYSICS\BULLET3-2.83.7\SRC\LINEARMATH\BTSERIALIZER.H
E:\PROGRAMMING\BULLET PHYSICS\BULLET3-2.83.7\SRC\LINEARMATH\BTHASHMAP.H
C:\PROGRAM FILES (X86)\WINDOWS KITS\10\INCLUDE\10.0.10586.0\UCRT\MEMORY.H
C:\PROGRAM FILES (X86)\WINDOWS KITS\10\INCLUDE\10.0.10586.0\UCRT\CORECRT_MEMORY.H
C:\PROGRAM FILES (X86)\WINDOWS KITS\10\INCLUDE\10.0.10586.0\UCRT\CORECRT_MEMCPY_S.H
C:\PROGRAM FILES (X86)\WINDOWS KITS\10\INCLUDE\10.0.10586.0\UCRT\ERRNO.H
D:\PROGRAM\VISUAL STUDIO COM 2015\VC\INCLUDE\VCRUNTIME_STRING.H
C:\PROGRAM FILES (X86)\WINDOWS KITS\10\INCLUDE\10.0.10586.0\UCRT\STRING.H
C:\PROGRAM FILES (X86)\WINDOWS KITS\10\INCLUDE\10.0.10586.0\UCRT\CORECRT_WSTRING.H
^E:\PROGRAMMING\BULLET PHYSICS\BULLET3-2.83.7\SRC\BULLETCOLLISION\COLLISIONSHAPES\BTPOLYHEDRALCONVEXSHAPE.CPP
E:\PROGRAMMING\BULLET PHYSICS\BULLET3-2.83.7\SRC\BULLETCOLLISION\COLLISIONSHAPES\BTPOLYHEDRALCONVEXSHAPE.H
E:\PROGRAMMING\BULLET PHYSICS\BULLET3-2.83.7\SRC\LINEARMATH\BTMATRIX3X3.H
E:\PROGRAMMING\BULLET PHYSICS\BULLET3-2.83.7\SRC\LINEARMATH\BTVECTOR3.H
E:\PROGRAMMING\BULLET PHYSICS\BULLET3-2.83.7\SRC\LINEARMATH\BTSCALAR.H
C:\PROGRAM FILES (X86)\WINDOWS KITS\10\INCLUDE\10.0.10586.0\UCRT\MATH.H
C:\PROGRAM FILES (X86)\WINDOWS KITS\10\INCLUDE\10.0.10586.0\UCRT\CORECRT.H
D:\PROGRAM\VISUAL STUDIO COM 2015\VC\INCLUDE\VCRUNTIME.H
D:\PROGRAM\VISUAL STUDIO COM 2015\VC\INCLUDE\SAL.H
D:\PROGRAM\VISUAL STUDIO COM 2015\VC\INCLUDE\CONCURRENCYSAL.H
D:\PROGRAM\VISUAL STUDIO COM 2015\VC\INCLUDE\VADEFS.H
C:\PROGRAM FILES (X86)\WINDOWS KITS\10\INCLUDE\10.0.10586.0\UCRT\STDLIB.H
C:\PROGRAM FILES (X86)\WINDOWS KITS\10\INCLUDE\10.0.10586.0\UCRT\CORECRT_MALLOC.H
C:\PROGRAM FILES (X86)\WINDOWS KITS\10\INCLUDE\10.0.10586.0\UCRT\CORECRT_SEARCH.H
C:\PROGRAM FILES (X86)\WINDOWS KITS\10\INCLUDE\10.0.10586.0\UCRT\STDDEF.H
C:\PROGRAM FILES (X86)\WINDOWS KITS\10\INCLUDE\10.0.10586.0\UCRT\CORECRT_WSTDLIB.H
D:\PROGRAM\VISUAL STUDIO COM 2015\VC\INCLUDE\LIMITS.H
C:\PROGRAM FILES (X86)\WINDOWS KITS\10\INCLUDE\10.0.10586.0\UCRT\FLOAT.H
D:\PROGRAM\VISUAL STUDIO COM 2015\VC\INCLUDE\EMMINTRIN.H
D:\PROGRAM\VISUAL STUDIO COM 2015\VC\INCLUDE\XMMINTRIN.H
D:\PROGRAM\VISUAL STUDIO COM 2015\VC\INCLUDE\MMINTRIN.H
C:\PROGRAM FILES (X86)\WINDOWS KITS\10\INCLUDE\10.0.10586.0\UCRT\MALLOC.H
C:\PROGRAM FILES (X86)\WINDOWS KITS\10\INCLUDE\10.0.10586.0\UCRT\STDIO.H
C:\PROGRAM FILES (X86)\WINDOWS KITS\10\INCLUDE\10.0.10586.0\UCRT\CORECRT_WSTDIO.H
C:\PROGRAM FILES (X86)\WINDOWS KITS\10\INCLUDE\10.0.10586.0\UCRT\CORECRT_STDIO_CONFIG.H
E:\PROGRAMMING\BULLET PHYSICS\BULLET3-2.83.7\SRC\LINEARMATH\BTMINMAX.H
E:\PROGRAMMING\BULLET PHYSICS\BULLET3-2.83.7\SRC\LINEARMATH\BTALIGNEDALLOCATOR.H
E:\PROGRAMMING\BULLET PHYSICS\BULLET3-2.83.7\SRC\LINEARMATH\BTQUATERNION.H
E:\PROGRAMMING\BULLET PHYSICS\BULLET3-2.83.7\SRC\LINEARMATH\BTQUADWORD.H
E:\PROGRAMMING\BULLET PHYSICS\BULLET3-2.83.7\SRC\BULLETCOLLISION\COLLISIONSHAPES\BTCONVEXINTERNALSHAPE.H
E:\PROGRAMMING\BULLET PHYSICS\BULLET3-2.83.7\SRC\BULLETCOLLISION\COLLISIONSHAPES\BTCONVEXSHAPE.H
E:\PROGRAMMING\BULLET PHYSICS\BULLET3-2.83.7\SRC\BULLETCOLLISION\COLLISIONSHAPES\BTCOLLISIONSHAPE.H
E:\PROGRAMMING\BULLET PHYSICS\BULLET3-2.83.7\SRC\LINEARMATH\BTTRANSFORM.H
E:\PROGRAMMING\BULLET PHYSICS\BULLET3-2.83.7\SRC\BULLETCOLLISION\BROADPHASECOLLISION\BTBROADPHASEPROXY.H
E:\PROGRAMMING\BULLET PHYSICS\BULLET3-2.83.7\SRC\BULLETCOLLISION\COLLISIONSHAPES\BTCOLLISIONMARGIN.H
E:\PROGRAMMING\BULLET PHYSICS\BULLET3-2.83.7\SRC\LINEARMATH\BTAABBUTIL2.H
E:\PROGRAMMING\BULLET PHYSICS\BULLET3-2.83.7\SRC\BULLETCOLLISION\COLLISIONSHAPES\BTCONVEXPOLYHEDRON.H
E:\PROGRAMMING\BULLET PHYSICS\BULLET3-2.83.7\SRC\LINEARMATH\BTALIGNEDOBJECTARRAY.H
D:\PROGRAM\VISUAL STUDIO COM 2015\VC\INCLUDE\NEW
D:\PROGRAM\VISUAL STUDIO COM 2015\VC\INCLUDE\EXCEPTION
D:\PROGRAM\VISUAL STUDIO COM 2015\VC\INCLUDE\TYPE_TRAITS
D:\PROGRAM\VISUAL STUDIO COM 2015\VC\INCLUDE\XSTDDEF
D:\PROGRAM\VISUAL STUDIO COM 2015\VC\INCLUDE\CSTDDEF
D:\PROGRAM\VISUAL STUDIO COM 2015\VC\INCLUDE\YVALS.H
D:\PROGRAM\VISUAL STUDIO COM 2015\VC\INCLUDE\XKEYCHECK.H
D:\PROGRAM\VISUAL STUDIO COM 2015\VC\INCLUDE\CRTDEFS.H
D:\PROGRAM\VISUAL STUDIO COM 2015\VC\INCLUDE\USE_ANSI.H
D:\PROGRAM\VISUAL STUDIO COM 2015\VC\INCLUDE\CSTDLIB
D:\PROGRAM\VISUAL STUDIO COM 2015\VC\INCLUDE\INITIALIZER_LIST
D:\PROGRAM\VISUAL STUDIO COM 2015\VC\INCLUDE\XTR1COMMON
D:\PROGRAM\VISUAL STUDIO COM 2015\VC\INCLUDE\VCRUNTIME_EXCEPTION.H
D:\PROGRAM\VISUAL STUDIO COM 2015\VC\INCLUDE\EH.H
C:\PROGRAM FILES (X86)\WINDOWS KITS\10\INCLUDE\10.0.10586.0\UCRT\CORECRT_TERMINATE.H
D:\PROGRAM\VISUAL STUDIO COM 2015\VC\INCLUDE\VCRUNTIME_NEW.H
E:\PROGRAMMING\BULLET PHYSICS\BULLET3-2.83.7\SRC\LINEARMATH\BTCONVEXHULLCOMPUTER.H
E:\PROGRAMMING\BULLET PHYSICS\BULLET3-2.83.7\SRC\LINEARMATH\BTGEOMETRYUTIL.H
E:\PROGRAMMING\BULLET PHYSICS\BULLET3-2.83.7\SRC\LINEARMATH\BTGRAHAMSCAN2DCONVEXHULL.H
^E:\PROGRAMMING\BULLET PHYSICS\BULLET3-2.83.7\SRC\BULLETCOLLISION\COLLISIONSHAPES\BTCONVEXSHAPE.CPP
E:\PROGRAMMING\BULLET PHYSICS\BULLET3-2.83.7\SRC\BULLETCOLLISION\COLLISIONSHAPES\BTCONVEXSHAPE.H
E:\PROGRAMMING\BULLET PHYSICS\BULLET3-2.83.7\SRC\BULLETCOLLISION\COLLISIONSHAPES\BTCOLLISIONSHAPE.H
E:\PROGRAMMING\BULLET PHYSICS\BULLET3-2.83.7\SRC\LINEARMATH\BTTRANSFORM.H
E:\PROGRAMMING\BULLET PHYSICS\BULLET3-2.83.7\SRC\LINEARMATH\BTMATRIX3X3.H
E:\PROGRAMMING\BULLET PHYSICS\BULLET3-2.83.7\SRC\LINEARMATH\BTVECTOR3.H
E:\PROGRAMMING\BULLET PHYSICS\BULLET3-2.83.7\SRC\LINEARMATH\BTSCALAR.H
C:\PROGRAM FILES (X86)\WINDOWS KITS\10\INCLUDE\10.0.10586.0\UCRT\MATH.H
C:\PROGRAM FILES (X86)\WINDOWS KITS\10\INCLUDE\10.0.10586.0\UCRT\CORECRT.H
D:\PROGRAM\VISUAL STUDIO COM 2015\VC\INCLUDE\VCRUNTIME.H
D:\PROGRAM\VISUAL STUDIO COM 2015\VC\INCLUDE\SAL.H
D:\PROGRAM\VISUAL STUDIO COM 2015\VC\INCLUDE\CONCURRENCYSAL.H
D:\PROGRAM\VISUAL STUDIO COM 2015\VC\INCLUDE\VADEFS.H
C:\PROGRAM FILES (X86)\WINDOWS KITS\10\INCLUDE\10.0.10586.0\UCRT\STDLIB.H
C:\PROGRAM FILES (X86)\WINDOWS KITS\10\INCLUDE\10.0.10586.0\UCRT\CORECRT_MALLOC.H
C:\PROGRAM FILES (X86)\WINDOWS KITS\10\INCLUDE\10.0.10586.0\UCRT\CORECRT_SEARCH.H
C:\PROGRAM FILES (X86)\WINDOWS KITS\10\INCLUDE\10.0.10586.0\UCRT\STDDEF.H
C:\PROGRAM FILES (X86)\WINDOWS KITS\10\INCLUDE\10.0.10586.0\UCRT\CORECRT_WSTDLIB.H
D:\PROGRAM\VISUAL STUDIO COM 2015\VC\INCLUDE\LIMITS.H
C:\PROGRAM FILES (X86)\WINDOWS KITS\10\INCLUDE\10.0.10586.0\UCRT\FLOAT.H
D:\PROGRAM\VISUAL STUDIO COM 2015\VC\INCLUDE\EMMINTRIN.H
D:\PROGRAM\VISUAL STUDIO COM 2015\VC\INCLUDE\XMMINTRIN.H
D:\PROGRAM\VISUAL STUDIO COM 2015\VC\INCLUDE\MMINTRIN.H
C:\PROGRAM FILES (X86)\WINDOWS KITS\10\INCLUDE\10.0.10586.0\UCRT\MALLOC.H
C:\PROGRAM FILES (X86)\WINDOWS KITS\10\INCLUDE\10.0.10586.0\UCRT\STDIO.H
C:\PROGRAM FILES (X86)\WINDOWS KITS\10\INCLUDE\10.0.10586.0\UCRT\CORECRT_WSTDIO.H
C:\PROGRAM FILES (X86)\WINDOWS KITS\10\INCLUDE\10.0.10586.0\UCRT\CORECRT_STDIO_CONFIG.H
E:\PROGRAMMING\BULLET PHYSICS\BULLET3-2.83.7\SRC\LINEARMATH\BTMINMAX.H
E:\PROGRAMMING\BULLET PHYSICS\BULLET3-2.83.7\SRC\LINEARMATH\BTALIGNEDALLOCATOR.H
E:\PROGRAMMING\BULLET PHYSICS\BULLET3-2.83.7\SRC\LINEARMATH\BTQUATERNION.H
E:\PROGRAMMING\BULLET PHYSICS\BULLET3-2.83.7\SRC\LINEARMATH\BTQUADWORD.H
E:\PROGRAMMING\BULLET PHYSICS\BULLET3-2.83.7\SRC\BULLETCOLLISION\BROADPHASECOLLISION\BTBROADPHASEPROXY.H
E:\PROGRAMMING\BULLET PHYSICS\BULLET3-2.83.7\SRC\BULLETCOLLISION\COLLISIONSHAPES\BTCOLLISIONMARGIN.H
E:\PROGRAMMING\BULLET PHYSICS\BULLET3-2.83.7\SRC\BULLETCOLLISION\COLLISIONSHAPES\BTTRIANGLESHAPE.H
E:\PROGRAMMING\BULLET PHYSICS\BULLET3-2.83.7\SRC\BULLETCOLLISION\COLLISIONSHAPES\BTBOXSHAPE.H
E:\PROGRAMMING\BULLET PHYSICS\BULLET3-2.83.7\SRC\BULLETCOLLISION\COLLISIONSHAPES\BTPOLYHEDRALCONVEXSHAPE.H
E:\PROGRAMMING\BULLET PHYSICS\BULLET3-2.83.7\SRC\BULLETCOLLISION\COLLISIONSHAPES\BTCONVEXINTERNALSHAPE.H
E:\PROGRAMMING\BULLET PHYSICS\BULLET3-2.83.7\SRC\LINEARMATH\BTAABBUTIL2.H
E:\PROGRAMMING\BULLET PHYSICS\BULLET3-2.83.7\SRC\BULLETCOLLISION\COLLISIONSHAPES\BTSPHERESHAPE.H
E:\PROGRAMMING\BULLET PHYSICS\BULLET3-2.83.7\SRC\BULLETCOLLISION\COLLISIONSHAPES\BTCYLINDERSHAPE.H
E:\PROGRAMMING\BULLET PHYSICS\BULLET3-2.83.7\SRC\BULLETCOLLISION\COLLISIONSHAPES\BTCONESHAPE.H
E:\PROGRAMMING\BULLET PHYSICS\BULLET3-2.83.7\SRC\BULLETCOLLISION\COLLISIONSHAPES\BTCAPSULESHAPE.H
E:\PROGRAMMING\BULLET PHYSICS\BULLET3-2.83.7\SRC\BULLETCOLLISION\COLLISIONSHAPES\BTCONVEXHULLSHAPE.H
E:\PROGRAMMING\BULLET PHYSICS\BULLET3-2.83.7\SRC\LINEARMATH\BTALIGNEDOBJECTARRAY.H
D:\PROGRAM\VISUAL STUDIO COM 2015\VC\INCLUDE\NEW
D:\PROGRAM\VISUAL STUDIO COM 2015\VC\INCLUDE\EXCEPTION
D:\PROGRAM\VISUAL STUDIO COM 2015\VC\INCLUDE\TYPE_TRAITS
D:\PROGRAM\VISUAL STUDIO COM 2015\VC\INCLUDE\XSTDDEF
D:\PROGRAM\VISUAL STUDIO COM 2015\VC\INCLUDE\CSTDDEF
D:\PROGRAM\VISUAL STUDIO COM 2015\VC\INCLUDE\YVALS.H
D:\PROGRAM\VISUAL STUDIO COM 2015\VC\INCLUDE\XKEYCHECK.H
D:\PROGRAM\VISUAL STUDIO COM 2015\VC\INCLUDE\CRTDEFS.H
D:\PROGRAM\VISUAL STUDIO COM 2015\VC\INCLUDE\USE_ANSI.H
D:\PROGRAM\VISUAL STUDIO COM 2015\VC\INCLUDE\CSTDLIB
D:\PROGRAM\VISUAL STUDIO COM 2015\VC\INCLUDE\INITIALIZER_LIST
D:\PROGRAM\VISUAL STUDIO COM 2015\VC\INCLUDE\XTR1COMMON
D:\PROGRAM\VISUAL STUDIO COM 2015\VC\INCLUDE\VCRUNTIME_EXCEPTION.H
D:\PROGRAM\VISUAL STUDIO COM 2015\VC\INCLUDE\EH.H
C:\PROGRAM FILES (X86)\WINDOWS KITS\10\INCLUDE\10.0.10586.0\UCRT\CORECRT_TERMINATE.H
D:\PROGRAM\VISUAL STUDIO COM 2015\VC\INCLUDE\VCRUNTIME_NEW.H
E:\PROGRAMMING\BULLET PHYSICS\BULLET3-2.83.7\SRC\BULLETCOLLISION\COLLISIONSHAPES\BTCONVEXPOINTCLOUDSHAPE.H
^E:\PROGRAMMING\BULLET PHYSICS\BULLET3-2.83.7\SRC\BULLETCOLLISION\COLLISIONSHAPES\BTCONVEXINTERNALSHAPE.CPP
E:\PROGRAMMING\BULLET PHYSICS\BULLET3-2.83.7\SRC\BULLETCOLLISION\COLLISIONSHAPES\BTCONVEXINTERNALSHAPE.H
E:\PROGRAMMING\BULLET PHYSICS\BULLET3-2.83.7\SRC\BULLETCOLLISION\COLLISIONSHAPES\BTCONVEXSHAPE.H
E:\PROGRAMMING\BULLET PHYSICS\BULLET3-2.83.7\SRC\BULLETCOLLISION\COLLISIONSHAPES\BTCOLLISIONSHAPE.H
E:\PROGRAMMING\BULLET PHYSICS\BULLET3-2.83.7\SRC\LINEARMATH\BTTRANSFORM.H
E:\PROGRAMMING\BULLET PHYSICS\BULLET3-2.83.7\SRC\LINEARMATH\BTMATRIX3X3.H
E:\PROGRAMMING\BULLET PHYSICS\BULLET3-2.83.7\SRC\LINEARMATH\BTVECTOR3.H
E:\PROGRAMMING\BULLET PHYSICS\BULLET3-2.83.7\SRC\LINEARMATH\BTSCALAR.H
C:\PROGRAM FILES (X86)\WINDOWS KITS\10\INCLUDE\10.0.10586.0\UCRT\MATH.H
C:\PROGRAM FILES (X86)\WINDOWS KITS\10\INCLUDE\10.0.10586.0\UCRT\CORECRT.H
D:\PROGRAM\VISUAL STUDIO COM 2015\VC\INCLUDE\VCRUNTIME.H
D:\PROGRAM\VISUAL STUDIO COM 2015\VC\INCLUDE\SAL.H
D:\PROGRAM\VISUAL STUDIO COM 2015\VC\INCLUDE\CONCURRENCYSAL.H
D:\PROGRAM\VISUAL STUDIO COM 2015\VC\INCLUDE\VADEFS.H
C:\PROGRAM FILES (X86)\WINDOWS KITS\10\INCLUDE\10.0.10586.0\UCRT\STDLIB.H
C:\PROGRAM FILES (X86)\WINDOWS KITS\10\INCLUDE\10.0.10586.0\UCRT\CORECRT_MALLOC.H
C:\PROGRAM FILES (X86)\WINDOWS KITS\10\INCLUDE\10.0.10586.0\UCRT\CORECRT_SEARCH.H
C:\PROGRAM FILES (X86)\WINDOWS KITS\10\INCLUDE\10.0.10586.0\UCRT\STDDEF.H
C:\PROGRAM FILES (X86)\WINDOWS KITS\10\INCLUDE\10.0.10586.0\UCRT\CORECRT_WSTDLIB.H
D:\PROGRAM\VISUAL STUDIO COM 2015\VC\INCLUDE\LIMITS.H
C:\PROGRAM FILES (X86)\WINDOWS KITS\10\INCLUDE\10.0.10586.0\UCRT\FLOAT.H
D:\PROGRAM\VISUAL STUDIO COM 2015\VC\INCLUDE\EMMINTRIN.H
D:\PROGRAM\VISUAL STUDIO COM 2015\VC\INCLUDE\XMMINTRIN.H
D:\PROGRAM\VISUAL STUDIO COM 2015\VC\INCLUDE\MMINTRIN.H
C:\PROGRAM FILES (X86)\WINDOWS KITS\10\INCLUDE\10.0.10586.0\UCRT\MALLOC.H
C:\PROGRAM FILES (X86)\WINDOWS KITS\10\INCLUDE\10.0.10586.0\UCRT\STDIO.H
C:\PROGRAM FILES (X86)\WINDOWS KITS\10\INCLUDE\10.0.10586.0\UCRT\CORECRT_WSTDIO.H
C:\PROGRAM FILES (X86)\WINDOWS KITS\10\INCLUDE\10.0.10586.0\UCRT\CORECRT_STDIO_CONFIG.H
E:\PROGRAMMING\BULLET PHYSICS\BULLET3-2.83.7\SRC\LINEARMATH\BTMINMAX.H
E:\PROGRAMMING\BULLET PHYSICS\BULLET3-2.83.7\SRC\LINEARMATH\BTALIGNEDALLOCATOR.H
E:\PROGRAMMING\BULLET PHYSICS\BULLET3-2.83.7\SRC\LINEARMATH\BTQUATERNION.H
E:\PROGRAMMING\BULLET PHYSICS\BULLET3-2.83.7\SRC\LINEARMATH\BTQUADWORD.H
E:\PROGRAMMING\BULLET PHYSICS\BULLET3-2.83.7\SRC\BULLETCOLLISION\BROADPHASECOLLISION\BTBROADPHASEPROXY.H
E:\PROGRAMMING\BULLET PHYSICS\BULLET3-2.83.7\SRC\BULLETCOLLISION\COLLISIONSHAPES\BTCOLLISIONMARGIN.H
E:\PROGRAMMING\BULLET PHYSICS\BULLET3-2.83.7\SRC\LINEARMATH\BTAABBUTIL2.H
^E:\PROGRAMMING\BULLET PHYSICS\BULLET3-2.83.7\SRC\BULLETCOLLISION\COLLISIONSHAPES\BTCOLLISIONSHAPE.CPP
E:\PROGRAMMING\BULLET PHYSICS\BULLET3-2.83.7\SRC\BULLETCOLLISION\COLLISIONSHAPES\BTCOLLISIONSHAPE.H
E:\PROGRAMMING\BULLET PHYSICS\BULLET3-2.83.7\SRC\LINEARMATH\BTTRANSFORM.H
E:\PROGRAMMING\BULLET PHYSICS\BULLET3-2.83.7\SRC\LINEARMATH\BTMATRIX3X3.H
E:\PROGRAMMING\BULLET PHYSICS\BULLET3-2.83.7\SRC\LINEARMATH\BTVECTOR3.H
E:\PROGRAMMING\BULLET PHYSICS\BULLET3-2.83.7\SRC\LINEARMATH\BTSCALAR.H
C:\PROGRAM FILES (X86)\WINDOWS KITS\10\INCLUDE\10.0.10586.0\UCRT\MATH.H
C:\PROGRAM FILES (X86)\WINDOWS KITS\10\INCLUDE\10.0.10586.0\UCRT\CORECRT.H
D:\PROGRAM\VISUAL STUDIO COM 2015\VC\INCLUDE\VCRUNTIME.H
D:\PROGRAM\VISUAL STUDIO COM 2015\VC\INCLUDE\SAL.H
D:\PROGRAM\VISUAL STUDIO COM 2015\VC\INCLUDE\CONCURRENCYSAL.H
D:\PROGRAM\VISUAL STUDIO COM 2015\VC\INCLUDE\VADEFS.H
C:\PROGRAM FILES (X86)\WINDOWS KITS\10\INCLUDE\10.0.10586.0\UCRT\STDLIB.H
C:\PROGRAM FILES (X86)\WINDOWS KITS\10\INCLUDE\10.0.10586.0\UCRT\CORECRT_MALLOC.H
C:\PROGRAM FILES (X86)\WINDOWS KITS\10\INCLUDE\10.0.10586.0\UCRT\CORECRT_SEARCH.H
C:\PROGRAM FILES (X86)\WINDOWS KITS\10\INCLUDE\10.0.10586.0\UCRT\STDDEF.H
C:\PROGRAM FILES (X86)\WINDOWS KITS\10\INCLUDE\10.0.10586.0\UCRT\CORECRT_WSTDLIB.H
D:\PROGRAM\VISUAL STUDIO COM 2015\VC\INCLUDE\LIMITS.H
C:\PROGRAM FILES (X86)\WINDOWS KITS\10\INCLUDE\10.0.10586.0\UCRT\FLOAT.H
D:\PROGRAM\VISUAL STUDIO COM 2015\VC\INCLUDE\EMMINTRIN.H
D:\PROGRAM\VISUAL STUDIO COM 2015\VC\INCLUDE\XMMINTRIN.H
D:\PROGRAM\VISUAL STUDIO COM 2015\VC\INCLUDE\MMINTRIN.H
C:\PROGRAM FILES (X86)\WINDOWS KITS\10\INCLUDE\10.0.10586.0\UCRT\MALLOC.H
C:\PROGRAM FILES (X86)\WINDOWS KITS\10\INCLUDE\10.0.10586.0\UCRT\STDIO.H
C:\PROGRAM FILES (X86)\WINDOWS KITS\10\INCLUDE\10.0.10586.0\UCRT\CORECRT_WSTDIO.H
C:\PROGRAM FILES (X86)\WINDOWS KITS\10\INCLUDE\10.0.10586.0\UCRT\CORECRT_STDIO_CONFIG.H
E:\PROGRAMMING\BULLET PHYSICS\BULLET3-2.83.7\SRC\LINEARMATH\BTMINMAX.H
E:\PROGRAMMING\BULLET PHYSICS\BULLET3-2.83.7\SRC\LINEARMATH\BTALIGNEDALLOCATOR.H
E:\PROGRAMMING\BULLET PHYSICS\BULLET3-2.83.7\SRC\LINEARMATH\BTQUATERNION.H
E:\PROGRAMMING\BULLET PHYSICS\BULLET3-2.83.7\SRC\LINEARMATH\BTQUADWORD.H
E:\PROGRAMMING\BULLET PHYSICS\BULLET3-2.83.7\SRC\BULLETCOLLISION\BROADPHASECOLLISION\BTBROADPHASEPROXY.H
E:\PROGRAMMING\BULLET PHYSICS\BULLET3-2.83.7\SRC\LINEARMATH\BTSERIALIZER.H
E:\PROGRAMMING\BULLET PHYSICS\BULLET3-2.83.7\SRC\LINEARMATH\BTHASHMAP.H
E:\PROGRAMMING\BULLET PHYSICS\BULLET3-2.83.7\SRC\LINEARMATH\BTALIGNEDOBJECTARRAY.H
D:\PROGRAM\VISUAL STUDIO COM 2015\VC\INCLUDE\NEW
D:\PROGRAM\VISUAL STUDIO COM 2015\VC\INCLUDE\EXCEPTION
D:\PROGRAM\VISUAL STUDIO COM 2015\VC\INCLUDE\TYPE_TRAITS
D:\PROGRAM\VISUAL STUDIO COM 2015\VC\INCLUDE\XSTDDEF
D:\PROGRAM\VISUAL STUDIO COM 2015\VC\INCLUDE\CSTDDEF
D:\PROGRAM\VISUAL STUDIO COM 2015\VC\INCLUDE\YVALS.H
D:\PROGRAM\VISUAL STUDIO COM 2015\VC\INCLUDE\XKEYCHECK.H
D:\PROGRAM\VISUAL STUDIO COM 2015\VC\INCLUDE\CRTDEFS.H
D:\PROGRAM\VISUAL STUDIO COM 2015\VC\INCLUDE\USE_ANSI.H
D:\PROGRAM\VISUAL STUDIO COM 2015\VC\INCLUDE\CSTDLIB
D:\PROGRAM\VISUAL STUDIO COM 2015\VC\INCLUDE\INITIALIZER_LIST
D:\PROGRAM\VISUAL STUDIO COM 2015\VC\INCLUDE\XTR1COMMON
D:\PROGRAM\VISUAL STUDIO COM 2015\VC\INCLUDE\VCRUNTIME_EXCEPTION.H
D:\PROGRAM\VISUAL STUDIO COM 2015\VC\INCLUDE\EH.H
C:\PROGRAM FILES (X86)\WINDOWS KITS\10\INCLUDE\10.0.10586.0\UCRT\CORECRT_TERMINATE.H
D:\PROGRAM\VISUAL STUDIO COM 2015\VC\INCLUDE\VCRUNTIME_NEW.H
C:\PROGRAM FILES (X86)\WINDOWS KITS\10\INCLUDE\10.0.10586.0\UCRT\MEMORY.H
C:\PROGRAM FILES (X86)\WINDOWS KITS\10\INCLUDE\10.0.10586.0\UCRT\CORECRT_MEMORY.H
C:\PROGRAM FILES (X86)\WINDOWS KITS\10\INCLUDE\10.0.10586.0\UCRT\CORECRT_MEMCPY_S.H
C:\PROGRAM FILES (X86)\WINDOWS KITS\10\INCLUDE\10.0.10586.0\UCRT\ERRNO.H
D:\PROGRAM\VISUAL STUDIO COM 2015\VC\INCLUDE\VCRUNTIME_STRING.H
C:\PROGRAM FILES (X86)\WINDOWS KITS\10\INCLUDE\10.0.10586.0\UCRT\STRING.H
C:\PROGRAM FILES (X86)\WINDOWS KITS\10\INCLUDE\10.0.10586.0\UCRT\CORECRT_WSTRING.H
^E:\PROGRAMMING\BULLET PHYSICS\BULLET3-2.83.7\SRC\BULLETCOLLISION\COLLISIONSHAPES\BTCONVEXPOLYHEDRON.CPP
E:\PROGRAMMING\BULLET PHYSICS\BULLET3-2.83.7\SRC\BULLETCOLLISION\COLLISIONSHAPES\BTCONVEXPOLYHEDRON.H
E:\PROGRAMMING\BULLET PHYSICS\BULLET3-2.83.7\SRC\LINEARMATH\BTTRANSFORM.H
E:\PROGRAMMING\BULLET PHYSICS\BULLET3-2.83.7\SRC\LINEARMATH\BTMATRIX3X3.H
E:\PROGRAMMING\BULLET PHYSICS\BULLET3-2.83.7\SRC\LINEARMATH\BTVECTOR3.H
E:\PROGRAMMING\BULLET PHYSICS\BULLET3-2.83.7\SRC\LINEARMATH\BTSCALAR.H
C:\PROGRAM FILES (X86)\WINDOWS KITS\10\INCLUDE\10.0.10586.0\UCRT\MATH.H
C:\PROGRAM FILES (X86)\WINDOWS KITS\10\INCLUDE\10.0.10586.0\UCRT\CORECRT.H
D:\PROGRAM\VISUAL STUDIO COM 2015\VC\INCLUDE\VCRUNTIME.H
D:\PROGRAM\VISUAL STUDIO COM 2015\VC\INCLUDE\SAL.H
D:\PROGRAM\VISUAL STUDIO COM 2015\VC\INCLUDE\CONCURRENCYSAL.H
D:\PROGRAM\VISUAL STUDIO COM 2015\VC\INCLUDE\VADEFS.H
C:\PROGRAM FILES (X86)\WINDOWS KITS\10\INCLUDE\10.0.10586.0\UCRT\STDLIB.H
C:\PROGRAM FILES (X86)\WINDOWS KITS\10\INCLUDE\10.0.10586.0\UCRT\CORECRT_MALLOC.H
C:\PROGRAM FILES (X86)\WINDOWS KITS\10\INCLUDE\10.0.10586.0\UCRT\CORECRT_SEARCH.H
C:\PROGRAM FILES (X86)\WINDOWS KITS\10\INCLUDE\10.0.10586.0\UCRT\STDDEF.H
C:\PROGRAM FILES (X86)\WINDOWS KITS\10\INCLUDE\10.0.10586.0\UCRT\CORECRT_WSTDLIB.H
D:\PROGRAM\VISUAL STUDIO COM 2015\VC\INCLUDE\LIMITS.H
C:\PROGRAM FILES (X86)\WINDOWS KITS\10\INCLUDE\10.0.10586.0\UCRT\FLOAT.H
D:\PROGRAM\VISUAL STUDIO COM 2015\VC\INCLUDE\EMMINTRIN.H
D:\PROGRAM\VISUAL STUDIO COM 2015\VC\INCLUDE\XMMINTRIN.H
D:\PROGRAM\VISUAL STUDIO COM 2015\VC\INCLUDE\MMINTRIN.H
C:\PROGRAM FILES (X86)\WINDOWS KITS\10\INCLUDE\10.0.10586.0\UCRT\MALLOC.H
C:\PROGRAM FILES (X86)\WINDOWS KITS\10\INCLUDE\10.0.10586.0\UCRT\STDIO.H
C:\PROGRAM FILES (X86)\WINDOWS KITS\10\INCLUDE\10.0.10586.0\UCRT\CORECRT_WSTDIO.H
C:\PROGRAM FILES (X86)\WINDOWS KITS\10\INCLUDE\10.0.10586.0\UCRT\CORECRT_STDIO_CONFIG.H
E:\PROGRAMMING\BULLET PHYSICS\BULLET3-2.83.7\SRC\LINEARMATH\BTMINMAX.H
E:\PROGRAMMING\BULLET PHYSICS\BULLET3-2.83.7\SRC\LINEARMATH\BTALIGNEDALLOCATOR.H
E:\PROGRAMMING\BULLET PHYSICS\BULLET3-2.83.7\SRC\LINEARMATH\BTQUATERNION.H
E:\PROGRAMMING\BULLET PHYSICS\BULLET3-2.83.7\SRC\LINEARMATH\BTQUADWORD.H
E:\PROGRAMMING\BULLET PHYSICS\BULLET3-2.83.7\SRC\LINEARMATH\BTALIGNEDOBJECTARRAY.H
D:\PROGRAM\VISUAL STUDIO COM 2015\VC\INCLUDE\NEW
D:\PROGRAM\VISUAL STUDIO COM 2015\VC\INCLUDE\EXCEPTION
D:\PROGRAM\VISUAL STUDIO COM 2015\VC\INCLUDE\TYPE_TRAITS
D:\PROGRAM\VISUAL STUDIO COM 2015\VC\INCLUDE\XSTDDEF
D:\PROGRAM\VISUAL STUDIO COM 2015\VC\INCLUDE\CSTDDEF
D:\PROGRAM\VISUAL STUDIO COM 2015\VC\INCLUDE\YVALS.H
D:\PROGRAM\VISUAL STUDIO COM 2015\VC\INCLUDE\XKEYCHECK.H
D:\PROGRAM\VISUAL STUDIO COM 2015\VC\INCLUDE\CRTDEFS.H
D:\PROGRAM\VISUAL STUDIO COM 2015\VC\INCLUDE\USE_ANSI.H
D:\PROGRAM\VISUAL STUDIO COM 2015\VC\INCLUDE\CSTDLIB
D:\PROGRAM\VISUAL STUDIO COM 2015\VC\INCLUDE\INITIALIZER_LIST
D:\PROGRAM\VISUAL STUDIO COM 2015\VC\INCLUDE\XTR1COMMON
D:\PROGRAM\VISUAL STUDIO COM 2015\VC\INCLUDE\VCRUNTIME_EXCEPTION.H
D:\PROGRAM\VISUAL STUDIO COM 2015\VC\INCLUDE\EH.H
C:\PROGRAM FILES (X86)\WINDOWS KITS\10\INCLUDE\10.0.10586.0\UCRT\CORECRT_TERMINATE.H
D:\PROGRAM\VISUAL STUDIO COM 2015\VC\INCLUDE\VCRUNTIME_NEW.H
E:\PROGRAMMING\BULLET PHYSICS\BULLET3-2.83.7\SRC\LINEARMATH\BTHASHMAP.H
