^E:\PROGRAMMING\BULLET PHYSICS\BUILDS\SRC\BULLET3COLLISION\BULLET3COLLISION.DIR\RELEASE\B3CONVEXUTILITY.OBJ|E:\PROGRAMMING\BULLET PHYSICS\BUILDS\SRC\BULLET3COLLISION\BULLET3COLLISION.DIR\RELEASE\B3CPUNARROWPHASE.OBJ|E:\PROGRAMMING\BULLET PHYSICS\BUILDS\SRC\BULLET3COLLISION\BULLET3COLLISION.DIR\RELEASE\B3DYNAMICBVH.OBJ|E:\PROGRAMMING\BULLET PHYSICS\BUILDS\SRC\BULLET3COLLISION\BULLET3COLLISION.DIR\RELEASE\B3DYNAMICBVHBROADPHASE.OBJ|E:\PROGRAMMING\BULLET PHYSICS\BUILDS\SRC\BULLET3COLLISION\BULLET3COLLISION.DIR\RELEASE\B3OVERLAPPINGPAIRCACHE.OBJ
C:\WINDOWS\GLOBALIZATION\SORTING\SORTDEFAULT.NLS
E:\PROGRAMMING\BULLET PHYSICS\BUILDS\SRC\BULLET3COLLISION\BULLET3COLLISION.DIR\RELEASE\B3DYNAMICBVH.OBJ
C:\WINDOWS\SYSTEM32\TZRES.DLL
E:\PROGRAMMING\BULLET PHYSICS\BUILDS\SRC\BULLET3COLLISION\BULLET3COLLISION.DIR\RELEASE\B3DYNAMICBVHBROADPHASE.OBJ
E:\PROGRAMMING\BULLET PHYSICS\BUILDS\SRC\BULLET3COLLISION\BULLET3COLLISION.DIR\RELEASE\B3OVERLAPPINGPAIRCACHE.OBJ
E:\PROGRAMMING\BULLET PHYSICS\BUILDS\SRC\BULLET3COLLISION\BULLET3COLLISION.DIR\RELEASE\B3CONVEXUTILITY.OBJ
E:\PROGRAMMING\BULLET PHYSICS\BUILDS\SRC\BULLET3COLLISION\BULLET3COLLISION.DIR\RELEASE\B3CPUNARROWPHASE.OBJ
