^E:\PROGRAMMING\BULLET PHYSICS\BULLET3-2.83.7\EXTRAS\GIMPACTUTILS\BTGIMPACTCONVEXDECOMPOSITIONSHAPE.CPP
C:\WINDOWS\GLOBALIZATION\SORTING\SORTDEFAULT.NLS
D:\PROGRAM\VISUAL STUDIO COM 2015\VC\BIN\X86_AMD64\1033\CLUI.DLL
C:\WINDOWS\SYSTEM32\TZRES.DLL
E:\PROGRAMMING\BULLET PHYSICS\BULLET3-2.83.7\EXTRAS\GIMPACTUTILS\BTGIMPACTCONVEXDECOMPOSITIONSHAPE.H
E:\PROGRAMMING\BULLET PHYSICS\BULLET3-2.83.7\SRC\BULLETCOLLISION\GIMPACT\BTGIMPACTSHAPE.H
E:\PROGRAMMING\BULLET PHYSICS\BULLET3-2.83.7\SRC\BULLETCOLLISION\COLLISIONSHAPES\BTCOLLISIONSHAPE.H
E:\PROGRAMMING\BULLET PHYSICS\BULLET3-2.83.7\SRC\LINEARMATH\BTTRANSFORM.H
E:\PROGRAMMING\BULLET PHYSICS\BULLET3-2.83.7\SRC\LINEARMATH\BTMATRIX3X3.H
E:\PROGRAMMING\BULLET PHYSICS\BULLET3-2.83.7\SRC\LINEARMATH\BTVECTOR3.H
E:\PROGRAMMING\BULLET PHYSICS\BULLET3-2.83.7\SRC\LINEARMATH\BTSCALAR.H
C:\PROGRAM FILES (X86)\WINDOWS KITS\10\INCLUDE\10.0.10586.0\UCRT\MATH.H
C:\PROGRAM FILES (X86)\WINDOWS KITS\10\INCLUDE\10.0.10586.0\UCRT\CORECRT.H
D:\PROGRAM\VISUAL STUDIO COM 2015\VC\INCLUDE\VCRUNTIME.H
D:\PROGRAM\VISUAL STUDIO COM 2015\VC\INCLUDE\SAL.H
D:\PROGRAM\VISUAL STUDIO COM 2015\VC\INCLUDE\CONCURRENCYSAL.H
D:\PROGRAM\VISUAL STUDIO COM 2015\VC\INCLUDE\VADEFS.H
C:\PROGRAM FILES (X86)\WINDOWS KITS\10\INCLUDE\10.0.10586.0\UCRT\STDLIB.H
C:\PROGRAM FILES (X86)\WINDOWS KITS\10\INCLUDE\10.0.10586.0\UCRT\CORECRT_MALLOC.H
C:\PROGRAM FILES (X86)\WINDOWS KITS\10\INCLUDE\10.0.10586.0\UCRT\CORECRT_SEARCH.H
C:\PROGRAM FILES (X86)\WINDOWS KITS\10\INCLUDE\10.0.10586.0\UCRT\STDDEF.H
C:\PROGRAM FILES (X86)\WINDOWS KITS\10\INCLUDE\10.0.10586.0\UCRT\CORECRT_WSTDLIB.H
D:\PROGRAM\VISUAL STUDIO COM 2015\VC\INCLUDE\LIMITS.H
C:\PROGRAM FILES (X86)\WINDOWS KITS\10\INCLUDE\10.0.10586.0\UCRT\FLOAT.H
D:\PROGRAM\VISUAL STUDIO COM 2015\VC\INCLUDE\EMMINTRIN.H
D:\PROGRAM\VISUAL STUDIO COM 2015\VC\INCLUDE\XMMINTRIN.H
D:\PROGRAM\VISUAL STUDIO COM 2015\VC\INCLUDE\MMINTRIN.H
C:\PROGRAM FILES (X86)\WINDOWS KITS\10\INCLUDE\10.0.10586.0\UCRT\MALLOC.H
C:\PROGRAM FILES (X86)\WINDOWS KITS\10\INCLUDE\10.0.10586.0\UCRT\STDIO.H
C:\PROGRAM FILES (X86)\WINDOWS KITS\10\INCLUDE\10.0.10586.0\UCRT\CORECRT_WSTDIO.H
C:\PROGRAM FILES (X86)\WINDOWS KITS\10\INCLUDE\10.0.10586.0\UCRT\CORECRT_STDIO_CONFIG.H
E:\PROGRAMMING\BULLET PHYSICS\BULLET3-2.83.7\SRC\LINEARMATH\BTMINMAX.H
E:\PROGRAMMING\BULLET PHYSICS\BULLET3-2.83.7\SRC\LINEARMATH\BTALIGNEDALLOCATOR.H
E:\PROGRAMMING\BULLET PHYSICS\BULLET3-2.83.7\SRC\LINEARMATH\BTQUATERNION.H
E:\PROGRAMMING\BULLET PHYSICS\BULLET3-2.83.7\SRC\LINEARMATH\BTQUADWORD.H
E:\PROGRAMMING\BULLET PHYSICS\BULLET3-2.83.7\SRC\BULLETCOLLISION\BROADPHASECOLLISION\BTBROADPHASEPROXY.H
E:\PROGRAMMING\BULLET PHYSICS\BULLET3-2.83.7\SRC\BULLETCOLLISION\COLLISIONSHAPES\BTTRIANGLESHAPE.H
E:\PROGRAMMING\BULLET PHYSICS\BULLET3-2.83.7\SRC\BULLETCOLLISION\COLLISIONSHAPES\BTCONVEXSHAPE.H
E:\PROGRAMMING\BULLET PHYSICS\BULLET3-2.83.7\SRC\BULLETCOLLISION\COLLISIONSHAPES\BTCOLLISIONMARGIN.H
E:\PROGRAMMING\BULLET PHYSICS\BULLET3-2.83.7\SRC\BULLETCOLLISION\COLLISIONSHAPES\BTBOXSHAPE.H
E:\PROGRAMMING\BULLET PHYSICS\BULLET3-2.83.7\SRC\BULLETCOLLISION\COLLISIONSHAPES\BTPOLYHEDRALCONVEXSHAPE.H
E:\PROGRAMMING\BULLET PHYSICS\BULLET3-2.83.7\SRC\BULLETCOLLISION\COLLISIONSHAPES\BTCONVEXINTERNALSHAPE.H
E:\PROGRAMMING\BULLET PHYSICS\BULLET3-2.83.7\SRC\LINEARMATH\BTAABBUTIL2.H
E:\PROGRAMMING\BULLET PHYSICS\BULLET3-2.83.7\SRC\BULLETCOLLISION\COLLISIONSHAPES\BTSTRIDINGMESHINTERFACE.H
E:\PROGRAMMING\BULLET PHYSICS\BULLET3-2.83.7\SRC\BULLETCOLLISION\COLLISIONSHAPES\BTTRIANGLECALLBACK.H
E:\PROGRAMMING\BULLET PHYSICS\BULLET3-2.83.7\SRC\BULLETCOLLISION\COLLISIONSHAPES\BTCONCAVESHAPE.H
E:\PROGRAMMING\BULLET PHYSICS\BULLET3-2.83.7\SRC\BULLETCOLLISION\COLLISIONDISPATCH\BTCOLLISIONWORLD.H
E:\PROGRAMMING\BULLET PHYSICS\BULLET3-2.83.7\SRC\BULLETCOLLISION\COLLISIONDISPATCH\BTCOLLISIONOBJECT.H
E:\PROGRAMMING\BULLET PHYSICS\BULLET3-2.83.7\SRC\LINEARMATH\BTMOTIONSTATE.H
E:\PROGRAMMING\BULLET PHYSICS\BULLET3-2.83.7\SRC\LINEARMATH\BTALIGNEDOBJECTARRAY.H
D:\PROGRAM\VISUAL STUDIO COM 2015\VC\INCLUDE\NEW
D:\PROGRAM\VISUAL STUDIO COM 2015\VC\INCLUDE\EXCEPTION
D:\PROGRAM\VISUAL STUDIO COM 2015\VC\INCLUDE\TYPE_TRAITS
D:\PROGRAM\VISUAL STUDIO COM 2015\VC\INCLUDE\XSTDDEF
D:\PROGRAM\VISUAL STUDIO COM 2015\VC\INCLUDE\CSTDDEF
D:\PROGRAM\VISUAL STUDIO COM 2015\VC\INCLUDE\YVALS.H
D:\PROGRAM\VISUAL STUDIO COM 2015\VC\INCLUDE\XKEYCHECK.H
D:\PROGRAM\VISUAL STUDIO COM 2015\VC\INCLUDE\CRTDEFS.H
D:\PROGRAM\VISUAL STUDIO COM 2015\VC\INCLUDE\USE_ANSI.H
D:\PROGRAM\VISUAL STUDIO COM 2015\VC\INCLUDE\CSTDLIB
D:\PROGRAM\VISUAL STUDIO COM 2015\VC\INCLUDE\INITIALIZER_LIST
D:\PROGRAM\VISUAL STUDIO COM 2015\VC\INCLUDE\XTR1COMMON
D:\PROGRAM\VISUAL STUDIO COM 2015\VC\INCLUDE\VCRUNTIME_EXCEPTION.H
D:\PROGRAM\VISUAL STUDIO COM 2015\VC\INCLUDE\EH.H
C:\PROGRAM FILES (X86)\WINDOWS KITS\10\INCLUDE\10.0.10586.0\UCRT\CORECRT_TERMINATE.H
D:\PROGRAM\VISUAL STUDIO COM 2015\VC\INCLUDE\VCRUNTIME_NEW.H
E:\PROGRAMMING\BULLET PHYSICS\BULLET3-2.83.7\SRC\BULLETCOLLISION\COLLISIONDISPATCH\BTCOLLISIONDISPATCHER.H
E:\PROGRAMMING\BULLET PHYSICS\BULLET3-2.83.7\SRC\BULLETCOLLISION\BROADPHASECOLLISION\BTDISPATCHER.H
E:\PROGRAMMING\BULLET PHYSICS\BULLET3-2.83.7\SRC\BULLETCOLLISION\NARROWPHASECOLLISION\BTPERSISTENTMANIFOLD.H
E:\PROGRAMMING\BULLET PHYSICS\BULLET3-2.83.7\SRC\BULLETCOLLISION\NARROWPHASECOLLISION\BTMANIFOLDPOINT.H
E:\PROGRAMMING\BULLET PHYSICS\BULLET3-2.83.7\SRC\LINEARMATH\BTTRANSFORMUTIL.H
E:\PROGRAMMING\BULLET PHYSICS\BULLET3-2.83.7\SRC\BULLETCOLLISION\COLLISIONDISPATCH\BTMANIFOLDRESULT.H
E:\PROGRAMMING\BULLET PHYSICS\BULLET3-2.83.7\SRC\BULLETCOLLISION\NARROWPHASECOLLISION\BTDISCRETECOLLISIONDETECTORINTERFACE.H
E:\PROGRAMMING\BULLET PHYSICS\BULLET3-2.83.7\SRC\BULLETCOLLISION\COLLISIONDISPATCH\BTCOLLISIONOBJECTWRAPPER.H
E:\PROGRAMMING\BULLET PHYSICS\BULLET3-2.83.7\SRC\BULLETCOLLISION\COLLISIONDISPATCH\BTCOLLISIONCREATEFUNC.H
E:\PROGRAMMING\BULLET PHYSICS\BULLET3-2.83.7\SRC\BULLETCOLLISION\BROADPHASECOLLISION\BTOVERLAPPINGPAIRCACHE.H
E:\PROGRAMMING\BULLET PHYSICS\BULLET3-2.83.7\SRC\BULLETCOLLISION\BROADPHASECOLLISION\BTBROADPHASEINTERFACE.H
E:\PROGRAMMING\BULLET PHYSICS\BULLET3-2.83.7\SRC\BULLETCOLLISION\BROADPHASECOLLISION\BTOVERLAPPINGPAIRCALLBACK.H
E:\PROGRAMMING\BULLET PHYSICS\BULLET3-2.83.7\SRC\BULLETCOLLISION\COLLISIONSHAPES\BTTETRAHEDRONSHAPE.H
E:\PROGRAMMING\BULLET PHYSICS\BULLET3-2.83.7\SRC\BULLETCOLLISION\GIMPACT\BTGIMPACTQUANTIZEDBVH.H
E:\PROGRAMMING\BULLET PHYSICS\BULLET3-2.83.7\SRC\BULLETCOLLISION\GIMPACT\BTGIMPACTBVH.H
E:\PROGRAMMING\BULLET PHYSICS\BULLET3-2.83.7\SRC\BULLETCOLLISION\GIMPACT\BTBOXCOLLISION.H
E:\PROGRAMMING\BULLET PHYSICS\BULLET3-2.83.7\SRC\BULLETCOLLISION\GIMPACT\BTTRIANGLESHAPEEX.H
E:\PROGRAMMING\BULLET PHYSICS\BULLET3-2.83.7\SRC\BULLETCOLLISION\GIMPACT\BTCLIPPOLYGON.H
E:\PROGRAMMING\BULLET PHYSICS\BULLET3-2.83.7\SRC\LINEARMATH\BTGEOMETRYUTIL.H
E:\PROGRAMMING\BULLET PHYSICS\BULLET3-2.83.7\SRC\BULLETCOLLISION\GIMPACT\BTGEOMETRYOPERATIONS.H
E:\PROGRAMMING\BULLET PHYSICS\BULLET3-2.83.7\SRC\BULLETCOLLISION\GIMPACT\BTQUANTIZATION.H
E:\PROGRAMMING\BULLET PHYSICS\BULLET3-2.83.7\SRC\BULLETCOLLISION\COLLISIONSHAPES\BTCONVEXHULLSHAPE.H
E:\PROGRAMMING\BULLET PHYSICS\BULLET3-2.83.7\EXTRAS\CONVEXDECOMPOSITION\CONVEXBUILDER.H
E:\PROGRAMMING\BULLET PHYSICS\BULLET3-2.83.7\EXTRAS\CONVEXDECOMPOSITION\CONVEXDECOMPOSITION.H
C:\PROGRAM FILES (X86)\WINDOWS KITS\10\INCLUDE\10.0.10586.0\UCRT\MEMORY.H
C:\PROGRAM FILES (X86)\WINDOWS KITS\10\INCLUDE\10.0.10586.0\UCRT\CORECRT_MEMORY.H
C:\PROGRAM FILES (X86)\WINDOWS KITS\10\INCLUDE\10.0.10586.0\UCRT\CORECRT_MEMCPY_S.H
C:\PROGRAM FILES (X86)\WINDOWS KITS\10\INCLUDE\10.0.10586.0\UCRT\ERRNO.H
D:\PROGRAM\VISUAL STUDIO COM 2015\VC\INCLUDE\VCRUNTIME_STRING.H
C:\PROGRAM FILES (X86)\WINDOWS KITS\10\INCLUDE\10.0.10586.0\UCRT\STRING.H
C:\PROGRAM FILES (X86)\WINDOWS KITS\10\INCLUDE\10.0.10586.0\UCRT\CORECRT_WSTRING.H
E:\PROGRAMMING\BULLET PHYSICS\BULLET3-2.83.7\EXTRAS\CONVEXDECOMPOSITION\VLOOKUP.H
