^E:\PROGRAMMING\BULLET PHYSICS\BULLET3-2.83.7\SRC\BULLETINVERSEDYNAMICS\DETAILS\MULTIBODYTREEIMPL.CPP|E:\PROGRAMMING\BULLET PHYSICS\BULLET3-2.83.7\SRC\BULLETINVERSEDYNAMICS\DETAILS\MULTIBODYTREEINITCACHE.CPP|E:\PROGRAMMING\BULLET PHYSICS\BULLET3-2.83.7\SRC\BULLETINVERSEDYNAMICS\IDMATH.CPP|E:\PROGRAMMING\BULLET PHYSICS\BULLET3-2.83.7\SRC\BULLETINVERSEDYNAMICS\MULTIBODYTREE.CPP
E:\PROGRAMMING\BULLET PHYSICS\BUILDS\SRC\BULLETINVERSEDYNAMICS\BULLETINVERSEDYNAMICS.DIR\RELEASE\MULTIBODYTREEIMPL.OBJ
E:\PROGRAMMING\BULLET PHYSICS\BUILDS\SRC\BULLETINVERSEDYNAMICS\BULLETINVERSEDYNAMICS.DIR\RELEASE\MULTIBODYTREEINITCACHE.OBJ
E:\PROGRAMMING\BULLET PHYSICS\BUILDS\SRC\BULLETINVERSEDYNAMICS\BULLETINVERSEDYNAMICS.DIR\RELEASE\MULTIBODYTREE.OBJ
E:\PROGRAMMING\BULLET PHYSICS\BUILDS\SRC\BULLETINVERSEDYNAMICS\BULLETINVERSEDYNAMICS.DIR\RELEASE\IDMATH.OBJ
