^E:\PROGRAMMING\BULLET PHYSICS\BULLET3-2.83.7\EXTRAS\HACD\HACDGRAPH.CPP
E:\PROGRAMMING\BULLET PHYSICS\BULLET3-2.83.7\EXTRAS\HACD\HACDGRAPH.H
E:\PROGRAMMING\BULLET PHYSICS\BULLET3-2.83.7\EXTRAS\HACD\HACDVERSION.H
E:\PROGRAMMING\BULLET PHYSICS\BULLET3-2.83.7\EXTRAS\HACD\HACDVECTOR.H
C:\PROGRAM FILES (X86)\WINDOWS KITS\10\INCLUDE\10.0.10586.0\UCRT\MATH.H
C:\PROGRAM FILES (X86)\WINDOWS KITS\10\INCLUDE\10.0.10586.0\UCRT\CORECRT.H
D:\PROGRAM\VISUAL STUDIO COM 2015\VC\INCLUDE\VCRUNTIME.H
D:\PROGRAM\VISUAL STUDIO COM 2015\VC\INCLUDE\SAL.H
D:\PROGRAM\VISUAL STUDIO COM 2015\VC\INCLUDE\CONCURRENCYSAL.H
D:\PROGRAM\VISUAL STUDIO COM 2015\VC\INCLUDE\VADEFS.H
D:\PROGRAM\VISUAL STUDIO COM 2015\VC\INCLUDE\IOSTREAM
D:\PROGRAM\VISUAL STUDIO COM 2015\VC\INCLUDE\ISTREAM
D:\PROGRAM\VISUAL STUDIO COM 2015\VC\INCLUDE\OSTREAM
D:\PROGRAM\VISUAL STUDIO COM 2015\VC\INCLUDE\IOS
D:\PROGRAM\VISUAL STUDIO COM 2015\VC\INCLUDE\XLOCNUM
D:\PROGRAM\VISUAL STUDIO COM 2015\VC\INCLUDE\CLIMITS
D:\PROGRAM\VISUAL STUDIO COM 2015\VC\INCLUDE\YVALS.H
D:\PROGRAM\VISUAL STUDIO COM 2015\VC\INCLUDE\XKEYCHECK.H
D:\PROGRAM\VISUAL STUDIO COM 2015\VC\INCLUDE\CRTDEFS.H
D:\PROGRAM\VISUAL STUDIO COM 2015\VC\INCLUDE\USE_ANSI.H
D:\PROGRAM\VISUAL STUDIO COM 2015\VC\INCLUDE\LIMITS.H
D:\PROGRAM\VISUAL STUDIO COM 2015\VC\INCLUDE\CMATH
D:\PROGRAM\VISUAL STUDIO COM 2015\VC\INCLUDE\XTGMATH.H
D:\PROGRAM\VISUAL STUDIO COM 2015\VC\INCLUDE\XTR1COMMON
D:\PROGRAM\VISUAL STUDIO COM 2015\VC\INCLUDE\CSTDLIB
C:\PROGRAM FILES (X86)\WINDOWS KITS\10\INCLUDE\10.0.10586.0\UCRT\STDLIB.H
C:\PROGRAM FILES (X86)\WINDOWS KITS\10\INCLUDE\10.0.10586.0\UCRT\CORECRT_MALLOC.H
C:\PROGRAM FILES (X86)\WINDOWS KITS\10\INCLUDE\10.0.10586.0\UCRT\CORECRT_SEARCH.H
C:\PROGRAM FILES (X86)\WINDOWS KITS\10\INCLUDE\10.0.10586.0\UCRT\STDDEF.H
C:\PROGRAM FILES (X86)\WINDOWS KITS\10\INCLUDE\10.0.10586.0\UCRT\CORECRT_WSTDLIB.H
D:\PROGRAM\VISUAL STUDIO COM 2015\VC\INCLUDE\CSTDIO
C:\PROGRAM FILES (X86)\WINDOWS KITS\10\INCLUDE\10.0.10586.0\UCRT\STDIO.H
C:\PROGRAM FILES (X86)\WINDOWS KITS\10\INCLUDE\10.0.10586.0\UCRT\CORECRT_WSTDIO.H
C:\PROGRAM FILES (X86)\WINDOWS KITS\10\INCLUDE\10.0.10586.0\UCRT\CORECRT_STDIO_CONFIG.H
D:\PROGRAM\VISUAL STUDIO COM 2015\VC\INCLUDE\STREAMBUF
D:\PROGRAM\VISUAL STUDIO COM 2015\VC\INCLUDE\XIOSBASE
D:\PROGRAM\VISUAL STUDIO COM 2015\VC\INCLUDE\XLOCALE
D:\PROGRAM\VISUAL STUDIO COM 2015\VC\INCLUDE\CSTRING
C:\PROGRAM FILES (X86)\WINDOWS KITS\10\INCLUDE\10.0.10586.0\UCRT\STRING.H
C:\PROGRAM FILES (X86)\WINDOWS KITS\10\INCLUDE\10.0.10586.0\UCRT\CORECRT_MEMORY.H
C:\PROGRAM FILES (X86)\WINDOWS KITS\10\INCLUDE\10.0.10586.0\UCRT\CORECRT_MEMCPY_S.H
C:\PROGRAM FILES (X86)\WINDOWS KITS\10\INCLUDE\10.0.10586.0\UCRT\ERRNO.H
D:\PROGRAM\VISUAL STUDIO COM 2015\VC\INCLUDE\VCRUNTIME_STRING.H
C:\PROGRAM FILES (X86)\WINDOWS KITS\10\INCLUDE\10.0.10586.0\UCRT\CORECRT_WSTRING.H
D:\PROGRAM\VISUAL STUDIO COM 2015\VC\INCLUDE\STDEXCEPT
D:\PROGRAM\VISUAL STUDIO COM 2015\VC\INCLUDE\EXCEPTION
D:\PROGRAM\VISUAL STUDIO COM 2015\VC\INCLUDE\TYPE_TRAITS
D:\PROGRAM\VISUAL STUDIO COM 2015\VC\INCLUDE\XSTDDEF
D:\PROGRAM\VISUAL STUDIO COM 2015\VC\INCLUDE\CSTDDEF
D:\PROGRAM\VISUAL STUDIO COM 2015\VC\INCLUDE\INITIALIZER_LIST
C:\PROGRAM FILES (X86)\WINDOWS KITS\10\INCLUDE\10.0.10586.0\UCRT\MALLOC.H
D:\PROGRAM\VISUAL STUDIO COM 2015\VC\INCLUDE\VCRUNTIME_EXCEPTION.H
D:\PROGRAM\VISUAL STUDIO COM 2015\VC\INCLUDE\EH.H
C:\PROGRAM FILES (X86)\WINDOWS KITS\10\INCLUDE\10.0.10586.0\UCRT\CORECRT_TERMINATE.H
D:\PROGRAM\VISUAL STUDIO COM 2015\VC\INCLUDE\XSTRING
D:\PROGRAM\VISUAL STUDIO COM 2015\VC\INCLUDE\XMEMORY0
D:\PROGRAM\VISUAL STUDIO COM 2015\VC\INCLUDE\CSTDINT
D:\PROGRAM\VISUAL STUDIO COM 2015\VC\INCLUDE\STDINT.H
D:\PROGRAM\VISUAL STUDIO COM 2015\VC\INCLUDE\LIMITS
D:\PROGRAM\VISUAL STUDIO COM 2015\VC\INCLUDE\YMATH.H
D:\PROGRAM\VISUAL STUDIO COM 2015\VC\INCLUDE\CFLOAT
C:\PROGRAM FILES (X86)\WINDOWS KITS\10\INCLUDE\10.0.10586.0\UCRT\FLOAT.H
D:\PROGRAM\VISUAL STUDIO COM 2015\VC\INCLUDE\CWCHAR
C:\PROGRAM FILES (X86)\WINDOWS KITS\10\INCLUDE\10.0.10586.0\UCRT\WCHAR.H
C:\PROGRAM FILES (X86)\WINDOWS KITS\10\INCLUDE\10.0.10586.0\UCRT\CORECRT_WCONIO.H
C:\PROGRAM FILES (X86)\WINDOWS KITS\10\INCLUDE\10.0.10586.0\UCRT\CORECRT_WCTYPE.H
C:\PROGRAM FILES (X86)\WINDOWS KITS\10\INCLUDE\10.0.10586.0\UCRT\CORECRT_WDIRECT.H
C:\PROGRAM FILES (X86)\WINDOWS KITS\10\INCLUDE\10.0.10586.0\UCRT\CORECRT_WIO.H
C:\PROGRAM FILES (X86)\WINDOWS KITS\10\INCLUDE\10.0.10586.0\UCRT\CORECRT_SHARE.H
C:\PROGRAM FILES (X86)\WINDOWS KITS\10\INCLUDE\10.0.10586.0\UCRT\CORECRT_WPROCESS.H
C:\PROGRAM FILES (X86)\WINDOWS KITS\10\INCLUDE\10.0.10586.0\UCRT\CORECRT_WTIME.H
C:\PROGRAM FILES (X86)\WINDOWS KITS\10\INCLUDE\10.0.10586.0\UCRT\SYS\STAT.H
C:\PROGRAM FILES (X86)\WINDOWS KITS\10\INCLUDE\10.0.10586.0\UCRT\SYS\TYPES.H
D:\PROGRAM\VISUAL STUDIO COM 2015\VC\INCLUDE\NEW
D:\PROGRAM\VISUAL STUDIO COM 2015\VC\INCLUDE\VCRUNTIME_NEW.H
D:\PROGRAM\VISUAL STUDIO COM 2015\VC\INCLUDE\XUTILITY
D:\PROGRAM\VISUAL STUDIO COM 2015\VC\INCLUDE\UTILITY
D:\PROGRAM\VISUAL STUDIO COM 2015\VC\INCLUDE\IOSFWD
C:\PROGRAM FILES (X86)\WINDOWS KITS\10\INCLUDE\10.0.10586.0\UCRT\CRTDBG.H
D:\PROGRAM\VISUAL STUDIO COM 2015\VC\INCLUDE\VCRUNTIME_NEW_DEBUG.H
D:\PROGRAM\VISUAL STUDIO COM 2015\VC\INCLUDE\XATOMIC0.H
D:\PROGRAM\VISUAL STUDIO COM 2015\VC\INCLUDE\INTRIN.H
D:\PROGRAM\VISUAL STUDIO COM 2015\VC\INCLUDE\SETJMP.H
D:\PROGRAM\VISUAL STUDIO COM 2015\VC\INCLUDE\IMMINTRIN.H
D:\PROGRAM\VISUAL STUDIO COM 2015\VC\INCLUDE\WMMINTRIN.H
D:\PROGRAM\VISUAL STUDIO COM 2015\VC\INCLUDE\NMMINTRIN.H
D:\PROGRAM\VISUAL STUDIO COM 2015\VC\INCLUDE\SMMINTRIN.H
D:\PROGRAM\VISUAL STUDIO COM 2015\VC\INCLUDE\TMMINTRIN.H
D:\PROGRAM\VISUAL STUDIO COM 2015\VC\INCLUDE\PMMINTRIN.H
D:\PROGRAM\VISUAL STUDIO COM 2015\VC\INCLUDE\EMMINTRIN.H
D:\PROGRAM\VISUAL STUDIO COM 2015\VC\INCLUDE\XMMINTRIN.H
D:\PROGRAM\VISUAL STUDIO COM 2015\VC\INCLUDE\MMINTRIN.H
D:\PROGRAM\VISUAL STUDIO COM 2015\VC\INCLUDE\AMMINTRIN.H
D:\PROGRAM\VISUAL STUDIO COM 2015\VC\INCLUDE\TYPEINFO
D:\PROGRAM\VISUAL STUDIO COM 2015\VC\INCLUDE\VCRUNTIME_TYPEINFO.H
D:\PROGRAM\VISUAL STUDIO COM 2015\VC\INCLUDE\XLOCINFO
D:\PROGRAM\VISUAL STUDIO COM 2015\VC\INCLUDE\XLOCINFO.H
C:\PROGRAM FILES (X86)\WINDOWS KITS\10\INCLUDE\10.0.10586.0\UCRT\CTYPE.H
C:\PROGRAM FILES (X86)\WINDOWS KITS\10\INCLUDE\10.0.10586.0\UCRT\LOCALE.H
D:\PROGRAM\VISUAL STUDIO COM 2015\VC\INCLUDE\XFACET
D:\PROGRAM\VISUAL STUDIO COM 2015\VC\INCLUDE\SYSTEM_ERROR
D:\PROGRAM\VISUAL STUDIO COM 2015\VC\INCLUDE\CERRNO
C:\PROGRAM FILES (X86)\WINDOWS KITS\10\INCLUDE\10.0.10586.0\UCRT\SHARE.H
E:\PROGRAMMING\BULLET PHYSICS\BULLET3-2.83.7\EXTRAS\HACD\HACDVECTOR.INL
E:\PROGRAMMING\BULLET PHYSICS\BULLET3-2.83.7\EXTRAS\HACD\HACDICHULL.H
E:\PROGRAMMING\BULLET PHYSICS\BULLET3-2.83.7\EXTRAS\HACD\HACDMANIFOLDMESH.H
D:\PROGRAM\VISUAL STUDIO COM 2015\VC\INCLUDE\FSTREAM
E:\PROGRAMMING\BULLET PHYSICS\BULLET3-2.83.7\EXTRAS\HACD\HACDCIRCULARLIST.H
E:\PROGRAMMING\BULLET PHYSICS\BULLET3-2.83.7\EXTRAS\HACD\HACDCIRCULARLIST.INL
D:\PROGRAM\VISUAL STUDIO COM 2015\VC\INCLUDE\SET
D:\PROGRAM\VISUAL STUDIO COM 2015\VC\INCLUDE\XTREE
D:\PROGRAM\VISUAL STUDIO COM 2015\VC\INCLUDE\XMEMORY
D:\PROGRAM\VISUAL STUDIO COM 2015\VC\INCLUDE\VECTOR
D:\PROGRAM\VISUAL STUDIO COM 2015\VC\INCLUDE\MAP
D:\PROGRAM\VISUAL STUDIO COM 2015\VC\INCLUDE\TUPLE
^E:\PROGRAMMING\BULLET PHYSICS\BULLET3-2.83.7\EXTRAS\HACD\HACDHACD.CPP
D:\PROGRAM\VISUAL STUDIO COM 2015\VC\INCLUDE\SSTREAM
D:\PROGRAM\VISUAL STUDIO COM 2015\VC\INCLUDE\STRING
D:\PROGRAM\VISUAL STUDIO COM 2015\VC\INCLUDE\ISTREAM
D:\PROGRAM\VISUAL STUDIO COM 2015\VC\INCLUDE\OSTREAM
D:\PROGRAM\VISUAL STUDIO COM 2015\VC\INCLUDE\IOS
D:\PROGRAM\VISUAL STUDIO COM 2015\VC\INCLUDE\XLOCNUM
D:\PROGRAM\VISUAL STUDIO COM 2015\VC\INCLUDE\CLIMITS
D:\PROGRAM\VISUAL STUDIO COM 2015\VC\INCLUDE\YVALS.H
D:\PROGRAM\VISUAL STUDIO COM 2015\VC\INCLUDE\XKEYCHECK.H
D:\PROGRAM\VISUAL STUDIO COM 2015\VC\INCLUDE\CRTDEFS.H
D:\PROGRAM\VISUAL STUDIO COM 2015\VC\INCLUDE\VCRUNTIME.H
D:\PROGRAM\VISUAL STUDIO COM 2015\VC\INCLUDE\SAL.H
D:\PROGRAM\VISUAL STUDIO COM 2015\VC\INCLUDE\CONCURRENCYSAL.H
D:\PROGRAM\VISUAL STUDIO COM 2015\VC\INCLUDE\VADEFS.H
C:\PROGRAM FILES (X86)\WINDOWS KITS\10\INCLUDE\10.0.10586.0\UCRT\CORECRT.H
D:\PROGRAM\VISUAL STUDIO COM 2015\VC\INCLUDE\USE_ANSI.H
D:\PROGRAM\VISUAL STUDIO COM 2015\VC\INCLUDE\LIMITS.H
D:\PROGRAM\VISUAL STUDIO COM 2015\VC\INCLUDE\CMATH
C:\PROGRAM FILES (X86)\WINDOWS KITS\10\INCLUDE\10.0.10586.0\UCRT\MATH.H
D:\PROGRAM\VISUAL STUDIO COM 2015\VC\INCLUDE\XTGMATH.H
D:\PROGRAM\VISUAL STUDIO COM 2015\VC\INCLUDE\XTR1COMMON
D:\PROGRAM\VISUAL STUDIO COM 2015\VC\INCLUDE\CSTDLIB
C:\PROGRAM FILES (X86)\WINDOWS KITS\10\INCLUDE\10.0.10586.0\UCRT\STDLIB.H
C:\PROGRAM FILES (X86)\WINDOWS KITS\10\INCLUDE\10.0.10586.0\UCRT\CORECRT_MALLOC.H
C:\PROGRAM FILES (X86)\WINDOWS KITS\10\INCLUDE\10.0.10586.0\UCRT\CORECRT_SEARCH.H
C:\PROGRAM FILES (X86)\WINDOWS KITS\10\INCLUDE\10.0.10586.0\UCRT\STDDEF.H
C:\PROGRAM FILES (X86)\WINDOWS KITS\10\INCLUDE\10.0.10586.0\UCRT\CORECRT_WSTDLIB.H
D:\PROGRAM\VISUAL STUDIO COM 2015\VC\INCLUDE\CSTDIO
C:\PROGRAM FILES (X86)\WINDOWS KITS\10\INCLUDE\10.0.10586.0\UCRT\STDIO.H
C:\PROGRAM FILES (X86)\WINDOWS KITS\10\INCLUDE\10.0.10586.0\UCRT\CORECRT_WSTDIO.H
C:\PROGRAM FILES (X86)\WINDOWS KITS\10\INCLUDE\10.0.10586.0\UCRT\CORECRT_STDIO_CONFIG.H
D:\PROGRAM\VISUAL STUDIO COM 2015\VC\INCLUDE\STREAMBUF
D:\PROGRAM\VISUAL STUDIO COM 2015\VC\INCLUDE\XIOSBASE
D:\PROGRAM\VISUAL STUDIO COM 2015\VC\INCLUDE\XLOCALE
D:\PROGRAM\VISUAL STUDIO COM 2015\VC\INCLUDE\CSTRING
C:\PROGRAM FILES (X86)\WINDOWS KITS\10\INCLUDE\10.0.10586.0\UCRT\STRING.H
C:\PROGRAM FILES (X86)\WINDOWS KITS\10\INCLUDE\10.0.10586.0\UCRT\CORECRT_MEMORY.H
C:\PROGRAM FILES (X86)\WINDOWS KITS\10\INCLUDE\10.0.10586.0\UCRT\CORECRT_MEMCPY_S.H
C:\PROGRAM FILES (X86)\WINDOWS KITS\10\INCLUDE\10.0.10586.0\UCRT\ERRNO.H
D:\PROGRAM\VISUAL STUDIO COM 2015\VC\INCLUDE\VCRUNTIME_STRING.H
C:\PROGRAM FILES (X86)\WINDOWS KITS\10\INCLUDE\10.0.10586.0\UCRT\CORECRT_WSTRING.H
D:\PROGRAM\VISUAL STUDIO COM 2015\VC\INCLUDE\STDEXCEPT
D:\PROGRAM\VISUAL STUDIO COM 2015\VC\INCLUDE\EXCEPTION
D:\PROGRAM\VISUAL STUDIO COM 2015\VC\INCLUDE\TYPE_TRAITS
D:\PROGRAM\VISUAL STUDIO COM 2015\VC\INCLUDE\XSTDDEF
D:\PROGRAM\VISUAL STUDIO COM 2015\VC\INCLUDE\CSTDDEF
D:\PROGRAM\VISUAL STUDIO COM 2015\VC\INCLUDE\INITIALIZER_LIST
C:\PROGRAM FILES (X86)\WINDOWS KITS\10\INCLUDE\10.0.10586.0\UCRT\MALLOC.H
D:\PROGRAM\VISUAL STUDIO COM 2015\VC\INCLUDE\VCRUNTIME_EXCEPTION.H
D:\PROGRAM\VISUAL STUDIO COM 2015\VC\INCLUDE\EH.H
C:\PROGRAM FILES (X86)\WINDOWS KITS\10\INCLUDE\10.0.10586.0\UCRT\CORECRT_TERMINATE.H
D:\PROGRAM\VISUAL STUDIO COM 2015\VC\INCLUDE\XSTRING
D:\PROGRAM\VISUAL STUDIO COM 2015\VC\INCLUDE\XMEMORY0
D:\PROGRAM\VISUAL STUDIO COM 2015\VC\INCLUDE\CSTDINT
D:\PROGRAM\VISUAL STUDIO COM 2015\VC\INCLUDE\STDINT.H
D:\PROGRAM\VISUAL STUDIO COM 2015\VC\INCLUDE\LIMITS
D:\PROGRAM\VISUAL STUDIO COM 2015\VC\INCLUDE\YMATH.H
D:\PROGRAM\VISUAL STUDIO COM 2015\VC\INCLUDE\CFLOAT
C:\PROGRAM FILES (X86)\WINDOWS KITS\10\INCLUDE\10.0.10586.0\UCRT\FLOAT.H
D:\PROGRAM\VISUAL STUDIO COM 2015\VC\INCLUDE\CWCHAR
C:\PROGRAM FILES (X86)\WINDOWS KITS\10\INCLUDE\10.0.10586.0\UCRT\WCHAR.H
C:\PROGRAM FILES (X86)\WINDOWS KITS\10\INCLUDE\10.0.10586.0\UCRT\CORECRT_WCONIO.H
C:\PROGRAM FILES (X86)\WINDOWS KITS\10\INCLUDE\10.0.10586.0\UCRT\CORECRT_WCTYPE.H
C:\PROGRAM FILES (X86)\WINDOWS KITS\10\INCLUDE\10.0.10586.0\UCRT\CORECRT_WDIRECT.H
C:\PROGRAM FILES (X86)\WINDOWS KITS\10\INCLUDE\10.0.10586.0\UCRT\CORECRT_WIO.H
C:\PROGRAM FILES (X86)\WINDOWS KITS\10\INCLUDE\10.0.10586.0\UCRT\CORECRT_SHARE.H
C:\PROGRAM FILES (X86)\WINDOWS KITS\10\INCLUDE\10.0.10586.0\UCRT\CORECRT_WPROCESS.H
C:\PROGRAM FILES (X86)\WINDOWS KITS\10\INCLUDE\10.0.10586.0\UCRT\CORECRT_WTIME.H
C:\PROGRAM FILES (X86)\WINDOWS KITS\10\INCLUDE\10.0.10586.0\UCRT\SYS\STAT.H
C:\PROGRAM FILES (X86)\WINDOWS KITS\10\INCLUDE\10.0.10586.0\UCRT\SYS\TYPES.H
D:\PROGRAM\VISUAL STUDIO COM 2015\VC\INCLUDE\NEW
D:\PROGRAM\VISUAL STUDIO COM 2015\VC\INCLUDE\VCRUNTIME_NEW.H
D:\PROGRAM\VISUAL STUDIO COM 2015\VC\INCLUDE\XUTILITY
D:\PROGRAM\VISUAL STUDIO COM 2015\VC\INCLUDE\UTILITY
D:\PROGRAM\VISUAL STUDIO COM 2015\VC\INCLUDE\IOSFWD
C:\PROGRAM FILES (X86)\WINDOWS KITS\10\INCLUDE\10.0.10586.0\UCRT\CRTDBG.H
D:\PROGRAM\VISUAL STUDIO COM 2015\VC\INCLUDE\VCRUNTIME_NEW_DEBUG.H
D:\PROGRAM\VISUAL STUDIO COM 2015\VC\INCLUDE\XATOMIC0.H
D:\PROGRAM\VISUAL STUDIO COM 2015\VC\INCLUDE\INTRIN.H
D:\PROGRAM\VISUAL STUDIO COM 2015\VC\INCLUDE\SETJMP.H
D:\PROGRAM\VISUAL STUDIO COM 2015\VC\INCLUDE\IMMINTRIN.H
D:\PROGRAM\VISUAL STUDIO COM 2015\VC\INCLUDE\WMMINTRIN.H
D:\PROGRAM\VISUAL STUDIO COM 2015\VC\INCLUDE\NMMINTRIN.H
D:\PROGRAM\VISUAL STUDIO COM 2015\VC\INCLUDE\SMMINTRIN.H
D:\PROGRAM\VISUAL STUDIO COM 2015\VC\INCLUDE\TMMINTRIN.H
D:\PROGRAM\VISUAL STUDIO COM 2015\VC\INCLUDE\PMMINTRIN.H
D:\PROGRAM\VISUAL STUDIO COM 2015\VC\INCLUDE\EMMINTRIN.H
D:\PROGRAM\VISUAL STUDIO COM 2015\VC\INCLUDE\XMMINTRIN.H
D:\PROGRAM\VISUAL STUDIO COM 2015\VC\INCLUDE\MMINTRIN.H
D:\PROGRAM\VISUAL STUDIO COM 2015\VC\INCLUDE\AMMINTRIN.H
D:\PROGRAM\VISUAL STUDIO COM 2015\VC\INCLUDE\TYPEINFO
D:\PROGRAM\VISUAL STUDIO COM 2015\VC\INCLUDE\VCRUNTIME_TYPEINFO.H
D:\PROGRAM\VISUAL STUDIO COM 2015\VC\INCLUDE\XLOCINFO
D:\PROGRAM\VISUAL STUDIO COM 2015\VC\INCLUDE\XLOCINFO.H
C:\PROGRAM FILES (X86)\WINDOWS KITS\10\INCLUDE\10.0.10586.0\UCRT\CTYPE.H
C:\PROGRAM FILES (X86)\WINDOWS KITS\10\INCLUDE\10.0.10586.0\UCRT\LOCALE.H
D:\PROGRAM\VISUAL STUDIO COM 2015\VC\INCLUDE\XFACET
D:\PROGRAM\VISUAL STUDIO COM 2015\VC\INCLUDE\SYSTEM_ERROR
D:\PROGRAM\VISUAL STUDIO COM 2015\VC\INCLUDE\CERRNO
C:\PROGRAM FILES (X86)\WINDOWS KITS\10\INCLUDE\10.0.10586.0\UCRT\SHARE.H
E:\PROGRAMMING\BULLET PHYSICS\BULLET3-2.83.7\EXTRAS\HACD\HACDGRAPH.H
E:\PROGRAMMING\BULLET PHYSICS\BULLET3-2.83.7\EXTRAS\HACD\HACDVERSION.H
E:\PROGRAMMING\BULLET PHYSICS\BULLET3-2.83.7\EXTRAS\HACD\HACDVECTOR.H
D:\PROGRAM\VISUAL STUDIO COM 2015\VC\INCLUDE\IOSTREAM
E:\PROGRAMMING\BULLET PHYSICS\BULLET3-2.83.7\EXTRAS\HACD\HACDVECTOR.INL
E:\PROGRAMMING\BULLET PHYSICS\BULLET3-2.83.7\EXTRAS\HACD\HACDICHULL.H
E:\PROGRAMMING\BULLET PHYSICS\BULLET3-2.83.7\EXTRAS\HACD\HACDMANIFOLDMESH.H
D:\PROGRAM\VISUAL STUDIO COM 2015\VC\INCLUDE\FSTREAM
E:\PROGRAMMING\BULLET PHYSICS\BULLET3-2.83.7\EXTRAS\HACD\HACDCIRCULARLIST.H
E:\PROGRAMMING\BULLET PHYSICS\BULLET3-2.83.7\EXTRAS\HACD\HACDCIRCULARLIST.INL
D:\PROGRAM\VISUAL STUDIO COM 2015\VC\INCLUDE\SET
D:\PROGRAM\VISUAL STUDIO COM 2015\VC\INCLUDE\XTREE
D:\PROGRAM\VISUAL STUDIO COM 2015\VC\INCLUDE\XMEMORY
D:\PROGRAM\VISUAL STUDIO COM 2015\VC\INCLUDE\VECTOR
D:\PROGRAM\VISUAL STUDIO COM 2015\VC\INCLUDE\MAP
D:\PROGRAM\VISUAL STUDIO COM 2015\VC\INCLUDE\TUPLE
E:\PROGRAMMING\BULLET PHYSICS\BULLET3-2.83.7\EXTRAS\HACD\HACDHACD.H
D:\PROGRAM\VISUAL STUDIO COM 2015\VC\INCLUDE\QUEUE
D:\PROGRAM\VISUAL STUDIO COM 2015\VC\INCLUDE\ALGORITHM
D:\PROGRAM\VISUAL STUDIO COM 2015\VC\INCLUDE\DEQUE
D:\PROGRAM\VISUAL STUDIO COM 2015\VC\INCLUDE\FUNCTIONAL
D:\PROGRAM\VISUAL STUDIO COM 2015\VC\INCLUDE\XFUNCTIONAL
D:\PROGRAM\VISUAL STUDIO COM 2015\VC\INCLUDE\ITERATOR
C:\PROGRAM FILES (X86)\WINDOWS KITS\10\INCLUDE\10.0.10586.0\UCRT\ASSERT.H
^E:\PROGRAMMING\BULLET PHYSICS\BULLET3-2.83.7\EXTRAS\HACD\HACDICHULL.CPP
E:\PROGRAMMING\BULLET PHYSICS\BULLET3-2.83.7\EXTRAS\HACD\HACDICHULL.H
E:\PROGRAMMING\BULLET PHYSICS\BULLET3-2.83.7\EXTRAS\HACD\HACDVERSION.H
E:\PROGRAMMING\BULLET PHYSICS\BULLET3-2.83.7\EXTRAS\HACD\HACDMANIFOLDMESH.H
D:\PROGRAM\VISUAL STUDIO COM 2015\VC\INCLUDE\IOSTREAM
D:\PROGRAM\VISUAL STUDIO COM 2015\VC\INCLUDE\ISTREAM
D:\PROGRAM\VISUAL STUDIO COM 2015\VC\INCLUDE\OSTREAM
D:\PROGRAM\VISUAL STUDIO COM 2015\VC\INCLUDE\IOS
D:\PROGRAM\VISUAL STUDIO COM 2015\VC\INCLUDE\XLOCNUM
D:\PROGRAM\VISUAL STUDIO COM 2015\VC\INCLUDE\CLIMITS
D:\PROGRAM\VISUAL STUDIO COM 2015\VC\INCLUDE\YVALS.H
D:\PROGRAM\VISUAL STUDIO COM 2015\VC\INCLUDE\XKEYCHECK.H
D:\PROGRAM\VISUAL STUDIO COM 2015\VC\INCLUDE\CRTDEFS.H
D:\PROGRAM\VISUAL STUDIO COM 2015\VC\INCLUDE\VCRUNTIME.H
D:\PROGRAM\VISUAL STUDIO COM 2015\VC\INCLUDE\SAL.H
D:\PROGRAM\VISUAL STUDIO COM 2015\VC\INCLUDE\CONCURRENCYSAL.H
D:\PROGRAM\VISUAL STUDIO COM 2015\VC\INCLUDE\VADEFS.H
C:\PROGRAM FILES (X86)\WINDOWS KITS\10\INCLUDE\10.0.10586.0\UCRT\CORECRT.H
D:\PROGRAM\VISUAL STUDIO COM 2015\VC\INCLUDE\USE_ANSI.H
D:\PROGRAM\VISUAL STUDIO COM 2015\VC\INCLUDE\LIMITS.H
D:\PROGRAM\VISUAL STUDIO COM 2015\VC\INCLUDE\CMATH
C:\PROGRAM FILES (X86)\WINDOWS KITS\10\INCLUDE\10.0.10586.0\UCRT\MATH.H
D:\PROGRAM\VISUAL STUDIO COM 2015\VC\INCLUDE\XTGMATH.H
D:\PROGRAM\VISUAL STUDIO COM 2015\VC\INCLUDE\XTR1COMMON
D:\PROGRAM\VISUAL STUDIO COM 2015\VC\INCLUDE\CSTDLIB
C:\PROGRAM FILES (X86)\WINDOWS KITS\10\INCLUDE\10.0.10586.0\UCRT\STDLIB.H
C:\PROGRAM FILES (X86)\WINDOWS KITS\10\INCLUDE\10.0.10586.0\UCRT\CORECRT_MALLOC.H
C:\PROGRAM FILES (X86)\WINDOWS KITS\10\INCLUDE\10.0.10586.0\UCRT\CORECRT_SEARCH.H
C:\PROGRAM FILES (X86)\WINDOWS KITS\10\INCLUDE\10.0.10586.0\UCRT\STDDEF.H
C:\PROGRAM FILES (X86)\WINDOWS KITS\10\INCLUDE\10.0.10586.0\UCRT\CORECRT_WSTDLIB.H
D:\PROGRAM\VISUAL STUDIO COM 2015\VC\INCLUDE\CSTDIO
C:\PROGRAM FILES (X86)\WINDOWS KITS\10\INCLUDE\10.0.10586.0\UCRT\STDIO.H
C:\PROGRAM FILES (X86)\WINDOWS KITS\10\INCLUDE\10.0.10586.0\UCRT\CORECRT_WSTDIO.H
C:\PROGRAM FILES (X86)\WINDOWS KITS\10\INCLUDE\10.0.10586.0\UCRT\CORECRT_STDIO_CONFIG.H
D:\PROGRAM\VISUAL STUDIO COM 2015\VC\INCLUDE\STREAMBUF
D:\PROGRAM\VISUAL STUDIO COM 2015\VC\INCLUDE\XIOSBASE
D:\PROGRAM\VISUAL STUDIO COM 2015\VC\INCLUDE\XLOCALE
D:\PROGRAM\VISUAL STUDIO COM 2015\VC\INCLUDE\CSTRING
C:\PROGRAM FILES (X86)\WINDOWS KITS\10\INCLUDE\10.0.10586.0\UCRT\STRING.H
C:\PROGRAM FILES (X86)\WINDOWS KITS\10\INCLUDE\10.0.10586.0\UCRT\CORECRT_MEMORY.H
C:\PROGRAM FILES (X86)\WINDOWS KITS\10\INCLUDE\10.0.10586.0\UCRT\CORECRT_MEMCPY_S.H
C:\PROGRAM FILES (X86)\WINDOWS KITS\10\INCLUDE\10.0.10586.0\UCRT\ERRNO.H
D:\PROGRAM\VISUAL STUDIO COM 2015\VC\INCLUDE\VCRUNTIME_STRING.H
C:\PROGRAM FILES (X86)\WINDOWS KITS\10\INCLUDE\10.0.10586.0\UCRT\CORECRT_WSTRING.H
D:\PROGRAM\VISUAL STUDIO COM 2015\VC\INCLUDE\STDEXCEPT
D:\PROGRAM\VISUAL STUDIO COM 2015\VC\INCLUDE\EXCEPTION
D:\PROGRAM\VISUAL STUDIO COM 2015\VC\INCLUDE\TYPE_TRAITS
D:\PROGRAM\VISUAL STUDIO COM 2015\VC\INCLUDE\XSTDDEF
D:\PROGRAM\VISUAL STUDIO COM 2015\VC\INCLUDE\CSTDDEF
D:\PROGRAM\VISUAL STUDIO COM 2015\VC\INCLUDE\INITIALIZER_LIST
C:\PROGRAM FILES (X86)\WINDOWS KITS\10\INCLUDE\10.0.10586.0\UCRT\MALLOC.H
D:\PROGRAM\VISUAL STUDIO COM 2015\VC\INCLUDE\VCRUNTIME_EXCEPTION.H
D:\PROGRAM\VISUAL STUDIO COM 2015\VC\INCLUDE\EH.H
C:\PROGRAM FILES (X86)\WINDOWS KITS\10\INCLUDE\10.0.10586.0\UCRT\CORECRT_TERMINATE.H
D:\PROGRAM\VISUAL STUDIO COM 2015\VC\INCLUDE\XSTRING
D:\PROGRAM\VISUAL STUDIO COM 2015\VC\INCLUDE\XMEMORY0
D:\PROGRAM\VISUAL STUDIO COM 2015\VC\INCLUDE\CSTDINT
D:\PROGRAM\VISUAL STUDIO COM 2015\VC\INCLUDE\STDINT.H
D:\PROGRAM\VISUAL STUDIO COM 2015\VC\INCLUDE\LIMITS
D:\PROGRAM\VISUAL STUDIO COM 2015\VC\INCLUDE\YMATH.H
D:\PROGRAM\VISUAL STUDIO COM 2015\VC\INCLUDE\CFLOAT
C:\PROGRAM FILES (X86)\WINDOWS KITS\10\INCLUDE\10.0.10586.0\UCRT\FLOAT.H
D:\PROGRAM\VISUAL STUDIO COM 2015\VC\INCLUDE\CWCHAR
C:\PROGRAM FILES (X86)\WINDOWS KITS\10\INCLUDE\10.0.10586.0\UCRT\WCHAR.H
C:\PROGRAM FILES (X86)\WINDOWS KITS\10\INCLUDE\10.0.10586.0\UCRT\CORECRT_WCONIO.H
C:\PROGRAM FILES (X86)\WINDOWS KITS\10\INCLUDE\10.0.10586.0\UCRT\CORECRT_WCTYPE.H
C:\PROGRAM FILES (X86)\WINDOWS KITS\10\INCLUDE\10.0.10586.0\UCRT\CORECRT_WDIRECT.H
C:\PROGRAM FILES (X86)\WINDOWS KITS\10\INCLUDE\10.0.10586.0\UCRT\CORECRT_WIO.H
C:\PROGRAM FILES (X86)\WINDOWS KITS\10\INCLUDE\10.0.10586.0\UCRT\CORECRT_SHARE.H
C:\PROGRAM FILES (X86)\WINDOWS KITS\10\INCLUDE\10.0.10586.0\UCRT\CORECRT_WPROCESS.H
C:\PROGRAM FILES (X86)\WINDOWS KITS\10\INCLUDE\10.0.10586.0\UCRT\CORECRT_WTIME.H
C:\PROGRAM FILES (X86)\WINDOWS KITS\10\INCLUDE\10.0.10586.0\UCRT\SYS\STAT.H
C:\PROGRAM FILES (X86)\WINDOWS KITS\10\INCLUDE\10.0.10586.0\UCRT\SYS\TYPES.H
D:\PROGRAM\VISUAL STUDIO COM 2015\VC\INCLUDE\NEW
D:\PROGRAM\VISUAL STUDIO COM 2015\VC\INCLUDE\VCRUNTIME_NEW.H
D:\PROGRAM\VISUAL STUDIO COM 2015\VC\INCLUDE\XUTILITY
D:\PROGRAM\VISUAL STUDIO COM 2015\VC\INCLUDE\UTILITY
D:\PROGRAM\VISUAL STUDIO COM 2015\VC\INCLUDE\IOSFWD
C:\PROGRAM FILES (X86)\WINDOWS KITS\10\INCLUDE\10.0.10586.0\UCRT\CRTDBG.H
D:\PROGRAM\VISUAL STUDIO COM 2015\VC\INCLUDE\VCRUNTIME_NEW_DEBUG.H
D:\PROGRAM\VISUAL STUDIO COM 2015\VC\INCLUDE\XATOMIC0.H
D:\PROGRAM\VISUAL STUDIO COM 2015\VC\INCLUDE\INTRIN.H
D:\PROGRAM\VISUAL STUDIO COM 2015\VC\INCLUDE\SETJMP.H
D:\PROGRAM\VISUAL STUDIO COM 2015\VC\INCLUDE\IMMINTRIN.H
D:\PROGRAM\VISUAL STUDIO COM 2015\VC\INCLUDE\WMMINTRIN.H
D:\PROGRAM\VISUAL STUDIO COM 2015\VC\INCLUDE\NMMINTRIN.H
D:\PROGRAM\VISUAL STUDIO COM 2015\VC\INCLUDE\SMMINTRIN.H
D:\PROGRAM\VISUAL STUDIO COM 2015\VC\INCLUDE\TMMINTRIN.H
D:\PROGRAM\VISUAL STUDIO COM 2015\VC\INCLUDE\PMMINTRIN.H
D:\PROGRAM\VISUAL STUDIO COM 2015\VC\INCLUDE\EMMINTRIN.H
D:\PROGRAM\VISUAL STUDIO COM 2015\VC\INCLUDE\XMMINTRIN.H
D:\PROGRAM\VISUAL STUDIO COM 2015\VC\INCLUDE\MMINTRIN.H
D:\PROGRAM\VISUAL STUDIO COM 2015\VC\INCLUDE\AMMINTRIN.H
D:\PROGRAM\VISUAL STUDIO COM 2015\VC\INCLUDE\TYPEINFO
D:\PROGRAM\VISUAL STUDIO COM 2015\VC\INCLUDE\VCRUNTIME_TYPEINFO.H
D:\PROGRAM\VISUAL STUDIO COM 2015\VC\INCLUDE\XLOCINFO
D:\PROGRAM\VISUAL STUDIO COM 2015\VC\INCLUDE\XLOCINFO.H
C:\PROGRAM FILES (X86)\WINDOWS KITS\10\INCLUDE\10.0.10586.0\UCRT\CTYPE.H
C:\PROGRAM FILES (X86)\WINDOWS KITS\10\INCLUDE\10.0.10586.0\UCRT\LOCALE.H
D:\PROGRAM\VISUAL STUDIO COM 2015\VC\INCLUDE\XFACET
D:\PROGRAM\VISUAL STUDIO COM 2015\VC\INCLUDE\SYSTEM_ERROR
D:\PROGRAM\VISUAL STUDIO COM 2015\VC\INCLUDE\CERRNO
C:\PROGRAM FILES (X86)\WINDOWS KITS\10\INCLUDE\10.0.10586.0\UCRT\SHARE.H
D:\PROGRAM\VISUAL STUDIO COM 2015\VC\INCLUDE\FSTREAM
E:\PROGRAMMING\BULLET PHYSICS\BULLET3-2.83.7\EXTRAS\HACD\HACDCIRCULARLIST.H
E:\PROGRAMMING\BULLET PHYSICS\BULLET3-2.83.7\EXTRAS\HACD\HACDCIRCULARLIST.INL
E:\PROGRAMMING\BULLET PHYSICS\BULLET3-2.83.7\EXTRAS\HACD\HACDVECTOR.H
E:\PROGRAMMING\BULLET PHYSICS\BULLET3-2.83.7\EXTRAS\HACD\HACDVECTOR.INL
D:\PROGRAM\VISUAL STUDIO COM 2015\VC\INCLUDE\SET
D:\PROGRAM\VISUAL STUDIO COM 2015\VC\INCLUDE\XTREE
D:\PROGRAM\VISUAL STUDIO COM 2015\VC\INCLUDE\XMEMORY
D:\PROGRAM\VISUAL STUDIO COM 2015\VC\INCLUDE\VECTOR
D:\PROGRAM\VISUAL STUDIO COM 2015\VC\INCLUDE\MAP
D:\PROGRAM\VISUAL STUDIO COM 2015\VC\INCLUDE\TUPLE
D:\PROGRAM\VISUAL STUDIO COM 2015\VC\INCLUDE\ALGORITHM
^E:\PROGRAMMING\BULLET PHYSICS\BULLET3-2.83.7\EXTRAS\HACD\HACDMANIFOLDMESH.CPP
E:\PROGRAMMING\BULLET PHYSICS\BULLET3-2.83.7\EXTRAS\HACD\HACDMANIFOLDMESH.H
D:\PROGRAM\VISUAL STUDIO COM 2015\VC\INCLUDE\IOSTREAM
D:\PROGRAM\VISUAL STUDIO COM 2015\VC\INCLUDE\ISTREAM
D:\PROGRAM\VISUAL STUDIO COM 2015\VC\INCLUDE\OSTREAM
D:\PROGRAM\VISUAL STUDIO COM 2015\VC\INCLUDE\IOS
D:\PROGRAM\VISUAL STUDIO COM 2015\VC\INCLUDE\XLOCNUM
D:\PROGRAM\VISUAL STUDIO COM 2015\VC\INCLUDE\CLIMITS
D:\PROGRAM\VISUAL STUDIO COM 2015\VC\INCLUDE\YVALS.H
D:\PROGRAM\VISUAL STUDIO COM 2015\VC\INCLUDE\XKEYCHECK.H
D:\PROGRAM\VISUAL STUDIO COM 2015\VC\INCLUDE\CRTDEFS.H
D:\PROGRAM\VISUAL STUDIO COM 2015\VC\INCLUDE\VCRUNTIME.H
D:\PROGRAM\VISUAL STUDIO COM 2015\VC\INCLUDE\SAL.H
D:\PROGRAM\VISUAL STUDIO COM 2015\VC\INCLUDE\CONCURRENCYSAL.H
D:\PROGRAM\VISUAL STUDIO COM 2015\VC\INCLUDE\VADEFS.H
C:\PROGRAM FILES (X86)\WINDOWS KITS\10\INCLUDE\10.0.10586.0\UCRT\CORECRT.H
D:\PROGRAM\VISUAL STUDIO COM 2015\VC\INCLUDE\USE_ANSI.H
D:\PROGRAM\VISUAL STUDIO COM 2015\VC\INCLUDE\LIMITS.H
D:\PROGRAM\VISUAL STUDIO COM 2015\VC\INCLUDE\CMATH
C:\PROGRAM FILES (X86)\WINDOWS KITS\10\INCLUDE\10.0.10586.0\UCRT\MATH.H
D:\PROGRAM\VISUAL STUDIO COM 2015\VC\INCLUDE\XTGMATH.H
D:\PROGRAM\VISUAL STUDIO COM 2015\VC\INCLUDE\XTR1COMMON
D:\PROGRAM\VISUAL STUDIO COM 2015\VC\INCLUDE\CSTDLIB
C:\PROGRAM FILES (X86)\WINDOWS KITS\10\INCLUDE\10.0.10586.0\UCRT\STDLIB.H
C:\PROGRAM FILES (X86)\WINDOWS KITS\10\INCLUDE\10.0.10586.0\UCRT\CORECRT_MALLOC.H
C:\PROGRAM FILES (X86)\WINDOWS KITS\10\INCLUDE\10.0.10586.0\UCRT\CORECRT_SEARCH.H
C:\PROGRAM FILES (X86)\WINDOWS KITS\10\INCLUDE\10.0.10586.0\UCRT\STDDEF.H
C:\PROGRAM FILES (X86)\WINDOWS KITS\10\INCLUDE\10.0.10586.0\UCRT\CORECRT_WSTDLIB.H
D:\PROGRAM\VISUAL STUDIO COM 2015\VC\INCLUDE\CSTDIO
C:\PROGRAM FILES (X86)\WINDOWS KITS\10\INCLUDE\10.0.10586.0\UCRT\STDIO.H
C:\PROGRAM FILES (X86)\WINDOWS KITS\10\INCLUDE\10.0.10586.0\UCRT\CORECRT_WSTDIO.H
C:\PROGRAM FILES (X86)\WINDOWS KITS\10\INCLUDE\10.0.10586.0\UCRT\CORECRT_STDIO_CONFIG.H
D:\PROGRAM\VISUAL STUDIO COM 2015\VC\INCLUDE\STREAMBUF
D:\PROGRAM\VISUAL STUDIO COM 2015\VC\INCLUDE\XIOSBASE
D:\PROGRAM\VISUAL STUDIO COM 2015\VC\INCLUDE\XLOCALE
D:\PROGRAM\VISUAL STUDIO COM 2015\VC\INCLUDE\CSTRING
C:\PROGRAM FILES (X86)\WINDOWS KITS\10\INCLUDE\10.0.10586.0\UCRT\STRING.H
C:\PROGRAM FILES (X86)\WINDOWS KITS\10\INCLUDE\10.0.10586.0\UCRT\CORECRT_MEMORY.H
C:\PROGRAM FILES (X86)\WINDOWS KITS\10\INCLUDE\10.0.10586.0\UCRT\CORECRT_MEMCPY_S.H
C:\PROGRAM FILES (X86)\WINDOWS KITS\10\INCLUDE\10.0.10586.0\UCRT\ERRNO.H
D:\PROGRAM\VISUAL STUDIO COM 2015\VC\INCLUDE\VCRUNTIME_STRING.H
C:\PROGRAM FILES (X86)\WINDOWS KITS\10\INCLUDE\10.0.10586.0\UCRT\CORECRT_WSTRING.H
D:\PROGRAM\VISUAL STUDIO COM 2015\VC\INCLUDE\STDEXCEPT
D:\PROGRAM\VISUAL STUDIO COM 2015\VC\INCLUDE\EXCEPTION
D:\PROGRAM\VISUAL STUDIO COM 2015\VC\INCLUDE\TYPE_TRAITS
D:\PROGRAM\VISUAL STUDIO COM 2015\VC\INCLUDE\XSTDDEF
D:\PROGRAM\VISUAL STUDIO COM 2015\VC\INCLUDE\CSTDDEF
D:\PROGRAM\VISUAL STUDIO COM 2015\VC\INCLUDE\INITIALIZER_LIST
C:\PROGRAM FILES (X86)\WINDOWS KITS\10\INCLUDE\10.0.10586.0\UCRT\MALLOC.H
D:\PROGRAM\VISUAL STUDIO COM 2015\VC\INCLUDE\VCRUNTIME_EXCEPTION.H
D:\PROGRAM\VISUAL STUDIO COM 2015\VC\INCLUDE\EH.H
C:\PROGRAM FILES (X86)\WINDOWS KITS\10\INCLUDE\10.0.10586.0\UCRT\CORECRT_TERMINATE.H
D:\PROGRAM\VISUAL STUDIO COM 2015\VC\INCLUDE\XSTRING
D:\PROGRAM\VISUAL STUDIO COM 2015\VC\INCLUDE\XMEMORY0
D:\PROGRAM\VISUAL STUDIO COM 2015\VC\INCLUDE\CSTDINT
D:\PROGRAM\VISUAL STUDIO COM 2015\VC\INCLUDE\STDINT.H
D:\PROGRAM\VISUAL STUDIO COM 2015\VC\INCLUDE\LIMITS
D:\PROGRAM\VISUAL STUDIO COM 2015\VC\INCLUDE\YMATH.H
D:\PROGRAM\VISUAL STUDIO COM 2015\VC\INCLUDE\CFLOAT
C:\PROGRAM FILES (X86)\WINDOWS KITS\10\INCLUDE\10.0.10586.0\UCRT\FLOAT.H
D:\PROGRAM\VISUAL STUDIO COM 2015\VC\INCLUDE\CWCHAR
C:\PROGRAM FILES (X86)\WINDOWS KITS\10\INCLUDE\10.0.10586.0\UCRT\WCHAR.H
C:\PROGRAM FILES (X86)\WINDOWS KITS\10\INCLUDE\10.0.10586.0\UCRT\CORECRT_WCONIO.H
C:\PROGRAM FILES (X86)\WINDOWS KITS\10\INCLUDE\10.0.10586.0\UCRT\CORECRT_WCTYPE.H
C:\PROGRAM FILES (X86)\WINDOWS KITS\10\INCLUDE\10.0.10586.0\UCRT\CORECRT_WDIRECT.H
C:\PROGRAM FILES (X86)\WINDOWS KITS\10\INCLUDE\10.0.10586.0\UCRT\CORECRT_WIO.H
C:\PROGRAM FILES (X86)\WINDOWS KITS\10\INCLUDE\10.0.10586.0\UCRT\CORECRT_SHARE.H
C:\PROGRAM FILES (X86)\WINDOWS KITS\10\INCLUDE\10.0.10586.0\UCRT\CORECRT_WPROCESS.H
C:\PROGRAM FILES (X86)\WINDOWS KITS\10\INCLUDE\10.0.10586.0\UCRT\CORECRT_WTIME.H
C:\PROGRAM FILES (X86)\WINDOWS KITS\10\INCLUDE\10.0.10586.0\UCRT\SYS\STAT.H
C:\PROGRAM FILES (X86)\WINDOWS KITS\10\INCLUDE\10.0.10586.0\UCRT\SYS\TYPES.H
D:\PROGRAM\VISUAL STUDIO COM 2015\VC\INCLUDE\NEW
D:\PROGRAM\VISUAL STUDIO COM 2015\VC\INCLUDE\VCRUNTIME_NEW.H
D:\PROGRAM\VISUAL STUDIO COM 2015\VC\INCLUDE\XUTILITY
D:\PROGRAM\VISUAL STUDIO COM 2015\VC\INCLUDE\UTILITY
D:\PROGRAM\VISUAL STUDIO COM 2015\VC\INCLUDE\IOSFWD
C:\PROGRAM FILES (X86)\WINDOWS KITS\10\INCLUDE\10.0.10586.0\UCRT\CRTDBG.H
D:\PROGRAM\VISUAL STUDIO COM 2015\VC\INCLUDE\VCRUNTIME_NEW_DEBUG.H
D:\PROGRAM\VISUAL STUDIO COM 2015\VC\INCLUDE\XATOMIC0.H
D:\PROGRAM\VISUAL STUDIO COM 2015\VC\INCLUDE\INTRIN.H
D:\PROGRAM\VISUAL STUDIO COM 2015\VC\INCLUDE\SETJMP.H
D:\PROGRAM\VISUAL STUDIO COM 2015\VC\INCLUDE\IMMINTRIN.H
D:\PROGRAM\VISUAL STUDIO COM 2015\VC\INCLUDE\WMMINTRIN.H
D:\PROGRAM\VISUAL STUDIO COM 2015\VC\INCLUDE\NMMINTRIN.H
D:\PROGRAM\VISUAL STUDIO COM 2015\VC\INCLUDE\SMMINTRIN.H
D:\PROGRAM\VISUAL STUDIO COM 2015\VC\INCLUDE\TMMINTRIN.H
D:\PROGRAM\VISUAL STUDIO COM 2015\VC\INCLUDE\PMMINTRIN.H
D:\PROGRAM\VISUAL STUDIO COM 2015\VC\INCLUDE\EMMINTRIN.H
D:\PROGRAM\VISUAL STUDIO COM 2015\VC\INCLUDE\XMMINTRIN.H
D:\PROGRAM\VISUAL STUDIO COM 2015\VC\INCLUDE\MMINTRIN.H
D:\PROGRAM\VISUAL STUDIO COM 2015\VC\INCLUDE\AMMINTRIN.H
D:\PROGRAM\VISUAL STUDIO COM 2015\VC\INCLUDE\TYPEINFO
D:\PROGRAM\VISUAL STUDIO COM 2015\VC\INCLUDE\VCRUNTIME_TYPEINFO.H
D:\PROGRAM\VISUAL STUDIO COM 2015\VC\INCLUDE\XLOCINFO
D:\PROGRAM\VISUAL STUDIO COM 2015\VC\INCLUDE\XLOCINFO.H
C:\PROGRAM FILES (X86)\WINDOWS KITS\10\INCLUDE\10.0.10586.0\UCRT\CTYPE.H
C:\PROGRAM FILES (X86)\WINDOWS KITS\10\INCLUDE\10.0.10586.0\UCRT\LOCALE.H
D:\PROGRAM\VISUAL STUDIO COM 2015\VC\INCLUDE\XFACET
D:\PROGRAM\VISUAL STUDIO COM 2015\VC\INCLUDE\SYSTEM_ERROR
D:\PROGRAM\VISUAL STUDIO COM 2015\VC\INCLUDE\CERRNO
C:\PROGRAM FILES (X86)\WINDOWS KITS\10\INCLUDE\10.0.10586.0\UCRT\SHARE.H
D:\PROGRAM\VISUAL STUDIO COM 2015\VC\INCLUDE\FSTREAM
E:\PROGRAMMING\BULLET PHYSICS\BULLET3-2.83.7\EXTRAS\HACD\HACDVERSION.H
E:\PROGRAMMING\BULLET PHYSICS\BULLET3-2.83.7\EXTRAS\HACD\HACDCIRCULARLIST.H
E:\PROGRAMMING\BULLET PHYSICS\BULLET3-2.83.7\EXTRAS\HACD\HACDCIRCULARLIST.INL
E:\PROGRAMMING\BULLET PHYSICS\BULLET3-2.83.7\EXTRAS\HACD\HACDVECTOR.H
E:\PROGRAMMING\BULLET PHYSICS\BULLET3-2.83.7\EXTRAS\HACD\HACDVECTOR.INL
D:\PROGRAM\VISUAL STUDIO COM 2015\VC\INCLUDE\SET
D:\PROGRAM\VISUAL STUDIO COM 2015\VC\INCLUDE\XTREE
D:\PROGRAM\VISUAL STUDIO COM 2015\VC\INCLUDE\XMEMORY
