^E:\PROGRAMMING\BULLET PHYSICS\BULLET3-2.83.7\EXTRAS\HACD\HACDGRAPH.CPP|E:\PROGRAMMING\BULLET PHYSICS\BULLET3-2.83.7\EXTRAS\HACD\HACDHACD.CPP|E:\PROGRAMMING\BULLET PHYSICS\BULLET3-2.83.7\EXTRAS\HACD\HACDICHULL.CPP|E:\PROGRAMMING\BULLET PHYSICS\BULLET3-2.83.7\EXTRAS\HACD\HACDMANIFOLDMESH.CPP
E:\PROGRAMMING\BULLET PHYSICS\BUILDS\EXTRAS\HACD\HACD.DIR\RELEASE\HACDMANIFOLDMESH.OBJ
E:\PROGRAMMING\BULLET PHYSICS\BUILDS\EXTRAS\HACD\HACD.DIR\RELEASE\HACDICHULL.OBJ
E:\PROGRAMMING\BULLET PHYSICS\BUILDS\EXTRAS\HACD\HACD.DIR\RELEASE\HACDHACD.OBJ
E:\PROGRAMMING\BULLET PHYSICS\BUILDS\EXTRAS\HACD\HACD.DIR\RELEASE\HACDGRAPH.OBJ
