^E:\PROGRAMMING\ASSIMP-3.2\ASSIMP-3.2\CONTRIB\ZLIB\CMAKELISTS.TXT
D:\PROGRAM FILES (X86)\CMAKE\SHARE\CMAKE-3.5\MODULES\CHECKTYPESIZE.CMAKE
D:\PROGRAM FILES (X86)\CMAKE\SHARE\CMAKE-3.5\MODULES\CHECKINCLUDEFILE.CMAKE
D:\PROGRAM FILES (X86)\CMAKE\SHARE\CMAKE-3.5\MODULES\CHECKINCLUDEFILECXX.CMAKE
D:\PROGRAM FILES (X86)\CMAKE\SHARE\CMAKE-3.5\MODULES\CHECKFUNCTIONEXISTS.CMAKE
D:\PROGRAM FILES (X86)\CMAKE\SHARE\CMAKE-3.5\MODULES\CHECKCSOURCECOMPILES.CMAKE
E:\PROGRAMMING\ASSIMP-3.2\ASSIMP-3.2\CONTRIB\ZLIB\ZLIB.PC.CMAKEIN
E:\PROGRAMMING\ASSIMP-3.2\ASSIMP-3.2\CONTRIB\ZLIB\ZCONF.H.CMAKEIN
