^E:\PROGRAMMING\FREETYPE\X64\CMAKEFILES\D23531A941B52DCA9B26DF943BD389B6\GENERATE.STAMP.RULE
D:\PROGRAM FILES (X86)\CMAKE\SHARE\CMAKE-3.5\MODULES\CMAKECCOMPILER.CMAKE.IN
D:\PROGRAM FILES (X86)\CMAKE\SHARE\CMAKE-3.5\MODULES\CMAKECCOMPILERABI.C
D:\PROGRAM FILES (X86)\CMAKE\SHARE\CMAKE-3.5\MODULES\CMAKECINFORMATION.CMAKE
D:\PROGRAM FILES (X86)\CMAKE\SHARE\CMAKE-3.5\MODULES\CMAKECXXCOMPILER.CMAKE.IN
D:\PROGRAM FILES (X86)\CMAKE\SHARE\CMAKE-3.5\MODULES\CMAKECXXCOMPILERABI.CPP
D:\PROGRAM FILES (X86)\CMAKE\SHARE\CMAKE-3.5\MODULES\CMAKECXXINFORMATION.CMAKE
D:\PROGRAM FILES (X86)\CMAKE\SHARE\CMAKE-3.5\MODULES\CMAKECOMMONLANGUAGEINCLUDE.CMAKE
D:\PROGRAM FILES (X86)\CMAKE\SHARE\CMAKE-3.5\MODULES\CMAKECOMPILERIDDETECTION.CMAKE
D:\PROGRAM FILES (X86)\CMAKE\SHARE\CMAKE-3.5\MODULES\CMAKEDETERMINECCOMPILER.CMAKE
D:\PROGRAM FILES (X86)\CMAKE\SHARE\CMAKE-3.5\MODULES\CMAKEDETERMINECXXCOMPILER.CMAKE
D:\PROGRAM FILES (X86)\CMAKE\SHARE\CMAKE-3.5\MODULES\CMAKEDETERMINECOMPILEFEATURES.CMAKE
D:\PROGRAM FILES (X86)\CMAKE\SHARE\CMAKE-3.5\MODULES\CMAKEDETERMINECOMPILER.CMAKE
D:\PROGRAM FILES (X86)\CMAKE\SHARE\CMAKE-3.5\MODULES\CMAKEDETERMINECOMPILERABI.CMAKE
D:\PROGRAM FILES (X86)\CMAKE\SHARE\CMAKE-3.5\MODULES\CMAKEDETERMINECOMPILERID.CMAKE
D:\PROGRAM FILES (X86)\CMAKE\SHARE\CMAKE-3.5\MODULES\CMAKEDETERMINERCCOMPILER.CMAKE
D:\PROGRAM FILES (X86)\CMAKE\SHARE\CMAKE-3.5\MODULES\CMAKEDETERMINESYSTEM.CMAKE
D:\PROGRAM FILES (X86)\CMAKE\SHARE\CMAKE-3.5\MODULES\CMAKEFINDBINUTILS.CMAKE
D:\PROGRAM FILES (X86)\CMAKE\SHARE\CMAKE-3.5\MODULES\CMAKEGENERICSYSTEM.CMAKE
D:\PROGRAM FILES (X86)\CMAKE\SHARE\CMAKE-3.5\MODULES\CMAKELANGUAGEINFORMATION.CMAKE
D:\PROGRAM FILES (X86)\CMAKE\SHARE\CMAKE-3.5\MODULES\CMAKEPARSEARGUMENTS.CMAKE
D:\PROGRAM FILES (X86)\CMAKE\SHARE\CMAKE-3.5\MODULES\CMAKEPARSEIMPLICITLINKINFO.CMAKE
D:\PROGRAM FILES (X86)\CMAKE\SHARE\CMAKE-3.5\MODULES\CMAKERCCOMPILER.CMAKE.IN
D:\PROGRAM FILES (X86)\CMAKE\SHARE\CMAKE-3.5\MODULES\CMAKERCINFORMATION.CMAKE
D:\PROGRAM FILES (X86)\CMAKE\SHARE\CMAKE-3.5\MODULES\CMAKESYSTEM.CMAKE.IN
D:\PROGRAM FILES (X86)\CMAKE\SHARE\CMAKE-3.5\MODULES\CMAKESYSTEMSPECIFICINFORMATION.CMAKE
D:\PROGRAM FILES (X86)\CMAKE\SHARE\CMAKE-3.5\MODULES\CMAKESYSTEMSPECIFICINITIALIZE.CMAKE
D:\PROGRAM FILES (X86)\CMAKE\SHARE\CMAKE-3.5\MODULES\CMAKETESTCCOMPILER.CMAKE
D:\PROGRAM FILES (X86)\CMAKE\SHARE\CMAKE-3.5\MODULES\CMAKETESTCXXCOMPILER.CMAKE
D:\PROGRAM FILES (X86)\CMAKE\SHARE\CMAKE-3.5\MODULES\CMAKETESTCOMPILERCOMMON.CMAKE
D:\PROGRAM FILES (X86)\CMAKE\SHARE\CMAKE-3.5\MODULES\CMAKETESTRCCOMPILER.CMAKE
D:\PROGRAM FILES (X86)\CMAKE\SHARE\CMAKE-3.5\MODULES\CPACK.CMAKE
D:\PROGRAM FILES (X86)\CMAKE\SHARE\CMAKE-3.5\MODULES\CPACKCOMPONENT.CMAKE
D:\PROGRAM FILES (X86)\CMAKE\SHARE\CMAKE-3.5\MODULES\CHECKINCLUDEFILE.CMAKE
D:\PROGRAM FILES (X86)\CMAKE\SHARE\CMAKE-3.5\MODULES\COMPILER\ADSP-DETERMINECOMPILER.CMAKE
D:\PROGRAM FILES (X86)\CMAKE\SHARE\CMAKE-3.5\MODULES\COMPILER\ARMCC-DETERMINECOMPILER.CMAKE
D:\PROGRAM FILES (X86)\CMAKE\SHARE\CMAKE-3.5\MODULES\COMPILER\APPLECLANG-DETERMINECOMPILER.CMAKE
D:\PROGRAM FILES (X86)\CMAKE\SHARE\CMAKE-3.5\MODULES\COMPILER\BORLAND-DETERMINECOMPILER.CMAKE
D:\PROGRAM FILES (X86)\CMAKE\SHARE\CMAKE-3.5\MODULES\COMPILER\CLANG-DETERMINECOMPILER.CMAKE
D:\PROGRAM FILES (X86)\CMAKE\SHARE\CMAKE-3.5\MODULES\COMPILER\CLANG-DETERMINECOMPILERINTERNAL.CMAKE
D:\PROGRAM FILES (X86)\CMAKE\SHARE\CMAKE-3.5\MODULES\COMPILER\COMEAU-CXX-DETERMINECOMPILER.CMAKE
D:\PROGRAM FILES (X86)\CMAKE\SHARE\CMAKE-3.5\MODULES\COMPILER\COMPAQ-C-DETERMINECOMPILER.CMAKE
D:\PROGRAM FILES (X86)\CMAKE\SHARE\CMAKE-3.5\MODULES\COMPILER\COMPAQ-CXX-DETERMINECOMPILER.CMAKE
D:\PROGRAM FILES (X86)\CMAKE\SHARE\CMAKE-3.5\MODULES\COMPILER\CRAY-DETERMINECOMPILER.CMAKE
D:\PROGRAM FILES (X86)\CMAKE\SHARE\CMAKE-3.5\MODULES\COMPILER\EMBARCADERO-DETERMINECOMPILER.CMAKE
D:\PROGRAM FILES (X86)\CMAKE\SHARE\CMAKE-3.5\MODULES\COMPILER\FUJITSU-DETERMINECOMPILER.CMAKE
D:\PROGRAM FILES (X86)\CMAKE\SHARE\CMAKE-3.5\MODULES\COMPILER\GHS-DETERMINECOMPILER.CMAKE
D:\PROGRAM FILES (X86)\CMAKE\SHARE\CMAKE-3.5\MODULES\COMPILER\GNU-DETERMINECOMPILER.CMAKE
D:\PROGRAM FILES (X86)\CMAKE\SHARE\CMAKE-3.5\MODULES\COMPILER\HP-C-DETERMINECOMPILER.CMAKE
D:\PROGRAM FILES (X86)\CMAKE\SHARE\CMAKE-3.5\MODULES\COMPILER\HP-CXX-DETERMINECOMPILER.CMAKE
D:\PROGRAM FILES (X86)\CMAKE\SHARE\CMAKE-3.5\MODULES\COMPILER\IAR-DETERMINECOMPILER.CMAKE
D:\PROGRAM FILES (X86)\CMAKE\SHARE\CMAKE-3.5\MODULES\COMPILER\IBMCPP-C-DETERMINEVERSIONINTERNAL.CMAKE
D:\PROGRAM FILES (X86)\CMAKE\SHARE\CMAKE-3.5\MODULES\COMPILER\IBMCPP-CXX-DETERMINEVERSIONINTERNAL.CMAKE
D:\PROGRAM FILES (X86)\CMAKE\SHARE\CMAKE-3.5\MODULES\COMPILER\INTEL-DETERMINECOMPILER.CMAKE
D:\PROGRAM FILES (X86)\CMAKE\SHARE\CMAKE-3.5\MODULES\COMPILER\MIPSPRO-DETERMINECOMPILER.CMAKE
D:\PROGRAM FILES (X86)\CMAKE\SHARE\CMAKE-3.5\MODULES\COMPILER\MSVC-CXX-FEATURETESTS.CMAKE
D:\PROGRAM FILES (X86)\CMAKE\SHARE\CMAKE-3.5\MODULES\COMPILER\MSVC-CXX.CMAKE
D:\PROGRAM FILES (X86)\CMAKE\SHARE\CMAKE-3.5\MODULES\COMPILER\MSVC-DETERMINECOMPILER.CMAKE
D:\PROGRAM FILES (X86)\CMAKE\SHARE\CMAKE-3.5\MODULES\COMPILER\OPENWATCOM-DETERMINECOMPILER.CMAKE
D:\PROGRAM FILES (X86)\CMAKE\SHARE\CMAKE-3.5\MODULES\COMPILER\PGI-DETERMINECOMPILER.CMAKE
D:\PROGRAM FILES (X86)\CMAKE\SHARE\CMAKE-3.5\MODULES\COMPILER\PATHSCALE-DETERMINECOMPILER.CMAKE
D:\PROGRAM FILES (X86)\CMAKE\SHARE\CMAKE-3.5\MODULES\COMPILER\SCO-DETERMINECOMPILER.CMAKE
D:\PROGRAM FILES (X86)\CMAKE\SHARE\CMAKE-3.5\MODULES\COMPILER\SDCC-C-DETERMINECOMPILER.CMAKE
D:\PROGRAM FILES (X86)\CMAKE\SHARE\CMAKE-3.5\MODULES\COMPILER\SUNPRO-C-DETERMINECOMPILER.CMAKE
D:\PROGRAM FILES (X86)\CMAKE\SHARE\CMAKE-3.5\MODULES\COMPILER\SUNPRO-CXX-DETERMINECOMPILER.CMAKE
D:\PROGRAM FILES (X86)\CMAKE\SHARE\CMAKE-3.5\MODULES\COMPILER\TI-DETERMINECOMPILER.CMAKE
D:\PROGRAM FILES (X86)\CMAKE\SHARE\CMAKE-3.5\MODULES\COMPILER\TINYCC-C-DETERMINECOMPILER.CMAKE
D:\PROGRAM FILES (X86)\CMAKE\SHARE\CMAKE-3.5\MODULES\COMPILER\VISUALAGE-C-DETERMINECOMPILER.CMAKE
D:\PROGRAM FILES (X86)\CMAKE\SHARE\CMAKE-3.5\MODULES\COMPILER\VISUALAGE-CXX-DETERMINECOMPILER.CMAKE
D:\PROGRAM FILES (X86)\CMAKE\SHARE\CMAKE-3.5\MODULES\COMPILER\WATCOM-DETERMINECOMPILER.CMAKE
D:\PROGRAM FILES (X86)\CMAKE\SHARE\CMAKE-3.5\MODULES\COMPILER\XL-C-DETERMINECOMPILER.CMAKE
D:\PROGRAM FILES (X86)\CMAKE\SHARE\CMAKE-3.5\MODULES\COMPILER\XL-CXX-DETERMINECOMPILER.CMAKE
D:\PROGRAM FILES (X86)\CMAKE\SHARE\CMAKE-3.5\MODULES\COMPILER\ZOS-C-DETERMINECOMPILER.CMAKE
D:\PROGRAM FILES (X86)\CMAKE\SHARE\CMAKE-3.5\MODULES\COMPILER\ZOS-CXX-DETERMINECOMPILER.CMAKE
D:\PROGRAM FILES (X86)\CMAKE\SHARE\CMAKE-3.5\MODULES\COMPILERID\VS-10.VCXPROJ.IN
D:\PROGRAM FILES (X86)\CMAKE\SHARE\CMAKE-3.5\MODULES\FINDBZIP2.CMAKE
D:\PROGRAM FILES (X86)\CMAKE\SHARE\CMAKE-3.5\MODULES\FINDPNG.CMAKE
D:\PROGRAM FILES (X86)\CMAKE\SHARE\CMAKE-3.5\MODULES\FINDPACKAGEHANDLESTANDARDARGS.CMAKE
D:\PROGRAM FILES (X86)\CMAKE\SHARE\CMAKE-3.5\MODULES\FINDPACKAGEMESSAGE.CMAKE
D:\PROGRAM FILES (X86)\CMAKE\SHARE\CMAKE-3.5\MODULES\FINDPKGCONFIG.CMAKE
D:\PROGRAM FILES (X86)\CMAKE\SHARE\CMAKE-3.5\MODULES\FINDZLIB.CMAKE
D:\PROGRAM FILES (X86)\CMAKE\SHARE\CMAKE-3.5\MODULES\INTERNAL\FEATURETESTING.CMAKE
D:\PROGRAM FILES (X86)\CMAKE\SHARE\CMAKE-3.5\MODULES\PLATFORM\WINDOWS-CXX.CMAKE
D:\PROGRAM FILES (X86)\CMAKE\SHARE\CMAKE-3.5\MODULES\PLATFORM\WINDOWS-MSVC-C.CMAKE
D:\PROGRAM FILES (X86)\CMAKE\SHARE\CMAKE-3.5\MODULES\PLATFORM\WINDOWS-MSVC-CXX.CMAKE
D:\PROGRAM FILES (X86)\CMAKE\SHARE\CMAKE-3.5\MODULES\PLATFORM\WINDOWS-MSVC.CMAKE
D:\PROGRAM FILES (X86)\CMAKE\SHARE\CMAKE-3.5\MODULES\PLATFORM\WINDOWS.CMAKE
D:\PROGRAM FILES (X86)\CMAKE\SHARE\CMAKE-3.5\MODULES\PLATFORM\WINDOWSPATHS.CMAKE
D:\PROGRAM FILES (X86)\CMAKE\SHARE\CMAKE-3.5\MODULES\SELECTLIBRARYCONFIGURATIONS.CMAKE
D:\PROGRAM FILES (X86)\CMAKE\SHARE\CMAKE-3.5\TEMPLATES\CPACKCONFIG.CMAKE.IN
E:\PROGRAMMING\FREETYPE\FREETYPE-2.6.3\CMAKELISTS.TXT
E:\PROGRAMMING\FREETYPE\FREETYPE-2.6.3\BUILDS\CMAKE\FINDHARFBUZZ.CMAKE
E:\PROGRAMMING\FREETYPE\X64\CMAKEFILES\FEATURE_TESTS.CXX
E:\PROGRAMMING\FREETYPE\X64\CMAKEFILES\3.5.1\CMAKECCOMPILER.CMAKE
E:\PROGRAMMING\FREETYPE\X64\CMAKEFILES\3.5.1\CMAKECXXCOMPILER.CMAKE
E:\PROGRAMMING\FREETYPE\X64\CMAKEFILES\3.5.1\CMAKERCCOMPILER.CMAKE
E:\PROGRAMMING\FREETYPE\X64\CMAKEFILES\3.5.1\CMAKESYSTEM.CMAKE
