^E:\PROGRAMMING\BULLET PHYSICS\BULLET3-2.83.7\EXTRAS\INVERSEDYNAMICS\BTMULTIBODYTREECREATOR.CPP|E:\PROGRAMMING\BULLET PHYSICS\BULLET3-2.83.7\EXTRAS\INVERSEDYNAMICS\COILCREATOR.CPP|E:\PROGRAMMING\BULLET PHYSICS\BULLET3-2.83.7\EXTRAS\INVERSEDYNAMICS\DILLCREATOR.CPP|E:\PROGRAMMING\BULLET PHYSICS\BULLET3-2.83.7\EXTRAS\INVERSEDYNAMICS\IDRANDOMUTIL.CPP|E:\PROGRAMMING\BULLET PHYSICS\BULLET3-2.83.7\EXTRAS\INVERSEDYNAMICS\INVDYN_BULLET_COMPARISON.CPP|E:\PROGRAMMING\BULLET PHYSICS\BULLET3-2.83.7\EXTRAS\INVERSEDYNAMICS\MULTIBODYNAMEMAP.CPP|E:\PROGRAMMING\BULLET PHYSICS\BULLET3-2.83.7\EXTRAS\INVERSEDYNAMICS\MULTIBODYTREECREATOR.CPP|E:\PROGRAMMING\BULLET PHYSICS\BULLET3-2.83.7\EXTRAS\INVERSEDYNAMICS\MULTIBODYTREEDEBUGGRAPH.CPP|E:\PROGRAMMING\BULLET PHYSICS\BULLET3-2.83.7\EXTRAS\INVERSEDYNAMICS\SIMPLETREECREATOR.CPP|E:\PROGRAMMING\BULLET PHYSICS\BULLET3-2.83.7\EXTRAS\INVERSEDYNAMICS\USER2INTERNALINDEX.CPP
E:\PROGRAMMING\BULLET PHYSICS\BUILDS\EXTRAS\INVERSEDYNAMICS\BULLETINVERSEDYNAMICSUTILS.DIR\RELEASE\USER2INTERNALINDEX.OBJ
E:\PROGRAMMING\BULLET PHYSICS\BUILDS\EXTRAS\INVERSEDYNAMICS\BULLETINVERSEDYNAMICSUTILS.DIR\RELEASE\MULTIBODYNAMEMAP.OBJ
E:\PROGRAMMING\BULLET PHYSICS\BUILDS\EXTRAS\INVERSEDYNAMICS\BULLETINVERSEDYNAMICSUTILS.DIR\RELEASE\SIMPLETREECREATOR.OBJ
E:\PROGRAMMING\BULLET PHYSICS\BUILDS\EXTRAS\INVERSEDYNAMICS\BULLETINVERSEDYNAMICSUTILS.DIR\RELEASE\IDRANDOMUTIL.OBJ
E:\PROGRAMMING\BULLET PHYSICS\BUILDS\EXTRAS\INVERSEDYNAMICS\BULLETINVERSEDYNAMICSUTILS.DIR\RELEASE\INVDYN_BULLET_COMPARISON.OBJ
E:\PROGRAMMING\BULLET PHYSICS\BUILDS\EXTRAS\INVERSEDYNAMICS\BULLETINVERSEDYNAMICSUTILS.DIR\RELEASE\MULTIBODYTREEDEBUGGRAPH.OBJ
E:\PROGRAMMING\BULLET PHYSICS\BUILDS\EXTRAS\INVERSEDYNAMICS\BULLETINVERSEDYNAMICSUTILS.DIR\RELEASE\DILLCREATOR.OBJ
E:\PROGRAMMING\BULLET PHYSICS\BUILDS\EXTRAS\INVERSEDYNAMICS\BULLETINVERSEDYNAMICSUTILS.DIR\RELEASE\BTMULTIBODYTREECREATOR.OBJ
E:\PROGRAMMING\BULLET PHYSICS\BUILDS\EXTRAS\INVERSEDYNAMICS\BULLETINVERSEDYNAMICSUTILS.DIR\RELEASE\MULTIBODYTREECREATOR.OBJ
E:\PROGRAMMING\BULLET PHYSICS\BUILDS\EXTRAS\INVERSEDYNAMICS\BULLETINVERSEDYNAMICSUTILS.DIR\RELEASE\COILCREATOR.OBJ
