^E:\PROGRAMMING\BULLET PHYSICS\BUILDS\CMAKEFILES\CCFAC18A831B06991D2FD544080E2DB5\GENERATE.STAMP.RULE
D:\PROGRAM FILES (X86)\CMAKE\SHARE\CMAKE-3.5\MODULES\CMAKECCOMPILER.CMAKE.IN
D:\PROGRAM FILES (X86)\CMAKE\SHARE\CMAKE-3.5\MODULES\CMAKECCOMPILERABI.C
D:\PROGRAM FILES (X86)\CMAKE\SHARE\CMAKE-3.5\MODULES\CMAKECINFORMATION.CMAKE
D:\PROGRAM FILES (X86)\CMAKE\SHARE\CMAKE-3.5\MODULES\CMAKECXXCOMPILER.CMAKE.IN
D:\PROGRAM FILES (X86)\CMAKE\SHARE\CMAKE-3.5\MODULES\CMAKECXXCOMPILERABI.CPP
D:\PROGRAM FILES (X86)\CMAKE\SHARE\CMAKE-3.5\MODULES\CMAKECXXINFORMATION.CMAKE
D:\PROGRAM FILES (X86)\CMAKE\SHARE\CMAKE-3.5\MODULES\CMAKECOMMONLANGUAGEINCLUDE.CMAKE
D:\PROGRAM FILES (X86)\CMAKE\SHARE\CMAKE-3.5\MODULES\CMAKECOMPILERIDDETECTION.CMAKE
D:\PROGRAM FILES (X86)\CMAKE\SHARE\CMAKE-3.5\MODULES\CMAKEDETERMINECCOMPILER.CMAKE
D:\PROGRAM FILES (X86)\CMAKE\SHARE\CMAKE-3.5\MODULES\CMAKEDETERMINECXXCOMPILER.CMAKE
D:\PROGRAM FILES (X86)\CMAKE\SHARE\CMAKE-3.5\MODULES\CMAKEDETERMINECOMPILEFEATURES.CMAKE
D:\PROGRAM FILES (X86)\CMAKE\SHARE\CMAKE-3.5\MODULES\CMAKEDETERMINECOMPILER.CMAKE
D:\PROGRAM FILES (X86)\CMAKE\SHARE\CMAKE-3.5\MODULES\CMAKEDETERMINECOMPILERABI.CMAKE
D:\PROGRAM FILES (X86)\CMAKE\SHARE\CMAKE-3.5\MODULES\CMAKEDETERMINECOMPILERID.CMAKE
D:\PROGRAM FILES (X86)\CMAKE\SHARE\CMAKE-3.5\MODULES\CMAKEDETERMINERCCOMPILER.CMAKE
D:\PROGRAM FILES (X86)\CMAKE\SHARE\CMAKE-3.5\MODULES\CMAKEDETERMINESYSTEM.CMAKE
D:\PROGRAM FILES (X86)\CMAKE\SHARE\CMAKE-3.5\MODULES\CMAKEFINDBINUTILS.CMAKE
D:\PROGRAM FILES (X86)\CMAKE\SHARE\CMAKE-3.5\MODULES\CMAKEGENERICSYSTEM.CMAKE
D:\PROGRAM FILES (X86)\CMAKE\SHARE\CMAKE-3.5\MODULES\CMAKELANGUAGEINFORMATION.CMAKE
D:\PROGRAM FILES (X86)\CMAKE\SHARE\CMAKE-3.5\MODULES\CMAKEPARSEARGUMENTS.CMAKE
D:\PROGRAM FILES (X86)\CMAKE\SHARE\CMAKE-3.5\MODULES\CMAKEPARSEIMPLICITLINKINFO.CMAKE
D:\PROGRAM FILES (X86)\CMAKE\SHARE\CMAKE-3.5\MODULES\CMAKERCCOMPILER.CMAKE.IN
D:\PROGRAM FILES (X86)\CMAKE\SHARE\CMAKE-3.5\MODULES\CMAKERCINFORMATION.CMAKE
D:\PROGRAM FILES (X86)\CMAKE\SHARE\CMAKE-3.5\MODULES\CMAKESYSTEM.CMAKE.IN
D:\PROGRAM FILES (X86)\CMAKE\SHARE\CMAKE-3.5\MODULES\CMAKESYSTEMSPECIFICINFORMATION.CMAKE
D:\PROGRAM FILES (X86)\CMAKE\SHARE\CMAKE-3.5\MODULES\CMAKESYSTEMSPECIFICINITIALIZE.CMAKE
D:\PROGRAM FILES (X86)\CMAKE\SHARE\CMAKE-3.5\MODULES\CMAKETESTCCOMPILER.CMAKE
D:\PROGRAM FILES (X86)\CMAKE\SHARE\CMAKE-3.5\MODULES\CMAKETESTCXXCOMPILER.CMAKE
D:\PROGRAM FILES (X86)\CMAKE\SHARE\CMAKE-3.5\MODULES\CMAKETESTCOMPILERCOMMON.CMAKE
D:\PROGRAM FILES (X86)\CMAKE\SHARE\CMAKE-3.5\MODULES\CMAKETESTRCCOMPILER.CMAKE
D:\PROGRAM FILES (X86)\CMAKE\SHARE\CMAKE-3.5\MODULES\COMPILER\ADSP-DETERMINECOMPILER.CMAKE
D:\PROGRAM FILES (X86)\CMAKE\SHARE\CMAKE-3.5\MODULES\COMPILER\ARMCC-DETERMINECOMPILER.CMAKE
D:\PROGRAM FILES (X86)\CMAKE\SHARE\CMAKE-3.5\MODULES\COMPILER\APPLECLANG-DETERMINECOMPILER.CMAKE
D:\PROGRAM FILES (X86)\CMAKE\SHARE\CMAKE-3.5\MODULES\COMPILER\BORLAND-DETERMINECOMPILER.CMAKE
D:\PROGRAM FILES (X86)\CMAKE\SHARE\CMAKE-3.5\MODULES\COMPILER\CLANG-DETERMINECOMPILER.CMAKE
D:\PROGRAM FILES (X86)\CMAKE\SHARE\CMAKE-3.5\MODULES\COMPILER\CLANG-DETERMINECOMPILERINTERNAL.CMAKE
D:\PROGRAM FILES (X86)\CMAKE\SHARE\CMAKE-3.5\MODULES\COMPILER\COMEAU-CXX-DETERMINECOMPILER.CMAKE
D:\PROGRAM FILES (X86)\CMAKE\SHARE\CMAKE-3.5\MODULES\COMPILER\COMPAQ-C-DETERMINECOMPILER.CMAKE
D:\PROGRAM FILES (X86)\CMAKE\SHARE\CMAKE-3.5\MODULES\COMPILER\COMPAQ-CXX-DETERMINECOMPILER.CMAKE
D:\PROGRAM FILES (X86)\CMAKE\SHARE\CMAKE-3.5\MODULES\COMPILER\CRAY-DETERMINECOMPILER.CMAKE
D:\PROGRAM FILES (X86)\CMAKE\SHARE\CMAKE-3.5\MODULES\COMPILER\EMBARCADERO-DETERMINECOMPILER.CMAKE
D:\PROGRAM FILES (X86)\CMAKE\SHARE\CMAKE-3.5\MODULES\COMPILER\FUJITSU-DETERMINECOMPILER.CMAKE
D:\PROGRAM FILES (X86)\CMAKE\SHARE\CMAKE-3.5\MODULES\COMPILER\GHS-DETERMINECOMPILER.CMAKE
D:\PROGRAM FILES (X86)\CMAKE\SHARE\CMAKE-3.5\MODULES\COMPILER\GNU-DETERMINECOMPILER.CMAKE
D:\PROGRAM FILES (X86)\CMAKE\SHARE\CMAKE-3.5\MODULES\COMPILER\HP-C-DETERMINECOMPILER.CMAKE
D:\PROGRAM FILES (X86)\CMAKE\SHARE\CMAKE-3.5\MODULES\COMPILER\HP-CXX-DETERMINECOMPILER.CMAKE
D:\PROGRAM FILES (X86)\CMAKE\SHARE\CMAKE-3.5\MODULES\COMPILER\IAR-DETERMINECOMPILER.CMAKE
D:\PROGRAM FILES (X86)\CMAKE\SHARE\CMAKE-3.5\MODULES\COMPILER\IBMCPP-C-DETERMINEVERSIONINTERNAL.CMAKE
D:\PROGRAM FILES (X86)\CMAKE\SHARE\CMAKE-3.5\MODULES\COMPILER\IBMCPP-CXX-DETERMINEVERSIONINTERNAL.CMAKE
D:\PROGRAM FILES (X86)\CMAKE\SHARE\CMAKE-3.5\MODULES\COMPILER\INTEL-DETERMINECOMPILER.CMAKE
D:\PROGRAM FILES (X86)\CMAKE\SHARE\CMAKE-3.5\MODULES\COMPILER\MIPSPRO-DETERMINECOMPILER.CMAKE
D:\PROGRAM FILES (X86)\CMAKE\SHARE\CMAKE-3.5\MODULES\COMPILER\MSVC-CXX-FEATURETESTS.CMAKE
D:\PROGRAM FILES (X86)\CMAKE\SHARE\CMAKE-3.5\MODULES\COMPILER\MSVC-CXX.CMAKE
D:\PROGRAM FILES (X86)\CMAKE\SHARE\CMAKE-3.5\MODULES\COMPILER\MSVC-DETERMINECOMPILER.CMAKE
D:\PROGRAM FILES (X86)\CMAKE\SHARE\CMAKE-3.5\MODULES\COMPILER\OPENWATCOM-DETERMINECOMPILER.CMAKE
D:\PROGRAM FILES (X86)\CMAKE\SHARE\CMAKE-3.5\MODULES\COMPILER\PGI-DETERMINECOMPILER.CMAKE
D:\PROGRAM FILES (X86)\CMAKE\SHARE\CMAKE-3.5\MODULES\COMPILER\PATHSCALE-DETERMINECOMPILER.CMAKE
D:\PROGRAM FILES (X86)\CMAKE\SHARE\CMAKE-3.5\MODULES\COMPILER\SCO-DETERMINECOMPILER.CMAKE
D:\PROGRAM FILES (X86)\CMAKE\SHARE\CMAKE-3.5\MODULES\COMPILER\SDCC-C-DETERMINECOMPILER.CMAKE
D:\PROGRAM FILES (X86)\CMAKE\SHARE\CMAKE-3.5\MODULES\COMPILER\SUNPRO-C-DETERMINECOMPILER.CMAKE
D:\PROGRAM FILES (X86)\CMAKE\SHARE\CMAKE-3.5\MODULES\COMPILER\SUNPRO-CXX-DETERMINECOMPILER.CMAKE
D:\PROGRAM FILES (X86)\CMAKE\SHARE\CMAKE-3.5\MODULES\COMPILER\TI-DETERMINECOMPILER.CMAKE
D:\PROGRAM FILES (X86)\CMAKE\SHARE\CMAKE-3.5\MODULES\COMPILER\TINYCC-C-DETERMINECOMPILER.CMAKE
D:\PROGRAM FILES (X86)\CMAKE\SHARE\CMAKE-3.5\MODULES\COMPILER\VISUALAGE-C-DETERMINECOMPILER.CMAKE
D:\PROGRAM FILES (X86)\CMAKE\SHARE\CMAKE-3.5\MODULES\COMPILER\VISUALAGE-CXX-DETERMINECOMPILER.CMAKE
D:\PROGRAM FILES (X86)\CMAKE\SHARE\CMAKE-3.5\MODULES\COMPILER\WATCOM-DETERMINECOMPILER.CMAKE
D:\PROGRAM FILES (X86)\CMAKE\SHARE\CMAKE-3.5\MODULES\COMPILER\XL-C-DETERMINECOMPILER.CMAKE
D:\PROGRAM FILES (X86)\CMAKE\SHARE\CMAKE-3.5\MODULES\COMPILER\XL-CXX-DETERMINECOMPILER.CMAKE
D:\PROGRAM FILES (X86)\CMAKE\SHARE\CMAKE-3.5\MODULES\COMPILER\ZOS-C-DETERMINECOMPILER.CMAKE
D:\PROGRAM FILES (X86)\CMAKE\SHARE\CMAKE-3.5\MODULES\COMPILER\ZOS-CXX-DETERMINECOMPILER.CMAKE
D:\PROGRAM FILES (X86)\CMAKE\SHARE\CMAKE-3.5\MODULES\COMPILERID\VS-10.VCXPROJ.IN
D:\PROGRAM FILES (X86)\CMAKE\SHARE\CMAKE-3.5\MODULES\FINDOPENGL.CMAKE
D:\PROGRAM FILES (X86)\CMAKE\SHARE\CMAKE-3.5\MODULES\FINDPACKAGEHANDLESTANDARDARGS.CMAKE
D:\PROGRAM FILES (X86)\CMAKE\SHARE\CMAKE-3.5\MODULES\FINDPACKAGEMESSAGE.CMAKE
D:\PROGRAM FILES (X86)\CMAKE\SHARE\CMAKE-3.5\MODULES\INTERNAL\FEATURETESTING.CMAKE
D:\PROGRAM FILES (X86)\CMAKE\SHARE\CMAKE-3.5\MODULES\PLATFORM\WINDOWS-CXX.CMAKE
D:\PROGRAM FILES (X86)\CMAKE\SHARE\CMAKE-3.5\MODULES\PLATFORM\WINDOWS-MSVC-C.CMAKE
D:\PROGRAM FILES (X86)\CMAKE\SHARE\CMAKE-3.5\MODULES\PLATFORM\WINDOWS-MSVC-CXX.CMAKE
D:\PROGRAM FILES (X86)\CMAKE\SHARE\CMAKE-3.5\MODULES\PLATFORM\WINDOWS-MSVC.CMAKE
D:\PROGRAM FILES (X86)\CMAKE\SHARE\CMAKE-3.5\MODULES\PLATFORM\WINDOWS.CMAKE
D:\PROGRAM FILES (X86)\CMAKE\SHARE\CMAKE-3.5\MODULES\PLATFORM\WINDOWSPATHS.CMAKE
E:\PROGRAMMING\BULLET PHYSICS\BUILDS\CMAKEFILES\3.5.1\CMAKECCOMPILER.CMAKE
E:\PROGRAMMING\BULLET PHYSICS\BUILDS\CMAKEFILES\3.5.1\CMAKECXXCOMPILER.CMAKE
E:\PROGRAMMING\BULLET PHYSICS\BUILDS\CMAKEFILES\3.5.1\CMAKERCCOMPILER.CMAKE
E:\PROGRAMMING\BULLET PHYSICS\BUILDS\CMAKEFILES\3.5.1\CMAKESYSTEM.CMAKE
E:\PROGRAMMING\BULLET PHYSICS\BUILDS\CMAKEFILES\FEATURE_TESTS.CXX
E:\PROGRAMMING\BULLET PHYSICS\BULLET3-2.83.7\BULLETCONFIG.CMAKE.IN
E:\PROGRAMMING\BULLET PHYSICS\BULLET3-2.83.7\CMAKELISTS.TXT
E:\PROGRAMMING\BULLET PHYSICS\BULLET3-2.83.7\EXTRAS\CMAKELISTS.TXT
E:\PROGRAMMING\BULLET PHYSICS\BULLET3-2.83.7\EXTRAS\CONVEXDECOMPOSITION\CMAKELISTS.TXT
E:\PROGRAMMING\BULLET PHYSICS\BULLET3-2.83.7\EXTRAS\GIMPACTUTILS\CMAKELISTS.TXT
E:\PROGRAMMING\BULLET PHYSICS\BULLET3-2.83.7\EXTRAS\HACD\CMAKELISTS.TXT
E:\PROGRAMMING\BULLET PHYSICS\BULLET3-2.83.7\EXTRAS\INVERSEDYNAMICS\CMAKELISTS.TXT
E:\PROGRAMMING\BULLET PHYSICS\BULLET3-2.83.7\EXTRAS\SERIALIZE\BULLETFILELOADER\CMAKELISTS.TXT
E:\PROGRAMMING\BULLET PHYSICS\BULLET3-2.83.7\EXTRAS\SERIALIZE\BULLETWORLDIMPORTER\CMAKELISTS.TXT
E:\PROGRAMMING\BULLET PHYSICS\BULLET3-2.83.7\EXTRAS\SERIALIZE\BULLETXMLWORLDIMPORTER\CMAKELISTS.TXT
E:\PROGRAMMING\BULLET PHYSICS\BULLET3-2.83.7\EXTRAS\SERIALIZE\CMAKELISTS.TXT
E:\PROGRAMMING\BULLET PHYSICS\BULLET3-2.83.7\EXAMPLES\BASICDEMO\CMAKELISTS.TXT
E:\PROGRAMMING\BULLET PHYSICS\BULLET3-2.83.7\EXAMPLES\CMAKELISTS.TXT
E:\PROGRAMMING\BULLET PHYSICS\BULLET3-2.83.7\EXAMPLES\EXAMPLEBROWSER\CMAKELISTS.TXT
E:\PROGRAMMING\BULLET PHYSICS\BULLET3-2.83.7\EXAMPLES\HELLOWORLD\CMAKELISTS.TXT
E:\PROGRAMMING\BULLET PHYSICS\BULLET3-2.83.7\EXAMPLES\OPENGLWINDOW\CMAKELISTS.TXT
E:\PROGRAMMING\BULLET PHYSICS\BULLET3-2.83.7\EXAMPLES\THIRDPARTYLIBS\GWEN\CMAKELISTS.TXT
E:\PROGRAMMING\BULLET PHYSICS\BULLET3-2.83.7\SRC\BULLET3COLLISION\CMAKELISTS.TXT
E:\PROGRAMMING\BULLET PHYSICS\BULLET3-2.83.7\SRC\BULLET3COMMON\CMAKELISTS.TXT
E:\PROGRAMMING\BULLET PHYSICS\BULLET3-2.83.7\SRC\BULLET3DYNAMICS\CMAKELISTS.TXT
E:\PROGRAMMING\BULLET PHYSICS\BULLET3-2.83.7\SRC\BULLET3GEOMETRY\CMAKELISTS.TXT
E:\PROGRAMMING\BULLET PHYSICS\BULLET3-2.83.7\SRC\BULLET3OPENCL\CMAKELISTS.TXT
E:\PROGRAMMING\BULLET PHYSICS\BULLET3-2.83.7\SRC\BULLET3SERIALIZE\BULLET2FILELOADER\CMAKELISTS.TXT
E:\PROGRAMMING\BULLET PHYSICS\BULLET3-2.83.7\SRC\BULLETCOLLISION\CMAKELISTS.TXT
E:\PROGRAMMING\BULLET PHYSICS\BULLET3-2.83.7\SRC\BULLETDYNAMICS\CMAKELISTS.TXT
E:\PROGRAMMING\BULLET PHYSICS\BULLET3-2.83.7\SRC\BULLETINVERSEDYNAMICS\CMAKELISTS.TXT
E:\PROGRAMMING\BULLET PHYSICS\BULLET3-2.83.7\SRC\BULLETSOFTBODY\CMAKELISTS.TXT
E:\PROGRAMMING\BULLET PHYSICS\BULLET3-2.83.7\SRC\CMAKELISTS.TXT
E:\PROGRAMMING\BULLET PHYSICS\BULLET3-2.83.7\SRC\LINEARMATH\CMAKELISTS.TXT
E:\PROGRAMMING\BULLET PHYSICS\BULLET3-2.83.7\TEST\BULLETDYNAMICS\PENDULUM\CMAKELISTS.TXT
E:\PROGRAMMING\BULLET PHYSICS\BULLET3-2.83.7\TEST\CMAKELISTS.TXT
E:\PROGRAMMING\BULLET PHYSICS\BULLET3-2.83.7\TEST\INVERSEDYNAMICS\CMAKELISTS.TXT
E:\PROGRAMMING\BULLET PHYSICS\BULLET3-2.83.7\TEST\COLLISION\CMAKELISTS.TXT
E:\PROGRAMMING\BULLET PHYSICS\BULLET3-2.83.7\TEST\GTEST-1.7.0\CMAKELISTS.TXT
