^E:\PROGRAMMING\BULLET PHYSICS\BULLET3-2.83.7\EXAMPLES\BASICDEMO\BASICEXAMPLE.CPP
/c /I"E:\PROGRAMMING\BULLET PHYSICS\BULLET3-2.83.7\SRC" /Zi /nologo /W3 /WX- /Od /Ob0 /D WIN32 /D _DEBUG /D _DEBUG /D _WIN64 /D USE_GRAPHICAL_BENCHMARK /D _CRT_SECURE_NO_WARNINGS /D _CRT_SECURE_NO_DEPRECATE /D _SCL_SECURE_NO_WARNINGS /D "CMAKE_INTDIR=\"Debug\"" /D _MBCS /Gm- /EHsc /RTC1 /MTd /GS /fp:fast /Zc:wchar_t /Zc:forScope /Zc:inline /GR /Fo"APP_BASICEXAMPLE.DIR\DEBUG\\" /Fd"APP_BASICEXAMPLE.DIR\DEBUG\VC140.PDB" /Gd /TP E:\PROGRAMMING\BULLET PHYSICS\BULLET3-2.83.7\EXAMPLES\BASICDEMO\BASICEXAMPLE.CPP
^E:\PROGRAMMING\BULLET PHYSICS\BULLET3-2.83.7\EXAMPLES\BASICDEMO\MAIN.CPP
/c /I"E:\PROGRAMMING\BULLET PHYSICS\BULLET3-2.83.7\SRC" /Zi /nologo /W3 /WX- /Od /Ob0 /D WIN32 /D _DEBUG /D _DEBUG /D _WIN64 /D USE_GRAPHICAL_BENCHMARK /D _CRT_SECURE_NO_WARNINGS /D _CRT_SECURE_NO_DEPRECATE /D _SCL_SECURE_NO_WARNINGS /D "CMAKE_INTDIR=\"Debug\"" /D _MBCS /Gm- /EHsc /RTC1 /MTd /GS /fp:fast /Zc:wchar_t /Zc:forScope /Zc:inline /GR /Fo"APP_BASICEXAMPLE.DIR\DEBUG\\" /Fd"APP_BASICEXAMPLE.DIR\DEBUG\VC140.PDB" /Gd /TP E:\PROGRAMMING\BULLET PHYSICS\BULLET3-2.83.7\EXAMPLES\BASICDEMO\MAIN.CPP
