^E:\PROGRAMMING\BULLET PHYSICS\BULLET3-2.83.7\EXAMPLES\BASICDEMO\BASICEXAMPLE.CPP|E:\PROGRAMMING\BULLET PHYSICS\BULLET3-2.83.7\EXAMPLES\BASICDEMO\MAIN.CPP
E:\PROGRAMMING\BULLET PHYSICS\BUILDS\EXAMPLES\BASICDEMO\APP_BASICEXAMPLE.DIR\DEBUG\VC140.PDB
E:\PROGRAMMING\BULLET PHYSICS\BUILDS\EXAMPLES\BASICDEMO\APP_BASICEXAMPLE.DIR\DEBUG\MAIN.OBJ
E:\PROGRAMMING\BULLET PHYSICS\BUILDS\EXAMPLES\BASICDEMO\APP_BASICEXAMPLE.DIR\DEBUG\BASICEXAMPLE.OBJ
^E:\PROGRAMMING\BULLET PHYSICS\BULLET3-2.83.7\EXAMPLES\BASICDEMO\BASICEXAMPLE.CPP
E:\PROGRAMMING\BULLET PHYSICS\BUILDS\EXAMPLES\BASICDEMO\APP_BASICEXAMPLE.DIR\DEBUG\VC140.PDB
^E:\PROGRAMMING\BULLET PHYSICS\BULLET3-2.83.7\EXAMPLES\BASICDEMO\MAIN.CPP
E:\PROGRAMMING\BULLET PHYSICS\BUILDS\EXAMPLES\BASICDEMO\APP_BASICEXAMPLE.DIR\DEBUG\VC140.PDB
