^E:\PROGRAMMING\BULLET PHYSICS\BULLET3-2.83.7\EXTRAS\SERIALIZE\BULLETWORLDIMPORTER\BTBULLETWORLDIMPORTER.CPP|E:\PROGRAMMING\BULLET PHYSICS\BULLET3-2.83.7\EXTRAS\SERIALIZE\BULLETWORLDIMPORTER\BTWORLDIMPORTER.CPP
E:\PROGRAMMING\BULLET PHYSICS\BUILDS\EXTRAS\SERIALIZE\BULLETWORLDIMPORTER\BULLETWORLDIMPORTER.DIR\RELEASE\BTWORLDIMPORTER.OBJ
E:\PROGRAMMING\BULLET PHYSICS\BUILDS\EXTRAS\SERIALIZE\BULLETWORLDIMPORTER\BULLETWORLDIMPORTER.DIR\RELEASE\BTBULLETWORLDIMPORTER.OBJ
