^E:\PROGRAMMING\BULLET PHYSICS\BULLET3-2.83.7\SRC\BULLETSOFTBODY\BTDEFAULTSOFTBODYSOLVER.CPP|E:\PROGRAMMING\BULLET PHYSICS\BULLET3-2.83.7\SRC\BULLETSOFTBODY\BTSOFTBODY.CPP|E:\PROGRAMMING\BULLET PHYSICS\BULLET3-2.83.7\SRC\BULLETSOFTBODY\BTSOFTBODYCONCAVECOLLISIONALGORITHM.CPP|E:\PROGRAMMING\BULLET PHYSICS\BULLET3-2.83.7\SRC\BULLETSOFTBODY\BTSOFTBODYHELPERS.CPP|E:\PROGRAMMING\BULLET PHYSICS\BULLET3-2.83.7\SRC\BULLETSOFTBODY\BTSOFTBODYRIGIDBODYCOLLISIONCONFIGURATION.CPP|E:\PROGRAMMING\BULLET PHYSICS\BULLET3-2.83.7\SRC\BULLETSOFTBODY\BTSOFTRIGIDCOLLISIONALGORITHM.CPP|E:\PROGRAMMING\BULLET PHYSICS\BULLET3-2.83.7\SRC\BULLETSOFTBODY\BTSOFTRIGIDDYNAMICSWORLD.CPP|E:\PROGRAMMING\BULLET PHYSICS\BULLET3-2.83.7\SRC\BULLETSOFTBODY\BTSOFTSOFTCOLLISIONALGORITHM.CPP
E:\PROGRAMMING\BULLET PHYSICS\BUILDS\SRC\BULLETSOFTBODY\BULLETSOFTBODY.DIR\DEBUG\BULLETSOFTBODY.PDB
E:\PROGRAMMING\BULLET PHYSICS\BUILDS\SRC\BULLETSOFTBODY\BULLETSOFTBODY.DIR\DEBUG\BTDEFAULTSOFTBODYSOLVER.OBJ
E:\PROGRAMMING\BULLET PHYSICS\BUILDS\SRC\BULLETSOFTBODY\BULLETSOFTBODY.DIR\DEBUG\BTSOFTSOFTCOLLISIONALGORITHM.OBJ
E:\PROGRAMMING\BULLET PHYSICS\BUILDS\SRC\BULLETSOFTBODY\BULLETSOFTBODY.DIR\DEBUG\BTSOFTRIGIDDYNAMICSWORLD.OBJ
E:\PROGRAMMING\BULLET PHYSICS\BUILDS\SRC\BULLETSOFTBODY\BULLETSOFTBODY.DIR\DEBUG\BTSOFTRIGIDCOLLISIONALGORITHM.OBJ
E:\PROGRAMMING\BULLET PHYSICS\BUILDS\SRC\BULLETSOFTBODY\BULLETSOFTBODY.DIR\DEBUG\BTSOFTBODYRIGIDBODYCOLLISIONCONFIGURATION.OBJ
E:\PROGRAMMING\BULLET PHYSICS\BUILDS\SRC\BULLETSOFTBODY\BULLETSOFTBODY.DIR\DEBUG\BTSOFTBODYHELPERS.OBJ
E:\PROGRAMMING\BULLET PHYSICS\BUILDS\SRC\BULLETSOFTBODY\BULLETSOFTBODY.DIR\DEBUG\BTSOFTBODYCONCAVECOLLISIONALGORITHM.OBJ
E:\PROGRAMMING\BULLET PHYSICS\BUILDS\SRC\BULLETSOFTBODY\BULLETSOFTBODY.DIR\DEBUG\BTSOFTBODY.OBJ
^E:\PROGRAMMING\BULLET PHYSICS\BULLET3-2.83.7\SRC\BULLETSOFTBODY\BTSOFTBODY.CPP
E:\PROGRAMMING\BULLET PHYSICS\BUILDS\SRC\BULLETSOFTBODY\BULLETSOFTBODY.DIR\DEBUG\BULLETSOFTBODY.PDB
^E:\PROGRAMMING\BULLET PHYSICS\BULLET3-2.83.7\SRC\BULLETSOFTBODY\BTSOFTBODYCONCAVECOLLISIONALGORITHM.CPP
E:\PROGRAMMING\BULLET PHYSICS\BUILDS\SRC\BULLETSOFTBODY\BULLETSOFTBODY.DIR\DEBUG\BULLETSOFTBODY.PDB
^E:\PROGRAMMING\BULLET PHYSICS\BULLET3-2.83.7\SRC\BULLETSOFTBODY\BTSOFTBODYHELPERS.CPP
E:\PROGRAMMING\BULLET PHYSICS\BUILDS\SRC\BULLETSOFTBODY\BULLETSOFTBODY.DIR\DEBUG\BULLETSOFTBODY.PDB
^E:\PROGRAMMING\BULLET PHYSICS\BULLET3-2.83.7\SRC\BULLETSOFTBODY\BTSOFTBODYRIGIDBODYCOLLISIONCONFIGURATION.CPP
E:\PROGRAMMING\BULLET PHYSICS\BUILDS\SRC\BULLETSOFTBODY\BULLETSOFTBODY.DIR\DEBUG\BULLETSOFTBODY.PDB
^E:\PROGRAMMING\BULLET PHYSICS\BULLET3-2.83.7\SRC\BULLETSOFTBODY\BTSOFTRIGIDCOLLISIONALGORITHM.CPP
E:\PROGRAMMING\BULLET PHYSICS\BUILDS\SRC\BULLETSOFTBODY\BULLETSOFTBODY.DIR\DEBUG\BULLETSOFTBODY.PDB
^E:\PROGRAMMING\BULLET PHYSICS\BULLET3-2.83.7\SRC\BULLETSOFTBODY\BTSOFTRIGIDDYNAMICSWORLD.CPP
E:\PROGRAMMING\BULLET PHYSICS\BUILDS\SRC\BULLETSOFTBODY\BULLETSOFTBODY.DIR\DEBUG\BULLETSOFTBODY.PDB
^E:\PROGRAMMING\BULLET PHYSICS\BULLET3-2.83.7\SRC\BULLETSOFTBODY\BTSOFTSOFTCOLLISIONALGORITHM.CPP
E:\PROGRAMMING\BULLET PHYSICS\BUILDS\SRC\BULLETSOFTBODY\BULLETSOFTBODY.DIR\DEBUG\BULLETSOFTBODY.PDB
^E:\PROGRAMMING\BULLET PHYSICS\BULLET3-2.83.7\SRC\BULLETSOFTBODY\BTDEFAULTSOFTBODYSOLVER.CPP
E:\PROGRAMMING\BULLET PHYSICS\BUILDS\SRC\BULLETSOFTBODY\BULLETSOFTBODY.DIR\DEBUG\BULLETSOFTBODY.PDB
