^E:\PROGRAMMING\BULLET PHYSICS\BULLET3-2.83.7\SRC\BULLET3COMMON\B3ALIGNEDALLOCATOR.CPP|E:\PROGRAMMING\BULLET PHYSICS\BULLET3-2.83.7\SRC\BULLET3COMMON\B3LOGGING.CPP|E:\PROGRAMMING\BULLET PHYSICS\BULLET3-2.83.7\SRC\BULLET3COMMON\B3VECTOR3.CPP
E:\PROGRAMMING\BULLET PHYSICS\BUILDS\SRC\BULLET3COMMON\BULLET3COMMON.DIR\RELEASE\B3LOGGING.OBJ
E:\PROGRAMMING\BULLET PHYSICS\BUILDS\SRC\BULLET3COMMON\BULLET3COMMON.DIR\RELEASE\B3VECTOR3.OBJ
E:\PROGRAMMING\BULLET PHYSICS\BUILDS\SRC\BULLET3COMMON\BULLET3COMMON.DIR\RELEASE\B3ALIGNEDALLOCATOR.OBJ
