^E:\PROGRAMMING\BULLET PHYSICS\BUILDS\SRC\BULLET3COMMON\BULLET3COMMON.DIR\RELEASE\B3ALIGNEDALLOCATOR.OBJ|E:\PROGRAMMING\BULLET PHYSICS\BUILDS\SRC\BULLET3COMMON\BULLET3COMMON.DIR\RELEASE\B3LOGGING.OBJ|E:\PROGRAMMING\BULLET PHYSICS\BUILDS\SRC\BULLET3COMMON\BULLET3COMMON.DIR\RELEASE\B3VECTOR3.OBJ
C:\WINDOWS\GLOBALIZATION\SORTING\SORTDEFAULT.NLS
E:\PROGRAMMING\BULLET PHYSICS\BUILDS\SRC\BULLET3COMMON\BULLET3COMMON.DIR\RELEASE\B3ALIGNEDALLOCATOR.OBJ
C:\WINDOWS\SYSTEM32\TZRES.DLL
E:\PROGRAMMING\BULLET PHYSICS\BUILDS\SRC\BULLET3COMMON\BULLET3COMMON.DIR\RELEASE\B3VECTOR3.OBJ
E:\PROGRAMMING\BULLET PHYSICS\BUILDS\SRC\BULLET3COMMON\BULLET3COMMON.DIR\RELEASE\B3LOGGING.OBJ
