^E:\PROGRAMMING\BULLET PHYSICS\BUILDS\EXTRAS\INVERSEDYNAMICS\BULLETINVERSEDYNAMICSUTILS.DIR\DEBUG\BTMULTIBODYTREECREATOR.OBJ|E:\PROGRAMMING\BULLET PHYSICS\BUILDS\EXTRAS\INVERSEDYNAMICS\BULLETINVERSEDYNAMICSUTILS.DIR\DEBUG\COILCREATOR.OBJ|E:\PROGRAMMING\BULLET PHYSICS\BUILDS\EXTRAS\INVERSEDYNAMICS\BULLETINVERSEDYNAMICSUTILS.DIR\DEBUG\DILLCREATOR.OBJ|E:\PROGRAMMING\BULLET PHYSICS\BUILDS\EXTRAS\INVERSEDYNAMICS\BULLETINVERSEDYNAMICSUTILS.DIR\DEBUG\IDRANDOMUTIL.OBJ|E:\PROGRAMMING\BULLET PHYSICS\BUILDS\EXTRAS\INVERSEDYNAMICS\BULLETINVERSEDYNAMICSUTILS.DIR\DEBUG\INVDYN_BULLET_COMPARISON.OBJ|E:\PROGRAMMING\BULLET PHYSICS\BUILDS\EXTRAS\INVERSEDYNAMICS\BULLETINVERSEDYNAMICSUTILS.DIR\DEBUG\MULTIBODYNAMEMAP.OBJ|E:\PROGRAMMING\BULLET PHYSICS\BUILDS\EXTRAS\INVERSEDYNAMICS\BULLETINVERSEDYNAMICSUTILS.DIR\DEBUG\MULTIBODYTREECREATOR.OBJ|E:\PROGRAMMING\BULLET PHYSICS\BUILDS\EXTRAS\INVERSEDYNAMICS\BULLETINVERSEDYNAMICSUTILS.DIR\DEBUG\MULTIBODYTREEDEBUGGRAPH.OBJ|E:\PROGRAMMING\BULLET PHYSICS\BUILDS\EXTRAS\INVERSEDYNAMICS\BULLETINVERSEDYNAMICSUTILS.DIR\DEBUG\SIMPLETREECREATOR.OBJ|E:\PROGRAMMING\BULLET PHYSICS\BUILDS\EXTRAS\INVERSEDYNAMICS\BULLETINVERSEDYNAMICSUTILS.DIR\DEBUG\USER2INTERNALINDEX.OBJ
C:\WINDOWS\GLOBALIZATION\SORTING\SORTDEFAULT.NLS
E:\PROGRAMMING\BULLET PHYSICS\BUILDS\EXTRAS\INVERSEDYNAMICS\BULLETINVERSEDYNAMICSUTILS.DIR\DEBUG\COILCREATOR.OBJ
C:\WINDOWS\SYSTEM32\TZRES.DLL
E:\PROGRAMMING\BULLET PHYSICS\BUILDS\EXTRAS\INVERSEDYNAMICS\BULLETINVERSEDYNAMICSUTILS.DIR\DEBUG\MULTIBODYTREECREATOR.OBJ
E:\PROGRAMMING\BULLET PHYSICS\BUILDS\EXTRAS\INVERSEDYNAMICS\BULLETINVERSEDYNAMICSUTILS.DIR\DEBUG\BTMULTIBODYTREECREATOR.OBJ
E:\PROGRAMMING\BULLET PHYSICS\BUILDS\EXTRAS\INVERSEDYNAMICS\BULLETINVERSEDYNAMICSUTILS.DIR\DEBUG\DILLCREATOR.OBJ
E:\PROGRAMMING\BULLET PHYSICS\BUILDS\EXTRAS\INVERSEDYNAMICS\BULLETINVERSEDYNAMICSUTILS.DIR\DEBUG\MULTIBODYTREEDEBUGGRAPH.OBJ
E:\PROGRAMMING\BULLET PHYSICS\BUILDS\EXTRAS\INVERSEDYNAMICS\BULLETINVERSEDYNAMICSUTILS.DIR\DEBUG\INVDYN_BULLET_COMPARISON.OBJ
E:\PROGRAMMING\BULLET PHYSICS\BUILDS\EXTRAS\INVERSEDYNAMICS\BULLETINVERSEDYNAMICSUTILS.DIR\DEBUG\IDRANDOMUTIL.OBJ
E:\PROGRAMMING\BULLET PHYSICS\BUILDS\EXTRAS\INVERSEDYNAMICS\BULLETINVERSEDYNAMICSUTILS.DIR\DEBUG\SIMPLETREECREATOR.OBJ
E:\PROGRAMMING\BULLET PHYSICS\BUILDS\EXTRAS\INVERSEDYNAMICS\BULLETINVERSEDYNAMICSUTILS.DIR\DEBUG\MULTIBODYNAMEMAP.OBJ
E:\PROGRAMMING\BULLET PHYSICS\BUILDS\EXTRAS\INVERSEDYNAMICS\BULLETINVERSEDYNAMICSUTILS.DIR\DEBUG\USER2INTERNALINDEX.OBJ
