^E:\PROGRAMMING\BULLET PHYSICS\BULLET3-2.83.7\EXTRAS\SERIALIZE\BULLETXMLWORLDIMPORTER\BTBULLETXMLWORLDIMPORTER.CPP
E:\PROGRAMMING\BULLET PHYSICS\BULLET3-2.83.7\EXTRAS\SERIALIZE\BULLETXMLWORLDIMPORTER\BTBULLETXMLWORLDIMPORTER.H
E:\PROGRAMMING\BULLET PHYSICS\BULLET3-2.83.7\SRC\LINEARMATH\BTSCALAR.H
C:\PROGRAM FILES (X86)\WINDOWS KITS\10\INCLUDE\10.0.10586.0\UCRT\MATH.H
C:\PROGRAM FILES (X86)\WINDOWS KITS\10\INCLUDE\10.0.10586.0\UCRT\CORECRT.H
D:\PROGRAM\VISUAL STUDIO COM 2015\VC\INCLUDE\VCRUNTIME.H
D:\PROGRAM\VISUAL STUDIO COM 2015\VC\INCLUDE\SAL.H
D:\PROGRAM\VISUAL STUDIO COM 2015\VC\INCLUDE\CONCURRENCYSAL.H
D:\PROGRAM\VISUAL STUDIO COM 2015\VC\INCLUDE\VADEFS.H
C:\PROGRAM FILES (X86)\WINDOWS KITS\10\INCLUDE\10.0.10586.0\UCRT\STDLIB.H
C:\PROGRAM FILES (X86)\WINDOWS KITS\10\INCLUDE\10.0.10586.0\UCRT\CORECRT_MALLOC.H
C:\PROGRAM FILES (X86)\WINDOWS KITS\10\INCLUDE\10.0.10586.0\UCRT\CORECRT_SEARCH.H
C:\PROGRAM FILES (X86)\WINDOWS KITS\10\INCLUDE\10.0.10586.0\UCRT\STDDEF.H
C:\PROGRAM FILES (X86)\WINDOWS KITS\10\INCLUDE\10.0.10586.0\UCRT\CORECRT_WSTDLIB.H
D:\PROGRAM\VISUAL STUDIO COM 2015\VC\INCLUDE\LIMITS.H
C:\PROGRAM FILES (X86)\WINDOWS KITS\10\INCLUDE\10.0.10586.0\UCRT\FLOAT.H
D:\PROGRAM\VISUAL STUDIO COM 2015\VC\INCLUDE\EMMINTRIN.H
D:\PROGRAM\VISUAL STUDIO COM 2015\VC\INCLUDE\XMMINTRIN.H
D:\PROGRAM\VISUAL STUDIO COM 2015\VC\INCLUDE\MMINTRIN.H
C:\PROGRAM FILES (X86)\WINDOWS KITS\10\INCLUDE\10.0.10586.0\UCRT\MALLOC.H
C:\PROGRAM FILES (X86)\WINDOWS KITS\10\INCLUDE\10.0.10586.0\UCRT\STDIO.H
C:\PROGRAM FILES (X86)\WINDOWS KITS\10\INCLUDE\10.0.10586.0\UCRT\CORECRT_WSTDIO.H
C:\PROGRAM FILES (X86)\WINDOWS KITS\10\INCLUDE\10.0.10586.0\UCRT\CORECRT_STDIO_CONFIG.H
E:\PROGRAMMING\BULLET PHYSICS\BULLET3-2.83.7\SRC\LINEARMATH\BTALIGNEDOBJECTARRAY.H
E:\PROGRAMMING\BULLET PHYSICS\BULLET3-2.83.7\SRC\LINEARMATH\BTALIGNEDALLOCATOR.H
D:\PROGRAM\VISUAL STUDIO COM 2015\VC\INCLUDE\NEW
D:\PROGRAM\VISUAL STUDIO COM 2015\VC\INCLUDE\EXCEPTION
D:\PROGRAM\VISUAL STUDIO COM 2015\VC\INCLUDE\TYPE_TRAITS
D:\PROGRAM\VISUAL STUDIO COM 2015\VC\INCLUDE\XSTDDEF
D:\PROGRAM\VISUAL STUDIO COM 2015\VC\INCLUDE\CSTDDEF
D:\PROGRAM\VISUAL STUDIO COM 2015\VC\INCLUDE\YVALS.H
D:\PROGRAM\VISUAL STUDIO COM 2015\VC\INCLUDE\XKEYCHECK.H
D:\PROGRAM\VISUAL STUDIO COM 2015\VC\INCLUDE\CRTDEFS.H
D:\PROGRAM\VISUAL STUDIO COM 2015\VC\INCLUDE\USE_ANSI.H
D:\PROGRAM\VISUAL STUDIO COM 2015\VC\INCLUDE\CSTDLIB
D:\PROGRAM\VISUAL STUDIO COM 2015\VC\INCLUDE\INITIALIZER_LIST
D:\PROGRAM\VISUAL STUDIO COM 2015\VC\INCLUDE\XTR1COMMON
D:\PROGRAM\VISUAL STUDIO COM 2015\VC\INCLUDE\VCRUNTIME_EXCEPTION.H
D:\PROGRAM\VISUAL STUDIO COM 2015\VC\INCLUDE\EH.H
C:\PROGRAM FILES (X86)\WINDOWS KITS\10\INCLUDE\10.0.10586.0\UCRT\CORECRT_TERMINATE.H
D:\PROGRAM\VISUAL STUDIO COM 2015\VC\INCLUDE\VCRUNTIME_NEW.H
E:\PROGRAMMING\BULLET PHYSICS\BULLET3-2.83.7\EXTRAS\SERIALIZE\BULLETWORLDIMPORTER\BTWORLDIMPORTER.H
E:\PROGRAMMING\BULLET PHYSICS\BULLET3-2.83.7\SRC\LINEARMATH\BTTRANSFORM.H
E:\PROGRAMMING\BULLET PHYSICS\BULLET3-2.83.7\SRC\LINEARMATH\BTMATRIX3X3.H
E:\PROGRAMMING\BULLET PHYSICS\BULLET3-2.83.7\SRC\LINEARMATH\BTVECTOR3.H
E:\PROGRAMMING\BULLET PHYSICS\BULLET3-2.83.7\SRC\LINEARMATH\BTMINMAX.H
E:\PROGRAMMING\BULLET PHYSICS\BULLET3-2.83.7\SRC\LINEARMATH\BTQUATERNION.H
E:\PROGRAMMING\BULLET PHYSICS\BULLET3-2.83.7\SRC\LINEARMATH\BTQUADWORD.H
E:\PROGRAMMING\BULLET PHYSICS\BULLET3-2.83.7\SRC\LINEARMATH\BTHASHMAP.H
E:\PROGRAMMING\BULLET PHYSICS\BULLET3-2.83.7\EXTRAS\SERIALIZE\BULLETXMLWORLDIMPORTER\TINYXML.H
C:\PROGRAM FILES (X86)\WINDOWS KITS\10\INCLUDE\10.0.10586.0\UCRT\CTYPE.H
C:\PROGRAM FILES (X86)\WINDOWS KITS\10\INCLUDE\10.0.10586.0\UCRT\CORECRT_WCTYPE.H
C:\PROGRAM FILES (X86)\WINDOWS KITS\10\INCLUDE\10.0.10586.0\UCRT\STRING.H
C:\PROGRAM FILES (X86)\WINDOWS KITS\10\INCLUDE\10.0.10586.0\UCRT\CORECRT_MEMORY.H
C:\PROGRAM FILES (X86)\WINDOWS KITS\10\INCLUDE\10.0.10586.0\UCRT\CORECRT_MEMCPY_S.H
C:\PROGRAM FILES (X86)\WINDOWS KITS\10\INCLUDE\10.0.10586.0\UCRT\ERRNO.H
D:\PROGRAM\VISUAL STUDIO COM 2015\VC\INCLUDE\VCRUNTIME_STRING.H
C:\PROGRAM FILES (X86)\WINDOWS KITS\10\INCLUDE\10.0.10586.0\UCRT\CORECRT_WSTRING.H
C:\PROGRAM FILES (X86)\WINDOWS KITS\10\INCLUDE\10.0.10586.0\UCRT\ASSERT.H
E:\PROGRAMMING\BULLET PHYSICS\BULLET3-2.83.7\EXTRAS\SERIALIZE\BULLETXMLWORLDIMPORTER\TINYSTR.H
E:\PROGRAMMING\BULLET PHYSICS\BULLET3-2.83.7\SRC\BTBULLETDYNAMICSCOMMON.H
E:\PROGRAMMING\BULLET PHYSICS\BULLET3-2.83.7\SRC\BTBULLETCOLLISIONCOMMON.H
E:\PROGRAMMING\BULLET PHYSICS\BULLET3-2.83.7\SRC\BULLETCOLLISION\COLLISIONDISPATCH\BTCOLLISIONWORLD.H
E:\PROGRAMMING\BULLET PHYSICS\BULLET3-2.83.7\SRC\BULLETCOLLISION\COLLISIONDISPATCH\BTCOLLISIONOBJECT.H
E:\PROGRAMMING\BULLET PHYSICS\BULLET3-2.83.7\SRC\LINEARMATH\BTMOTIONSTATE.H
E:\PROGRAMMING\BULLET PHYSICS\BULLET3-2.83.7\SRC\BULLETCOLLISION\COLLISIONDISPATCH\BTCOLLISIONDISPATCHER.H
E:\PROGRAMMING\BULLET PHYSICS\BULLET3-2.83.7\SRC\BULLETCOLLISION\BROADPHASECOLLISION\BTDISPATCHER.H
E:\PROGRAMMING\BULLET PHYSICS\BULLET3-2.83.7\SRC\BULLETCOLLISION\NARROWPHASECOLLISION\BTPERSISTENTMANIFOLD.H
E:\PROGRAMMING\BULLET PHYSICS\BULLET3-2.83.7\SRC\BULLETCOLLISION\NARROWPHASECOLLISION\BTMANIFOLDPOINT.H
E:\PROGRAMMING\BULLET PHYSICS\BULLET3-2.83.7\SRC\LINEARMATH\BTTRANSFORMUTIL.H
E:\PROGRAMMING\BULLET PHYSICS\BULLET3-2.83.7\SRC\BULLETCOLLISION\COLLISIONDISPATCH\BTMANIFOLDRESULT.H
E:\PROGRAMMING\BULLET PHYSICS\BULLET3-2.83.7\SRC\BULLETCOLLISION\NARROWPHASECOLLISION\BTDISCRETECOLLISIONDETECTORINTERFACE.H
E:\PROGRAMMING\BULLET PHYSICS\BULLET3-2.83.7\SRC\BULLETCOLLISION\COLLISIONDISPATCH\BTCOLLISIONOBJECTWRAPPER.H
E:\PROGRAMMING\BULLET PHYSICS\BULLET3-2.83.7\SRC\BULLETCOLLISION\BROADPHASECOLLISION\BTBROADPHASEPROXY.H
E:\PROGRAMMING\BULLET PHYSICS\BULLET3-2.83.7\SRC\BULLETCOLLISION\COLLISIONDISPATCH\BTCOLLISIONCREATEFUNC.H
E:\PROGRAMMING\BULLET PHYSICS\BULLET3-2.83.7\SRC\BULLETCOLLISION\BROADPHASECOLLISION\BTOVERLAPPINGPAIRCACHE.H
E:\PROGRAMMING\BULLET PHYSICS\BULLET3-2.83.7\SRC\BULLETCOLLISION\BROADPHASECOLLISION\BTBROADPHASEINTERFACE.H
E:\PROGRAMMING\BULLET PHYSICS\BULLET3-2.83.7\SRC\BULLETCOLLISION\BROADPHASECOLLISION\BTOVERLAPPINGPAIRCALLBACK.H
E:\PROGRAMMING\BULLET PHYSICS\BULLET3-2.83.7\SRC\BULLETCOLLISION\COLLISIONSHAPES\BTBOXSHAPE.H
E:\PROGRAMMING\BULLET PHYSICS\BULLET3-2.83.7\SRC\BULLETCOLLISION\COLLISIONSHAPES\BTPOLYHEDRALCONVEXSHAPE.H
E:\PROGRAMMING\BULLET PHYSICS\BULLET3-2.83.7\SRC\BULLETCOLLISION\COLLISIONSHAPES\BTCONVEXINTERNALSHAPE.H
E:\PROGRAMMING\BULLET PHYSICS\BULLET3-2.83.7\SRC\BULLETCOLLISION\COLLISIONSHAPES\BTCONVEXSHAPE.H
E:\PROGRAMMING\BULLET PHYSICS\BULLET3-2.83.7\SRC\BULLETCOLLISION\COLLISIONSHAPES\BTCOLLISIONSHAPE.H
E:\PROGRAMMING\BULLET PHYSICS\BULLET3-2.83.7\SRC\BULLETCOLLISION\COLLISIONSHAPES\BTCOLLISIONMARGIN.H
E:\PROGRAMMING\BULLET PHYSICS\BULLET3-2.83.7\SRC\LINEARMATH\BTAABBUTIL2.H
E:\PROGRAMMING\BULLET PHYSICS\BULLET3-2.83.7\SRC\BULLETCOLLISION\COLLISIONSHAPES\BTSPHERESHAPE.H
E:\PROGRAMMING\BULLET PHYSICS\BULLET3-2.83.7\SRC\BULLETCOLLISION\COLLISIONSHAPES\BTCAPSULESHAPE.H
E:\PROGRAMMING\BULLET PHYSICS\BULLET3-2.83.7\SRC\BULLETCOLLISION\COLLISIONSHAPES\BTCYLINDERSHAPE.H
E:\PROGRAMMING\BULLET PHYSICS\BULLET3-2.83.7\SRC\BULLETCOLLISION\COLLISIONSHAPES\BTCONESHAPE.H
E:\PROGRAMMING\BULLET PHYSICS\BULLET3-2.83.7\SRC\BULLETCOLLISION\COLLISIONSHAPES\BTSTATICPLANESHAPE.H
E:\PROGRAMMING\BULLET PHYSICS\BULLET3-2.83.7\SRC\BULLETCOLLISION\COLLISIONSHAPES\BTCONCAVESHAPE.H
E:\PROGRAMMING\BULLET PHYSICS\BULLET3-2.83.7\SRC\BULLETCOLLISION\COLLISIONSHAPES\BTTRIANGLECALLBACK.H
E:\PROGRAMMING\BULLET PHYSICS\BULLET3-2.83.7\SRC\BULLETCOLLISION\COLLISIONSHAPES\BTCONVEXHULLSHAPE.H
E:\PROGRAMMING\BULLET PHYSICS\BULLET3-2.83.7\SRC\BULLETCOLLISION\COLLISIONSHAPES\BTTRIANGLEMESH.H
E:\PROGRAMMING\BULLET PHYSICS\BULLET3-2.83.7\SRC\BULLETCOLLISION\COLLISIONSHAPES\BTTRIANGLEINDEXVERTEXARRAY.H
E:\PROGRAMMING\BULLET PHYSICS\BULLET3-2.83.7\SRC\BULLETCOLLISION\COLLISIONSHAPES\BTSTRIDINGMESHINTERFACE.H
E:\PROGRAMMING\BULLET PHYSICS\BULLET3-2.83.7\SRC\BULLETCOLLISION\COLLISIONSHAPES\BTCONVEXTRIANGLEMESHSHAPE.H
E:\PROGRAMMING\BULLET PHYSICS\BULLET3-2.83.7\SRC\BULLETCOLLISION\COLLISIONSHAPES\BTBVHTRIANGLEMESHSHAPE.H
E:\PROGRAMMING\BULLET PHYSICS\BULLET3-2.83.7\SRC\BULLETCOLLISION\COLLISIONSHAPES\BTTRIANGLEMESHSHAPE.H
E:\PROGRAMMING\BULLET PHYSICS\BULLET3-2.83.7\SRC\BULLETCOLLISION\COLLISIONSHAPES\BTOPTIMIZEDBVH.H
E:\PROGRAMMING\BULLET PHYSICS\BULLET3-2.83.7\SRC\BULLETCOLLISION\BROADPHASECOLLISION\BTQUANTIZEDBVH.H
E:\PROGRAMMING\BULLET PHYSICS\BULLET3-2.83.7\SRC\BULLETCOLLISION\COLLISIONSHAPES\BTTRIANGLEINFOMAP.H
E:\PROGRAMMING\BULLET PHYSICS\BULLET3-2.83.7\SRC\LINEARMATH\BTSERIALIZER.H
C:\PROGRAM FILES (X86)\WINDOWS KITS\10\INCLUDE\10.0.10586.0\UCRT\MEMORY.H
E:\PROGRAMMING\BULLET PHYSICS\BULLET3-2.83.7\SRC\BULLETCOLLISION\COLLISIONSHAPES\BTSCALEDBVHTRIANGLEMESHSHAPE.H
E:\PROGRAMMING\BULLET PHYSICS\BULLET3-2.83.7\SRC\BULLETCOLLISION\COLLISIONSHAPES\BTCOMPOUNDSHAPE.H
E:\PROGRAMMING\BULLET PHYSICS\BULLET3-2.83.7\SRC\BULLETCOLLISION\COLLISIONSHAPES\BTTETRAHEDRONSHAPE.H
E:\PROGRAMMING\BULLET PHYSICS\BULLET3-2.83.7\SRC\BULLETCOLLISION\COLLISIONSHAPES\BTEMPTYSHAPE.H
E:\PROGRAMMING\BULLET PHYSICS\BULLET3-2.83.7\SRC\BULLETCOLLISION\COLLISIONSHAPES\BTMULTISPHERESHAPE.H
E:\PROGRAMMING\BULLET PHYSICS\BULLET3-2.83.7\SRC\BULLETCOLLISION\COLLISIONSHAPES\BTUNIFORMSCALINGSHAPE.H
E:\PROGRAMMING\BULLET PHYSICS\BULLET3-2.83.7\SRC\BULLETCOLLISION\COLLISIONDISPATCH\BTSPHERESPHERECOLLISIONALGORITHM.H
E:\PROGRAMMING\BULLET PHYSICS\BULLET3-2.83.7\SRC\BULLETCOLLISION\COLLISIONDISPATCH\BTACTIVATINGCOLLISIONALGORITHM.H
E:\PROGRAMMING\BULLET PHYSICS\BULLET3-2.83.7\SRC\BULLETCOLLISION\BROADPHASECOLLISION\BTCOLLISIONALGORITHM.H
E:\PROGRAMMING\BULLET PHYSICS\BULLET3-2.83.7\SRC\BULLETCOLLISION\COLLISIONDISPATCH\BTDEFAULTCOLLISIONCONFIGURATION.H
E:\PROGRAMMING\BULLET PHYSICS\BULLET3-2.83.7\SRC\BULLETCOLLISION\COLLISIONDISPATCH\BTCOLLISIONCONFIGURATION.H
E:\PROGRAMMING\BULLET PHYSICS\BULLET3-2.83.7\SRC\BULLETCOLLISION\BROADPHASECOLLISION\BTSIMPLEBROADPHASE.H
E:\PROGRAMMING\BULLET PHYSICS\BULLET3-2.83.7\SRC\BULLETCOLLISION\BROADPHASECOLLISION\BTAXISSWEEP3.H
E:\PROGRAMMING\BULLET PHYSICS\BULLET3-2.83.7\SRC\BULLETCOLLISION\BROADPHASECOLLISION\BTDBVTBROADPHASE.H
E:\PROGRAMMING\BULLET PHYSICS\BULLET3-2.83.7\SRC\BULLETCOLLISION\BROADPHASECOLLISION\BTDBVT.H
E:\PROGRAMMING\BULLET PHYSICS\BULLET3-2.83.7\SRC\BULLETCOLLISION\BROADPHASECOLLISION\BTMULTISAPBROADPHASE.H
E:\PROGRAMMING\BULLET PHYSICS\BULLET3-2.83.7\SRC\LINEARMATH\BTDEFAULTMOTIONSTATE.H
E:\PROGRAMMING\BULLET PHYSICS\BULLET3-2.83.7\SRC\LINEARMATH\BTQUICKPROF.H
E:\PROGRAMMING\BULLET PHYSICS\BULLET3-2.83.7\SRC\LINEARMATH\BTIDEBUGDRAW.H
E:\PROGRAMMING\BULLET PHYSICS\BULLET3-2.83.7\SRC\BULLETDYNAMICS\DYNAMICS\BTDISCRETEDYNAMICSWORLD.H
E:\PROGRAMMING\BULLET PHYSICS\BULLET3-2.83.7\SRC\BULLETDYNAMICS\DYNAMICS\BTDYNAMICSWORLD.H
E:\PROGRAMMING\BULLET PHYSICS\BULLET3-2.83.7\SRC\BULLETDYNAMICS\CONSTRAINTSOLVER\BTCONTACTSOLVERINFO.H
E:\PROGRAMMING\BULLET PHYSICS\BULLET3-2.83.7\SRC\BULLETDYNAMICS\DYNAMICS\BTSIMPLEDYNAMICSWORLD.H
E:\PROGRAMMING\BULLET PHYSICS\BULLET3-2.83.7\SRC\BULLETDYNAMICS\DYNAMICS\BTRIGIDBODY.H
E:\PROGRAMMING\BULLET PHYSICS\BULLET3-2.83.7\SRC\BULLETDYNAMICS\CONSTRAINTSOLVER\BTPOINT2POINTCONSTRAINT.H
E:\PROGRAMMING\BULLET PHYSICS\BULLET3-2.83.7\SRC\BULLETDYNAMICS\CONSTRAINTSOLVER\BTJACOBIANENTRY.H
E:\PROGRAMMING\BULLET PHYSICS\BULLET3-2.83.7\SRC\BULLETDYNAMICS\CONSTRAINTSOLVER\BTTYPEDCONSTRAINT.H
E:\PROGRAMMING\BULLET PHYSICS\BULLET3-2.83.7\SRC\BULLETDYNAMICS\CONSTRAINTSOLVER\BTSOLVERCONSTRAINT.H
E:\PROGRAMMING\BULLET PHYSICS\BULLET3-2.83.7\SRC\BULLETDYNAMICS\CONSTRAINTSOLVER\BTSOLVERBODY.H
E:\PROGRAMMING\BULLET PHYSICS\BULLET3-2.83.7\SRC\BULLETDYNAMICS\CONSTRAINTSOLVER\BTHINGECONSTRAINT.H
E:\PROGRAMMING\BULLET PHYSICS\BULLET3-2.83.7\SRC\BULLETDYNAMICS\CONSTRAINTSOLVER\BTCONETWISTCONSTRAINT.H
E:\PROGRAMMING\BULLET PHYSICS\BULLET3-2.83.7\SRC\BULLETDYNAMICS\CONSTRAINTSOLVER\BTGENERIC6DOFCONSTRAINT.H
E:\PROGRAMMING\BULLET PHYSICS\BULLET3-2.83.7\SRC\BULLETDYNAMICS\CONSTRAINTSOLVER\BTSLIDERCONSTRAINT.H
E:\PROGRAMMING\BULLET PHYSICS\BULLET3-2.83.7\SRC\BULLETDYNAMICS\CONSTRAINTSOLVER\BTGENERIC6DOFSPRINGCONSTRAINT.H
E:\PROGRAMMING\BULLET PHYSICS\BULLET3-2.83.7\SRC\BULLETDYNAMICS\CONSTRAINTSOLVER\BTUNIVERSALCONSTRAINT.H
E:\PROGRAMMING\BULLET PHYSICS\BULLET3-2.83.7\SRC\BULLETDYNAMICS\CONSTRAINTSOLVER\BTHINGE2CONSTRAINT.H
E:\PROGRAMMING\BULLET PHYSICS\BULLET3-2.83.7\SRC\BULLETDYNAMICS\CONSTRAINTSOLVER\BTGENERIC6DOFSPRING2CONSTRAINT.H
E:\PROGRAMMING\BULLET PHYSICS\BULLET3-2.83.7\SRC\BULLETDYNAMICS\CONSTRAINTSOLVER\BTGEARCONSTRAINT.H
E:\PROGRAMMING\BULLET PHYSICS\BULLET3-2.83.7\SRC\BULLETDYNAMICS\CONSTRAINTSOLVER\BTFIXEDCONSTRAINT.H
E:\PROGRAMMING\BULLET PHYSICS\BULLET3-2.83.7\SRC\BULLETDYNAMICS\CONSTRAINTSOLVER\BTSEQUENTIALIMPULSECONSTRAINTSOLVER.H
E:\PROGRAMMING\BULLET PHYSICS\BULLET3-2.83.7\SRC\BULLETDYNAMICS\CONSTRAINTSOLVER\BTCONSTRAINTSOLVER.H
E:\PROGRAMMING\BULLET PHYSICS\BULLET3-2.83.7\SRC\BULLETDYNAMICS\VEHICLE\BTRAYCASTVEHICLE.H
E:\PROGRAMMING\BULLET PHYSICS\BULLET3-2.83.7\SRC\BULLETDYNAMICS\VEHICLE\BTVEHICLERAYCASTER.H
E:\PROGRAMMING\BULLET PHYSICS\BULLET3-2.83.7\SRC\BULLETDYNAMICS\VEHICLE\BTWHEELINFO.H
E:\PROGRAMMING\BULLET PHYSICS\BULLET3-2.83.7\SRC\BULLETDYNAMICS\DYNAMICS\BTACTIONINTERFACE.H
E:\PROGRAMMING\BULLET PHYSICS\BULLET3-2.83.7\EXTRAS\SERIALIZE\BULLETXMLWORLDIMPORTER\STRING_SPLIT.H
D:\PROGRAM\VISUAL STUDIO COM 2015\VC\INCLUDE\CSTRING
D:\PROGRAM\VISUAL STUDIO COM 2015\VC\INCLUDE\STRING
D:\PROGRAM\VISUAL STUDIO COM 2015\VC\INCLUDE\ISTREAM
D:\PROGRAM\VISUAL STUDIO COM 2015\VC\INCLUDE\OSTREAM
D:\PROGRAM\VISUAL STUDIO COM 2015\VC\INCLUDE\IOS
D:\PROGRAM\VISUAL STUDIO COM 2015\VC\INCLUDE\XLOCNUM
D:\PROGRAM\VISUAL STUDIO COM 2015\VC\INCLUDE\CLIMITS
D:\PROGRAM\VISUAL STUDIO COM 2015\VC\INCLUDE\CMATH
D:\PROGRAM\VISUAL STUDIO COM 2015\VC\INCLUDE\XTGMATH.H
D:\PROGRAM\VISUAL STUDIO COM 2015\VC\INCLUDE\CSTDIO
D:\PROGRAM\VISUAL STUDIO COM 2015\VC\INCLUDE\STREAMBUF
D:\PROGRAM\VISUAL STUDIO COM 2015\VC\INCLUDE\XIOSBASE
D:\PROGRAM\VISUAL STUDIO COM 2015\VC\INCLUDE\XLOCALE
D:\PROGRAM\VISUAL STUDIO COM 2015\VC\INCLUDE\STDEXCEPT
D:\PROGRAM\VISUAL STUDIO COM 2015\VC\INCLUDE\XSTRING
D:\PROGRAM\VISUAL STUDIO COM 2015\VC\INCLUDE\XMEMORY0
D:\PROGRAM\VISUAL STUDIO COM 2015\VC\INCLUDE\CSTDINT
D:\PROGRAM\VISUAL STUDIO COM 2015\VC\INCLUDE\STDINT.H
D:\PROGRAM\VISUAL STUDIO COM 2015\VC\INCLUDE\LIMITS
D:\PROGRAM\VISUAL STUDIO COM 2015\VC\INCLUDE\YMATH.H
D:\PROGRAM\VISUAL STUDIO COM 2015\VC\INCLUDE\CFLOAT
D:\PROGRAM\VISUAL STUDIO COM 2015\VC\INCLUDE\CWCHAR
C:\PROGRAM FILES (X86)\WINDOWS KITS\10\INCLUDE\10.0.10586.0\UCRT\WCHAR.H
C:\PROGRAM FILES (X86)\WINDOWS KITS\10\INCLUDE\10.0.10586.0\UCRT\CORECRT_WCONIO.H
C:\PROGRAM FILES (X86)\WINDOWS KITS\10\INCLUDE\10.0.10586.0\UCRT\CORECRT_WDIRECT.H
C:\PROGRAM FILES (X86)\WINDOWS KITS\10\INCLUDE\10.0.10586.0\UCRT\CORECRT_WIO.H
C:\PROGRAM FILES (X86)\WINDOWS KITS\10\INCLUDE\10.0.10586.0\UCRT\CORECRT_SHARE.H
C:\PROGRAM FILES (X86)\WINDOWS KITS\10\INCLUDE\10.0.10586.0\UCRT\CORECRT_WPROCESS.H
C:\PROGRAM FILES (X86)\WINDOWS KITS\10\INCLUDE\10.0.10586.0\UCRT\CORECRT_WTIME.H
C:\PROGRAM FILES (X86)\WINDOWS KITS\10\INCLUDE\10.0.10586.0\UCRT\SYS\STAT.H
C:\PROGRAM FILES (X86)\WINDOWS KITS\10\INCLUDE\10.0.10586.0\UCRT\SYS\TYPES.H
D:\PROGRAM\VISUAL STUDIO COM 2015\VC\INCLUDE\XUTILITY
D:\PROGRAM\VISUAL STUDIO COM 2015\VC\INCLUDE\UTILITY
D:\PROGRAM\VISUAL STUDIO COM 2015\VC\INCLUDE\IOSFWD
C:\PROGRAM FILES (X86)\WINDOWS KITS\10\INCLUDE\10.0.10586.0\UCRT\CRTDBG.H
D:\PROGRAM\VISUAL STUDIO COM 2015\VC\INCLUDE\VCRUNTIME_NEW_DEBUG.H
D:\PROGRAM\VISUAL STUDIO COM 2015\VC\INCLUDE\XATOMIC0.H
D:\PROGRAM\VISUAL STUDIO COM 2015\VC\INCLUDE\INTRIN.H
D:\PROGRAM\VISUAL STUDIO COM 2015\VC\INCLUDE\SETJMP.H
D:\PROGRAM\VISUAL STUDIO COM 2015\VC\INCLUDE\IMMINTRIN.H
D:\PROGRAM\VISUAL STUDIO COM 2015\VC\INCLUDE\WMMINTRIN.H
D:\PROGRAM\VISUAL STUDIO COM 2015\VC\INCLUDE\NMMINTRIN.H
D:\PROGRAM\VISUAL STUDIO COM 2015\VC\INCLUDE\SMMINTRIN.H
D:\PROGRAM\VISUAL STUDIO COM 2015\VC\INCLUDE\TMMINTRIN.H
D:\PROGRAM\VISUAL STUDIO COM 2015\VC\INCLUDE\PMMINTRIN.H
D:\PROGRAM\VISUAL STUDIO COM 2015\VC\INCLUDE\AMMINTRIN.H
D:\PROGRAM\VISUAL STUDIO COM 2015\VC\INCLUDE\TYPEINFO
D:\PROGRAM\VISUAL STUDIO COM 2015\VC\INCLUDE\VCRUNTIME_TYPEINFO.H
D:\PROGRAM\VISUAL STUDIO COM 2015\VC\INCLUDE\XLOCINFO
D:\PROGRAM\VISUAL STUDIO COM 2015\VC\INCLUDE\XLOCINFO.H
C:\PROGRAM FILES (X86)\WINDOWS KITS\10\INCLUDE\10.0.10586.0\UCRT\LOCALE.H
D:\PROGRAM\VISUAL STUDIO COM 2015\VC\INCLUDE\XFACET
D:\PROGRAM\VISUAL STUDIO COM 2015\VC\INCLUDE\SYSTEM_ERROR
D:\PROGRAM\VISUAL STUDIO COM 2015\VC\INCLUDE\CERRNO
C:\PROGRAM FILES (X86)\WINDOWS KITS\10\INCLUDE\10.0.10586.0\UCRT\SHARE.H
^E:\PROGRAMMING\BULLET PHYSICS\BULLET3-2.83.7\EXTRAS\SERIALIZE\BULLETXMLWORLDIMPORTER\STRING_SPLIT.CPP
C:\PROGRAM FILES (X86)\WINDOWS KITS\10\INCLUDE\10.0.10586.0\UCRT\ASSERT.H
C:\PROGRAM FILES (X86)\WINDOWS KITS\10\INCLUDE\10.0.10586.0\UCRT\CORECRT.H
D:\PROGRAM\VISUAL STUDIO COM 2015\VC\INCLUDE\VCRUNTIME.H
D:\PROGRAM\VISUAL STUDIO COM 2015\VC\INCLUDE\SAL.H
D:\PROGRAM\VISUAL STUDIO COM 2015\VC\INCLUDE\CONCURRENCYSAL.H
D:\PROGRAM\VISUAL STUDIO COM 2015\VC\INCLUDE\VADEFS.H
C:\PROGRAM FILES (X86)\WINDOWS KITS\10\INCLUDE\10.0.10586.0\UCRT\STDIO.H
C:\PROGRAM FILES (X86)\WINDOWS KITS\10\INCLUDE\10.0.10586.0\UCRT\CORECRT_WSTDIO.H
C:\PROGRAM FILES (X86)\WINDOWS KITS\10\INCLUDE\10.0.10586.0\UCRT\CORECRT_STDIO_CONFIG.H
C:\PROGRAM FILES (X86)\WINDOWS KITS\10\INCLUDE\10.0.10586.0\UCRT\STDLIB.H
C:\PROGRAM FILES (X86)\WINDOWS KITS\10\INCLUDE\10.0.10586.0\UCRT\CORECRT_MALLOC.H
C:\PROGRAM FILES (X86)\WINDOWS KITS\10\INCLUDE\10.0.10586.0\UCRT\CORECRT_SEARCH.H
C:\PROGRAM FILES (X86)\WINDOWS KITS\10\INCLUDE\10.0.10586.0\UCRT\STDDEF.H
C:\PROGRAM FILES (X86)\WINDOWS KITS\10\INCLUDE\10.0.10586.0\UCRT\CORECRT_WSTDLIB.H
D:\PROGRAM\VISUAL STUDIO COM 2015\VC\INCLUDE\LIMITS.H
C:\PROGRAM FILES (X86)\WINDOWS KITS\10\INCLUDE\10.0.10586.0\UCRT\STRING.H
C:\PROGRAM FILES (X86)\WINDOWS KITS\10\INCLUDE\10.0.10586.0\UCRT\CORECRT_MEMORY.H
C:\PROGRAM FILES (X86)\WINDOWS KITS\10\INCLUDE\10.0.10586.0\UCRT\CORECRT_MEMCPY_S.H
C:\PROGRAM FILES (X86)\WINDOWS KITS\10\INCLUDE\10.0.10586.0\UCRT\ERRNO.H
D:\PROGRAM\VISUAL STUDIO COM 2015\VC\INCLUDE\VCRUNTIME_STRING.H
C:\PROGRAM FILES (X86)\WINDOWS KITS\10\INCLUDE\10.0.10586.0\UCRT\CORECRT_WSTRING.H
E:\PROGRAMMING\BULLET PHYSICS\BULLET3-2.83.7\EXTRAS\SERIALIZE\BULLETXMLWORLDIMPORTER\STRING_SPLIT.H
D:\PROGRAM\VISUAL STUDIO COM 2015\VC\INCLUDE\CSTRING
D:\PROGRAM\VISUAL STUDIO COM 2015\VC\INCLUDE\YVALS.H
D:\PROGRAM\VISUAL STUDIO COM 2015\VC\INCLUDE\XKEYCHECK.H
D:\PROGRAM\VISUAL STUDIO COM 2015\VC\INCLUDE\CRTDEFS.H
D:\PROGRAM\VISUAL STUDIO COM 2015\VC\INCLUDE\USE_ANSI.H
E:\PROGRAMMING\BULLET PHYSICS\BULLET3-2.83.7\SRC\LINEARMATH\BTALIGNEDOBJECTARRAY.H
E:\PROGRAMMING\BULLET PHYSICS\BULLET3-2.83.7\SRC\LINEARMATH\BTSCALAR.H
C:\PROGRAM FILES (X86)\WINDOWS KITS\10\INCLUDE\10.0.10586.0\UCRT\MATH.H
C:\PROGRAM FILES (X86)\WINDOWS KITS\10\INCLUDE\10.0.10586.0\UCRT\FLOAT.H
D:\PROGRAM\VISUAL STUDIO COM 2015\VC\INCLUDE\EMMINTRIN.H
D:\PROGRAM\VISUAL STUDIO COM 2015\VC\INCLUDE\XMMINTRIN.H
D:\PROGRAM\VISUAL STUDIO COM 2015\VC\INCLUDE\MMINTRIN.H
C:\PROGRAM FILES (X86)\WINDOWS KITS\10\INCLUDE\10.0.10586.0\UCRT\MALLOC.H
E:\PROGRAMMING\BULLET PHYSICS\BULLET3-2.83.7\SRC\LINEARMATH\BTALIGNEDALLOCATOR.H
D:\PROGRAM\VISUAL STUDIO COM 2015\VC\INCLUDE\NEW
D:\PROGRAM\VISUAL STUDIO COM 2015\VC\INCLUDE\EXCEPTION
D:\PROGRAM\VISUAL STUDIO COM 2015\VC\INCLUDE\TYPE_TRAITS
D:\PROGRAM\VISUAL STUDIO COM 2015\VC\INCLUDE\XSTDDEF
D:\PROGRAM\VISUAL STUDIO COM 2015\VC\INCLUDE\CSTDDEF
D:\PROGRAM\VISUAL STUDIO COM 2015\VC\INCLUDE\CSTDLIB
D:\PROGRAM\VISUAL STUDIO COM 2015\VC\INCLUDE\INITIALIZER_LIST
D:\PROGRAM\VISUAL STUDIO COM 2015\VC\INCLUDE\XTR1COMMON
D:\PROGRAM\VISUAL STUDIO COM 2015\VC\INCLUDE\VCRUNTIME_EXCEPTION.H
D:\PROGRAM\VISUAL STUDIO COM 2015\VC\INCLUDE\EH.H
C:\PROGRAM FILES (X86)\WINDOWS KITS\10\INCLUDE\10.0.10586.0\UCRT\CORECRT_TERMINATE.H
D:\PROGRAM\VISUAL STUDIO COM 2015\VC\INCLUDE\VCRUNTIME_NEW.H
D:\PROGRAM\VISUAL STUDIO COM 2015\VC\INCLUDE\STRING
D:\PROGRAM\VISUAL STUDIO COM 2015\VC\INCLUDE\ISTREAM
D:\PROGRAM\VISUAL STUDIO COM 2015\VC\INCLUDE\OSTREAM
D:\PROGRAM\VISUAL STUDIO COM 2015\VC\INCLUDE\IOS
D:\PROGRAM\VISUAL STUDIO COM 2015\VC\INCLUDE\XLOCNUM
D:\PROGRAM\VISUAL STUDIO COM 2015\VC\INCLUDE\CLIMITS
D:\PROGRAM\VISUAL STUDIO COM 2015\VC\INCLUDE\CMATH
D:\PROGRAM\VISUAL STUDIO COM 2015\VC\INCLUDE\XTGMATH.H
D:\PROGRAM\VISUAL STUDIO COM 2015\VC\INCLUDE\CSTDIO
D:\PROGRAM\VISUAL STUDIO COM 2015\VC\INCLUDE\STREAMBUF
D:\PROGRAM\VISUAL STUDIO COM 2015\VC\INCLUDE\XIOSBASE
D:\PROGRAM\VISUAL STUDIO COM 2015\VC\INCLUDE\XLOCALE
D:\PROGRAM\VISUAL STUDIO COM 2015\VC\INCLUDE\STDEXCEPT
D:\PROGRAM\VISUAL STUDIO COM 2015\VC\INCLUDE\XSTRING
D:\PROGRAM\VISUAL STUDIO COM 2015\VC\INCLUDE\XMEMORY0
D:\PROGRAM\VISUAL STUDIO COM 2015\VC\INCLUDE\CSTDINT
D:\PROGRAM\VISUAL STUDIO COM 2015\VC\INCLUDE\STDINT.H
D:\PROGRAM\VISUAL STUDIO COM 2015\VC\INCLUDE\LIMITS
D:\PROGRAM\VISUAL STUDIO COM 2015\VC\INCLUDE\YMATH.H
D:\PROGRAM\VISUAL STUDIO COM 2015\VC\INCLUDE\CFLOAT
D:\PROGRAM\VISUAL STUDIO COM 2015\VC\INCLUDE\CWCHAR
C:\PROGRAM FILES (X86)\WINDOWS KITS\10\INCLUDE\10.0.10586.0\UCRT\WCHAR.H
C:\PROGRAM FILES (X86)\WINDOWS KITS\10\INCLUDE\10.0.10586.0\UCRT\CORECRT_WCONIO.H
C:\PROGRAM FILES (X86)\WINDOWS KITS\10\INCLUDE\10.0.10586.0\UCRT\CORECRT_WCTYPE.H
C:\PROGRAM FILES (X86)\WINDOWS KITS\10\INCLUDE\10.0.10586.0\UCRT\CORECRT_WDIRECT.H
C:\PROGRAM FILES (X86)\WINDOWS KITS\10\INCLUDE\10.0.10586.0\UCRT\CORECRT_WIO.H
C:\PROGRAM FILES (X86)\WINDOWS KITS\10\INCLUDE\10.0.10586.0\UCRT\CORECRT_SHARE.H
C:\PROGRAM FILES (X86)\WINDOWS KITS\10\INCLUDE\10.0.10586.0\UCRT\CORECRT_WPROCESS.H
C:\PROGRAM FILES (X86)\WINDOWS KITS\10\INCLUDE\10.0.10586.0\UCRT\CORECRT_WTIME.H
C:\PROGRAM FILES (X86)\WINDOWS KITS\10\INCLUDE\10.0.10586.0\UCRT\SYS\STAT.H
C:\PROGRAM FILES (X86)\WINDOWS KITS\10\INCLUDE\10.0.10586.0\UCRT\SYS\TYPES.H
D:\PROGRAM\VISUAL STUDIO COM 2015\VC\INCLUDE\XUTILITY
D:\PROGRAM\VISUAL STUDIO COM 2015\VC\INCLUDE\UTILITY
D:\PROGRAM\VISUAL STUDIO COM 2015\VC\INCLUDE\IOSFWD
C:\PROGRAM FILES (X86)\WINDOWS KITS\10\INCLUDE\10.0.10586.0\UCRT\CRTDBG.H
D:\PROGRAM\VISUAL STUDIO COM 2015\VC\INCLUDE\VCRUNTIME_NEW_DEBUG.H
D:\PROGRAM\VISUAL STUDIO COM 2015\VC\INCLUDE\XATOMIC0.H
D:\PROGRAM\VISUAL STUDIO COM 2015\VC\INCLUDE\INTRIN.H
D:\PROGRAM\VISUAL STUDIO COM 2015\VC\INCLUDE\SETJMP.H
D:\PROGRAM\VISUAL STUDIO COM 2015\VC\INCLUDE\IMMINTRIN.H
D:\PROGRAM\VISUAL STUDIO COM 2015\VC\INCLUDE\WMMINTRIN.H
D:\PROGRAM\VISUAL STUDIO COM 2015\VC\INCLUDE\NMMINTRIN.H
D:\PROGRAM\VISUAL STUDIO COM 2015\VC\INCLUDE\SMMINTRIN.H
D:\PROGRAM\VISUAL STUDIO COM 2015\VC\INCLUDE\TMMINTRIN.H
D:\PROGRAM\VISUAL STUDIO COM 2015\VC\INCLUDE\PMMINTRIN.H
D:\PROGRAM\VISUAL STUDIO COM 2015\VC\INCLUDE\AMMINTRIN.H
D:\PROGRAM\VISUAL STUDIO COM 2015\VC\INCLUDE\TYPEINFO
D:\PROGRAM\VISUAL STUDIO COM 2015\VC\INCLUDE\VCRUNTIME_TYPEINFO.H
D:\PROGRAM\VISUAL STUDIO COM 2015\VC\INCLUDE\XLOCINFO
D:\PROGRAM\VISUAL STUDIO COM 2015\VC\INCLUDE\XLOCINFO.H
C:\PROGRAM FILES (X86)\WINDOWS KITS\10\INCLUDE\10.0.10586.0\UCRT\CTYPE.H
C:\PROGRAM FILES (X86)\WINDOWS KITS\10\INCLUDE\10.0.10586.0\UCRT\LOCALE.H
D:\PROGRAM\VISUAL STUDIO COM 2015\VC\INCLUDE\XFACET
D:\PROGRAM\VISUAL STUDIO COM 2015\VC\INCLUDE\SYSTEM_ERROR
D:\PROGRAM\VISUAL STUDIO COM 2015\VC\INCLUDE\CERRNO
C:\PROGRAM FILES (X86)\WINDOWS KITS\10\INCLUDE\10.0.10586.0\UCRT\SHARE.H
^E:\PROGRAMMING\BULLET PHYSICS\BULLET3-2.83.7\EXTRAS\SERIALIZE\BULLETXMLWORLDIMPORTER\TINYXML.CPP
C:\PROGRAM FILES (X86)\WINDOWS KITS\10\INCLUDE\10.0.10586.0\UCRT\CTYPE.H
C:\PROGRAM FILES (X86)\WINDOWS KITS\10\INCLUDE\10.0.10586.0\UCRT\CORECRT.H
D:\PROGRAM\VISUAL STUDIO COM 2015\VC\INCLUDE\VCRUNTIME.H
D:\PROGRAM\VISUAL STUDIO COM 2015\VC\INCLUDE\SAL.H
D:\PROGRAM\VISUAL STUDIO COM 2015\VC\INCLUDE\CONCURRENCYSAL.H
D:\PROGRAM\VISUAL STUDIO COM 2015\VC\INCLUDE\VADEFS.H
C:\PROGRAM FILES (X86)\WINDOWS KITS\10\INCLUDE\10.0.10586.0\UCRT\CORECRT_WCTYPE.H
E:\PROGRAMMING\BULLET PHYSICS\BULLET3-2.83.7\EXTRAS\SERIALIZE\BULLETXMLWORLDIMPORTER\TINYXML.H
C:\PROGRAM FILES (X86)\WINDOWS KITS\10\INCLUDE\10.0.10586.0\UCRT\STDIO.H
C:\PROGRAM FILES (X86)\WINDOWS KITS\10\INCLUDE\10.0.10586.0\UCRT\CORECRT_WSTDIO.H
C:\PROGRAM FILES (X86)\WINDOWS KITS\10\INCLUDE\10.0.10586.0\UCRT\CORECRT_STDIO_CONFIG.H
C:\PROGRAM FILES (X86)\WINDOWS KITS\10\INCLUDE\10.0.10586.0\UCRT\STDLIB.H
C:\PROGRAM FILES (X86)\WINDOWS KITS\10\INCLUDE\10.0.10586.0\UCRT\CORECRT_MALLOC.H
C:\PROGRAM FILES (X86)\WINDOWS KITS\10\INCLUDE\10.0.10586.0\UCRT\CORECRT_SEARCH.H
C:\PROGRAM FILES (X86)\WINDOWS KITS\10\INCLUDE\10.0.10586.0\UCRT\STDDEF.H
C:\PROGRAM FILES (X86)\WINDOWS KITS\10\INCLUDE\10.0.10586.0\UCRT\CORECRT_WSTDLIB.H
D:\PROGRAM\VISUAL STUDIO COM 2015\VC\INCLUDE\LIMITS.H
C:\PROGRAM FILES (X86)\WINDOWS KITS\10\INCLUDE\10.0.10586.0\UCRT\STRING.H
C:\PROGRAM FILES (X86)\WINDOWS KITS\10\INCLUDE\10.0.10586.0\UCRT\CORECRT_MEMORY.H
C:\PROGRAM FILES (X86)\WINDOWS KITS\10\INCLUDE\10.0.10586.0\UCRT\CORECRT_MEMCPY_S.H
C:\PROGRAM FILES (X86)\WINDOWS KITS\10\INCLUDE\10.0.10586.0\UCRT\ERRNO.H
D:\PROGRAM\VISUAL STUDIO COM 2015\VC\INCLUDE\VCRUNTIME_STRING.H
C:\PROGRAM FILES (X86)\WINDOWS KITS\10\INCLUDE\10.0.10586.0\UCRT\CORECRT_WSTRING.H
C:\PROGRAM FILES (X86)\WINDOWS KITS\10\INCLUDE\10.0.10586.0\UCRT\ASSERT.H
E:\PROGRAMMING\BULLET PHYSICS\BULLET3-2.83.7\EXTRAS\SERIALIZE\BULLETXMLWORLDIMPORTER\TINYSTR.H
^E:\PROGRAMMING\BULLET PHYSICS\BULLET3-2.83.7\EXTRAS\SERIALIZE\BULLETXMLWORLDIMPORTER\TINYSTR.CPP
E:\PROGRAMMING\BULLET PHYSICS\BULLET3-2.83.7\EXTRAS\SERIALIZE\BULLETXMLWORLDIMPORTER\TINYSTR.H
C:\PROGRAM FILES (X86)\WINDOWS KITS\10\INCLUDE\10.0.10586.0\UCRT\ASSERT.H
C:\PROGRAM FILES (X86)\WINDOWS KITS\10\INCLUDE\10.0.10586.0\UCRT\CORECRT.H
D:\PROGRAM\VISUAL STUDIO COM 2015\VC\INCLUDE\VCRUNTIME.H
D:\PROGRAM\VISUAL STUDIO COM 2015\VC\INCLUDE\SAL.H
D:\PROGRAM\VISUAL STUDIO COM 2015\VC\INCLUDE\CONCURRENCYSAL.H
D:\PROGRAM\VISUAL STUDIO COM 2015\VC\INCLUDE\VADEFS.H
C:\PROGRAM FILES (X86)\WINDOWS KITS\10\INCLUDE\10.0.10586.0\UCRT\STRING.H
C:\PROGRAM FILES (X86)\WINDOWS KITS\10\INCLUDE\10.0.10586.0\UCRT\CORECRT_MEMORY.H
C:\PROGRAM FILES (X86)\WINDOWS KITS\10\INCLUDE\10.0.10586.0\UCRT\CORECRT_MEMCPY_S.H
C:\PROGRAM FILES (X86)\WINDOWS KITS\10\INCLUDE\10.0.10586.0\UCRT\ERRNO.H
D:\PROGRAM\VISUAL STUDIO COM 2015\VC\INCLUDE\VCRUNTIME_STRING.H
C:\PROGRAM FILES (X86)\WINDOWS KITS\10\INCLUDE\10.0.10586.0\UCRT\CORECRT_WSTRING.H
^E:\PROGRAMMING\BULLET PHYSICS\BULLET3-2.83.7\EXTRAS\SERIALIZE\BULLETXMLWORLDIMPORTER\TINYXMLERROR.CPP
E:\PROGRAMMING\BULLET PHYSICS\BULLET3-2.83.7\EXTRAS\SERIALIZE\BULLETXMLWORLDIMPORTER\TINYXML.H
C:\PROGRAM FILES (X86)\WINDOWS KITS\10\INCLUDE\10.0.10586.0\UCRT\CTYPE.H
C:\PROGRAM FILES (X86)\WINDOWS KITS\10\INCLUDE\10.0.10586.0\UCRT\CORECRT.H
D:\PROGRAM\VISUAL STUDIO COM 2015\VC\INCLUDE\VCRUNTIME.H
D:\PROGRAM\VISUAL STUDIO COM 2015\VC\INCLUDE\SAL.H
D:\PROGRAM\VISUAL STUDIO COM 2015\VC\INCLUDE\CONCURRENCYSAL.H
D:\PROGRAM\VISUAL STUDIO COM 2015\VC\INCLUDE\VADEFS.H
C:\PROGRAM FILES (X86)\WINDOWS KITS\10\INCLUDE\10.0.10586.0\UCRT\CORECRT_WCTYPE.H
C:\PROGRAM FILES (X86)\WINDOWS KITS\10\INCLUDE\10.0.10586.0\UCRT\STDIO.H
C:\PROGRAM FILES (X86)\WINDOWS KITS\10\INCLUDE\10.0.10586.0\UCRT\CORECRT_WSTDIO.H
C:\PROGRAM FILES (X86)\WINDOWS KITS\10\INCLUDE\10.0.10586.0\UCRT\CORECRT_STDIO_CONFIG.H
C:\PROGRAM FILES (X86)\WINDOWS KITS\10\INCLUDE\10.0.10586.0\UCRT\STDLIB.H
C:\PROGRAM FILES (X86)\WINDOWS KITS\10\INCLUDE\10.0.10586.0\UCRT\CORECRT_MALLOC.H
C:\PROGRAM FILES (X86)\WINDOWS KITS\10\INCLUDE\10.0.10586.0\UCRT\CORECRT_SEARCH.H
C:\PROGRAM FILES (X86)\WINDOWS KITS\10\INCLUDE\10.0.10586.0\UCRT\STDDEF.H
C:\PROGRAM FILES (X86)\WINDOWS KITS\10\INCLUDE\10.0.10586.0\UCRT\CORECRT_WSTDLIB.H
D:\PROGRAM\VISUAL STUDIO COM 2015\VC\INCLUDE\LIMITS.H
C:\PROGRAM FILES (X86)\WINDOWS KITS\10\INCLUDE\10.0.10586.0\UCRT\STRING.H
C:\PROGRAM FILES (X86)\WINDOWS KITS\10\INCLUDE\10.0.10586.0\UCRT\CORECRT_MEMORY.H
C:\PROGRAM FILES (X86)\WINDOWS KITS\10\INCLUDE\10.0.10586.0\UCRT\CORECRT_MEMCPY_S.H
C:\PROGRAM FILES (X86)\WINDOWS KITS\10\INCLUDE\10.0.10586.0\UCRT\ERRNO.H
D:\PROGRAM\VISUAL STUDIO COM 2015\VC\INCLUDE\VCRUNTIME_STRING.H
C:\PROGRAM FILES (X86)\WINDOWS KITS\10\INCLUDE\10.0.10586.0\UCRT\CORECRT_WSTRING.H
C:\PROGRAM FILES (X86)\WINDOWS KITS\10\INCLUDE\10.0.10586.0\UCRT\ASSERT.H
E:\PROGRAMMING\BULLET PHYSICS\BULLET3-2.83.7\EXTRAS\SERIALIZE\BULLETXMLWORLDIMPORTER\TINYSTR.H
^E:\PROGRAMMING\BULLET PHYSICS\BULLET3-2.83.7\EXTRAS\SERIALIZE\BULLETXMLWORLDIMPORTER\TINYXMLPARSER.CPP
C:\PROGRAM FILES (X86)\WINDOWS KITS\10\INCLUDE\10.0.10586.0\UCRT\CTYPE.H
C:\PROGRAM FILES (X86)\WINDOWS KITS\10\INCLUDE\10.0.10586.0\UCRT\CORECRT.H
D:\PROGRAM\VISUAL STUDIO COM 2015\VC\INCLUDE\VCRUNTIME.H
D:\PROGRAM\VISUAL STUDIO COM 2015\VC\INCLUDE\SAL.H
D:\PROGRAM\VISUAL STUDIO COM 2015\VC\INCLUDE\CONCURRENCYSAL.H
D:\PROGRAM\VISUAL STUDIO COM 2015\VC\INCLUDE\VADEFS.H
C:\PROGRAM FILES (X86)\WINDOWS KITS\10\INCLUDE\10.0.10586.0\UCRT\CORECRT_WCTYPE.H
C:\PROGRAM FILES (X86)\WINDOWS KITS\10\INCLUDE\10.0.10586.0\UCRT\STDDEF.H
E:\PROGRAMMING\BULLET PHYSICS\BULLET3-2.83.7\EXTRAS\SERIALIZE\BULLETXMLWORLDIMPORTER\TINYXML.H
C:\PROGRAM FILES (X86)\WINDOWS KITS\10\INCLUDE\10.0.10586.0\UCRT\STDIO.H
C:\PROGRAM FILES (X86)\WINDOWS KITS\10\INCLUDE\10.0.10586.0\UCRT\CORECRT_WSTDIO.H
C:\PROGRAM FILES (X86)\WINDOWS KITS\10\INCLUDE\10.0.10586.0\UCRT\CORECRT_STDIO_CONFIG.H
C:\PROGRAM FILES (X86)\WINDOWS KITS\10\INCLUDE\10.0.10586.0\UCRT\STDLIB.H
C:\PROGRAM FILES (X86)\WINDOWS KITS\10\INCLUDE\10.0.10586.0\UCRT\CORECRT_MALLOC.H
C:\PROGRAM FILES (X86)\WINDOWS KITS\10\INCLUDE\10.0.10586.0\UCRT\CORECRT_SEARCH.H
C:\PROGRAM FILES (X86)\WINDOWS KITS\10\INCLUDE\10.0.10586.0\UCRT\CORECRT_WSTDLIB.H
D:\PROGRAM\VISUAL STUDIO COM 2015\VC\INCLUDE\LIMITS.H
C:\PROGRAM FILES (X86)\WINDOWS KITS\10\INCLUDE\10.0.10586.0\UCRT\STRING.H
C:\PROGRAM FILES (X86)\WINDOWS KITS\10\INCLUDE\10.0.10586.0\UCRT\CORECRT_MEMORY.H
C:\PROGRAM FILES (X86)\WINDOWS KITS\10\INCLUDE\10.0.10586.0\UCRT\CORECRT_MEMCPY_S.H
C:\PROGRAM FILES (X86)\WINDOWS KITS\10\INCLUDE\10.0.10586.0\UCRT\ERRNO.H
D:\PROGRAM\VISUAL STUDIO COM 2015\VC\INCLUDE\VCRUNTIME_STRING.H
C:\PROGRAM FILES (X86)\WINDOWS KITS\10\INCLUDE\10.0.10586.0\UCRT\CORECRT_WSTRING.H
C:\PROGRAM FILES (X86)\WINDOWS KITS\10\INCLUDE\10.0.10586.0\UCRT\ASSERT.H
E:\PROGRAMMING\BULLET PHYSICS\BULLET3-2.83.7\EXTRAS\SERIALIZE\BULLETXMLWORLDIMPORTER\TINYSTR.H
