^E:\PROGRAMMING\BULLET PHYSICS\BUILDS\TEST\GTEST-1.7.0\GTEST.DIR\RELEASE\GTEST-ALL.OBJ
C:\WINDOWS\GLOBALIZATION\SORTING\SORTDEFAULT.NLS
E:\PROGRAMMING\BULLET PHYSICS\BUILDS\TEST\GTEST-1.7.0\GTEST.DIR\RELEASE\GTEST-ALL.OBJ
C:\WINDOWS\SYSTEM32\TZRES.DLL
